episode,score,epsilon,collision,telecome_reward,transport_reward,average_speed,ho_density,reward
1,-4.0,1.0,False,0,3.0,0.0,1,3.0
2,-4.0,0.995,False,0,-4.0,0.0,1,-4.0
3,-4.0,0.990025,False,0,-1.6,0.0,1,-1.6
4,-4.0,0.985074875,False,0,2.0,0.0,1,2.0
5,-4.0,0.9801495006250001,True,0,-994.0,0.0,1,-994.0
1,-4.0,0.9752487531218751,True,56,-997.6,0.0,0,-941.6
2,-4.0,0.9703725093562657,True,544,-1003.6,0.0,0,-459.6
3,-4.0,0.9655206468094844,True,186,-998.1,0.0,0,-812.1
4,-4.0,0.960693043575437,False,770,-0.1,0.0,0,769.9
5,-4.0,0.9558895783575597,True,328,-996.1,0.0,0,-668.1
