,DR__ep,ho_den,Reward,R_tele,R_tran,score_,speed_,tele_r,total_,tran_r
0,142800000.0,0.0051282,-948.59,51.409,-1000.0,-3.805,39.0,101.88,-105.52,-207.4
1,314480000.0,0.0034662,-869.7,121.3,-991.0,-3.7115,41.214,91.791,-54.566,-146.36
2,1259600000.0,0.0098039,-629.12,377.88,-1007.0,-3.898,34.0,22.748,-321.59,-344.33
3,460410000.0,0.0029412,-809.72,181.28,-991.0,-3.66,42.5,53.247,-71.753,-125.0
4,848020000.0,0.006192,-706.21,305.29,-1011.5,-3.8385,32.3,42.724,-169.38,-212.1
5,1031600000.0,0.0095238,-698.52,309.48,-1008.0,-3.895,35.0,29.102,-316.23,-345.33
6,89626000.0,0.0051546,-975.04,33.963,-1009.0,-3.418,30.632,7804.3,7739.8,-64.526
7,,,,,,,,,,
8,672990000.0,0.0041322,-741.63,252.37,-994.0,-3.758,40.333,2552.3,2381.9,-170.33
9,1100100000.0,0.013158,-755.49,247.51,-1003.0,-3.848,38.0,10.331,-248.17,-258.5
10,436530000.0,0.003367,-838.39,174.61,-1013.0,-3.703,33.0,61.244,-61.201,-122.44
11,265780000.0,0.0029412,-884.35,104.65,-989.0,-3.66,42.5,65.544,-59.081,-124.62
12,633160000.0,0.0069444,-791.31,213.69,-1005.0,-3.856,36.0,46.353,-212.9,-259.25
13,259340000.0,0.0067039,-911.81,81.693,-993.5,-3.5525,44.75,42.787,-54.463,-97.25
14,338970000.0,0.0061602,-881.06,110.94,-992.0,-3.513,44.273,102.99,13.173,-89.818
15,546420000.0,0.012245,-867.06,122.94,-990.0,-3.755,40.833,23.91,-145.76,-169.67
16,391880000.0,0.0021097,-838.35,161.65,-1000.0,-3.526,39.5,62.63,-25.12,-87.75
17,803490000.0,0.015789,-856.37,144.63,-1001.0,-3.81,38.0,7.3108,-200.09,-207.4
18,904390000.0,0.0068966,-698.27,305.23,-1003.5,-3.855,36.25,36.363,-222.64,-259.0
19,980070000.0,0.0069444,-674.23,330.77,-1005.0,-3.856,36.0,42.258,-217.24,-259.5
20,524500000.0,0.0034483,-788.69,202.31,-991.0,-3.71,41.429,36.837,-107.88,-144.71
21,367950000.0,0.005,-865.54,132.46,-998.0,-3.8,40.0,89.97,-114.83,-204.8
22,1011700000.0,0.0092593,-700.5,303.5,-1004.0,-3.892,36.0,20.331,-322.34,-342.67
23,321340000.0,0.0061538,-889.34,105.16,-994.5,-3.5125,44.318,90.654,0.60892,-90.045
24,529030000.0,0.0035398,-787.94,204.06,-992.0,-3.7175,40.357,53.501,-92.57,-146.07
25,,,,,,,,,,
26,697930000.0,0.0061728,-757.75,251.25,-1009.0,-3.838,32.4,1081.7,870.06,-211.6
27,215980000.0,0.0078947,-935.11,72.894,-1008.0,-3.62,31.667,45.07,-50.097,-95.167
28,585290000.0,0.0041667,-775.52,219.48,-995.0,-3.76,40.0,36.687,-133.81,-170.5
29,732550000.0,0.0065789,-755.76,247.24,-1003.0,-3.848,38.0,36.721,-222.03,-258.75
30,619000000.0,0.0052356,-775.16,222.84,-998.0,-3.809,38.2,2242.2,2036.2,-206.0
31,171790000.0,0.0041667,-932.58,64.423,-997.0,-3.76,40.0,110.71,-61.455,-172.17
32,,,,,,,,,,
33,811250000.0,0.0096618,-765.12,243.38,-1008.5,-3.8965,34.5,41.553,-302.95,-344.5
34,448910000.0,0.0088235,-862.74,126.26,-989.0,-3.66,42.5,69.205,-55.795,-125.0
35,538640000.0,0.0053476,-807.59,193.91,-1001.5,-3.813,37.4,32.271,-174.13,-206.4
36,625690000.0,0.0081633,-801.29,187.71,-989.0,-3.755,40.833,38.365,-131.14,-169.5
37,,,,,,,,,,
38,319420000.0,0.0093897,-907.67,95.826,-1003.5,-3.8935,35.5,36.527,-305.97,-342.5
39,357890000.0,0.004717,-878.79,134.21,-1013.0,-3.788,35.333,44.693,-132.31,-177.0
40,790870000.0,0.0071429,-736.08,266.92,-1003.0,-3.86,35.0,2582.6,2323.4,-259.25
41,112640000.0,0.0019286,-945.54,46.462,-992.0,-3.4815,43.208,1401.6,1319.3,-82.292
42,536630000.0,0.0070053,-819.51,172.49,-992.0,-3.7145,40.786,17.39,-128.25,-145.64
43,731640000.0,0.013158,-838.38,164.62,-1003.0,-3.848,38.0,47.183,-211.32,-258.5
44,358130000.0,0.0032258,-869.75,143.25,-1013.0,-3.69,34.444,35.65,-85.906,-121.56
45,295720000.0,0.005102,-896.1,110.9,-1007.0,-3.804,32.667,1270.9,1093.4,-177.5
46,,,,,,,,,,
47,581050000.0,0.0077519,-814.4,196.1,-1010.5,-3.871,32.25,35.15,-226.1,-261.25
48,331730000.0,0.0017079,-857.7,137.8,-995.5,-3.4145,45.038,578.19,503.92,-74.269
49,495170000.0,0.01,-864.3,133.7,-998.0,-3.8,40.0,47.498,-157.3,-204.8
50,446390000.0,0.0035714,-833.23,175.77,-1009.0,-3.72,35.0,47.719,-87.656,-135.38
51,918870000.0,0.021978,-925.3,82.698,-1008.0,-3.818,36.4,0.6543,-207.35,-208.0
52,391200000.0,0.0043668,-859.11,150.89,-1010.0,-3.771,32.714,6090.0,5936.8,-153.14
53,364420000.0,0.0054496,-872.31,131.19,-1003.5,-3.8165,36.7,75.484,-132.42,-207.9
54,540360000.0,0.0052632,-806.47,194.53,-1001.0,-3.81,38.0,28.757,-178.44,-207.2
55,884250000.0,0.0075758,-708.56,298.44,-1007.0,-3.868,33.0,5620.2,5360.9,-259.25
56,1294600000.0,0.0068259,-564.58,436.92,-1001.5,-3.8535,36.625,27.915,-230.96,-258.88
57,332640000.0,0.0024213,-862.42,136.08,-998.5,-3.587,37.545,63.145,-34.31,-97.455
58,143940000.0,0.0035211,-949.43,57.574,-1007.0,-3.432,31.556,3037.9,2972.9,-64.944
59,125120000.0,0.0077519,-964.1,42.9,-1007.0,-3.355,30.714,1306.3,1248.2,-58.095
60,157880000.0,0.0044248,-944.6,60.898,-1005.5,-3.774,32.286,518.3,365.02,-153.29
61,224810000.0,0.0045977,-923.79,86.714,-1010.5,-3.7825,31.071,148.94,-5.5598,-154.5
62,,,,,,,,,,
63,770510000.0,0.005,-717.06,288.94,-1006.0,-3.8,33.333,60.533,-116.63,-177.17
64,78383000.0,0.003096,-979.76,31.745,-1011.5,-3.677,32.3,3789.5,3681.8,-107.7
65,244470000.0,0.0029112,-911.99,100.01,-1012.0,-3.6565,31.227,1650.7,1548.4,-102.23
66,193130000.0,0.0030864,-926.25,77.253,-1003.5,-3.352,36.0,1130.9,1069.7,-61.222
67,134150000.0,0.0060606,-955.21,48.293,-1003.5,-3.835,33.0,58.649,-149.75,-208.4
68,251270000.0,0.01034,-927.12,75.382,-1002.5,-3.323,32.238,36.597,-20.355,-56.952
69,78267000.0,0.0045851,18.689,30.189,-11.5,-2.9095,31.157,2119.6,2109.9,-9.7286
70,74915000.0,0.0063752,16.97,26.97,-10.0,-2.902,31.371,1489.1,1479.4,-9.6857
71,114890000.0,0.0049383,-968.06,43.944,-1012.0,-3.3925,30.375,294.61,232.84,-61.775
72,115270000.0,0.00091449,39.39,50.39,-11.0,-2.9065,31.243,1917.4,1907.2,-10.129
73,378300000.0,0.0026882,-851.95,156.05,-1008.0,-3.628,31.0,1400.3,1306.3,-94.0
74,394060000.0,0.0037037,-855.37,157.63,-1013.0,-3.73,30.0,1921.7,1800.3,-121.44
75,258910000.0,0.0021739,-904.26,108.74,-1013.0,-3.54,30.667,4420.4,4343.4,-77.0
76,250440000.0,0.0060362,-912.93,91.567,-1004.5,-3.503,31.062,7245.1,7172.3,-72.812
77,95810000.0,0.0053571,-971.07,35.929,-1007.0,-3.44,31.111,4721.5,4655.5,-66.0
78,37089000.0,0.0046189,4.3056,14.306,-10.0,-2.9175,30.929,5393.5,5384.3,-9.2143
79,175530000.0,0.017032,-974.04,36.455,-1010.5,-3.589,31.615,1204.0,1115.4,-88.692
80,51719000.0,0.0027752,11.279,21.279,-10.0,-2.919,30.886,777.41,767.7,-9.7143
81,473240000.0,0.0088235,-854.93,149.07,-1004.0,-3.66,34.0,4821.8,4713.7,-108.1
82,89390000.0,0.0070796,-967.83,30.169,-998.0,-3.435,35.312,1773.2,1705.0,-68.188
83,143030000.0,0.0056529,-955.13,52.869,-1008.0,-3.1155,31.589,5002.8,4957.9,-44.946
84,107960000.0,0.0046555,30.642,41.642,-11.0,-2.926,30.686,7949.9,7940.0,-9.9143
85,389260000.0,0.014019,-912.91,100.09,-1013.0,-3.786,30.571,285.42,130.42,-155.0
86,75713000.0,0.0037383,20.177,30.177,-10.0,-2.93,30.571,3752.2,3742.6,-9.6
87,,,,,,,,,,
88,50120000.0,0.0083838,8.2545,16.755,-8.5,-2.9265,30.671,5062.6,5052.4,-10.214
89,104970000.0,0.0078247,-976.57,35.427,-1012.0,-3.361,31.95,1643.3,1585.8,-57.5
90,100930000.0,0.0028396,30.525,41.525,-11.0,-2.9435,30.186,1165.4,1154.2,-11.186
91,213510000.0,0.006867,-936.15,75.854,-1012.0,-3.4175,30.658,1533.5,1469.7,-63.868
92,153530000.0,0.0014388,-938.7,65.798,-1004.5,-3.305,33.095,1901.2,1846.4,-54.81
93,325710000.0,0.0028902,-877.76,133.24,-1011.0,-3.654,31.455,3322.9,3222.2,-100.64
94,66377000.0,0.0027881,17.81,27.31,-9.5,-2.924,30.743,5721.9,5711.3,-10.6
95,351590000.0,0.002849,-862.67,143.83,-1006.5,-3.649,31.909,1573.8,1473.4,-100.36
96,93737000.0,0.0027804,37.066,38.566,-1.5,-2.921,30.829,4631.6,4621.8,-9.8
97,419220000.0,0.0054348,-855.79,157.21,-1013.0,-3.816,30.667,2423.8,2245.0,-178.83
98,83418000.0,0.00090498,37.465,36.465,1.0,-2.895,31.571,5024.1,5014.3,-9.8286
99,129740000.0,0.0032468,-954.46,52.544,-1007.0,-3.692,30.8,90.349,-20.551,-110.9
100,66336000.0,0.0042674,-979.54,25.957,-1005.5,-3.297,30.565,655.38,601.16,-54.217
101,100990000.0,0.0056338,-972.08,37.425,-1009.5,-3.4675,31.324,714.65,645.56,-69.088
102,,,,,,,,,,
103,274360000.0,0.015228,-945.27,61.731,-1007.0,-3.803,32.833,53.849,-121.82,-175.67
104,88240000.0,0.0056657,23.901,32.901,-9.0,-2.941,30.257,617.89,608.75,-9.1429
105,126120000.0,0.0027113,40.888,51.888,-11.0,-2.8935,31.614,2086.3,2076.4,-9.8429
106,312980000.0,0.0064725,-897.33,112.67,-1010.0,-3.5365,30.9,1725.1,1648.6,-76.5
107,933750000.0,0.0071685,-690.36,315.14,-1005.5,-3.8605,34.875,22.56,-235.81,-258.38
108,,,,,,,,,,
109,,,,,,,,,,
110,105720000.0,0.0038785,-965.37,41.628,-1007.0,-3.2265,32.229,2501.4,2450.5,-50.979
111,105640000.0,0.0028355,30.465,43.465,-13.0,-2.942,30.229,1108.7,1097.7,-11.057
112,83669000.0,0.0028436,24.424,34.424,-10.0,-2.945,30.143,386.49,376.14,-10.343
113,109120000.0,0.0071633,-971.07,38.43,-1009.5,-3.302,30.348,687.69,634.13,-53.565
114,152390000.0,0.0021575,-946.5,64.003,-1010.5,-3.5365,30.9,1509.5,1432.3,-77.167
115,98686000.0,0.0028116,32.102,40.602,-8.5,-2.933,30.486,378.9,367.45,-11.457
116,365490000.0,0.0042735,-864.02,140.98,-1005.0,-3.766,33.429,1596.2,1443.3,-152.86
117,149790000.0,0.0021482,-941.59,62.912,-1004.5,-3.5345,31.033,1846.9,1770.8,-76.1
118,171320000.0,0.010487,-957.6,51.397,-1009.0,-3.3325,31.786,1417.3,1359.4,-57.881
119,870180000.0,0.018519,-850.37,156.63,-1007.0,-3.838,32.4,1155.4,945.8,-209.6
120,148410000.0,0.0055371,-952.73,55.27,-1008.0,-3.097,31.138,3234.3,3188.3,-45.966
121,583110000.0,0.009901,-832.57,174.93,-1007.5,-3.798,33.667,1651.7,1475.0,-176.67
122,1100000000.0,0.0098039,-678.01,329.99,-1008.0,-3.898,34.0,33.631,-310.04,-343.67
123,270250000.0,0.0026846,-896.02,111.48,-1007.5,-3.6275,31.042,2077.4,1984.7,-92.708
124,82481000.0,0.0037418,22.875,32.875,-10.0,-2.931,30.543,1511.7,1501.9,-9.8286
125,74505000.0,0.0047281,21.238,28.738,-7.5,-2.9425,30.214,507.26,497.76,-9.5
126,102370000.0,0.0047037,28.484,39.484,-11.0,-2.937,30.371,431.29,420.29,-11.0
127,145080000.0,0.00094652,52.421,63.421,-11.0,-2.9435,30.186,882.98,872.54,-10.443
128,389630000.0,0.0067114,-872.74,137.76,-1010.5,-3.553,31.929,1787.3,1706.6,-80.714
129,83394000.0,0.0046447,23.166,32.166,-9.0,-2.9235,30.757,997.9,987.89,-10.014
130,1702600000.0,0.022222,-754.62,255.38,-1010.0,-3.91,30.0,31.471,-311.86,-343.33
131,34628000.0,0.004717,4.3567,13.357,-9.0,-2.94,30.286,1690.2,1680.6,-9.5714
132,316490000.0,0.0032626,-882.32,128.18,-1010.5,-3.6935,30.65,1985.4,1873.4,-111.95
133,147820000.0,0.0046707,45.016,57.016,-12.0,-2.9295,30.586,784.13,773.23,-10.9
134,121290000.0,0.0028156,38.902,49.902,-11.0,-2.9345,30.443,934.17,923.72,-10.443
135,28689000.0,0.0075829,-3.0407,9.9593,-13.0,-2.945,30.143,3880.6,3870.2,-10.457
136,81305000.0,0.00094652,24.542,35.542,-11.0,-2.9435,30.186,1347.0,1337.1,-9.8429
137,64104000.0,0.00094206,17.023,28.023,-11.0,-2.9385,30.329,511.72,500.65,-11.071
138,134690000.0,0.0066508,38.487,48.487,-10.0,-2.9475,30.071,1255.1,1245.1,-9.9857
139,153590000.0,0.0056657,45.266,57.266,-12.0,-2.941,30.257,45.734,33.791,-11.943
140,102840000.0,0.0029791,-966.93,42.07,-1009.0,-2.993,30.515,261.19,220.53,-40.667
141,117090000.0,0.0048426,-964.79,44.709,-1009.5,-2.9675,31.288,1022.1,981.37,-40.712
142,83140000.0,0.0028116,22.206,34.206,-12.0,-2.933,30.486,84.855,74.912,-9.9429
143,97939000.0,0.0013841,-970.76,42.236,-1013.0,-3.2775,30.104,81.986,31.007,-50.979
144,841820000.0,0.016667,-822.59,189.41,-1012.0,-3.82,30.0,15.471,-161.53,-177.0
145,70513000.0,0.0046948,15.198,27.198,-12.0,-2.935,30.429,853.63,842.75,-10.886
146,71099000.0,0.0029718,-980.41,29.086,-1009.5,-3.6635,30.591,196.18,94.313,-101.86
147,616490000.0,0.0037383,-760.26,242.74,-1003.0,-3.7325,33.438,783.53,650.1,-133.44
148,178710000.0,0.00098087,-924.93,77.067,-1002.0,-2.9805,42.479,1219.9,1180.3,-39.646
149,103410000.0,0.0066508,27.227,37.227,-10.0,-2.9475,30.071,419.85,409.81,-10.043
150,244040000.0,0.0026846,-908.84,100.66,-1009.5,-3.6275,31.042,6576.8,6482.4,-94.375
151,120690000.0,0.0014164,-957.05,51.948,-1009.0,-3.294,30.696,2213.7,2159.4,-54.348
152,164930000.0,0.001506,-941.15,70.846,-1012.0,-3.336,30.182,970.02,913.43,-56.591
153,60387000.0,0.00661,9.7391,21.739,-12.0,-2.941,30.257,396.66,386.66,-10.0
154,97052000.0,0.0047619,26.435,37.435,-11.0,-2.95,30.0,926.28,915.28,-11.0
155,116020000.0,0.0028571,36.734,47.734,-11.0,-2.95,30.0,579.94,568.94,-11.0
156,61642000.0,0.0027714,15.361,25.361,-10.0,-2.9175,30.929,8139.6,8131.3,-8.3286
157,663770000.0,0.010811,-810.37,199.13,-1009.5,-3.9075,30.833,40.507,-303.33,-343.83
158,81649000.0,0.0028571,22.593,33.593,-11.0,-2.95,30.0,486.45,475.54,-10.914
159,514380000.0,0.0078125,-835.4,173.6,-1009.0,-3.872,32.0,59.144,-201.11,-260.25
160,91513000.0,0.0046447,24.298,35.298,-11.0,-2.9235,30.757,1983.0,1972.6,-10.357
161,330950000.0,0.010638,-912.71,99.285,-1012.0,-3.906,31.333,95.424,-249.24,-344.67
162,14931000.0,0.00095012,-4.473,6.527,-11.0,-2.9475,30.071,2977.4,2966.5,-10.929
163,118790000.0,0.0028436,37.874,48.874,-11.0,-2.945,30.143,1137.2,1125.6,-11.543
164,37387000.0,0.0028436,4.3821,15.382,-11.0,-2.945,30.143,1005.4,994.77,-10.629
165,65568000.0,0.00095012,18.663,28.663,-10.0,-2.9475,30.071,405.7,395.83,-9.8714
166,347280000.0,0.0031646,-861.09,138.91,-1000.0,-3.684,35.111,81.11,-36.335,-117.44
167,13472000.0,0.00095238,-3.1108,5.8892,-9.0,-2.95,30.0,1176.9,1167.9,-9.0
168,253380000.0,0.0035971,-910.65,101.35,-1012.0,-3.722,30.889,1189.6,1068.0,-121.56
169,102960000.0,0.0014925,-967.78,44.224,-1012.0,-3.33,30.455,166.71,109.99,-56.727
170,148890000.0,0.0066414,43.601,53.601,-10.0,-2.946,30.114,1237.8,1227.8,-10.029
171,125760000.0,0.0042328,-962.71,49.288,-1012.0,-3.055,30.484,8899.2,8857.0,-42.194
172,110710000.0,0.0044883,33.702,42.702,-9.0,-2.886,31.829,3734.6,3725.3,-9.2286
173,650400000.0,0.022727,-935.83,73.17,-1009.0,-3.868,33.0,874.94,613.44,-261.5
174,106240000.0,0.0028156,33.711,43.711,-10.0,-2.9345,30.443,961.53,951.2,-10.329
175,105470000.0,0.0028463,32.393,43.393,-11.0,-2.946,30.114,1329.6,1318.6,-11.029
176,207200000.0,0.01105,-948.84,62.16,-1011.0,-3.5475,30.167,65.768,-10.865,-76.633
177,135930000.0,0.00094652,48.423,59.423,-11.0,-2.9435,30.186,1024.9,1013.9,-10.986
178,85139000.0,0.0028289,26.028,35.028,-9.0,-2.9395,30.3,303.71,294.73,-8.9857
179,266740000.0,0.0023447,-900.54,111.46,-1012.0,-3.5735,30.464,865.28,782.6,-82.679
180,105330000.0,0.0027778,32.337,43.337,-11.0,-2.92,30.857,10166.0,10156.0,-9.6857
181,73349000.0,0.00095238,22.064,32.064,-10.0,-2.95,30.0,4267.2,4256.8,-10.4
182,528910000.0,0.011111,-858.99,136.01,-995.0,-3.73,38.571,36.563,-111.72,-148.29
183,41637000.0,0.0066007,5.9894,14.989,-9.0,-2.9395,30.3,1633.3,1624.3,-8.9857
184,84119000.0,0.004583,19.446,32.446,-13.0,-2.909,31.171,396.54,385.14,-11.4
185,1055100000.0,0.023438,-893.3,118.7,-1012.0,-3.872,32.0,0.95068,-260.55,-261.5
186,88289000.0,0.0065944,19.784,31.784,-12.0,-2.9385,30.329,5702.1,5691.5,-10.643
187,,,,,,,,,,
188,262640000.0,0.007362,-920.09,90.913,-1011.0,-3.5925,31.346,2155.2,2069.0,-86.269
189,89829000.0,0.0028571,25.958,36.958,-11.0,-2.95,30.0,426.38,414.81,-11.571
190,111790000.0,0.0018223,-964.57,47.431,-1012.0,-2.9025,31.357,1351.8,1313.4,-38.443
191,77799000.0,0.0047619,21.008,30.008,-9.0,-2.95,30.0,670.76,661.76,-9.0
192,272740000.0,0.0026316,-893.99,112.51,-1006.5,-3.62,31.667,716.83,623.08,-93.75
193,61494000.0,0.00095238,17.882,26.882,-9.0,-2.95,30.0,509.82,500.39,-9.4286
194,25846000.0,0.00094429,2.2986,11.299,-9.0,-2.941,30.257,1137.7,1128.7,-9.0
195,141150000.0,0.004065,-956.42,55.576,-1012.0,-3.262,30.75,96.951,44.826,-52.125
196,64908000.0,0.00094518,17.374,28.374,-11.0,-2.942,30.229,1919.7,1909.9,-9.8
197,370210000.0,0.0075377,-884.85,128.15,-1013.0,-3.602,30.615,56.449,-32.782,-89.231
198,117590000.0,0.0028182,38.379,48.379,-10.0,-2.9355,30.414,299.26,289.22,-10.043
199,127820000.0,0.0051591,-955.63,47.367,-1003.0,-3.4185,34.206,93.942,28.442,-65.5
200,91491000.0,0.0037951,26.466,36.466,-10.0,-2.946,30.114,481.91,471.88,-10.029
201,80559000.0,0.0028355,23.144,33.144,-10.0,-2.942,30.229,1108.5,1098.2,-10.343
202,138650000.0,0.006079,-943.29,47.711,-991.0,-3.342,38.706,2601.5,2539.6,-61.882
203,39358000.0,0.0047438,3.1808,15.181,-12.0,-2.946,30.114,891.82,879.79,-12.029
204,240570000.0,0.016667,-955.87,54.129,-1010.0,-3.58,30.0,1450.4,1369.0,-81.429
205,102190000.0,0.0028423,31.042,42.042,-11.0,-2.9445,30.157,481.88,470.87,-11.014
206,199910000.0,0.0058252,-935.41,74.085,-1009.5,-3.485,30.294,627.53,557.94,-69.588
207,174280000.0,0.0086643,-955.03,57.967,-1013.0,-3.3075,30.109,954.3,900.71,-53.587
208,33079000.0,0.000883,-995.55,14.448,-1010.0,-2.8675,33.309,577.12,538.87,-38.25
209,385910000.0,0.0042194,-850.79,144.71,-995.5,-3.763,39.5,50.064,-120.6,-170.67
210,246880000.0,0.003125,-891.79,97.208,-989.0,-3.68,40.0,49.465,-78.035,-127.5
211,364870000.0,0.0042017,-868.27,140.73,-1009.0,-3.762,34.0,1384.9,1231.2,-153.71
212,812520000.0,0.017241,-857.75,146.25,-1004.0,-3.826,34.8,4.3443,-204.86,-209.2
213,137590000.0,0.0037523,44.841,54.841,-10.0,-2.934,30.457,500.64,490.53,-10.114
214,102460000.0,0.0047326,29.521,39.521,-10.0,-2.9435,30.186,1693.8,1683.6,-10.186
215,161180000.0,0.0057637,-945.77,59.732,-1005.5,-3.4795,30.618,75.03,5.4716,-69.559
216,,,,,,,,,,
217,378080000.0,0.0020661,-835.04,155.96,-991.0,-3.516,40.333,70.361,-15.555,-85.917
218,152340000.0,0.0051064,-952.77,57.729,-1010.5,-3.4125,30.921,97.71,34.262,-63.447
219,637130000.0,0.0065789,-786.97,215.03,-1002.0,-3.848,38.0,52.081,-205.42,-257.5
220,132350000.0,0.004817,-960.05,49.952,-1010.0,-2.962,33.484,1899.5,1858.8,-40.677
221,,,,,,,,,,
222,1264300000.0,0.0098039,-629.71,379.29,-1009.0,-3.898,34.0,23.272,-321.4,-344.67
223,1137800000.0,0.0092593,-664.65,341.35,-1006.0,-3.892,36.0,29.819,-313.51,-343.33
224,898330000.0,0.0098039,-739.5,269.5,-1009.0,-3.898,34.0,27.448,-318.88,-346.33
225,192470000.0,0.010081,-953.45,59.547,-1013.0,-3.504,31.0,180.43,105.31,-75.125
226,187760000.0,0.0026738,-914.9,75.103,-990.0,-3.626,41.556,1037.4,924.69,-112.67
227,68874000.0,0.0044803,22.066,26.566,-4.5,-2.884,31.886,1029.2,1020.3,-8.9429
228,198070000.0,0.0017467,-928.56,84.44,-1013.0,-3.4275,30.132,57.546,-6.1121,-63.658
229,26975000.0,0.0065421,3.7111,9.7111,-6.0,-2.93,30.571,1133.7,1123.9,-9.8857
230,102150000.0,0.00094652,32.653,44.653,-12.0,-2.9435,30.186,541.58,529.51,-12.071
231,504860000.0,0.0037037,-805.27,194.73,-1000.0,-3.73,38.571,54.876,-94.409,-149.29
232,114040000.0,0.0033058,-964.32,46.185,-1010.5,-3.6975,30.25,6248.2,6136.4,-111.85
233,581840000.0,0.0052493,-791.04,209.46,-1000.5,-3.8095,38.1,44.04,-162.46,-206.5
234,,,,,,,,,,
235,13944000.0,0.0028504,-5.2629,5.7371,-11.0,-2.9475,30.071,104.4,93.415,-10.986
236,73131000.0,0.0028423,20.088,30.088,-10.0,-2.9445,30.157,12276.0,12266.0,-10.014
237,47315000.0,0.0047148,9.2502,18.25,-9.0,-2.9395,30.3,955.99,946.95,-9.0429
238,403120000.0,0.0033113,-846.75,161.25,-1008.0,-3.698,33.556,930.95,809.95,-121.0
239,116400000.0,0.0027397,37.391,47.891,-10.5,-2.905,31.286,2202.8,2193.3,-9.4571
240,862520000.0,0.0042373,-672.55,323.45,-996.0,-3.764,39.333,3261.6,3090.1,-171.5
241,,,,,,,,,,
242,,,,,,,,,,
243,526370000.0,0.010526,-856.88,142.12,-999.0,-3.81,38.0,46.607,-160.59,-207.2
244,694440000.0,0.012739,-825.5,187.5,-1013.0,-3.843,31.4,18.622,-193.58,-212.2
245,182770000.0,0.0050125,-939.91,69.593,-1009.5,-3.601,30.692,85.924,-1.845,-87.769
246,90907000.0,0.0047619,25.064,35.064,-10.0,-2.95,30.0,350.38,340.75,-9.6286
247,70076000.0,0.0038095,16.93,27.93,-11.0,-2.95,30.0,219.39,207.93,-11.457
248,247960000.0,0.007772,-916.61,74.388,-991.0,-3.614,42.889,79.708,-33.403,-113.11
249,291960000.0,0.0020325,-889.83,123.17,-1013.0,-3.508,30.75,2832.3,2758.0,-74.375
250,875380000.0,0.0052632,-685.86,315.14,-1001.0,-3.81,38.0,37.85,-169.55,-207.4
251,76044000.0,0.0046904,17.331,29.331,-12.0,-2.934,30.457,295.17,284.92,-10.257
252,111110000.0,0.0047214,30.858,42.858,-12.0,-2.941,30.257,628.06,616.11,-11.943
253,330980000.0,0.0052632,-883.88,124.12,-1008.0,-3.81,31.667,57.373,-118.13,-175.5
254,,,,,,,,,,
255,124210000.0,0.0069307,-962.96,44.037,-1007.0,-2.99,30.606,942.31,901.07,-41.242
256,,,,,,,,,,
257,572840000.0,0.0041667,-782.05,220.95,-1003.0,-3.76,34.286,46.735,-103.69,-150.43
258,1315500000.0,0.0074074,-561.53,443.97,-1005.5,-3.865,33.75,59.257,-199.74,-259.0
259,109670000.0,0.0028262,35.122,45.122,-10.0,-2.9385,30.329,1051.0,1041.1,-9.9
260,221180000.0,0.0015576,-917.44,94.557,-1012.0,-3.358,32.1,60.181,0.88082,-59.3
261,,,,,,,,,,
262,539530000.0,0.010811,-848.64,161.86,-1010.5,-3.9075,30.833,79.988,-264.18,-344.17
263,108330000.0,0.0047506,31.785,41.785,-10.0,-2.9475,30.071,72.803,63.017,-9.7857
264,188540000.0,0.0012315,-922.42,81.581,-1004.0,-3.188,31.231,12478.0,12429.0,-48.731
265,71774000.0,0.010451,13.148,22.148,-9.0,-2.9475,30.071,985.99,976.78,-9.2143
266,129970000.0,0.0028355,41.473,53.473,-12.0,-2.942,30.229,507.37,495.03,-12.343
267,80205000.0,0.0066667,19.874,28.874,-9.0,-2.95,30.0,71.02,62.02,-9.0
268,57916000.0,0.0047393,12.339,22.339,-10.0,-2.945,30.143,89.61,79.667,-9.9429
269,69911000.0,0.0028571,17.763,28.763,-11.0,-2.95,30.0,83.571,72.571,-11.0
270,110510000.0,0.0028571,35.466,45.466,-10.0,-2.95,30.0,81.44,71.44,-10.0
271,72919000.0,0.0047619,16.126,28.126,-12.0,-2.95,30.0,1227.4,1216.0,-11.429
272,107510000.0,0.00095238,37.996,46.996,-9.0,-2.95,30.0,747.86,738.86,-9.0
273,322350000.0,0.006383,-885.5,105.5,-991.0,-3.53,42.727,863.56,773.11,-90.455
274,443810000.0,0.0024272,-811.26,179.74,-991.0,-3.588,41.2,559.7,457.5,-102.2
275,1297200000.0,0.0075758,-568.18,437.82,-1006.0,-3.868,33.0,529.36,269.36,-260.0
276,62053000.0,0.003125,-985.69,25.306,-1011.0,-3.04,30.0,73.308,32.465,-40.844
277,79072000.0,0.0028436,20.533,32.533,-12.0,-2.945,30.143,54.41,42.867,-11.543
278,118730000.0,0.0028571,37.849,48.849,-11.0,-2.95,30.0,1141.1,1130.1,-11.0
279,200440000.0,0.0088757,-941.4,65.599,-1007.0,-3.662,30.727,44.88,-56.756,-101.64
280,108250000.0,0.0057143,30.361,40.361,-10.0,-2.95,30.0,822.67,812.67,-10.0
281,253510000.0,0.0087912,-924.84,83.66,-1008.5,-3.545,30.333,5333.9,5256.3,-77.6
282,331440000.0,0.0020408,-856.41,135.59,-992.0,-3.51,44.545,1224.6,1134.8,-89.818
283,94708000.0,0.0028571,29.966,38.966,-9.0,-2.95,30.0,9045.6,9036.6,-9.0
284,725690000.0,0.0095238,-790.79,217.71,-1008.5,-3.895,35.0,102.63,-241.37,-344.0
285,112590000.0,0.00095238,38.218,49.218,-11.0,-2.95,30.0,515.33,504.33,-11.0
286,116850000.0,0.0076628,-967.06,39.437,-1006.5,-3.8695,32.625,75.252,-185.62,-260.88
287,31931000.0,0.0028504,3.1374,13.137,-10.0,-2.9475,30.071,310.7,300.71,-9.9857
288,69091000.0,0.0028571,16.426,28.426,-12.0,-2.95,30.0,756.77,744.74,-12.029
289,1294400000.0,0.032432,-1010.5,0.0,-1010.5,-3.9075,30.833,0.0,-344.83,-344.83
290,54289000.0,0.0027842,14.836,22.336,-7.5,-2.9225,30.786,157.19,147.92,-9.2714
291,1381700000.0,0.010256,-592.5,414.5,-1007.0,-3.9025,32.5,33.961,-308.54,-342.5
292,140340000.0,0.0012739,-946.37,60.628,-1007.0,-3.215,31.4,6407.9,6358.2,-49.68
293,345100000.0,0.0051282,-873.76,124.24,-998.0,-3.805,39.0,81.754,-125.25,-207.0
294,93759000.0,0.0066508,24.753,33.753,-9.0,-2.9475,30.071,433.69,423.79,-9.9
295,83609000.0,0.0047371,20.749,32.249,-11.5,-2.9445,30.157,83.576,72.391,-11.186
296,141650000.0,0.0011834,-951.53,61.465,-1013.0,-3.155,30.179,71.883,26.097,-45.786
297,,,,,,,,,,
298,92365000.0,0.0046404,26.127,35.627,-9.5,-2.9225,30.786,9146.6,9136.8,-9.7286
299,140860000.0,0.00095012,50.576,61.576,-11.0,-2.9475,30.071,525.97,514.32,-11.643
300,216610000.0,0.0027027,-921.15,89.352,-1010.5,-3.63,30.833,76.526,-15.39,-91.917
301,140200000.0,0.0028571,45.683,57.683,-12.0,-2.95,30.0,73.84,61.84,-12.0
302,103030000.0,0.0047506,29.739,39.739,-10.0,-2.9475,30.071,623.08,613.1,-9.9857
303,71213000.0,0.0047393,16.468,27.468,-11.0,-2.945,30.143,88.605,77.719,-10.886
304,320950000.0,0.0097276,-901.12,88.878,-990.0,-3.486,39.538,52.047,-26.876,-78.923
305,66664000.0,0.00095238,18.142,29.142,-11.0,-2.95,30.0,83.672,72.672,-11.0
306,68665000.0,0.0028103,18.251,28.251,-10.0,-2.9325,30.5,926.55,916.97,-9.5857
307,95705000.0,0.0066667,25.454,34.454,-9.0,-2.95,30.0,77.627,67.284,-10.343
308,119110000.0,0.0026882,40.004,49.004,-9.0,-2.884,31.886,380.92,373.52,-7.4
309,265180000.0,0.01107,-935.92,74.581,-1010.5,-3.729,33.875,37.499,-96.251,-133.75
310,93703000.0,0.0041322,-976.1,36.896,-1013.0,-3.516,30.25,587.29,513.42,-73.875
311,83070000.0,0.0028463,25.177,34.177,-9.0,-2.946,30.114,97.654,88.626,-9.0286
312,125710000.0,0.0028571,39.722,51.722,-12.0,-2.95,30.0,81.004,69.004,-12.0
313,94275000.0,0.0038095,27.575,37.575,-10.0,-2.95,30.0,480.61,470.61,-10.0
314,73954000.0,0.0066194,16.624,26.624,-10.0,-2.9425,30.214,55.285,45.385,-9.9
315,99274000.0,0.0028571,29.844,40.844,-11.0,-2.95,30.0,68.006,56.949,-11.057
316,63122000.0,0.00095238,16.593,27.593,-11.0,-2.95,30.0,89.747,78.747,-11.0
317,96454000.0,0.0028249,31.684,39.684,-8.0,-2.938,30.343,7906.5,7896.5,-9.9714
318,245730000.0,0.0023641,-907.43,102.07,-1009.5,-3.577,32.538,1983.9,1898.0,-85.846
319,148430000.0,0.002381,-930.89,60.113,-991.0,-3.58,42.0,106.56,4.7587,-101.8
320,77262000.0,0.0066667,18.814,27.814,-9.0,-2.95,30.0,397.4,388.4,-9.0
321,95909000.0,0.00095238,30.926,41.926,-11.0,-2.95,30.0,488.66,477.66,-11.0
322,120040000.0,0.0028571,40.386,49.386,-9.0,-2.95,30.0,513.58,504.58,-9.0
323,130180000.0,0.0028571,44.558,53.558,-9.0,-2.95,30.0,350.11,341.11,-9.0
324,105670000.0,0.0047393,28.759,40.759,-12.0,-2.945,30.143,9043.1,9031.1,-12.0
325,273520000.0,0.0072816,-914.32,94.682,-1009.0,-3.588,31.692,5875.3,5788.8,-86.538
326,318190000.0,0.0096774,-904.01,89.491,-993.5,-3.69,38.75,38.01,-88.74,-126.75
327,149850000.0,0.00499,-950.78,57.217,-1008.0,-2.998,30.364,12114.0,12072.0,-42.091
328,510740000.0,0.0052632,-817.13,183.87,-1001.0,-3.81,38.0,45.587,-161.61,-207.2
329,98748000.0,0.0063131,-973.11,35.891,-1009.0,-3.208,30.462,11209.0,11159.0,-50.192
330,84630000.0,0.0047619,22.643,32.643,-10.0,-2.95,30.0,6583.7,6573.7,-10.0
331,64706000.0,0.00095238,18.286,28.286,-10.0,-2.95,30.0,8125.5,8115.5,-10.0
332,468100000.0,0.0044944,-827.95,180.55,-1008.5,-3.7775,31.786,8098.5,7946.3,-152.21
333,158340000.0,0.0035088,-945.88,63.62,-1009.5,-3.145,30.536,11487.0,11440.0,-46.429
334,1079400000.0,0.0098039,-685.19,323.81,-1009.0,-3.898,34.0,34.033,-310.63,-344.67
335,1355600000.0,0.0098039,-601.33,406.67,-1008.0,-3.898,34.0,12.895,-331.11,-344.0
336,184850000.0,0.0020833,-934.02,77.983,-1012.0,-3.52,30.0,86.981,14.106,-72.875
337,1095800000.0,0.0073529,-639.16,369.84,-1009.0,-3.864,34.0,2077.3,1817.0,-260.25
338,121510000.0,0.0068182,-965.04,42.961,-1008.0,-3.56,31.429,6874.8,6793.2,-81.643
339,100790000.0,0.0047393,26.875,38.875,-12.0,-2.945,30.143,502.21,492.18,-10.029
340,59335000.0,0.00095238,14.938,25.938,-11.0,-2.95,30.0,79.621,68.621,-11.0
341,96649000.0,0.00095012,33.249,42.249,-9.0,-2.9475,30.071,115.33,106.37,-8.9571
342,143270000.0,0.0047125,45.76,55.26,-9.5,-2.939,30.314,11569.0,11558.0,-10.857
343,,,,,,,,,,
344,61321000.0,0.00094877,14.806,26.806,-12.0,-2.946,30.114,107.4,95.228,-12.171
345,204320000.0,0.0062943,-934.57,74.431,-1009.0,-3.3645,30.262,3837.1,3778.0,-59.024
346,705290000.0,0.0060241,-754.1,253.9,-1008.0,-3.834,33.2,56.152,-153.45,-209.6
347,421680000.0,0.0052632,-846.2,151.8,-998.0,-3.81,38.0,52.984,-153.02,-206.0
348,104620000.0,0.0085714,22.973,34.973,-12.0,-2.95,30.0,10164.0,10152.0,-12.0
349,97016000.0,0.0038095,27.668,38.668,-11.0,-2.95,30.0,365.21,354.21,-11.0
350,106830000.0,0.0047438,29.206,41.206,-12.0,-2.946,30.114,415.84,403.81,-12.029
351,1149000000.0,0.0098039,-663.31,344.69,-1008.0,-3.898,34.0,13.647,-330.02,-343.67
352,202350000.0,0.0034384,-923.95,80.549,-1004.5,-3.1275,33.558,11060.0,11016.0,-44.519
353,92036000.0,0.0047619,-974.5,35.499,-1010.0,-3.79,30.0,5779.2,5625.8,-153.43
354,138010000.0,0.0046041,42.231,53.231,-11.0,-2.914,31.029,7920.8,7911.1,-9.6571
355,764150000.0,0.0071429,-748.1,257.9,-1006.0,-3.86,35.0,24.517,-235.73,-260.25
356,360370000.0,0.0068966,-875.17,115.83,-991.0,-3.71,41.429,39.982,-104.73,-144.71
357,111370000.0,0.0028463,34.821,45.821,-11.0,-2.946,30.114,91.818,81.104,-10.714
358,116920000.0,0.0066667,32.092,42.092,-10.0,-2.95,30.0,256.28,246.2,-10.086
359,67902000.0,0.0066667,15.445,24.445,-9.0,-2.95,30.0,50.973,41.973,-9.0
360,63397000.0,0.0019048,16.898,26.898,-10.0,-2.95,30.0,138.51,128.51,-10.0
361,95221000.0,0.0047438,27.728,36.728,-9.0,-2.946,30.114,53.792,44.62,-9.1714
362,78856000.0,0.0085511,15.36,26.36,-11.0,-2.9475,30.071,275.58,264.62,-10.957
363,87281000.0,0.0012821,-974.23,37.766,-1012.0,-3.22,30.0,376.98,328.44,-48.538
364,103610000.0,0.0065913,28.3,37.3,-9.0,-2.938,30.343,1188.7,1179.8,-8.8571
365,145270000.0,0.0028571,47.769,59.769,-12.0,-2.95,30.0,360.49,349.07,-11.429
366,92986000.0,0.0047371,25.866,35.866,-10.0,-2.9445,30.157,349.98,339.96,-10.014
367,67240000.0,0.0047619,14.935,25.935,-11.0,-2.95,30.0,675.23,664.23,-11.0
368,190530000.0,0.0014493,-929.99,82.011,-1012.0,-3.31,30.0,45.305,-10.174,-55.478
369,97510000.0,0.00095012,32.626,42.626,-10.0,-2.9475,30.071,542.79,532.83,-9.9571
370,514950000.0,0.0032787,-801.02,205.98,-1007.0,-3.695,33.889,47.67,-70.997,-118.67
371,63816000.0,0.0047506,14.615,24.615,-10.0,-2.9475,30.071,106.48,96.492,-9.9857
372,,,,,,,,,,
373,150010000.0,0.0049383,-953.12,57.378,-1010.5,-3.3925,30.375,124.65,63.078,-61.575
374,58509000.0,0.00094877,15.577,25.577,-10.0,-2.946,30.114,174.18,164.01,-10.171
375,91199000.0,0.0030105,-971.69,37.309,-1009.0,-3.0035,30.197,480.77,441.33,-39.439
376,1582400000.0,0.0092593,-532.27,474.73,-1007.0,-3.892,36.0,14.006,-330.33,-344.33
377,128920000.0,0.0047619,37.727,49.727,-12.0,-2.95,30.0,8628.7,8617.3,-11.343
378,107190000.0,0.0028436,31.102,44.102,-13.0,-2.945,30.143,85.264,72.893,-12.371
379,185080000.0,0.0019608,-931.61,78.387,-1010.0,-3.49,30.0,95.642,26.112,-69.529
380,251910000.0,0.0035971,-899.84,97.164,-997.0,-3.722,39.714,1391.5,1244.2,-147.29
381,113610000.0,0.0028369,39.241,46.741,-7.5,-2.9425,30.214,9326.0,9316.2,-9.8143
382,126270000.0,0.0028571,42.951,51.951,-9.0,-2.95,30.0,10238.0,10229.0,-9.0
383,305070000.0,0.011792,-924.75,88.253,-1013.0,-3.576,30.286,7271.6,7188.1,-83.5
384,593950000.0,0.011765,-845.13,160.37,-1005.5,-3.83,34.0,51.025,-156.77,-207.8
385,95723000.0,0.0014815,-963.38,41.117,-1004.5,-3.325,30.682,8314.6,8258.7,-55.909
386,1307500000.0,0.0095238,-615.74,392.26,-1008.0,-3.895,35.0,27.857,-317.14,-345.0
387,44779000.0,0.0028169,6.4232,18.423,-12.0,-2.935,30.429,8189.2,8178.1,-11.057
388,9841500.0,0.0028571,-5.9509,4.0491,-10.0,-2.95,30.0,94.049,84.049,-10.0
389,70018000.0,0.0047059,17.007,27.007,-10.0,-2.9375,30.357,923.1,913.43,-9.6714
390,73761000.0,0.0028571,20.347,30.347,-10.0,-2.95,30.0,8342.8,8332.8,-10.0
391,254220000.0,0.0034602,-905.64,102.36,-1008.0,-3.422,30.421,11704.0,11640.0,-64.474
392,754510000.0,0.0052632,-728.38,271.62,-1000.0,-3.81,38.0,67.261,-139.74,-207.0
393,120680000.0,0.0057143,32.997,44.997,-12.0,-2.95,30.0,781.61,769.76,-11.857
394,105070000.0,0.0066508,27.824,37.824,-10.0,-2.9475,30.071,43.083,33.097,-9.9857
395,126990000.0,0.00095238,45.514,55.514,-10.0,-2.95,30.0,10353.0,10343.0,-10.0
396,16349000.0,0.0028249,-5.2734,6.7266,-12.0,-2.938,30.343,866.01,854.24,-11.771
397,87634000.0,0.0066351,19.548,31.548,-12.0,-2.945,30.143,5065.5,5053.6,-11.943
398,1087200000.0,0.010256,-680.85,326.15,-1007.0,-3.9025,32.5,22.928,-319.57,-342.5
399,18810000.0,0.0028369,-2.2612,7.7388,-10.0,-2.9425,30.214,541.7,531.72,-9.9857
400,65588000.0,0.0066069,13.612,23.612,-10.0,-2.9405,30.271,322.79,312.86,-9.9286
401,1085300000.0,0.0076923,-640.72,366.28,-1007.0,-3.87,32.5,2384.6,2125.6,-259.0
402,,,,,,,,,,
403,,,,,,,,,,
404,72558000.0,0.00095238,22.718,31.718,-9.0,-2.95,30.0,10413.0,10403.0,-10.057
405,1064600000.0,0.0099502,-687.11,319.39,-1006.5,-3.8995,33.5,23.611,-320.22,-343.83
406,704550000.0,0.020833,-924.74,79.262,-1004.0,-3.856,36.0,3.3959,-254.85,-258.25
407,359420000.0,0.0038095,-858.36,138.64,-997.0,-3.7375,37.5,50.235,-95.551,-145.79
408,331060000.0,0.0029412,-860.65,130.35,-991.0,-3.66,42.5,45.473,-80.777,-126.25
409,161220000.0,0.0052632,-948.91,61.093,-1010.0,-3.43,30.0,7899.1,7835.8,-63.316
410,641560000.0,0.0034483,-744.54,247.46,-992.0,-3.71,41.429,56.098,-90.617,-146.71
411,969480000.0,0.013889,-783.87,218.13,-1002.0,-3.856,36.0,28.26,-229.99,-258.25
412,120260000.0,0.0047619,36.386,46.386,-10.0,-2.95,30.0,84.77,74.77,-10.0
413,87449000.0,0.0047619,21.73,33.73,-12.0,-2.95,30.0,434.91,422.91,-12.0
414,74486000.0,0.0085714,12.9,24.9,-12.0,-2.95,30.0,85.791,73.791,-12.0
415,68316000.0,0.0047619,15.35,26.35,-11.0,-2.95,30.0,10222.0,10211.0,-11.0
416,133770000.0,0.0066414,39.156,48.156,-9.0,-2.946,30.114,72.153,62.982,-9.1714
417,67036000.0,0.0066667,13.133,24.133,-11.0,-2.95,30.0,57.254,46.226,-11.029
418,39525000.0,0.0038095,3.7537,15.754,-12.0,-2.95,30.0,268.27,256.27,-12.0
419,79515000.0,0.0028571,22.715,32.715,-10.0,-2.95,30.0,8895.7,8885.7,-10.0
420,213990000.0,0.0054545,-930.2,79.302,-1009.5,-3.45,32.353,5254.9,5187.1,-67.824
421,867180000.0,0.0058824,-693.32,312.18,-1005.5,-3.83,34.0,40.554,-167.25,-207.8
422,118970000.0,0.0024233,48.949,48.949,0.0,-2.762,35.371,667.9,658.84,-9.0571
423,57989000.0,0.0047619,12.367,22.367,-10.0,-2.95,30.0,551.84,541.84,-10.0
424,76608000.0,0.0028571,19.519,31.519,-12.0,-2.95,30.0,11172.0,11161.0,-11.571
425,109130000.0,0.0038095,33.496,43.496,-10.0,-2.95,30.0,12902.0,12892.0,-10.0
426,21458000.0,0.00095238,-2.6199,9.3801,-12.0,-2.95,30.0,104.82,92.819,-12.0
427,95374000.0,0.0077778,-980.1,32.904,-1013.0,-3.1,30.0,40.252,-3.1817,-43.433
428,354700000.0,0.0071429,-892.29,119.71,-1012.0,-3.72,35.0,66.579,-68.296,-134.88
429,115810000.0,0.00084211,39.628,50.628,-11.0,-2.8125,33.929,4866.7,4859.9,-6.7571
430,102410000.0,0.00095238,35.766,44.766,-9.0,-2.95,30.0,79.9,70.9,-9.0
431,120340000.0,0.0028571,40.51,49.51,-9.0,-2.95,30.0,369.15,360.15,-9.0
432,501960000.0,0.0088106,-859.41,150.59,-1010.0,-3.6595,37.833,57.757,-57.966,-115.72
433,155760000.0,0.0075829,-943.1,51.4,-994.5,-3.4725,35.167,58.68,-13.353,-72.033
434,76616000.0,0.0028396,19.522,31.522,-12.0,-2.9435,30.186,4148.8,4137.0,-11.843
435,95171000.0,0.0036166,-964.93,38.068,-1003.0,-3.1705,30.722,243.89,196.28,-47.611
436,362630000.0,0.0079051,-890.61,122.39,-1013.0,-3.8735,31.625,85.568,-176.31,-261.88
437,180480000.0,0.0030303,-935.81,72.194,-1008.0,-3.67,36.667,134.7,18.812,-115.89
438,877690000.0,0.010101,-744.19,263.31,-1007.5,-3.901,33.0,14.263,-329.07,-343.33
439,95353000.0,0.00094742,32.683,41.683,-9.0,-2.9445,30.157,152.32,143.31,-9.0143
440,90280000.0,0.0038095,26.983,35.983,-9.0,-2.95,30.0,49.426,40.426,-9.0
441,,,,,,,,,,
442,,,,,,,,,,
443,101020000.0,0.010476,21.173,31.173,-10.0,-2.95,30.0,268.86,258.86,-10.0
444,88474000.0,0.0047506,21.126,34.126,-13.0,-2.9475,30.071,471.21,460.28,-10.929
445,298570000.0,0.0072727,-906.15,103.35,-1009.5,-3.5875,31.731,52.739,-34.453,-87.192
446,188390000.0,0.0028986,-916.82,74.179,-991.0,-3.655,43.125,105.74,-19.511,-125.25
447,78842000.0,0.0085389,14.356,26.356,-12.0,-2.946,30.114,42.598,30.684,-11.914
448,123830000.0,0.00095238,43.13,54.13,-11.0,-2.95,30.0,92.185,81.042,-11.143
449,369090000.0,0.0030075,-857.02,149.48,-1006.5,-3.6675,33.25,75.338,-36.012,-111.35
450,149160000.0,0.0072202,-962.66,50.343,-1013.0,-3.5845,34.625,53.179,-38.113,-91.292
451,84253000.0,0.00095012,26.831,36.831,-10.0,-2.9475,30.071,77.598,67.613,-9.9857
452,92629000.0,0.0045662,23.728,35.728,-12.0,-2.905,31.286,80.839,69.753,-11.086
453,90991000.0,0.0028571,26.436,37.436,-11.0,-2.95,30.0,269.03,258.03,-11.0
454,351710000.0,0.002439,-863.41,146.09,-1009.5,-3.59,31.538,11007.0,10921.0,-86.923
455,94883000.0,0.00094742,31.477,41.477,-10.0,-2.9445,30.157,639.25,629.23,-10.014
456,56402000.0,0.0028571,13.205,23.205,-10.0,-2.95,30.0,97.412,87.412,-10.0
457,138180000.0,0.007619,36.969,47.969,-11.0,-2.95,30.0,58.591,47.591,-11.0
458,88335000.0,0.0046339,23.072,34.072,-11.0,-2.921,30.829,612.25,601.77,-10.486
459,110650000.0,0.0028436,34.524,45.524,-11.0,-2.945,30.143,508.72,498.81,-9.9143
460,171230000.0,0.001581,-936.3,73.202,-1009.5,-3.3675,31.625,947.76,888.04,-59.725
461,407540000.0,0.0089021,-876.38,114.62,-991.0,-3.663,42.125,39.425,-85.45,-124.88
462,461760000.0,0.0068966,-843.58,148.42,-992.0,-3.71,41.429,37.808,-107.62,-145.43
463,113920000.0,0.0047619,33.941,43.941,-10.0,-2.95,30.0,428.29,418.29,-10.0
464,81332000.0,0.0057143,20.325,30.325,-10.0,-2.95,30.0,100.08,90.084,-10.0
465,85354000.0,0.0028571,23.117,35.117,-12.0,-2.95,30.0,94.264,82.264,-12.0
466,907610000.0,0.0083333,-705.68,306.32,-1012.0,-3.88,30.0,21.589,-238.91,-260.5
467,59033000.0,0.0065574,10.252,21.252,-11.0,-2.9325,30.5,72.585,62.656,-9.9286
468,67129000.0,0.0066667,13.166,24.166,-11.0,-2.95,30.0,7684.8,7673.8,-11.0
469,86938000.0,0.0028571,25.769,35.769,-10.0,-2.95,30.0,146.24,136.24,-10.0
470,34862000.0,0.0028436,5.3433,14.343,-9.0,-2.945,30.143,1330.5,1321.6,-8.9143
471,169790000.0,0.0047304,55.49,65.49,-10.0,-2.943,30.2,66.171,56.714,-9.4571
472,190920000.0,0.0079365,-946.54,65.46,-1012.0,-3.37,30.0,557.51,497.89,-59.619
473,56500000.0,0.00095238,15.698,24.698,-9.0,-2.95,30.0,287.89,278.89,-9.0
474,54345000.0,0.0019048,13.058,23.058,-10.0,-2.95,30.0,77.787,67.787,-10.0
475,869580000.0,0.0063291,-693.95,313.05,-1007.0,-3.842,31.6,2946.0,2735.6,-210.4
476,258790000.0,0.0020408,-885.13,105.87,-991.0,-3.51,44.545,64.977,-23.296,-88.273
477,,,,,,,,,,
478,28091000.0,0.00095012,1.2797,12.28,-11.0,-2.9475,30.071,105.32,94.361,-10.957
479,142060000.0,0.0061296,40.143,51.143,-11.0,-2.858,32.629,54.525,45.782,-8.7429
480,172530000.0,0.0015711,-938.06,73.944,-1012.0,-3.3635,30.31,71.144,12.549,-58.595
481,471220000.0,0.004,-814.29,176.71,-991.0,-3.75,41.667,39.309,-129.69,-169.0
482,73670000.0,0.0045249,19.916,28.416,-8.5,-2.895,31.571,9235.5,9226.9,-8.6571
483,236590000.0,0.0024691,-898.18,95.817,-994.0,-3.595,40.5,2057.5,1957.8,-99.7
484,78092000.0,0.00095238,21.137,34.137,-13.0,-2.95,30.0,68.037,58.923,-9.1143
485,101540000.0,0.001385,-963.29,43.708,-1007.0,-3.278,31.391,9692.5,9640.0,-52.522
486,,,,,,,,,,
487,935340000.0,0.0067568,-688.32,315.68,-1004.0,-3.852,37.0,25.325,-234.17,-259.5
488,1217900000.0,0.013889,-736.97,274.03,-1011.0,-3.856,36.0,19.497,-241.25,-260.75
489,80513000.0,0.00095238,25.196,35.196,-10.0,-2.95,30.0,91.647,81.647,-10.0
490,86857000.0,0.0066667,21.269,31.269,-10.0,-2.95,30.0,378.35,368.35,-10.0
491,679790000.0,0.0045977,-747.29,262.21,-1009.5,-3.7825,31.071,6010.3,5856.3,-153.93
492,895680000.0,0.0069444,-701.71,302.29,-1004.0,-3.856,36.0,50.795,-207.95,-258.75
493,900950000.0,0.0098039,-737.71,270.29,-1008.0,-3.898,34.0,30.058,-315.28,-345.33
494,136930000.0,0.0028571,44.337,56.337,-12.0,-2.95,30.0,115.22,103.74,-11.486
495,270670000.0,0.0059642,-909.04,98.965,-1008.0,-3.497,31.438,983.57,909.82,-73.75
496,106470000.0,0.00095238,34.543,46.543,-12.0,-2.95,30.0,62.652,50.652,-12.0
497,1116600000.0,0.0074074,-627.64,376.86,-1004.5,-3.865,33.75,41.656,-216.09,-257.75
498,1237700000.0,0.010204,-634.69,371.31,-1006.0,-3.902,32.667,13.001,-331.0,-344.0
499,153270000.0,0.005,-952.38,58.625,-1011.0,-3.4,30.0,12211.0,12151.0,-60.5
500,68661000.0,0.0051238,16.101,25.601,-9.5,-2.829,33.457,4220.4,4211.0,-9.4286
501,221270000.0,0.002103,-918.07,92.935,-1011.0,-3.5245,31.7,388.74,312.97,-75.767
502,786750000.0,0.013889,-826.98,177.02,-1004.0,-3.856,36.0,32.005,-226.24,-258.25
503,1341700000.0,0.0098039,-605.49,402.51,-1008.0,-3.898,34.0,22.131,-321.54,-343.67
504,1052400000.0,0.0069444,-649.83,355.17,-1005.0,-3.856,36.0,36.173,-223.08,-259.25
505,110980000.0,0.00093284,38.515,48.515,-10.0,-2.928,30.629,65.044,53.701,-11.343
506,62380000.0,0.0095238,9.0506,20.051,-11.0,-2.95,30.0,225.82,214.82,-11.0
507,150620000.0,0.0028571,49.971,61.971,-12.0,-2.95,30.0,87.179,75.179,-12.0
508,119770000.0,0.0028571,39.279,49.279,-10.0,-2.95,30.0,481.12,471.12,-10.0
509,581110000.0,0.010345,-842.57,149.43,-992.0,-3.71,41.429,68.989,-76.44,-145.43
510,39732000.0,0.00095012,5.3687,17.369,-12.0,-2.9475,30.071,117.1,105.89,-11.214
511,169590000.0,0.0047619,54.413,65.413,-11.0,-2.95,30.0,64.237,53.237,-11.0
512,28892000.0,0.0028571,1.8871,11.887,-10.0,-2.95,30.0,112.66,102.66,-10.0
513,818440000.0,0.0073529,-735.78,276.22,-1012.0,-3.864,34.0,34.396,-226.1,-260.5
514,91990000.0,0.004717,25.482,35.482,-10.0,-2.94,30.286,343.66,334.63,-9.0286
515,865490000.0,0.010256,-747.35,259.65,-1007.0,-3.9025,32.5,14.238,-328.26,-342.5
516,119060000.0,0.0057143,33.391,44.391,-11.0,-2.95,30.0,83.246,72.246,-11.0
517,307700000.0,0.012658,-939.77,69.233,-1009.0,-3.526,39.5,29.922,-54.828,-84.75
518,117360000.0,0.0047619,35.268,45.268,-10.0,-2.95,30.0,78.303,68.303,-10.0
519,39407000.0,0.003112,-996.93,16.071,-1013.0,-3.036,30.125,109.91,67.0,-42.906
520,13619000.0,0.010476,-7.7976,4.2024,-12.0,-2.95,30.0,98.954,86.954,-12.0
521,110960000.0,0.0028571,34.653,45.653,-11.0,-2.95,30.0,66.291,56.12,-10.171
522,63649000.0,0.0028504,16.187,26.187,-10.0,-2.9475,30.071,89.607,79.649,-9.9571
523,81553000.0,0.0047619,20.456,31.456,-11.0,-2.95,30.0,71.051,60.022,-11.029
524,70313000.0,0.0028463,19.929,28.929,-9.0,-2.946,30.114,88.748,79.577,-9.1714
525,124660000.0,0.00095238,42.493,54.493,-12.0,-2.95,30.0,120.71,108.71,-12.0
526,178610000.0,0.0047619,57.891,68.891,-11.0,-2.95,30.0,71.914,60.914,-11.0
527,372100000.0,0.0055556,-871.05,133.95,-1005.0,-3.82,36.0,50.849,-155.35,-206.2
528,82453000.0,0.0066508,19.683,29.683,-10.0,-2.9475,30.071,82.063,72.106,-9.9571
529,89433000.0,0.0046041,23.496,34.496,-11.0,-2.914,31.029,446.85,436.54,-10.314
530,100160000.0,0.00095238,33.784,43.784,-10.0,-2.95,30.0,87.75,77.75,-10.0
531,,,,,,,,,,
532,700180000.0,0.0083333,-785.95,210.05,-996.0,-3.76,40.0,115.33,-56.336,-171.67
533,342400000.0,0.0089286,-895.7,96.299,-992.0,-3.664,42.0,1115.2,986.85,-128.38
534,310400000.0,0.0095238,-914.88,93.12,-1008.0,-3.895,35.0,50.054,-294.95,-345.0
535,156240000.0,0.0030722,-947.22,63.279,-1010.5,-3.6745,32.55,61.994,-48.656,-110.65
536,454690000.0,0.0052632,-836.31,163.69,-1000.0,-3.81,38.0,39.769,-166.43,-206.2
537,849260000.0,0.013889,-813.92,191.08,-1005.0,-3.856,36.0,22.247,-237.0,-259.25
538,,,,,,,,,,
539,1208300000.0,0.010256,-644.5,362.5,-1007.0,-3.9025,32.5,16.274,-326.23,-342.5
540,510800000.0,0.0027586,-793.12,206.88,-1000.0,-3.6375,36.25,58.171,-46.979,-105.15
541,337940000.0,0.0031746,-871.13,136.87,-1008.0,-3.685,31.5,107.0,-3.997,-111.0
542,68280000.0,0.0047619,15.337,26.337,-11.0,-2.95,30.0,84.828,73.828,-11.0
543,,,,,,,,,,
544,108220000.0,0.0028571,32.523,44.523,-12.0,-2.95,30.0,114.99,102.96,-12.029
545,67146000.0,0.00095238,19.353,29.353,-10.0,-2.95,30.0,5586.7,5575.6,-11.143
546,977290000.0,0.0098039,-714.81,293.19,-1008.0,-3.898,34.0,36.562,-307.1,-343.67
547,519800000.0,0.0069444,-828.57,175.43,-1004.0,-3.856,36.0,31.014,-228.49,-259.5
548,738720000.0,0.019048,-897.19,110.81,-1008.0,-3.895,35.0,36.579,-308.75,-345.33
549,127330000.0,0.0085066,32.564,42.564,-10.0,-2.942,30.229,57.608,47.608,-10.0
550,1479800000.0,0.0069444,-503.56,499.44,-1003.0,-3.856,36.0,28.914,-230.09,-259.0
551,72334000.0,0.0027933,17.76,29.76,-12.0,-2.926,30.686,97.54,85.712,-11.829
552,100530000.0,0.0028571,30.362,41.362,-11.0,-2.95,30.0,9734.1,9723.0,-11.143
553,83569000.0,0.0019048,25.457,35.457,-10.0,-2.95,30.0,63.928,53.928,-10.0
554,117910000.0,0.00094518,41.542,51.542,-10.0,-2.942,30.229,615.56,605.64,-9.9143
555,61946000.0,0.00095238,15.079,27.079,-12.0,-2.95,30.0,171.53,159.53,-12.0
556,196240000.0,0.0083333,-945.77,66.23,-1012.0,-3.4,30.0,58.903,-0.24699,-59.15
557,55408000.0,0.0028571,12.797,22.797,-10.0,-2.95,30.0,123.62,113.62,-10.0
558,109580000.0,0.0066508,29.448,39.448,-10.0,-2.9475,30.071,53.605,43.648,-9.9571
559,57932000.0,0.0027868,12.835,23.835,-11.0,-2.9235,30.757,4045.1,4035.6,-9.4714
560,112330000.0,0.00095193,38.103,49.103,-11.0,-2.9495,30.014,9774.4,9763.4,-11.014
561,869460000.0,0.010526,-747.66,260.84,-1008.5,-3.905,31.667,2273.9,1930.9,-343.0
562,26021000.0,0.0028571,-0.29405,10.706,-11.0,-2.95,30.0,10994.0,10983.0,-11.0
563,125280000.0,0.0066667,34.1,45.1,-11.0,-2.95,30.0,8386.7,8374.8,-11.943
564,94674000.0,0.00095238,32.386,41.386,-9.0,-2.95,30.0,11954.0,11945.0,-9.0
565,99599000.0,0.0028504,29.978,40.978,-11.0,-2.9475,30.071,1707.3,1696.4,-10.957
566,159750000.0,0.0013889,-943.11,68.893,-1012.0,-3.28,30.0,11490.0,11438.0,-51.75
567,108230000.0,0.0085714,26.18,36.18,-10.0,-2.95,30.0,62.268,52.268,-10.0
568,52608000.0,0.0047619,10.292,20.292,-10.0,-2.95,30.0,93.907,83.907,-10.0
569,146620000.0,0.0028571,50.323,60.323,-10.0,-2.95,30.0,14085.0,14075.0,-10.0
570,101520000.0,0.0066667,25.549,36.549,-11.0,-2.95,30.0,48.369,37.369,-11.0
571,87270000.0,0.0085714,18.173,29.173,-11.0,-2.95,30.0,268.46,257.46,-11.0
572,147970000.0,0.0085714,37.464,49.464,-12.0,-2.95,30.0,308.75,296.75,-12.0
573,89674000.0,0.0028571,27.894,36.894,-9.0,-2.95,30.0,65.597,56.597,-9.0
574,58890000.0,0.00094877,15.743,25.743,-10.0,-2.946,30.114,156.23,146.21,-10.029
575,155450000.0,0.0047619,47.961,59.961,-12.0,-2.95,30.0,54.072,42.072,-12.0
576,36426000.0,0.0047619,3.0502,14.05,-11.0,-2.95,30.0,9484.8,9473.8,-11.0
577,76856000.0,0.0010959,-976.11,33.392,-1009.5,-3.0875,31.466,8937.4,8893.7,-43.741
578,93905000.0,0.0047619,27.22,36.22,-9.0,-2.95,30.0,92.661,83.661,-9.0
579,58210000.0,0.0066667,9.9557,20.956,-11.0,-2.95,30.0,75.181,64.181,-11.0
580,105820000.0,0.0028571,33.539,43.539,-10.0,-2.95,30.0,63.103,53.103,-10.0
581,98418000.0,0.0028571,30.492,40.492,-10.0,-2.95,30.0,109.94,99.942,-10.0
582,97872000.0,0.00095238,32.784,42.784,-10.0,-2.95,30.0,10362.0,10352.0,-10.0
583,103030000.0,0.0028571,32.389,42.389,-10.0,-2.95,30.0,72.484,62.484,-10.0
584,55898000.0,0.00095238,13.435,24.435,-11.0,-2.95,30.0,11758.0,11747.0,-11.0
585,84245000.0,0.0047619,21.495,32.495,-11.0,-2.95,30.0,47.417,36.417,-11.0
586,77545000.0,0.0028571,21.904,31.904,-10.0,-2.95,30.0,12124.0,12114.0,-10.0
587,421660000.0,0.0034483,-838.34,168.66,-1007.0,-3.71,32.222,8493.3,8373.4,-119.89
588,99872000.0,0.00095238,33.658,43.658,-10.0,-2.95,30.0,11534.0,11524.0,-10.0
589,103320000.0,0.0028571,33.508,42.508,-9.0,-2.95,30.0,352.1,343.1,-9.0
590,97403000.0,0.0028463,30.074,40.074,-10.0,-2.946,30.114,9782.4,9772.2,-10.171
591,66819000.0,0.00094118,22.709,29.209,-6.5,-2.9375,30.357,10708.0,10699.0,-8.6714
592,229070000.0,0.0045455,-920.97,89.026,-1010.0,-3.34,30.0,12001.0,11945.0,-55.727
593,134730000.0,0.00095238,48.897,58.897,-10.0,-2.95,30.0,14616.0,14606.0,-10.0
594,96452000.0,0.0028571,29.683,39.683,-10.0,-2.95,30.0,109.01,99.013,-10.0
595,115770000.0,0.0028571,36.632,47.632,-11.0,-2.95,30.0,67.988,56.988,-11.0
596,80004000.0,0.0018433,24.945,33.945,-9.0,-2.915,31.0,871.68,863.28,-8.4
597,84935000.0,0.00095238,25.129,37.129,-12.0,-2.95,30.0,109.39,97.389,-12.0
598,129860000.0,0.00095238,46.765,56.765,-10.0,-2.95,30.0,10191.0,10181.0,-10.0
599,101290000.0,0.00095012,34.28,44.28,-10.0,-2.9475,30.071,90.773,80.787,-9.9857
600,59746000.0,0.0066667,9.5085,21.509,-12.0,-2.95,30.0,6873.2,6861.2,-12.0
601,22394000.0,0.00095238,0.78929,9.7893,-9.0,-2.95,30.0,12011.0,12001.0,-9.7714
602,132920000.0,0.0047619,40.27,51.27,-11.0,-2.95,30.0,45.72,34.72,-11.0
603,87857000.0,0.00095238,28.406,38.406,-10.0,-2.95,30.0,11835.0,11825.0,-10.0
604,122180000.0,0.0028571,39.267,50.267,-11.0,-2.95,30.0,11707.0,11696.0,-11.0
605,96098000.0,0.0016667,-968.92,41.082,-1010.0,-3.4,30.0,1346.1,1286.1,-60.0
606,66662000.0,0.0057143,15.855,24.855,-9.0,-2.95,30.0,94.589,85.589,-9.0
607,100710000.0,0.0028571,32.436,41.436,-9.0,-2.95,30.0,77.183,68.183,-9.0
608,88233000.0,0.0038095,24.167,35.167,-11.0,-2.95,30.0,10671.0,10660.0,-11.0
609,100530000.0,0.00095238,32.944,43.944,-11.0,-2.95,30.0,105.03,94.026,-11.0
610,109330000.0,0.0028571,33.98,44.98,-11.0,-2.95,30.0,68.421,57.421,-11.0
611,33886000.0,0.00095238,3.8129,14.813,-11.0,-2.95,30.0,98.424,87.424,-11.0
612,89036000.0,0.0066667,22.053,32.053,-10.0,-2.95,30.0,42.827,32.827,-10.0
613,431900000.0,0.003125,-822.94,170.06,-993.0,-3.68,40.0,4237.4,4110.4,-127.0
614,82518000.0,0.0028571,24.95,33.95,-9.0,-2.95,30.0,74.078,65.078,-9.0
615,186270000.0,0.013889,-961.09,41.91,-1003.0,-3.784,36.0,427.34,253.84,-173.5
616,48989000.0,0.0047619,8.8956,18.896,-10.0,-2.95,30.0,627.55,617.55,-10.0
617,88790000.0,0.00095238,29.814,38.814,-9.0,-2.95,30.0,11610.0,11601.0,-9.0
618,80106000.0,0.0028504,22.958,32.958,-10.0,-2.9475,30.071,90.147,80.189,-9.9571
619,69174000.0,0.0047619,15.681,26.681,-11.0,-2.95,30.0,75.068,64.068,-11.0
620,105850000.0,0.0027881,35.051,43.551,-8.5,-2.924,30.743,60.445,51.016,-9.4286
621,90037000.0,0.0028571,27.044,37.044,-10.0,-2.95,30.0,81.334,71.334,-10.0
622,43024000.0,0.0028571,6.7011,17.701,-11.0,-2.95,30.0,78.428,67.428,-11.0
623,70041000.0,0.0057143,14.115,26.115,-12.0,-2.95,30.0,112.98,100.98,-12.0
624,120350000.0,0.0028571,38.517,49.517,-11.0,-2.95,30.0,76.113,65.113,-11.0
625,41174000.0,0.0095238,3.2345,13.234,-10.0,-2.95,30.0,70.637,60.637,-10.0
626,829160000.0,0.0069444,-725.16,279.84,-1005.0,-3.856,36.0,43.534,-215.72,-259.25
627,108190000.0,0.0028571,32.514,44.514,-12.0,-2.95,30.0,86.46,74.46,-12.0
628,97890000.0,0.0047371,28.758,37.758,-9.0,-2.9445,30.157,56.733,47.576,-9.1571
629,80497000.0,0.0047619,21.049,31.049,-10.0,-2.95,30.0,76.798,66.798,-10.0
630,112570000.0,0.0028571,36.315,46.315,-10.0,-2.95,30.0,61.985,51.985,-10.0
631,91187000.0,0.0028571,28.517,37.517,-9.0,-2.95,30.0,79.353,70.353,-9.0
632,100210000.0,0.0066667,27.075,36.075,-9.0,-2.95,30.0,93.932,84.932,-9.0
633,103230000.0,0.0057088,26.49,38.49,-12.0,-2.949,30.029,104.68,92.565,-12.114
634,598660000.0,0.020833,-936.65,67.349,-1004.0,-3.856,36.0,12.881,-245.37,-258.25
635,421330000.0,0.0040816,-832.0,158.0,-990.0,-3.755,40.833,72.537,-97.129,-169.67
636,109110000.0,0.0055659,31.684,40.684,-9.0,-2.922,30.8,498.43,489.57,-8.8571
637,61695000.0,0.0047619,13.797,23.797,-10.0,-2.95,30.0,121.8,111.8,-10.0
638,87943000.0,0.0047619,21.921,33.921,-12.0,-2.95,30.0,71.887,59.887,-12.0
639,87218000.0,0.00095238,28.127,38.127,-10.0,-2.95,30.0,119.12,109.12,-10.0
640,75392000.0,0.0028571,21.019,31.019,-10.0,-2.95,30.0,88.218,78.218,-10.0
641,1352400000.0,0.019737,-850.85,152.15,-1003.0,-3.848,38.0,18.922,-239.58,-258.5
642,66084000.0,0.0047619,15.49,25.49,-10.0,-2.95,30.0,125.1,115.1,-10.0
643,26192000.0,0.0066667,-0.5708,9.4292,-10.0,-2.95,30.0,71.531,61.531,-10.0
644,19807000.0,0.0047619,-3.3603,7.6397,-11.0,-2.95,30.0,104.68,93.678,-11.0
645,96385000.0,0.0028355,28.656,39.656,-11.0,-2.942,30.229,82.064,71.492,-10.571
646,80788000.0,0.0028571,21.238,33.238,-12.0,-2.95,30.0,69.683,57.683,-12.0
647,155400000.0,0.0028571,53.935,63.935,-10.0,-2.95,30.0,66.969,56.969,-10.0
648,93732000.0,0.00095238,30.974,40.974,-10.0,-2.95,30.0,85.307,75.307,-10.0
649,86611000.0,0.00095238,25.862,37.862,-12.0,-2.95,30.0,61.765,49.765,-12.0
650,107430000.0,0.0028571,34.2,44.2,-10.0,-2.95,30.0,12869.0,12859.0,-10.0
651,136740000.0,0.0085714,34.711,45.711,-11.0,-2.95,30.0,55.002,44.002,-11.0
652,112750000.0,0.0047619,33.491,43.491,-10.0,-2.95,30.0,7932.3,7922.3,-10.0
653,109030000.0,0.007619,27.848,37.848,-10.0,-2.95,30.0,5306.5,5296.5,-10.057
654,103430000.0,0.0028571,32.553,42.553,-10.0,-2.95,30.0,77.324,67.295,-10.029
655,115030000.0,0.0061865,32.412,41.412,-9.0,-2.8685,32.329,6429.0,6422.1,-6.8429
656,71347000.0,0.00095238,20.189,31.189,-11.0,-2.95,30.0,107.45,96.454,-11.0
657,62838000.0,0.0047619,13.238,24.238,-11.0,-2.95,30.0,1038.2,1027.2,-11.0
658,1014000000.0,0.010471,-707.3,304.2,-1011.5,-3.9045,31.833,21.729,-323.77,-345.5
659,129850000.0,0.0047619,39.085,50.085,-11.0,-2.95,30.0,12197.0,12186.0,-11.0
660,70578000.0,0.0028571,19.038,29.038,-10.0,-2.95,30.0,525.74,515.74,-10.0
661,97937000.0,0.0014388,-965.93,42.068,-1008.0,-3.305,31.591,1876.0,1819.8,-56.227
662,257690000.0,0.0058824,-915.5,95.497,-1011.0,-3.49,30.0,11332.0,11262.0,-69.824
663,54004000.0,0.00095238,13.607,23.607,-10.0,-2.95,30.0,10737.0,10727.0,-10.0
664,56759000.0,0.0028571,13.352,23.352,-10.0,-2.95,30.0,7590.8,7580.8,-10.0
665,75099000.0,0.001039,-976.8,32.705,-1009.5,-3.0375,31.048,6284.1,6241.7,-42.435
666,90601000.0,0.0028571,27.276,37.276,-10.0,-2.95,30.0,83.091,73.091,-10.0
667,72004000.0,0.00095238,21.476,31.476,-10.0,-2.95,30.0,9369.6,9359.6,-10.0
668,28558000.0,0.0085714,-2.4535,9.5465,-12.0,-2.95,30.0,5109.1,5097.1,-12.0
669,139770000.0,0.0028571,46.506,57.506,-11.0,-2.95,30.0,10638.0,10627.0,-11.0
670,126310000.0,0.0013699,-947.0,53.997,-1001.0,-3.27,36.5,9239.9,9186.8,-53.1
671,109320000.0,0.0066667,28.354,39.354,-11.0,-2.95,30.0,77.787,66.787,-11.0
672,106920000.0,0.00095238,37.739,46.739,-9.0,-2.95,30.0,83.272,74.272,-9.0
673,84526000.0,0.0047619,20.603,32.603,-12.0,-2.95,30.0,11011.0,10999.0,-12.0
674,116960000.0,0.0066667,31.106,42.106,-11.0,-2.95,30.0,8303.8,8292.8,-11.0
675,93804000.0,0.00095238,29.006,41.006,-12.0,-2.95,30.0,1049.1,1037.1,-12.0
676,101850000.0,0.0095238,22.738,32.738,-10.0,-2.95,30.0,44.731,34.731,-10.0
677,57448000.0,0.0028571,13.636,23.636,-10.0,-2.95,30.0,105.92,95.919,-10.0
678,115430000.0,0.0085714,26.586,38.586,-12.0,-2.95,30.0,53.917,41.917,-12.0
679,126780000.0,0.0028571,41.16,52.16,-11.0,-2.95,30.0,53.339,42.339,-11.0
680,117960000.0,0.0047619,35.498,45.498,-10.0,-2.95,30.0,9841.8,9831.8,-10.0
681,245400000.0,0.0019324,-905.47,103.53,-1009.0,-3.4825,32.344,89.289,17.758,-71.531
682,150130000.0,0.0066667,42.046,54.046,-12.0,-2.95,30.0,66.237,54.237,-12.0
683,112850000.0,0.0038095,35.979,44.979,-9.0,-2.95,30.0,52.364,43.364,-9.0
684,38391000.0,0.00095238,4.7824,16.782,-12.0,-2.95,30.0,9757.8,9745.8,-12.0
685,94316000.0,0.00095238,32.23,41.23,-9.0,-2.95,30.0,12877.0,12868.0,-9.0
686,84763000.0,0.00095238,26.054,37.054,-11.0,-2.95,30.0,11580.0,11569.0,-11.0
687,77351000.0,0.0028571,20.824,31.824,-11.0,-2.95,30.0,9872.6,9861.6,-11.0
688,100750000.0,0.0085714,23.68,33.68,-10.0,-2.95,30.0,44.794,34.794,-10.0
689,16117000.0,0.0047619,-5.7833,6.2167,-12.0,-2.95,30.0,102.92,90.92,-12.0
690,71082000.0,0.0066667,16.589,25.589,-9.0,-2.95,30.0,61.378,52.378,-9.0
691,110880000.0,0.0047619,32.767,42.767,-10.0,-2.95,30.0,77.68,67.68,-10.0
692,83496000.0,0.00095238,27.5,36.5,-9.0,-2.95,30.0,11521.0,11512.0,-9.0
693,72201000.0,0.0057143,14.921,26.921,-12.0,-2.95,30.0,403.91,391.91,-12.0
694,130130000.0,0.0058594,-952.99,46.01,-999.0,-3.488,36.571,5275.4,5198.9,-76.429
695,121490000.0,0.0047619,35.861,46.861,-11.0,-2.95,30.0,90.95,79.95,-11.0
696,65654000.0,0.0047619,15.324,25.324,-10.0,-2.95,30.0,9842.6,9832.6,-10.0
697,72365000.0,0.0028571,19.773,29.773,-10.0,-2.95,30.0,122.31,112.31,-10.0
698,24743000.0,0.0085714,-1.7286,8.2714,-10.0,-2.95,30.0,6484.6,6474.6,-10.0
699,85621000.0,0.0066667,19.824,30.824,-11.0,-2.95,30.0,1926.0,1914.6,-11.429
700,80431000.0,0.00095238,25.16,35.16,-10.0,-2.95,30.0,100.89,90.893,-10.0
701,87469000.0,0.00095238,27.236,38.236,-11.0,-2.95,30.0,10769.0,10758.0,-11.0
702,58790000.0,0.0028571,14.188,24.188,-10.0,-2.95,30.0,89.881,79.881,-10.0
703,60667000.0,0.0085714,8.2802,20.28,-12.0,-2.95,30.0,11057.0,11045.0,-12.0
704,,,,,,,,,,
705,134820000.0,0.0009434,48.937,58.937,-10.0,-2.94,30.286,943.16,933.42,-9.7429
706,72887000.0,0.0028571,19.988,29.988,-10.0,-2.95,30.0,922.69,912.52,-10.171
707,1407600000.0,0.010638,-589.73,422.27,-1012.0,-3.906,31.333,17.046,-327.62,-344.67
708,104310000.0,0.0047619,30.236,40.236,-10.0,-2.95,30.0,63.846,53.846,-10.0
709,193730000.0,0.0052632,-936.59,73.412,-1010.0,-3.43,30.0,46.617,-16.015,-62.632
710,95560000.0,0.00095238,32.774,41.774,-9.0,-2.95,30.0,102.5,93.5,-9.0
711,79830000.0,0.0066667,18.739,28.739,-10.0,-2.95,30.0,8959.7,8948.7,-10.971
712,125960000.0,0.0057143,35.964,46.964,-11.0,-2.95,30.0,70.993,59.993,-11.0
713,43371000.0,0.0047619,7.7287,16.729,-9.0,-2.95,30.0,88.428,79.428,-9.0
714,103460000.0,0.0038095,31.237,41.237,-10.0,-2.95,30.0,55.126,45.126,-10.0
715,48949000.0,0.0047619,7.8802,18.88,-11.0,-2.95,30.0,146.55,135.52,-11.029
716,411040000.0,0.0032895,-838.15,161.85,-1000.0,-3.696,38.0,61.472,-70.403,-131.88
717,85252000.0,0.0047619,21.883,32.883,-11.0,-2.95,30.0,479.21,468.21,-11.0
718,168740000.0,0.00375,-939.83,67.173,-1007.0,-3.2,30.769,10104.0,10056.0,-48.038
719,62533000.0,0.0066414,10.512,22.512,-12.0,-2.946,30.114,7437.1,7426.0,-11.029
720,13876000.0,0.0028571,-6.2908,5.7092,-12.0,-2.95,30.0,77.995,65.995,-12.0
721,99259000.0,0.0028571,29.838,40.838,-11.0,-2.95,30.0,73.338,62.338,-11.0
722,58922000.0,0.0028571,12.242,24.242,-12.0,-2.95,30.0,146.07,134.04,-12.029
723,82303000.0,0.0028571,23.862,33.862,-10.0,-2.95,30.0,9930.9,9920.9,-10.0
724,29160000.0,0.0028571,1.9974,11.997,-10.0,-2.95,30.0,7718.6,7708.6,-10.0
725,136340000.0,0.0047619,41.587,52.587,-11.0,-2.95,30.0,13110.0,13099.0,-11.0
726,78090000.0,0.0038095,21.125,31.125,-10.0,-2.95,30.0,9935.9,9925.8,-10.143
727,114450000.0,0.0028571,38.087,47.087,-9.0,-2.95,30.0,8552.3,8543.3,-9.0
728,96181000.0,0.0028571,29.571,39.571,-10.0,-2.95,30.0,8000.1,7989.2,-10.943
729,164620000.0,0.00625,-948.81,60.189,-1009.0,-3.52,30.0,1919.8,1847.0,-72.812
730,59549000.0,0.0028571,13.5,24.5,-11.0,-2.95,30.0,79.852,68.852,-11.0
731,68115000.0,0.0028571,18.024,28.024,-10.0,-2.95,30.0,76.877,66.877,-10.0
732,42852000.0,0.0047619,5.5285,16.528,-11.0,-2.95,30.0,96.981,85.953,-11.029
733,103820000.0,0.00095238,35.384,45.384,-10.0,-2.95,30.0,110.1,100.1,-10.0
734,118630000.0,0.0028571,39.81,48.81,-9.0,-2.95,30.0,10340.0,10331.0,-9.0
735,111410000.0,0.0047619,31.974,42.974,-11.0,-2.95,30.0,101.65,90.626,-11.029
736,47402000.0,0.0085714,4.8459,15.846,-11.0,-2.95,30.0,6075.1,6064.1,-11.0
737,30482000.0,0.0047619,1.7573,11.757,-10.0,-2.95,30.0,7312.5,7302.5,-10.0
738,46169000.0,0.0047619,6.8082,17.808,-11.0,-2.95,30.0,54.847,43.847,-11.0
739,128600000.0,0.0047619,38.604,49.604,-11.0,-2.95,30.0,100.77,89.772,-11.0
740,90740000.0,0.0028571,27.333,37.333,-10.0,-2.95,30.0,58.602,48.602,-10.0
741,68097000.0,0.00095238,20.768,29.768,-9.0,-2.95,30.0,81.889,72.889,-9.0
742,94227000.0,0.00093458,36.191,41.191,-5.0,-2.93,30.571,498.54,489.97,-8.5714
743,,,,,,,,,,
744,99360000.0,0.0028571,31.88,40.88,-9.0,-2.95,30.0,137.26,128.26,-9.0
745,,,,,,,,,,
746,383980000.0,0.01,-891.05,120.95,-1012.0,-3.7,30.0,38.973,-71.927,-110.9
747,1268800000.0,0.021053,-817.18,190.32,-1007.5,-3.905,31.667,17.762,-324.24,-342.0
748,104930000.0,0.0047619,31.473,40.473,-9.0,-2.95,30.0,11118.0,11109.0,-9.0
