,averag,DR_epi,ho_den,Reward,R_tele,R_tran
0,0.0,0.0,0.0,-1007.0,0.0,-1007.0
1,26.706,125230000.0,0.02533,-991.2,11.796,-1003.0
2,28.0,276100000.0,0.035714,-1004.0,0.0,-1004.0
3,29.477,81462000.0,0.01542,3023.5,4023.0,-999.5
4,25.862,86432000.0,0.02,-970.03,36.972,-1007.0
5,31.0,874080000.0,0.016129,6865.8,7866.8,-1001.0
6,27.5,94669000.0,0.018182,-661.48,341.52,-1003.0
7,32.125,128340000.0,0.019455,477.21,1474.2,-997.0
8,27.346,120380000.0,0.016878,-878.29,128.71,-1007.0
9,25.0,1051400000.0,0.013333,-986.38,19.615,-1006.0
10,26.381,28022000.0,0.018051,-782.37,221.63,-1004.0
11,32.0,276260000.0,0.023438,-933.22,72.775,-1006.0
12,28.45,17672000.0,0.015817,-841.71,161.29,-1003.0
13,34.5,54880000.0,0.012077,714.81,1710.8,-996.0
14,26.0,359830000.0,0.028846,-956.54,51.465,-1008.0
15,26.333,117960000.0,0.012658,-416.58,588.42,-1005.0
16,32.3,26345000.0,0.014448,-117.94,879.06,-997.0
17,0.0,0.0,0.0,-655.69,352.31,-1008.0
18,30.45,213400000.0,0.022989,-972.3,24.701,-997.0
19,0.0,0.0,0.0,-1005.0,0.0,-1005.0
20,28.0,17387000.0,0.026786,-844.86,156.64,-1001.5
21,0.0,0.0,0.0,-817.16,186.84,-1004.0
22,28.033,27622000.0,0.021403,-705.37,299.13,-1004.5
23,0.0,0.0,0.0,-1000.0,0.0,-1000.0
24,26.348,47145000.0,0.024752,-908.79,93.211,-1002.0
25,28.278,117080000.0,0.023576,1107.4,2105.4,-998.0
26,29.333,886420000.0,0.022727,-975.8,28.198,-1004.0
27,28.667,524220000.0,0.017442,-988.3,8.7019,-997.0
28,29.9,22927000.0,0.017837,-887.7,114.3,-1002.0
29,29.818,133660000.0,0.0060976,-934.73,68.27,-1003.0
30,26.891,116920000.0,0.021019,3723.1,4725.1,-1002.0
31,28.079,95517000.0,0.022493,-947.53,57.973,-1005.5
32,32.5,137030000.0,0.015385,142.44,1138.4,-996.0
33,0.0,0.0,0.0,-1005.0,0.0,-1005.0
34,25.625,95883000.0,0.014634,-877.67,129.33,-1007.0
35,32.786,77907000.0,0.013072,411.99,1411.5,-999.5
36,31.5,77734000.0,0.015873,-438.89,567.61,-1006.5
37,29.0,145810000.0,0.019397,-970.05,25.948,-996.0
38,33.25,73522000.0,0.025779,-982.11,22.89,-1005.0
39,29.611,213110000.0,0.030019,-996.0,0.0,-996.0
40,0.0,0.0,0.0,-1007.0,0.0,-1007.0
41,0.0,0.0,0.0,-1008.0,0.0,-1008.0
42,29.929,73820000.0,0.019093,-874.7,121.3,-996.0
43,32.75,182340000.0,0.010178,2368.8,3369.8,-1001.0
44,26.875,100770000.0,0.018605,-916.65,87.846,-1004.5
45,26.333,202030000.0,0.025316,-877.29,129.71,-1007.0
46,29.125,92791000.0,0.017167,-679.25,320.75,-1000.0
47,29.364,279590000.0,0.024768,-983.76,21.743,-1005.5
48,25.882,79361000.0,0.020455,-812.39,191.61,-1004.0
49,33.125,52568000.0,0.018868,-861.12,135.88,-997.0
50,26.667,323470000.0,0.025,361.15,1364.6,-1003.5
51,28.091,35453000.0,0.029126,-779.5,221.5,-1001.0
52,33.0,723110000.0,0.010101,-899.88,97.116,-997.0
53,30.786,65633000.0,0.027842,-981.12,14.884,-996.0
54,29.167,46538000.0,0.019048,-750.97,252.03,-1003.0
55,25.312,141180000.0,0.024691,-968.98,38.019,-1007.0
56,28.0,157350000.0,0.028571,-978.11,22.389,-1000.5
57,32.143,81118000.0,0.022222,-922.16,74.836,-997.0
58,32.2,82610000.0,0.018634,-802.28,193.72,-996.0
59,28.286,126670000.0,0.020202,609.72,1612.2,-1002.5
60,33.548,52811000.0,0.0099361,-825.32,174.18,-999.5
61,30.0,348280000.0,0.033333,-1002.0,0.0,-1002.0
62,33.023,19523000.0,0.01927,-366.82,629.18,-996.0
63,29.5,172370000.0,0.022599,-864.71,137.79,-1002.5
64,31.0,144560000.0,0.025806,-928.32,71.676,-1000.0
65,30.611,334170000.0,0.021779,-985.64,10.356,-996.0
66,33.167,267060000.0,0.01005,-943.18,57.318,-1000.5
67,33.214,86281000.0,0.017204,-871.15,124.85,-996.0
68,0.0,0.0,0.0,-533.7,471.8,-1005.5
69,30.464,43881000.0,0.018757,-791.26,204.74,-996.0
70,25.941,36547000.0,0.022676,-45.687,957.31,-1003.0
71,33.375,423270000.0,0.014981,-914.18,86.315,-1000.5
72,31.0,197570000.0,0.016129,-825.84,174.16,-1000.0
73,32.0,207260000.0,0.022321,431.17,1428.2,-997.0
74,30.85,491580000.0,0.025932,-994.8,1.2,-996.0
75,31.0,163500000.0,0.024194,-906.49,95.508,-1002.0
76,27.647,220640000.0,0.019149,6019.4,7020.9,-1001.5
77,27.7,121800000.0,0.028881,-741.76,257.24,-999.0
78,30.088,62396000.0,0.017595,-899.12,98.382,-997.5
79,29.25,315710000.0,0.025641,1330.4,2331.4,-1001.0
80,29.643,102240000.0,0.021687,-954.67,52.829,-1007.5
81,0.0,0.0,0.0,-1005.0,0.0,-1005.0
82,32.429,103840000.0,0.017621,256.58,1253.6,-997.0
83,0.0,0.0,0.0,-1008.0,0.0,-1008.0
84,32.0,148490000.0,0.011719,2156.1,3153.1,-997.0
85,29.0,70916000.0,0.02069,-829.43,174.57,-1004.0
86,30.676,107230000.0,0.021093,-972.71,33.288,-1006.0
87,29.5,252290000.0,0.020339,-909.25,88.246,-997.5
88,34.25,168910000.0,0.021898,-286.83,710.17,-997.0
89,28.667,177470000.0,0.034884,-1001.5,0.0,-1001.5
90,26.5,115830000.0,0.025157,-930.29,76.711,-1007.0
91,30.167,262960000.0,0.022099,78.231,1078.7,-1000.5
92,0.0,0.0,0.0,-1006.0,0.0,-1006.0
93,28.031,126850000.0,0.020067,-947.05,55.946,-1003.0
94,28.906,56326000.0,0.025946,-960.01,36.988,-997.0
95,32.6,74109000.0,0.01227,-45.628,951.37,-997.0
96,0.0,0.0,0.0,-996.0,0.0,-996.0
97,29.75,296760000.0,0.016807,-870.63,133.37,-1004.0
98,33.0,212590000.0,0.020202,-911.18,85.816,-997.0
99,25.0,242310000.0,0.026667,-892.23,112.77,-1005.0
100,32.312,76921000.0,0.027079,-629.42,369.58,-999.0
101,31.5,149830000.0,0.02381,-966.0,32.503,-998.5
102,33.0,94547000.0,0.019481,-941.35,55.653,-997.0
103,31.9,521070000.0,0.025078,-991.11,6.8881,-998.0
104,33.143,164380000.0,0.017241,-843.07,152.93,-996.0
105,31.342,115360000.0,0.015113,3648.8,4645.8,-997.0
106,28.625,146370000.0,0.017467,-883.79,117.71,-1001.5
107,30.667,123050000.0,0.021739,-713.39,285.61,-999.0
108,29.5,131320000.0,0.014528,-818.02,177.98,-996.0
109,29.212,33196000.0,0.026333,-983.16,12.839,-996.0
110,32.25,92209000.0,0.017054,-891.81,108.19,-1000.0
111,28.087,123010000.0,0.026316,1511.4,2512.9,-1001.5
112,0.0,0.0,0.0,-492.21,511.79,-1004.0
113,29.433,138600000.0,0.020385,-968.65,27.349,-996.0
114,0.0,0.0,0.0,-954.72,45.277,-1000.0
115,33.667,246370000.0,0.019802,-934.41,62.592,-997.0
116,29.955,178860000.0,0.021244,-951.95,51.554,-1003.5
117,32.083,226260000.0,0.025974,-973.76,23.239,-997.0
118,30.0,870230000.0,0.022222,2914.0,3916.0,-1002.0
119,32.864,242860000.0,0.019364,-967.67,35.831,-1003.5
120,25.25,73195000.0,0.039604,-1000.5,6.5129,-1007.0
121,32.875,133820000.0,0.015209,1256.1,2253.1,-997.0
122,28.429,86233000.0,0.015075,-810.54,193.46,-1004.0
123,29.4,64859000.0,0.0068027,-205.22,795.78,-1001.0
124,32.0,174560000.0,0.025,-215.48,785.52,-1001.0
125,32.0,221640000.0,0.03125,-1001.0,0.0,-1001.0
126,30.5,116970000.0,0.0065574,-848.56,154.44,-1003.0
127,32.773,21581000.0,0.016644,-795.51,200.49,-996.0
128,0.0,0.0,0.0,-944.63,61.37,-1006.0
129,29.929,223080000.0,0.02864,-971.66,31.341,-1003.0
130,28.833,62586000.0,0.028902,-980.03,22.474,-1002.5
131,30.4,112940000.0,0.026316,-952.68,44.318,-997.0
132,32.643,167140000.0,0.0087527,2656.0,3652.0,-996.0
133,33.5,141290000.0,0.0074627,-639.38,358.12,-997.5
134,30.333,256110000.0,0.021978,214.3,1215.8,-1001.5
135,34.455,83117000.0,0.0079156,-721.61,275.39,-997.0
136,27.1,311380000.0,0.01476,7320.0,8324.5,-1004.5
137,30.0,222450000.0,0.025,-968.34,31.665,-1000.0
138,30.735,69411000.0,0.022967,-970.01,26.992,-997.0
139,31.333,281770000.0,0.031915,-1002.0,0.0,-1002.0
140,33.917,72564000.0,0.012285,1236.6,2233.6,-997.0
141,27.696,177640000.0,0.021978,-989.83,6.1657,-996.0
142,30.5,287590000.0,0.032787,-998.5,0.0,-998.5
143,32.75,49354000.0,0.0091603,-795.98,201.02,-997.0
144,28.571,117780000.0,0.03,-997.77,5.2301,-1003.0
145,31.667,143090000.0,0.021053,20.713,1016.7,-996.0
146,30.714,91993000.0,0.018605,-942.96,55.036,-998.0
147,31.125,74522000.0,0.016064,366.82,1368.3,-1001.5
148,27.25,64518000.0,0.020183,-911.16,92.843,-1004.0
149,30.0,468530000.0,0.022222,-945.13,56.87,-1002.0
150,0.0,0.0,0.0,-1007.0,0.0,-1007.0
151,33.167,237870000.0,0.020101,-671.51,324.49,-996.0
152,26.333,384900000.0,0.012658,-950.64,57.363,-1008.0
153,0.0,0.0,0.0,-808.68,192.32,-1001.0
154,30.375,123260000.0,0.020576,560.8,1561.3,-1000.5
155,32.154,52796000.0,0.014354,-944.91,52.089,-997.0
156,29.25,102650000.0,0.034188,-1000.5,0.0,-1000.5
157,31.333,110820000.0,0.010638,-971.69,25.306,-997.0
158,28.5,471610000.0,0.023392,-897.96,103.54,-1001.5
159,30.5,371490000.0,0.027322,944.26,1945.8,-1001.5
160,26.5,116540000.0,0.028302,-912.5,95.501,-1008.0
161,32.636,147740000.0,0.022284,-947.22,50.78,-998.0
162,32.14,16366000.0,0.017424,-813.6,183.4,-997.0
163,34.615,239390000.0,0.02,-959.92,37.082,-997.0
164,30.571,266560000.0,0.014019,3338.2,4335.7,-997.5
165,0.0,0.0,0.0,-183.01,817.99,-1001.0
166,31.5,212050000.0,0.031746,-996.5,0.0,-996.5
167,29.75,207160000.0,0.012605,-929.57,75.433,-1005.0
168,33.9,166600000.0,0.020649,-955.04,41.961,-997.0
169,32.5,307610000.0,0.020513,-946.43,50.572,-997.0
170,28.5,166220000.0,0.0070175,-807.41,193.59,-1001.0
171,33.4,181980000.0,0.023952,-334.01,661.99,-996.0
172,28.6,151900000.0,0.013986,-749.91,255.09,-1005.0
173,0.0,0.0,0.0,-1003.5,0.0,-1003.5
174,29.643,132810000.0,0.028916,-997.0,0.0,-997.0
175,31.0,917970000.0,0.021505,-974.48,25.518,-1000.0
176,33.143,198500000.0,0.012931,-873.59,122.41,-996.0
177,32.0,424150000.0,0.03125,-999.0,0.0,-999.0
178,32.0,115150000.0,0.023438,-480.82,518.18,-999.0
179,33.0,446430000.0,0.030303,-996.0,0.0,-996.0
180,33.938,121530000.0,0.022099,-3.9508,991.05,-995.0
181,29.6,123600000.0,0.027027,-326.56,676.44,-1003.0
182,26.833,86331000.0,0.031056,-771.35,231.65,-1003.0
183,31.9,72364000.0,0.025078,-874.77,121.23,-996.0
184,32.611,129560000.0,0.0068143,-914.61,81.385,-996.0
185,27.5,1262500000.0,0.027273,3748.4,4751.4,-1003.0
186,29.567,109220000.0,0.020293,-953.65,42.354,-996.0
187,29.917,221100000.0,0.027855,-957.19,44.813,-1002.0
188,31.269,58983000.0,0.0123,-873.89,133.11,-1007.0
189,27.708,45099000.0,0.021053,-795.83,207.17,-1003.0
190,29.133,62091000.0,0.020595,173.06,1170.1,-997.0
191,31.955,131890000.0,0.02276,331.98,1328.0,-996.0
192,31.053,45249000.0,0.016949,577.74,1573.7,-996.0
193,0.0,0.0,0.0,-1005.0,0.0,-1005.0
194,31.333,30005000.0,0.024823,-749.07,249.93,-999.0
195,32.1,94722000.0,0.024922,-834.02,166.48,-1000.5
196,32.833,73359000.0,0.020305,-859.88,137.12,-997.0
197,32.556,44687000.0,0.020478,-903.46,92.539,-996.0
198,33.429,68337000.0,0.017094,-948.78,47.219,-996.0
199,29.75,66838000.0,0.02521,-841.41,163.59,-1005.0
200,31.062,69115000.0,0.024145,-403.75,595.75,-999.5
201,27.0,168680000.0,0.0082305,-918.3,82.201,-1000.5
202,27.607,151010000.0,0.023286,-976.7,30.299,-1007.0
203,32.667,1430500000.0,0.020408,-968.86,28.64,-997.5
204,33.0,27420000.0,0.018648,118.24,1114.2,-996.0
205,34.095,153080000.0,0.011173,8213.4,9212.9,-999.5
206,31.5,46851000.0,0.019048,-707.42,291.08,-998.5
207,30.625,287130000.0,0.02449,-943.83,60.173,-1004.0
208,31.222,61415000.0,0.024911,-938.0,64.995,-1003.0
209,32.5,400970000.0,0.015385,4413.6,5413.1,-999.5
210,27.875,147960000.0,0.026906,-941.94,62.565,-1004.5
211,29.938,155180000.0,0.016701,-936.45,64.552,-1001.0
212,27.281,201560000.0,0.0045819,-928.95,78.046,-1007.0
213,33.167,325420000.0,0.0050251,6351.9,7351.4,-999.5
214,31.0,482840000.0,0.016129,6572.7,7569.7,-997.0
215,28.833,52768000.0,0.017341,-353.02,646.48,-999.5
216,29.583,104560000.0,0.016901,529.82,1534.8,-1005.0
217,31.2,101730000.0,0.019231,499.58,1496.6,-997.0
218,30.206,36910000.0,0.013632,611.65,1611.2,-999.5
219,32.286,616710000.0,0.026549,893.05,1891.0,-998.0
220,29.5,607550000.0,0.033898,-1000.0,0.0,-1000.0
221,32.75,66888000.0,0.015267,-923.13,75.372,-998.5
222,33.857,190920000.0,0.025316,-310.85,685.15,-996.0
223,30.667,199640000.0,0.032609,-983.47,24.527,-1008.0
224,33.571,492990000.0,0.025532,656.03,1652.0,-996.0
225,25.292,100830000.0,0.023064,-929.04,78.963,-1008.0
226,28.0,179350000.0,0.035714,-1005.0,0.0,-1005.0
227,27.8,48718000.0,0.028777,-759.53,244.47,-1004.0
228,34.0,305780000.0,0.019608,-926.28,69.723,-996.0
229,31.8,137050000.0,0.025157,49.271,1047.3,-998.0
230,30.0,506370000.0,0.011111,3556.4,4557.4,-1001.0
231,28.222,68574000.0,0.0098425,-880.09,121.91,-1002.0
232,28.625,527460000.0,0.017467,3517.1,4519.1,-1002.0
233,30.167,103040000.0,0.01105,-725.6,276.9,-1002.5
234,0.0,0.0,0.0,-953.61,54.394,-1008.0
235,32.667,381810000.0,0.030612,-996.0,0.0,-996.0
236,27.167,380640000.0,0.03681,-997.73,9.7721,-1007.5
237,33.667,246570000.0,0.029703,-997.0,0.0,-997.0
238,31.2,244090000.0,0.012821,2239.9,3238.9,-999.0
239,33.312,104120000.0,0.015009,-886.92,110.08,-997.0
240,31.053,25959000.0,0.016949,-706.81,294.19,-1001.0
241,30.667,550760000.0,0.021739,-958.77,40.227,-999.0
242,28.833,466890000.0,0.011561,-884.74,118.76,-1003.5
243,31.0,108270000.0,0.016129,-701.84,300.16,-1002.0
244,29.35,317880000.0,0.017036,-979.06,17.941,-997.0
245,34.167,53390000.0,0.02439,-943.15,53.846,-997.0
246,31.0,603230000.0,0.016129,4429.0,5429.0,-1000.0
247,34.033,105100000.0,0.023506,-953.28,51.717,-1005.0
248,0.0,0.0,0.0,-1005.0,0.0,-1005.0
249,33.421,51617000.0,0.012598,1470.3,2467.3,-997.0
250,31.75,211380000.0,0.018373,3913.4,4913.4,-1000.0
251,0.0,0.0,0.0,-986.71,16.287,-1003.0
252,0.0,0.0,0.0,-1002.0,0.0,-1002.0
253,27.222,50074000.0,0.020408,-716.24,288.26,-1004.5
254,34.067,57631000.0,0.021526,-934.06,61.943,-996.0
255,0.0,0.0,0.0,-1008.0,0.0,-1008.0
256,0.0,0.0,0.0,-1006.0,0.0,-1006.0
257,31.357,150380000.0,0.022779,-36.679,960.32,-997.0
258,31.667,192670000.0,0.026316,-982.32,13.677,-996.0
259,33.833,307170000.0,0.019704,-896.31,99.693,-996.0
260,29.0,104010000.0,0.025862,-534.94,468.06,-1003.0
261,27.667,450430000.0,0.0060241,-941.83,63.165,-1005.0
262,27.962,121710000.0,0.024759,-928.34,73.161,-1001.5
263,32.0,150530000.0,0.015625,-922.62,74.377,-997.0
264,28.75,146410000.0,0.010435,3320.7,4319.7,-999.0
265,30.632,108500000.0,0.020619,-952.2,54.804,-1007.0
266,33.5,119290000.0,0.022388,-841.82,154.68,-996.5
267,29.333,199900000.0,0.0056818,-740.28,264.72,-1005.0
268,34.0,453990000.0,0.022059,866.71,1862.7,-996.0
269,29.333,423840000.0,0.034091,-1004.0,0.0,-1004.0
270,27.5,467100000.0,0.014545,-969.3,36.199,-1005.5
271,29.167,126250000.0,0.02,-876.37,122.63,-999.0
272,0.0,0.0,0.0,-1004.0,0.0,-1004.0
273,34.5,86308000.0,0.011272,-866.3,134.2,-1000.5
274,34.4,197590000.0,0.017442,734.74,1731.7,-997.0
275,29.65,212280000.0,0.016863,-944.76,52.236,-997.0
276,34.6,21423000.0,0.015896,-756.7,240.3,-997.0
277,0.0,0.0,0.0,-998.5,0.0,-998.5
278,33.5,37982000.0,0.011194,-725.53,271.47,-997.0
279,29.611,116660000.0,0.018762,1107.2,2109.7,-1002.5
280,30.25,94148000.0,0.012397,984.28,1981.8,-997.5
281,27.0,224060000.0,0.012346,-902.06,104.94,-1007.0
282,32.308,80874000.0,0.021429,-962.23,34.769,-997.0
283,32.8,121590000.0,0.018293,-859.25,141.75,-1001.0
284,0.0,0.0,0.0,460.41,1460.4,-1000.0
285,32.143,511130000.0,0.022222,4009.1,5009.1,-1000.0
286,0.0,0.0,0.0,-868.5,134.0,-1002.5
287,33.15,87155000.0,0.015083,999.93,1999.4,-999.5
288,30.0,229350000.0,0.019048,-947.49,48.514,-996.0
289,0.0,0.0,0.0,-955.48,52.515,-1008.0
290,28.5,145330000.0,0.02005,867.62,1870.1,-1002.5
291,32.417,21797000.0,0.011997,-815.06,185.44,-1000.5
292,33.846,32095000.0,0.025,-941.75,55.249,-997.0
293,27.364,44378000.0,0.016611,-760.58,246.42,-1007.0
294,0.0,0.0,0.0,-1001.0,0.0,-1001.0
295,31.75,37887000.0,0.026247,-914.71,85.791,-1000.5
296,33.672,92825000.0,0.016705,-946.76,50.241,-997.0
297,32.5,272930000.0,0.023932,-986.53,12.967,-999.5
298,31.0,653000000.0,0.021505,-965.42,32.575,-998.0
299,33.278,425390000.0,0.023372,-990.01,5.9871,-996.0
300,30.0,411240000.0,0.016667,-896.58,107.42,-1004.0
301,26.659,66506000.0,0.015345,-925.44,81.559,-1007.0
302,31.7,583100000.0,0.025237,-990.45,5.5519,-996.0
303,0.0,0.0,0.0,-1004.0,0.0,-1004.0
304,0.0,0.0,0.0,-1006.0,0.0,-1006.0
305,30.333,314330000.0,0.032967,-1000.5,6.4949,-1007.0
306,28.25,43859000.0,0.024336,-968.54,33.958,-1002.5
307,33.0,101280000.0,0.0075758,-888.0,108.0,-996.0
308,29.0,288510000.0,0.0068966,-809.93,197.07,-1007.0
309,31.0,605370000.0,0.032258,-1001.0,0.0,-1001.0
310,26.5,43764000.0,0.009434,-761.15,243.85,-1005.0
311,27.0,88666000.0,0.026455,-914.42,93.58,-1008.0
312,34.25,209700000.0,0.014599,-856.23,139.77,-996.0
313,27.521,51865000.0,0.028766,-979.45,28.554,-1008.0
314,29.5,173150000.0,0.018832,-873.48,123.52,-997.0
315,30.5,195520000.0,0.022951,1538.6,2538.6,-1000.0
316,34.25,357910000.0,0.014599,-864.95,131.05,-996.0
317,0.0,0.0,0.0,-1002.0,0.0,-1002.0
318,30.333,383060000.0,0.027473,-599.2,397.8,-997.0
319,33.9,131600000.0,0.011799,-892.23,113.77,-1006.0
320,32.1,338240000.0,0.018692,1705.2,2702.7,-997.5
321,34.0,437890000.0,0.022059,799.63,1796.6,-997.0
322,27.306,51175000.0,0.02238,-862.92,142.58,-1005.5
323,31.161,43490000.0,0.016046,-892.32,104.68,-997.0
324,0.0,0.0,0.0,236.16,243.16,-7.0
325,29.5,108770000.0,0.016949,-857.63,145.37,-1003.0
326,31.0,334560000.0,0.021505,505.54,1505.5,-1000.0
327,29.438,37759000.0,0.021231,-745.24,259.26,-1004.5
328,0.0,0.0,0.0,-1004.5,0.0,-1004.5
329,34.571,149320000.0,0.020661,-928.24,67.76,-996.0
330,27.667,127770000.0,0.012048,-772.62,232.38,-1005.0
331,0.0,0.0,0.0,82.639,86.639,-4.0
332,31.688,151830000.0,0.019724,-944.84,52.16,-997.0
333,28.7,757800000.0,0.020906,-999.8,4.704,-1004.5
334,0.0,0.0,0.0,-1005.0,0.0,-1005.0
335,0.0,0.0,0.0,-1005.0,0.0,-1005.0
336,29.0,47912000.0,0.02069,-947.03,49.971,-997.0
337,34.2,22874000.0,0.014035,-789.69,206.31,-996.0
338,32.6,77876000.0,0.01227,-494.06,511.94,-1006.0
339,30.0,80101000.0,0.02,-333.66,666.84,-1000.5
340,32.25,79660000.0,0.015504,-918.84,80.664,-999.5
341,26.875,108170000.0,0.018605,3479.7,4482.7,-1003.0
342,29.684,29031000.0,0.012411,-614.24,393.76,-1008.0
343,0.0,0.0,0.0,-1008.0,0.0,-1008.0
344,0.0,0.0,0.0,-1004.0,0.0,-1004.0
345,32.917,405450000.0,0.0050633,-926.66,70.339,-997.0
346,31.0,142660000.0,0.028226,-790.92,207.08,-998.0
347,0.0,0.0,0.0,141.99,148.99,-7.0
348,28.667,155120000.0,0.034884,-1002.0,0.0,-1002.0
349,32.233,28546000.0,0.024819,-742.94,253.06,-996.0
350,32.0,198600000.0,0.010417,2630.6,3630.6,-1000.0
351,28.333,78163000.0,0.029412,-691.65,310.35,-1002.0
352,0.0,0.0,0.0,7283.9,7286.9,-3.0
353,33.4,180420000.0,0.017964,-949.65,47.354,-997.0
354,30.0,114320000.0,0.022222,-488.56,514.44,-1003.0
355,32.571,137430000.0,0.013158,-817.19,178.81,-996.0
356,28.667,175200000.0,0.023256,-972.75,31.248,-1004.0
357,30.333,294500000.0,0.032967,-893.27,109.23,-1002.5
358,33.286,53645000.0,0.021459,-576.36,420.64,-997.0
359,32.214,43677000.0,0.013304,-362.62,643.38,-1006.0
360,31.6,64465000.0,0.012658,-697.37,309.63,-1007.0
361,31.0,249040000.0,0.010753,-853.23,148.77,-1002.0
362,29.167,76075000.0,0.022857,245.02,1250.0,-1005.0
363,28.0,439660000.0,0.02381,2672.3,3674.3,-1002.0
364,29.25,30573000.0,0.025641,-961.85,34.146,-996.0
365,27.889,51387000.0,0.015936,117.35,1119.3,-1002.0
366,29.524,79252000.0,0.017742,1841.7,2838.7,-997.0
367,32.0,438150000.0,0.0078125,-782.84,217.16,-1000.0
368,0.0,0.0,0.0,-1005.0,0.0,-1005.0
369,28.85,77042000.0,0.013865,882.66,1880.7,-998.0
370,31.4,228040000.0,0.019108,1091.6,2091.6,-1000.0
371,31.0,258010000.0,0.016129,-908.99,91.009,-1000.0
372,30.25,52958000.0,0.019284,-964.16,31.837,-996.0
373,28.0,33943000.0,0.0097403,-534.26,472.24,-1006.5
374,29.583,32232000.0,0.016901,-679.23,319.77,-999.0
375,28.0,369280000.0,0.014286,-867.91,138.09,-1006.0
376,0.0,0.0,0.0,-1008.0,0.0,-1008.0
377,29.4,149650000.0,0.034014,-1001.0,0.0,-1001.0
378,31.667,101490000.0,0.031579,-996.0,0.0,-996.0
379,27.167,139900000.0,0.030675,-980.63,23.873,-1004.5
380,33.762,51943000.0,0.022567,34.575,1031.6,-997.0
381,29.571,74508000.0,0.028986,-628.84,374.16,-1003.0
382,29.167,905000000.0,0.011429,-956.08,44.922,-1001.0
383,32.821,27903000.0,0.013058,-632.67,363.33,-996.0
384,0.0,0.0,0.0,-848.89,157.11,-1006.0
385,28.333,280380000.0,0.023529,-925.13,80.87,-1006.0
386,0.0,0.0,0.0,3501.5,3506.5,-5.0
387,31.625,148740000.0,0.01581,-813.48,186.02,-999.5
388,31.5,348810000.0,0.015873,-951.46,45.545,-997.0
389,28.875,174420000.0,0.017316,533.26,1535.8,-1002.5
390,28.844,55246000.0,0.019502,-927.58,77.916,-1005.5
391,0.0,0.0,0.0,4545.4,5546.4,-1001.0
392,0.0,0.0,0.0,50.188,57.188,-7.0
393,0.0,0.0,0.0,-928.89,70.11,-999.0
394,27.167,96417000.0,0.02454,-252.37,750.63,-1003.0
395,30.375,68155000.0,0.024691,-851.46,149.04,-1000.5
396,30.4,95355000.0,0.026316,-578.05,423.45,-1001.5
397,31.214,111510000.0,0.016781,-973.05,22.949,-996.0
398,29.667,184330000.0,0.018727,-884.61,117.89,-1002.5
399,26.25,202420000.0,0.02381,-912.46,93.54,-1006.0
400,0.0,0.0,0.0,-1004.0,0.0,-1004.0
401,32.75,164540000.0,0.010178,1973.5,2973.0,-999.5
402,30.133,120650000.0,0.015487,-904.04,100.46,-1004.5
403,34.0,85575000.0,0.0073529,146.93,1143.9,-997.0
404,31.667,994590000.0,0.010526,-974.1,22.903,-997.0
405,33.562,176770000.0,0.022346,461.15,1457.6,-996.5
406,28.088,28158000.0,0.01466,-930.03,76.974,-1007.0
407,29.062,27801000.0,0.015054,-48.987,947.01,-996.0
408,0.0,0.0,0.0,4125.7,4132.7,-7.0
409,0.0,0.0,0.0,232.42,239.42,-7.0
410,31.5,121350000.0,0.021164,-763.36,234.14,-997.5
411,32.481,10208000.0,0.019384,-539.58,458.92,-998.5
412,0.0,0.0,0.0,320.09,1321.1,-1001.0
413,25.737,52942000.0,0.022495,-787.54,217.96,-1005.5
414,28.7,257500000.0,0.020906,1218.1,2220.6,-1002.5
415,31.0,393970000.0,0.0080645,-859.5,139.5,-999.0
416,26.6,531440000.0,0.018797,-990.14,15.364,-1005.5
417,0.0,0.0,0.0,-1006.0,0.0,-1006.0
418,33.531,17504000.0,0.024231,-843.85,163.15,-1007.0
419,28.0,466900000.0,0.020408,5299.1,6303.1,-1004.0
420,0.0,0.0,0.0,-1005.0,0.0,-1005.0
421,0.0,0.0,0.0,4561.1,4567.1,-6.0
422,32.0,69079000.0,0.020833,-490.86,505.14,-996.0
423,32.688,195680000.0,0.011472,-848.44,154.56,-1003.0
424,26.312,252110000.0,0.014252,-890.66,113.84,-1004.5
425,33.571,628040000.0,0.012766,9947.9,10944.0,-996.0
426,31.5,216330000.0,0.011905,-915.89,80.105,-996.0
427,0.0,0.0,0.0,-1006.0,0.0,-1006.0
428,0.0,0.0,0.0,-1001.5,0.0,-1001.5
429,33.9,106600000.0,0.0058997,-435.2,561.8,-997.0
430,29.75,133660000.0,0.033613,-1000.0,0.0,-1000.0
431,31.938,359710000.0,0.011742,7084.0,8084.0,-1000.0
432,29.6,185200000.0,0.027027,-547.52,450.48,-998.0
433,33.262,145220000.0,0.018611,4424.0,5422.5,-998.5
434,0.0,0.0,0.0,6768.8,6775.8,-7.0
435,32.312,203980000.0,0.019342,-957.69,41.805,-999.5
436,0.0,0.0,0.0,-769.43,229.57,-999.0
437,30.0,29544000.0,0.016667,-177.73,824.27,-1002.0
438,0.0,0.0,0.0,-1008.0,0.0,-1008.0
439,31.8,125290000.0,0.012579,-307.49,689.51,-997.0
440,32.143,40177000.0,0.017778,47.199,1046.2,-999.0
441,0.0,0.0,0.0,200.12,204.62,-4.5
442,31.179,150300000.0,0.016037,-922.93,84.073,-1007.0
443,28.6,32370000.0,0.013986,-819.82,187.18,-1007.0
444,0.0,0.0,0.0,-1003.0,0.0,-1003.0
445,32.0,124380000.0,0.0125,680.17,1679.2,-999.0
446,32.0,469580000.0,0.015625,-980.36,15.64,-996.0
447,25.583,24987000.0,0.029316,-598.64,404.36,-1003.0
448,31.75,300330000.0,0.023622,-946.46,49.538,-996.0
449,0.0,0.0,0.0,159.18,1160.2,-1001.0
450,27.029,89808000.0,0.021763,-957.43,49.574,-1007.0
451,29.8,35937000.0,0.020134,-456.33,542.67,-999.0
452,29.417,102510000.0,0.022663,584.35,1583.9,-999.5
453,30.615,25936000.0,0.021357,24.493,1025.5,-1001.0
454,32.667,640320000.0,0.020408,1649.2,2646.2,-997.0
455,33.0,127830000.0,0.01443,-961.23,34.772,-996.0
456,29.579,24997000.0,0.0088968,-791.09,210.41,-1001.5
457,0.0,0.0,0.0,60.161,67.161,-7.0
458,29.8,86141000.0,0.02349,-968.42,35.575,-1004.0
459,28.591,69650000.0,0.015898,640.87,1638.9,-998.0
460,32.0,415390000.0,0.020833,869.25,1869.3,-1000.0
461,25.393,25538000.0,0.019691,-896.87,111.13,-1008.0
462,30.667,170890000.0,0.01087,-646.4,357.6,-1004.0
463,0.0,0.0,0.0,-1003.0,0.0,-1003.0
464,0.0,0.0,0.0,1076.9,1082.9,-6.0
465,30.0,165420000.0,0.011905,5821.6,6823.6,-1002.0
466,33.591,48697000.0,0.021651,-412.13,583.87,-996.0
467,29.75,542170000.0,0.02521,-1006.0,1.971,-1008.0
468,0.0,0.0,0.0,-1005.0,0.0,-1005.0
469,28.0,166800000.0,0.028571,-253.39,750.61,-1004.0
470,32.812,64890000.0,0.011429,404.62,1401.6,-997.0
471,31.556,58228000.0,0.021127,-769.45,227.55,-997.0
472,0.0,0.0,0.0,-1007.0,0.0,-1007.0
473,28.0,493870000.0,0.02381,-967.88,37.623,-1005.5
474,28.833,44358000.0,0.018497,467.62,1471.1,-1003.5
475,28.438,56355000.0,0.013187,-771.28,230.72,-1002.0
476,30.25,21110000.0,0.016529,-162.39,841.61,-1004.0
477,0.0,0.0,0.0,-999.5,0.0,-999.5
478,32.175,54792000.0,0.021756,-962.26,34.74,-997.0
479,26.333,201820000.0,0.037975,-1005.0,0.0,-1005.0
480,0.0,0.0,0.0,-1001.0,0.0,-1001.0
481,0.0,0.0,0.0,-1007.0,0.0,-1007.0
482,33.667,277300000.0,0.029703,-996.0,0.0,-996.0
483,30.579,34447000.0,0.013769,-788.05,219.95,-1008.0
484,32.176,76276000.0,0.02011,-958.07,38.933,-997.0
485,34.667,233500000.0,0.012019,-972.07,24.935,-997.0
486,0.0,0.0,0.0,-1005.0,0.0,-1005.0
487,32.556,91779000.0,0.023891,-953.22,43.781,-997.0
488,28.0,251460000.0,0.026786,127.59,1131.6,-1004.0
489,27.364,54074000.0,0.026578,-944.63,62.375,-1007.0
490,30.719,32164000.0,0.014242,-859.9,149.6,-1009.5
491,31.75,104750000.0,0.019685,469.83,1469.8,-1000.0
492,28.0,796090000.0,0.035714,-1004.5,0.0,-1004.5
493,33.72,104360000.0,0.015421,5127.0,6128.0,-1001.0
494,32.917,170210000.0,0.0050633,2839.8,3839.3,-999.5
495,0.0,0.0,0.0,51.807,58.807,-7.0
496,31.0,244100000.0,0.032258,-1001.0,0.0,-1001.0
497,28.125,667460000.0,0.026667,-993.63,11.873,-1005.5
498,33.15,106280000.0,0.024133,-970.66,28.841,-999.5
499,33.0,467670000.0,0.010101,-891.92,105.08,-997.0
500,30.0,33836000.0,0.025,-712.2,289.3,-1001.5
501,28.5,66020000.0,0.017544,-616.31,388.19,-1004.5
502,26.625,215960000.0,0.0093897,-875.56,128.94,-1004.5
503,28.0,240080000.0,0.02381,76.369,1080.4,-1004.0
504,33.278,74964000.0,0.016694,265.06,1262.1,-997.0
505,26.571,49074000.0,0.021505,-747.48,258.02,-1005.5
506,0.0,0.0,0.0,-992.8,11.199,-1004.0
507,31.036,96794000.0,0.027618,-967.93,35.57,-1003.5
508,26.935,21801000.0,0.020359,-92.429,905.07,-997.5
509,28.737,21118000.0,0.021978,-501.96,496.04,-998.0
510,33.0,302350000.0,0.015152,-818.88,178.12,-997.0
511,0.0,0.0,0.0,6405.6,6411.6,-6.0
512,33.821,24964000.0,0.014784,-729.38,266.62,-996.0
513,30.0,259150000.0,0.022222,164.17,1166.2,-1002.0
514,0.0,0.0,0.0,899.87,905.87,-6.0
515,29.0,94416000.0,0.028736,-578.13,424.87,-1003.0
516,32.074,21712000.0,0.018476,-722.74,284.76,-1007.5
517,0.0,0.0,0.0,4068.4,4073.4,-5.0
518,0.0,0.0,0.0,-1004.5,0.0,-1004.5
519,0.0,0.0,0.0,-1004.0,0.0,-1004.0
520,29.45,33369000.0,0.016978,-560.52,442.98,-1003.5
521,0.0,0.0,0.0,1058.9,1064.9,-6.0
522,0.0,0.0,0.0,40.424,47.424,-7.0
523,33.8,133080000.0,0.0088757,3131.3,4128.3,-997.0
524,30.0,424000000.0,0.016667,-982.43,21.574,-1004.0
525,29.188,187550000.0,0.025696,718.45,1720.5,-1002.0
526,30.0,1434300000.0,0.022222,-996.03,5.9657,-1002.0
527,0.0,0.0,0.0,1008.4,1015.4,-7.0
528,30.0,110050000.0,0.025,-652.35,346.65,-999.0
529,29.5,758270000.0,0.033898,-1007.5,0.53112,-1008.0
530,30.423,121630000.0,0.010114,4132.7,5136.2,-1003.5
531,30.083,165350000.0,0.027701,-977.16,22.844,-1000.0
532,30.25,480380000.0,0.027548,-983.92,18.575,-1002.5
533,27.167,349750000.0,0.02454,-934.67,72.326,-1007.0
534,0.0,0.0,0.0,-1002.5,0.0,-1002.5
535,30.167,81122000.0,0.01768,-845.23,156.77,-1002.0
536,28.0,268940000.0,0.026786,207.24,1210.2,-1003.0
537,30.75,55701000.0,0.01626,-882.4,124.6,-1007.0
538,32.846,26006000.0,0.018735,-473.26,523.74,-997.0
539,27.667,825840000.0,0.024096,2355.1,3358.1,-1003.0
540,31.2,141950000.0,0.019231,-895.04,102.46,-997.5
541,31.233,22961000.0,0.023479,-787.35,219.65,-1007.0
542,0.0,0.0,0.0,-808.97,196.03,-1005.0
543,30.0,168760000.0,0.033333,-999.0,0.0,-999.0
544,33.2,180740000.0,0.03012,-996.0,0.0,-996.0
545,33.1,209540000.0,0.018127,-974.34,30.661,-1005.0
546,33.5,127390000.0,0.015711,-930.63,78.368,-1009.0
547,32.6,34183000.0,0.0092025,-804.43,191.57,-996.0
548,30.7,136730000.0,0.013029,-883.21,125.79,-1009.0
549,0.0,0.0,0.0,-1005.0,0.0,-1005.0
550,0.0,0.0,0.0,1081.8,1087.8,-6.0
551,27.333,1129900000.0,0.036585,-1004.0,0.0,-1004.0
552,31.458,173870000.0,0.018543,-963.51,32.49,-996.0
553,0.0,0.0,0.0,-1003.0,0.0,-1003.0
554,25.938,46106000.0,0.028916,-910.72,96.278,-1007.0
555,28.091,93404000.0,0.02589,-968.52,39.484,-1008.0
556,29.5,119870000.0,0.0084746,-663.87,343.13,-1007.0
557,32.75,52303000.0,0.01866,-858.53,138.47,-997.0
558,0.0,0.0,0.0,3414.0,3421.0,-7.0
559,33.0,1104300000.0,0.010101,-969.17,26.832,-996.0
560,0.0,0.0,0.0,3729.1,3735.1,-6.0
561,27.714,127230000.0,0.025773,163.69,1167.2,-1003.5
562,28.75,51003000.0,0.017391,37.299,1037.8,-1000.5
563,0.0,0.0,0.0,-1007.0,0.0,-1007.0
564,0.0,0.0,0.0,724.39,731.39,-7.0
565,27.875,135300000.0,0.03139,-566.17,436.83,-1003.0
566,28.558,25308000.0,0.018855,-826.61,175.39,-1002.0
567,0.0,0.0,0.0,-1006.0,0.0,-1006.0
568,31.0,57128000.0,0.018975,675.63,1675.1,-999.5
569,0.0,0.0,0.0,4812.6,4818.6,-6.0
570,0.0,0.0,0.0,-1006.0,0.0,-1006.0
571,28.0,324200000.0,0.026786,-962.69,39.812,-1002.5
572,31.786,141740000.0,0.017978,896.33,1896.3,-1000.0
573,26.227,23007000.0,0.024263,-888.29,119.71,-1008.0
574,28.8,108310000.0,0.027778,-461.44,541.56,-1003.0
575,33.643,273740000.0,0.029724,-997.0,0.0,-997.0
576,0.0,0.0,0.0,145.05,152.05,-7.0
577,0.0,0.0,0.0,-1002.5,0.0,-1002.5
578,27.429,103380000.0,0.020833,-596.5,410.5,-1007.0
579,29.76,50993000.0,0.018817,-910.48,85.52,-996.0
580,33.875,315710000.0,0.00369,-924.87,73.134,-998.0
581,27.5,428620000.0,0.018182,4782.8,5786.3,-1003.5
582,32.705,48284000.0,0.016678,992.76,1989.8,-997.0
583,28.3,169190000.0,0.014134,1269.7,2273.2,-1003.5
584,32.0,104040000.0,0.020833,-951.47,44.526,-996.0
585,0.0,0.0,0.0,-1005.0,0.0,-1005.0
586,0.0,0.0,0.0,-926.59,78.406,-1005.0
587,28.111,23034000.0,0.011858,-389.92,612.08,-1002.0
588,33.833,336490000.0,0.019704,4642.1,5639.1,-997.0
589,28.167,189940000.0,0.023669,-966.36,36.644,-1003.0
590,0.0,0.0,0.0,-1004.0,0.0,-1004.0
591,31.0,236690000.0,0.016129,1130.2,2130.2,-1000.0
592,27.812,264670000.0,0.026966,-998.74,5.7611,-1004.5
593,0.0,0.0,0.0,84.73,89.73,-5.0
594,34.0,63122000.0,0.014706,-169.92,827.08,-997.0
595,28.125,196960000.0,0.022222,-954.41,50.089,-1004.5
596,34.25,1138000000.0,0.014599,9022.1,10018.0,-996.0
597,26.765,24178000.0,0.020879,-746.51,257.99,-1004.5
598,29.375,42509000.0,0.034043,-1003.0,0.0,-1003.0
599,31.667,176280000.0,0.026316,-123.22,876.78,-1000.0
600,0.0,0.0,0.0,-1002.5,0.0,-1002.5
601,26.231,24573000.0,0.017595,-703.72,300.78,-1004.5
602,31.409,127030000.0,0.011577,-893.09,114.91,-1008.0
603,28.667,785670000.0,0.023256,-974.14,32.86,-1007.0
604,31.0,333200000.0,0.021505,-915.64,85.857,-1001.5
605,34.5,59339000.0,0.017837,-807.1,193.4,-1000.5
606,29.333,1472300000.0,0.011364,12549.0,13552.0,-1003.0
607,29.167,134430000.0,0.015238,2159.6,3163.1,-1003.5
608,31.033,47767000.0,0.015038,-873.86,130.64,-1004.5
609,28.0,173700000.0,0.017857,505.46,1507.5,-1002.0
610,32.75,61446000.0,0.015267,-942.97,54.025,-997.0
611,33.0,361490000.0,0.030303,-997.0,0.0,-997.0
612,28.6,16434000.0,0.020979,-317.35,682.65,-1000.0
613,0.0,0.0,0.0,-940.92,59.577,-1000.5
614,31.0,80503000.0,0.025806,-820.71,175.29,-996.0
615,0.0,0.0,0.0,3200.4,3207.4,-7.0
616,30.611,15271000.0,0.016334,-428.77,570.23,-999.0
617,0.0,0.0,0.0,-1007.0,0.0,-1007.0
618,28.0,173720000.0,0.016234,3756.7,4760.2,-1003.5
619,31.0,147710000.0,0.021505,-336.3,664.7,-1001.0
620,27.0,257330000.0,0.012346,1310.9,2315.9,-1005.0
621,27.367,45303000.0,0.019488,327.71,1329.7,-1002.0
622,29.3,108750000.0,0.027304,-942.68,61.824,-1004.5
623,31.8,243870000.0,0.012579,-943.98,57.021,-1001.0
624,33.143,14088000.0,0.011494,-656.08,344.42,-1000.5
625,0.0,0.0,0.0,-1008.0,0.0,-1008.0
626,29.556,60538000.0,0.024436,-49.621,949.38,-999.0
627,30.053,27984000.0,0.024518,-930.38,65.617,-996.0
628,30.333,33993000.0,0.027473,-917.77,87.734,-1005.5
629,0.0,0.0,0.0,-1002.5,0.0,-1002.5
630,30.6,239300000.0,0.019608,-926.54,81.459,-1008.0
631,31.0,738340000.0,0.012903,-991.0,11.0,-1002.0
632,32.111,123160000.0,0.010381,-765.49,231.51,-997.0
633,27.227,209650000.0,0.023372,2704.0,3707.5,-1003.5
634,31.5,88574000.0,0.015873,-873.51,130.49,-1004.0
635,0.0,0.0,0.0,618.3,624.3,-6.0
636,27.4,262570000.0,0.021898,-935.93,72.072,-1008.0
637,26.083,75858000.0,0.028754,-963.97,40.528,-1004.5
638,31.0,476470000.0,0.016129,3012.5,4011.5,-999.0
639,28.214,94884000.0,0.03038,-949.23,55.275,-1004.5
640,0.0,0.0,0.0,2779.0,3778.0,-999.0
641,31.0,1113000000.0,0.032258,-1000.0,0.0,-1000.0
642,31.133,60795000.0,0.019272,-905.66,97.342,-1003.0
643,32.0,43206000.0,0.023438,-717.51,279.49,-997.0
644,27.286,39046000.0,0.018325,149.67,1152.7,-1003.0
645,30.5,62777000.0,0.02459,-914.81,81.191,-996.0
646,0.0,0.0,0.0,704.54,710.54,-6.0
647,33.8,24500000.0,0.02071,-767.59,229.41,-997.0
648,28.625,213410000.0,0.017467,-934.13,71.368,-1005.5
649,28.333,242450000.0,0.023529,-775.69,227.31,-1003.0
650,32.6,90158000.0,0.018405,-874.69,121.31,-996.0
651,32.143,68554000.0,0.0088889,-831.3,172.2,-1003.5
652,0.0,0.0,0.0,-1007.0,0.0,-1007.0
653,33.7,55386000.0,0.0089021,719.83,1715.8,-996.0
654,30.333,191290000.0,0.032967,-1004.0,0.0,-1004.0
655,32.938,314150000.0,0.011385,-947.4,49.596,-997.0
656,0.0,0.0,0.0,2846.5,2853.5,-7.0
657,28.4,51954000.0,0.03169,-983.29,23.711,-1007.0
658,29.917,35757000.0,0.022284,-830.54,169.96,-1000.5
659,0.0,0.0,0.0,-1006.5,0.0,-1006.5
660,0.0,0.0,0.0,90.763,97.763,-7.0
661,32.318,78666000.0,0.014065,-776.09,232.41,-1008.5
662,33.409,177840000.0,0.013605,3615.3,4611.3,-996.0
663,32.75,630610000.0,0.022901,-985.85,11.149,-997.0
664,0.0,0.0,0.0,15.948,22.948,-7.0
665,28.091,310680000.0,0.022654,-993.38,13.615,-1007.0
666,30.909,40783000.0,0.014706,97.451,1098.5,-1001.0
667,29.8,571890000.0,0.033557,-999.5,0.0,-999.5
668,27.25,55656000.0,0.029358,-888.18,116.32,-1004.5
669,29.733,51213000.0,0.015695,-883.79,119.21,-1003.0
670,28.933,51107000.0,0.02765,-890.7,116.3,-1007.0
671,28.462,229610000.0,0.024324,-990.05,12.951,-1003.0
672,28.333,503750000.0,0.023529,-956.45,52.552,-1009.0
673,29.5,73517000.0,0.01937,-832.85,169.65,-1002.5
674,30.333,123500000.0,0.021978,-740.71,261.79,-1002.5
675,27.115,14935000.0,0.021277,-734.99,272.01,-1007.0
676,31.125,85016000.0,0.024096,-517.64,479.36,-997.0
677,27.357,67200000.0,0.015666,152.12,1155.1,-1003.0
678,31.556,73998000.0,0.021127,-944.02,61.976,-1006.0
679,27.667,307600000.0,0.024096,248.76,1250.8,-1002.0
680,29.833,168980000.0,0.0055866,-808.82,191.68,-1000.5
681,29.636,77689000.0,0.021472,-926.72,76.275,-1003.0
682,33.4,177900000.0,0.023952,-915.77,82.731,-998.5
683,29.0,16975000.0,0.023707,-890.28,115.22,-1005.5
684,27.556,57493000.0,0.012097,509.63,1511.6,-1002.0
685,28.1,63571000.0,0.035587,-1005.5,0.0,-1005.5
686,34.143,17579000.0,0.018828,-717.13,288.87,-1006.0
687,0.0,0.0,0.0,2853.8,2860.8,-7.0
688,34.067,31634000.0,0.017613,-853.31,142.69,-996.0
689,32.2,241100000.0,0.018634,1090.1,2089.1,-999.0
690,30.542,65056000.0,0.016371,-876.7,128.3,-1005.0
691,30.833,346550000.0,0.021622,1983.6,2984.1,-1000.5
692,31.5,201400000.0,0.02381,-968.58,34.417,-1003.0
693,0.0,0.0,0.0,1005.9,2005.9,-1000.0
694,34.2,46792000.0,0.01462,32.182,1028.2,-996.0
695,0.0,0.0,0.0,-1007.0,0.0,-1007.0
696,30.395,129820000.0,0.025974,730.34,1729.8,-999.5
697,31.0,285540000.0,0.032258,-1001.0,0.0,-1001.0
698,0.0,0.0,0.0,-1007.0,0.0,-1007.0
699,27.583,243670000.0,0.018127,-954.06,51.436,-1005.5
700,33.429,40820000.0,0.008547,-111.79,891.21,-1003.0
701,0.0,0.0,0.0,183.97,190.97,-7.0
702,30.125,400390000.0,0.016598,2439.5,3439.0,-999.5
703,28.705,68713000.0,0.022169,-955.09,49.409,-1004.5
704,30.333,56079000.0,0.021978,-252.75,748.75,-1001.5
705,26.7,51398000.0,0.029963,-979.0,25.497,-1004.5
706,26.875,229290000.0,0.023256,-954.61,49.888,-1004.5
707,31.629,19319000.0,0.013259,-892.71,103.29,-996.0
708,0.0,0.0,0.0,3285.5,3292.5,-7.0
709,0.0,0.0,0.0,-988.66,20.339,-1009.0
710,0.0,0.0,0.0,-194.32,804.68,-999.0
711,29.833,49329000.0,0.03352,-998.0,0.0,-998.0
712,28.667,198900000.0,0.023256,-950.54,53.464,-1004.0
713,31.889,184480000.0,0.02439,1183.7,2186.7,-1003.0
714,31.143,140410000.0,0.018349,-885.91,116.09,-1002.0
715,31.0,504070000.0,0.026882,-993.39,10.61,-1004.0
716,27.625,51135000.0,0.01991,942.98,1945.0,-1002.0
717,31.119,34434000.0,0.016832,-857.71,139.29,-997.0
718,34.462,20629000.0,0.020089,-638.74,358.26,-997.0
719,26.833,31073000.0,0.02795,-965.44,37.557,-1003.0
720,27.9,359240000.0,0.021505,-971.55,33.948,-1005.5
721,32.333,125720000.0,0.020619,-922.18,76.322,-998.5
722,32.107,260090000.0,0.013348,-973.21,30.787,-1004.0
723,27.1,192290000.0,0.02214,-933.42,71.077,-1004.5
724,33.409,52827000.0,0.016327,123.69,1120.7,-997.0
725,28.82,98397000.0,0.018043,-954.21,51.79,-1006.0
726,0.0,0.0,0.0,29.585,36.585,-7.0
727,33.0,173490000.0,0.022039,-965.4,30.599,-996.0
728,29.35,107480000.0,0.013629,-760.81,243.19,-1004.0
729,31.429,63937000.0,0.018182,-157.78,842.22,-1000.0
730,0.0,0.0,0.0,64.917,70.917,-6.0
731,27.182,73598000.0,0.023411,-857.52,150.48,-1008.0
732,32.611,141680000.0,0.017036,-931.53,67.975,-999.5
733,0.0,0.0,0.0,1239.2,2241.2,-1002.0
734,32.357,138980000.0,0.02649,-563.12,434.88,-998.0
735,0.0,0.0,0.0,4658.2,4664.2,-6.0
736,34.389,254050000.0,0.019386,2310.8,3307.8,-997.0
737,0.0,0.0,0.0,-1003.0,0.0,-1003.0
738,0.0,0.0,0.0,134.82,140.82,-6.0
739,30.111,141770000.0,0.02214,547.62,1546.6,-999.0
740,30.5,26406000.0,0.015531,-406.36,589.64,-996.0
741,30.875,156160000.0,0.0080972,-580.24,415.76,-996.0
742,30.25,204570000.0,0.033058,-1001.3,5.2406,-1006.5
743,0.0,0.0,0.0,30.161,36.161,-6.0
744,33.42,27387000.0,0.020347,-897.43,108.07,-1005.5
745,28.125,134280000.0,0.013333,-674.31,321.69,-996.0
746,32.778,217360000.0,0.013559,-943.75,52.254,-996.0
747,0.0,0.0,0.0,-893.95,114.05,-1008.0
748,30.056,35757000.0,0.022181,-485.37,516.63,-1002.0
749,31.667,633960000.0,0.010526,-933.2,63.801,-997.0
750,0.0,0.0,0.0,1021.7,2021.7,-1000.0
751,28.0,56468000.0,0.015306,-13.809,989.19,-1003.0
752,31.0,262250000.0,0.024194,179.11,1180.1,-1001.0
753,0.0,0.0,0.0,37.389,43.389,-6.0
754,31.938,44070000.0,0.019569,-860.87,136.13,-997.0
755,34.211,165380000.0,0.012308,7051.7,8048.7,-997.0
756,30.208,41762000.0,0.01931,-832.93,172.07,-1005.0
757,33.367,14152000.0,0.021978,-798.55,204.95,-1003.5
758,32.3,171330000.0,0.01548,-969.5,35.5,-1005.0
759,0.0,0.0,0.0,3039.7,3046.7,-7.0
760,0.0,0.0,0.0,-960.49,43.506,-1004.0
761,0.0,0.0,0.0,243.56,250.56,-7.0
762,0.0,0.0,0.0,4420.2,4426.2,-6.0
763,32.733,55315000.0,0.0081466,-735.58,269.42,-1005.0
764,34.2,144260000.0,0.017544,-852.2,144.8,-997.0
765,31.7,206610000.0,0.018927,572.11,1569.1,-997.0
766,32.1,121970000.0,0.012461,633.37,1632.9,-999.5
767,0.0,0.0,0.0,-1005.0,0.0,-1005.0
768,29.0,829710000.0,0.025862,-989.29,14.705,-1004.0
769,31.0,48729000.0,0.017595,-70.356,926.64,-997.0
770,30.5,138360000.0,0.0081967,-757.29,250.21,-1007.5
771,0.0,0.0,0.0,-1007.0,0.0,-1007.0
772,28.5,243110000.0,0.026316,-963.37,44.626,-1008.0
773,28.769,41204000.0,0.029412,-647.52,354.48,-1002.0
774,29.333,439940000.0,0.034091,-1005.0,0.0,-1005.0
775,34.556,115130000.0,0.0096463,-894.31,101.69,-996.0
776,32.0,62453000.0,0.020833,-437.92,562.08,-1000.0
777,28.714,101670000.0,0.024876,-948.46,55.537,-1004.0
778,31.667,18857000.0,0.012632,-285.88,710.12,-996.0
779,31.4,118670000.0,0.012739,-862.05,133.95,-996.0
780,0.0,0.0,0.0,652.96,657.96,-5.0
781,31.571,218760000.0,0.022624,669.64,1668.1,-998.5
782,29.188,53958000.0,0.019272,526.04,1526.5,-1000.5
783,0.0,0.0,0.0,-1004.0,0.0,-1004.0
784,0.0,0.0,0.0,-1004.0,0.0,-1004.0
785,33.0,248900000.0,0.025253,-216.36,780.64,-997.0
786,28.0,204670000.0,0.028571,-82.969,921.03,-1004.0
787,31.643,308960000.0,0.027088,-360.41,637.09,-997.5
788,0.0,0.0,0.0,-1004.5,0.0,-1004.5
789,33.053,98500000.0,0.015924,-961.86,34.144,-996.0
790,32.143,429900000.0,0.017778,4119.8,5115.8,-996.0
791,0.0,0.0,0.0,88.61,84.61,4.0
792,33.789,27822000.0,0.017134,54.645,1054.1,-999.5
793,28.75,82216000.0,0.026087,-642.68,360.32,-1003.0
794,33.0,98083000.0,0.022727,-634.88,361.12,-996.0
795,0.0,0.0,0.0,-1007.0,0.0,-1007.0
796,31.694,75928000.0,0.017528,1381.1,2377.1,-996.0
797,31.133,105740000.0,0.012848,3203.1,4203.1,-1000.0
798,29.833,86075000.0,0.01676,-840.09,165.41,-1005.5
799,0.0,0.0,0.0,3.9674,9.9674,-6.0
800,28.0,64482000.0,0.017857,156.68,1160.7,-1004.0
801,27.667,187730000.0,0.018072,1410.2,2412.2,-1002.0
802,32.643,69973000.0,0.017505,-143.31,853.69,-997.0
803,0.0,0.0,0.0,3715.8,3721.8,-6.0
804,32.625,297270000.0,0.022989,-947.82,48.175,-996.0
805,30.0,1107300000.0,0.016667,8632.2,9633.2,-1001.0
806,32.143,151470000.0,0.026667,-677.91,318.09,-996.0
807,0.0,0.0,0.0,-1004.5,0.0,-1004.5
808,29.0,1257800000.0,0.034483,-1002.0,0.0,-1002.0
809,27.643,34758000.0,0.015504,-598.97,405.53,-1004.5
810,32.625,197960000.0,0.022989,-934.6,67.398,-1002.0
811,31.0,336830000.0,0.021505,514.73,1515.7,-1001.0
812,28.742,17791000.0,0.011223,-633.48,373.52,-1007.0
813,27.705,20528000.0,0.018048,-51.222,950.28,-1001.5
814,28.167,174350000.0,0.017751,-713.24,293.26,-1006.5
815,28.0,304330000.0,0.0071429,4474.9,5477.9,-1003.0
816,30.286,161220000.0,0.018868,727.74,1724.7,-997.0
817,28.0,183330000.0,0.017857,588.06,1591.1,-1003.0
818,32.833,77814000.0,0.020305,-867.97,129.53,-997.5
819,0.0,0.0,0.0,-1001.5,0.0,-1001.5
820,29.4,118960000.0,0.020408,-823.88,185.12,-1009.0
821,29.2,237600000.0,0.027397,-48.977,952.02,-1001.0
822,29.846,74522000.0,0.018041,-931.22,68.281,-999.5
823,31.95,30925000.0,0.015649,-366.62,629.38,-996.0
824,29.5,181400000.0,0.029056,-185.2,816.3,-1001.5
825,0.0,0.0,0.0,-1002.0,0.0,-1002.0
826,28.375,125030000.0,0.035242,-1002.0,0.0,-1002.0
827,0.0,0.0,0.0,1456.2,1462.2,-6.0
828,27.5,161090000.0,0.024242,-974.39,32.611,-1007.0
829,33.667,24656000.0,0.017822,-370.84,626.16,-997.0
830,0.0,0.0,0.0,5718.0,5724.0,-6.0
831,0.0,0.0,0.0,117.54,125.54,-8.0
832,0.0,0.0,0.0,90.836,97.836,-7.0
833,29.455,61881000.0,0.018519,-819.43,180.07,-999.5
834,33.286,64281000.0,0.015021,-902.88,101.62,-1004.5
835,33.958,44128000.0,0.019632,-250.43,745.57,-996.0
836,0.0,0.0,0.0,23.21,30.21,-7.0
837,32.167,40593000.0,0.020725,-966.49,30.511,-997.0
838,0.0,0.0,0.0,189.38,195.38,-6.0
839,28.667,38212000.0,0.017442,-762.27,244.73,-1007.0
840,0.0,0.0,0.0,535.62,542.62,-7.0
841,33.667,136210000.0,0.019802,-431.62,564.38,-996.0
842,31.038,69589000.0,0.01487,-895.69,111.31,-1007.0
843,29.0,616090000.0,0.025862,1769.4,2772.4,-1003.0
844,32.3,345720000.0,0.021672,2759.9,3756.9,-997.0
845,26.938,104130000.0,0.037123,-1003.0,0.0,-1003.0
846,28.125,279310000.0,0.035556,-1001.0,0.0,-1001.0
847,0.0,0.0,0.0,1839.5,1846.5,-7.0
848,0.0,0.0,0.0,-1001.5,0.0,-1001.5
849,31.75,30385000.0,0.017998,-818.13,177.87,-996.0
850,28.583,247190000.0,0.023324,1079.5,2082.0,-1002.5
851,0.0,0.0,0.0,3248.7,3255.7,-7.0
852,0.0,0.0,0.0,-1005.0,0.0,-1005.0
853,26.974,26857000.0,0.013659,-743.95,263.05,-1007.0
854,34.25,47474000.0,0.021898,-597.81,399.19,-997.0
855,28.0,978480000.0,0.035714,-1004.0,0.0,-1004.0
856,0.0,0.0,0.0,8079.1,8085.1,-6.0
857,27.938,140250000.0,0.022371,771.37,1773.4,-1002.0
858,0.0,0.0,0.0,4858.7,4864.7,-6.0
859,30.0,338520000.0,0.025,370.02,1371.0,-1001.0
860,29.775,58466000.0,0.0083963,3065.1,4069.1,-1004.0
861,0.0,0.0,0.0,64.291,70.291,-6.0
862,33.3,85731000.0,0.018018,-852.26,147.24,-999.5
863,0.0,0.0,0.0,172.05,178.05,-6.0
864,0.0,0.0,0.0,-1003.5,0.0,-1003.5
865,28.895,76634000.0,0.023679,-975.67,27.33,-1003.0
866,0.0,0.0,0.0,567.79,564.79,3.0
867,29.143,114670000.0,0.019608,-825.3,179.2,-1004.5
868,32.833,20316000.0,0.01692,-325.94,671.06,-997.0
869,33.375,109650000.0,0.018727,-821.18,175.82,-997.0
870,26.3,30237000.0,0.026616,-904.27,102.73,-1007.0
871,0.0,0.0,0.0,853.79,859.79,-6.0
872,30.25,275120000.0,0.020661,-950.83,56.171,-1007.0
873,0.0,0.0,0.0,209.3,215.3,-6.0
874,29.542,58124000.0,0.019746,-27.496,969.5,-997.0
875,29.0,335540000.0,0.013793,3527.8,4529.8,-1002.0
876,32.625,50527000.0,0.017241,445.62,1442.6,-997.0
877,26.909,31431000.0,0.013514,-872.01,130.99,-1003.0
878,26.7,306740000.0,0.022472,-889.14,115.36,-1004.5
879,0.0,0.0,0.0,-1004.0,0.0,-1004.0
880,32.0,58579000.0,0.013021,-896.57,99.43,-996.0
881,28.625,137340000.0,0.021834,-973.25,34.746,-1008.0
882,0.0,0.0,0.0,111.55,117.55,-6.0
883,31.0,173440000.0,0.012903,-900.85,95.149,-996.0
884,33.717,27810000.0,0.019342,152.45,1152.4,-1000.0
885,30.615,15389000.0,0.016332,-408.87,596.63,-1005.5
886,32.0,375550000.0,0.015625,2275.3,3274.3,-999.0
887,30.2,444800000.0,0.013245,9740.1,10737.0,-997.0
888,31.333,199520000.0,0.01773,2211.3,3209.3,-998.0
889,33.8,128170000.0,0.011834,692.3,1689.3,-997.0
890,29.6,173450000.0,0.02027,-875.45,123.55,-999.0
891,29.0,41487000.0,0.019397,76.09,1075.1,-999.0
892,28.857,106970000.0,0.019802,-759.09,241.91,-1001.0
893,29.345,94296000.0,0.018801,3210.9,4207.9,-997.0
894,30.636,97981000.0,0.011869,-824.12,182.88,-1007.0
895,0.0,0.0,0.0,196.77,202.77,-6.0
896,0.0,0.0,0.0,4431.4,4438.4,-7.0
897,30.286,141410000.0,0.014151,1376.3,2374.3,-998.0
898,33.7,572160000.0,0.011869,6528.5,7525.5,-997.0
899,0.0,0.0,0.0,2132.4,2138.4,-6.0
900,32.667,45625000.0,0.018707,-923.55,85.445,-1009.0
901,0.0,0.0,0.0,54.49,60.49,-6.0
902,32.964,139140000.0,0.017335,-922.35,74.65,-997.0
903,33.472,26502000.0,0.014938,28.329,1024.3,-996.0
904,0.0,0.0,0.0,-1002.0,0.0,-1002.0
905,0.0,0.0,0.0,1278.6,1285.6,-7.0
906,28.667,479560000.0,0.023256,-951.77,54.233,-1006.0
907,27.75,309670000.0,0.036036,-1003.9,1.5693,-1005.5
908,0.0,0.0,0.0,1360.9,1367.9,-7.0
909,0.0,0.0,0.0,3221.4,3227.4,-6.0
910,0.0,0.0,0.0,77.146,83.146,-6.0
911,0.0,0.0,0.0,5878.9,5885.9,-7.0
912,31.667,228580000.0,0.026316,-508.75,487.25,-996.0
913,31.848,42163000.0,0.020478,-943.34,53.662,-997.0
914,27.4,321620000.0,0.029197,-966.15,39.348,-1005.5
915,0.0,0.0,0.0,-1001.5,0.0,-1001.5
916,30.034,76117000.0,0.021814,-969.7,26.298,-996.0
917,0.0,0.0,0.0,-1004.0,0.0,-1004.0
918,29.344,25887000.0,0.017039,-829.02,177.98,-1007.0
919,0.0,0.0,0.0,1170.7,2172.7,-1002.0
920,28.625,201720000.0,0.0087336,-844.53,156.97,-1001.5
921,27.833,181220000.0,0.035928,-1002.4,3.0964,-1005.5
922,0.0,0.0,0.0,1663.3,1663.8,-0.5
923,27.5,167780000.0,0.027273,-904.22,98.776,-1003.0
924,29.769,24297000.0,0.020672,-375.96,628.04,-1004.0
925,0.0,0.0,0.0,571.3,577.3,-6.0
926,0.0,0.0,0.0,-1005.0,0.0,-1005.0
927,29.8,98541000.0,0.020134,-868.52,136.98,-1005.5
928,30.429,490480000.0,0.023474,2482.7,3481.7,-999.0
929,29.538,35335000.0,0.020833,-878.16,125.84,-1004.0
930,25.8,287500000.0,0.0077519,-829.84,178.16,-1008.0
931,29.333,411200000.0,0.017045,-980.44,26.559,-1007.0
932,32.536,13868000.0,0.015368,-604.78,400.72,-1005.5
933,32.308,133310000.0,0.016667,-940.86,55.137,-996.0
934,31.0,93598000.0,0.0096774,1868.8,2866.8,-998.0
935,30.818,94248000.0,0.020649,677.95,1678.9,-1001.0
936,31.889,36001000.0,0.020906,-792.55,203.45,-996.0
937,28.875,127610000.0,0.025974,-945.33,56.168,-1001.5
938,0.0,0.0,0.0,-1005.0,0.0,-1005.0
939,30.25,153980000.0,0.019284,-927.79,77.711,-1005.5
940,0.0,0.0,0.0,-1005.0,0.0,-1005.0
941,31.214,187450000.0,0.018307,-962.93,34.068,-997.0
942,0.0,0.0,0.0,351.2,357.2,-6.0
943,0.0,0.0,0.0,47.473,51.473,-4.0
944,0.0,0.0,0.0,2464.8,2470.8,-6.0
945,33.429,63217000.0,0.025641,-926.38,70.617,-997.0
946,32.25,66894000.0,0.027132,-979.1,25.895,-1005.0
947,33.5,102010000.0,0.029851,-997.0,0.0,-997.0
948,29.333,147020000.0,0.028409,-638.13,360.87,-999.0
949,34.0,64301000.0,0.013072,-858.54,138.46,-997.0
950,27.654,40908000.0,0.013908,-658.25,346.25,-1004.5
951,0.0,0.0,0.0,-1006.0,0.0,-1006.0
952,30.125,75371000.0,0.024896,-867.11,137.89,-1005.0
953,0.0,0.0,0.0,-1004.0,0.0,-1004.0
954,30.567,157710000.0,0.026172,1563.6,2565.6,-1002.0
955,30.864,110580000.0,0.019146,-962.52,42.976,-1005.5
956,0.0,0.0,0.0,-1007.0,0.0,-1007.0
957,0.0,0.0,0.0,-1006.0,0.0,-1006.0
958,30.667,470090000.0,0.01087,-852.03,152.97,-1005.0
959,27.3,560980000.0,0.021978,-991.34,13.161,-1004.5
960,0.0,0.0,0.0,92.524,98.524,-6.0
961,32.525,15544000.0,0.018447,-868.33,127.67,-996.0
962,0.0,0.0,0.0,6716.2,6723.2,-7.0
963,29.579,33870000.0,0.024911,-945.53,61.468,-1007.0
964,30.136,40677000.0,0.021116,-221.5,780.5,-1002.0
965,30.167,146380000.0,0.013812,3735.4,4738.4,-1003.0
966,31.0,761900000.0,0.021505,2427.6,3428.6,-1001.0
967,0.0,0.0,0.0,-776.57,224.93,-1001.5
968,0.0,0.0,0.0,4729.6,5730.6,-1001.0
969,0.0,0.0,0.0,-1003.0,0.0,-1003.0
970,31.611,511910000.0,0.024605,-997.88,0.62363,-998.5
971,30.864,39858000.0,0.017673,-842.53,161.97,-1004.5
972,0.0,0.0,0.0,-1001.5,0.0,-1001.5
973,32.684,194740000.0,0.020934,3453.8,4450.8,-997.0
974,27.278,147760000.0,0.01222,-874.74,132.26,-1007.0
975,0.0,0.0,0.0,-1000.0,0.0,-1000.0
976,30.867,215360000.0,0.021598,-990.57,5.4309,-996.0
977,27.667,321940000.0,0.036145,-1002.0,0.0,-1002.0
978,0.0,0.0,0.0,-1003.0,0.0,-1003.0
979,29.667,78479000.0,0.02809,-880.53,127.47,-1008.0
980,0.0,0.0,0.0,337.18,342.18,-5.0
981,33.423,50025000.0,0.01611,-880.34,120.16,-1000.5
982,33.5,175300000.0,0.014925,-908.18,88.818,-997.0
983,31.154,118110000.0,0.022222,614.72,1612.2,-997.5
984,31.071,94003000.0,0.018391,272.93,1272.9,-1000.0
985,28.833,90532000.0,0.028902,-642.2,360.3,-1002.5
986,33.294,36938000.0,0.019435,-93.352,903.65,-997.0
987,31.093,28026000.0,0.015485,-875.1,131.9,-1007.0
988,31.857,33918000.0,0.022422,-754.55,241.95,-996.5
989,0.0,0.0,0.0,884.74,890.74,-6.0
990,31.1,80739000.0,0.012862,-834.33,163.67,-998.0
991,26.5,555430000.0,0.025157,1493.9,2499.4,-1005.5
992,33.667,82497000.0,0.009901,-692.14,303.86,-996.0
993,0.0,0.0,0.0,-1001.5,0.0,-1001.5
994,27.778,241750000.0,0.028,1247.4,2251.9,-1004.5
995,0.0,0.0,0.0,499.09,505.09,-6.0
996,28.667,285670000.0,0.023256,-886.41,120.59,-1007.0
997,0.0,0.0,0.0,2576.0,2581.0,-5.0
998,31.062,17375000.0,0.024145,-942.37,54.628,-997.0
