episode,score,epsilon,collision,reward
1,-3.974,1.0,True,96.86810102995413,-1000.9,26.0,0.07692307692307693,-904.0318989700459
2,-3.978,1.0,True,168.56618803566997,-1010.9,22.0,0.09090909090909091,-842.33381196433
3,-3.978,1.0,True,261.7324683411076,-1008.9,22.0,0.09090909090909091,-747.1675316588924
4,-3.971,1.0,True,10.141747382681514,-996.4,29.0,0.06896551724137931,-986.2582526173185
5,-3.974,1.0,True,79.11435315326851,-1000.0,26.0,0.07692307692307693,-920.8856468467314
1,-3.977,1.0,True,82.64022190669542,-1006.9,23.0,0.08695652173913043,-924.2597780933046
2,-3.977,1.0,True,181.8606913905474,-1006.0,23.0,0.08695652173913043,-824.1393086094527
3,-3.975,1.0,True,26.44298728735796,-1002.0,25.0,0.08,-975.5570127126421
4,-3.972,1.0,True,7.627573662219293,-995.4,28.0,0.07142857142857142,-987.7724263377806
5,-3.97,1.0,True,100.3081445433504,-990.9,30.0,0.06666666666666667,-890.5918554566496
1,-3.973,1.0,True,203.09571573682663,-1000.9,27.0,0.07407407407407407,-797.8042842631734
2,-3.977,1.0,True,114.5593669226299,-1004.5,23.0,0.08695652173913043,-889.9406330773701
3,-3.977,1.0,True,542.6574645479888,-1008.9,23.0,0.08695652173913043,-466.2425354520112
4,-3.973,1.0,True,227.5448859325247,-1001.9,27.0,0.07407407407407407,-774.3551140674753
5,-3.973,1.0,True,173.58143476325577,-1000.4,27.0,0.07407407407407407,-826.8185652367442
1,-3.98,1.0,True,121.29259505113625,-1009.9,20.0,0.1,-888.6074049488637
2,-3.973,1.0,True,72.31528676760138,-998.0,27.0,0.07407407407407407,-925.6847132323986
3,-3.976,1.0,True,44.18921112962567,-1007.9,24.0,0.08333333333333333,-963.7107888703744
4,-3.97,1.0,True,85.35472739390933,-990.9,30.0,0.06666666666666667,-905.5452726060906
5,-3.98,1.0,True,2.345569882362572,-1014.9,20.0,0.1,-1012.5544301176374
