,ho_arr,ho_den,v_arra
0,7.0,0.021678250000000003,26.0625
1,3.0,0.014575199999999998,27.454545454545453
2,2.0,0.033333,30.0
3,3.0,0.013882755555555555,26.38888888888889
4,15.0,0.020008,27.384615384615383
5,4.0,0.025602857142857142,31.428571428571427
6,6.0,0.02687922222222222,28.77777777777778
7,2.0,0.01116543,28.2
8,6.0,0.024863299999999998,26.5
9,1.0,0.033898,29.5
10,2.0,0.04,25.0
11,15.0,0.03008199999999999,26.152173913043477
12,2.0,0.034365,26.666666666666668
13,13.0,0.017126482758620692,27.03448275862069
14,12.0,0.0319675294117647,25.294117647058822
15,12.0,0.015363448571428566,30.271428571428572
16,13.0,0.01858020689655172,28.844827586206897
17,12.0,0.025691954545454542,28.386363636363637
18,3.0,0.033273500000000004,27.0
19,2.0,0.034483,29.0
20,11.0,0.020719230769230764,29.942307692307693
21,1.0,0.02333766666666667,29.0
22,11.0,0.027450444444444447,27.75
23,1.0,0.037037,27.0
24,3.0,0.0244024,27.5
25,4.0,0.034745,28.3
26,6.0,0.015791615384615387,30.384615384615383
27,2.0,0.021601500000000003,30.5
28,11.0,0.025270866666666666,33.06666666666667
29,5.0,0.0379572,27.5
30,1.0,0.027877,27.75
31,9.0,0.026939437499999996,26.40625
32,3.0,0.026859000000000004,27.416666666666668
33,7.0,0.030363636363636367,26.272727272727273
34,2.0,0.037088,28.0
35,16.0,0.022787291666666664,28.895833333333332
36,4.0,0.023965666666666666,31.083333333333332
37,10.0,0.023815615384615386,29.96153846153846
38,6.0,0.024999777777777777,31.333333333333332
39,13.0,0.01821213333333333,32.766666666666666
40,9.0,0.016494353846153845,33.53846153846154
41,7.0,0.019069818181818177,31.0
42,8.0,0.029440555555555557,31.333333333333332
43,2.0,0.016335640000000002,30.3
44,1.0,0.034483,29.0
45,15.0,0.02236312,31.64
46,5.0,0.03211257142857143,28.214285714285715
47,19.0,0.021831387096774197,30.258064516129032
48,4.0,0.028214333333333327,27.444444444444443
49,6.0,0.02820257142857143,28.642857142857142
50,10.0,0.03333491666666667,25.333333333333332
51,3.0,0.03772733333333333,27.666666666666668
52,5.0,0.03199416666666667,28.083333333333332
53,3.0,0.0157990375,29.0625
54,12.0,0.017764652173913046,30.804347826086957
55,3.0,0.025246,28.333333333333332
56,1.0,0.037037,27.0
57,9.0,0.037601300000000004,26.1
58,2.0,0.033342,29.0
59,4.0,0.0346594,27.5
60,15.0,0.017527428571428576,25.857142857142858
61,2.0,0.0140627125,29.0
62,3.0,0.035717,27.5
63,17.0,0.019439172413793105,30.137931034482758
64,1.0,0.037037,27.0
65,4.0,0.03274816666666667,30.333333333333332
66,5.0,0.016913241666666665,27.541666666666668
67,1.0,0.027778,27.0
68,6.0,0.035726499999999994,27.833333333333332
69,6.0,0.026877363636363637,26.636363636363637
70,5.0,0.023611000000000004,31.72222222222222
71,5.0,0.017285429999999997,31.45
72,3.0,0.015726072727272725,27.454545454545453
73,4.0,0.025484200000000002,29.8
74,27.0,0.03147374285714286,27.485714285714284
75,11.0,0.025917692307692308,29.384615384615383
76,2.0,0.032258,31.0
77,18.0,0.02068008571428571,30.17142857142857
78,1.0,0.0241935,31.0
79,2.0,0.033083,28.166666666666668
80,19.0,0.027788965517241377,27.25862068965517
81,19.0,0.01924914857142857,26.228571428571428
82,7.0,0.016357235294117645,27.41176470588235
83,1.0,0.02194633333333333,28.833333333333332
84,3.0,0.023907,30.5
85,18.0,0.01960385714285714,26.62857142857143
86,1.0,0.021645,29.333333333333332
87,5.0,0.0350818,29.6
88,2.0,0.0210395,33.0
89,18.0,0.020621628571428574,30.2
90,5.0,0.026241111111111114,30.833333333333332
91,7.0,0.025599699999999996,31.4
92,11.0,0.02858775,26.0
93,11.0,0.0190448,25.175
94,4.0,0.022592857142857144,31.714285714285715
95,2.0,0.033333,30.0
96,2.0,0.014422399999999998,31.142857142857142
97,22.0,0.025690885714285717,29.385714285714286
98,4.0,0.02295455555555555,31.555555555555557
99,9.0,0.02664764285714286,25.285714285714285
100,1.0,0.032258,31.0
101,13.0,0.022035272727272733,27.477272727272727
102,1.0,0.035714,28.0
103,2.0,0.032258,31.0
104,1.0,0.0234375,32.0
105,5.0,0.025853666666666667,31.0
106,1.0,0.03125,32.0
107,6.0,0.033393625,26.75
108,4.0,0.02606,32.0
109,1.0,0.01639485,33.75
110,3.0,0.035714,28.0
111,20.0,0.019019828571428574,27.514285714285716
112,2.0,0.026582500000000002,29.75
113,3.0,0.018411874999999998,31.375
114,7.0,0.018412583333333333,30.041666666666668
115,14.0,0.016111190624999997,29.265625
116,19.0,0.016099091428571428,31.057142857142857
117,5.0,0.023531499999999997,33.333333333333336
118,12.0,0.01885532,30.88
119,5.0,0.018714777777777775,30.72222222222222
120,7.0,0.02194741176470588,28.91176470588235
121,5.0,0.01476217272727273,30.272727272727273
122,2.0,0.022403999999999997,33.666666666666664
123,7.0,0.027109375,31.0
124,8.0,0.023859076923076927,30.384615384615383
125,6.0,0.014904453333333333,31.0
126,5.0,0.026996375000000003,33.0
127,13.0,0.024021470588235293,29.38235294117647
128,6.0,0.03141242857142857,30.142857142857142
129,6.0,0.031147800000000003,28.65
130,4.0,0.028702,34.3
131,9.0,0.017061388888888883,30.555555555555557
132,6.0,0.028086624999999997,31.5
133,4.0,0.022600571428571425,26.714285714285715
134,8.0,0.025696818181818182,28.5
135,7.0,0.02652811111111111,33.333333333333336
136,10.0,0.02312235294117647,28.823529411764707
137,2.0,0.021857750000000002,30.5
138,3.0,0.023718999999999997,30.75
139,7.0,0.017144583333333335,34.333333333333336
140,4.0,0.0301282,31.2
141,2.0,0.026180333333333333,30.0
142,3.0,0.035076,29.666666666666668
143,6.0,0.020518777777777778,27.944444444444443
144,3.0,0.03668766666666667,29.0
145,6.0,0.03312057142857143,29.571428571428573
146,7.0,0.022527846153846152,31.0
147,1.0,0.013172066666666668,31.0
148,5.0,0.03288716666666667,28.75
149,8.0,0.028192333333333333,30.25
150,7.0,0.027472999999999997,25.5
151,9.0,0.019364185714285713,28.428571428571427
152,4.0,0.03118425,33.5
153,6.0,0.021719333333333334,31.833333333333332
154,4.0,0.0307365,30.333333333333332
155,12.0,0.02069366666666667,30.97222222222222
156,2.0,0.0345235,30.0
157,22.0,0.02675254838709678,31.29032258064516
158,1.0,0.017361075,30.0
159,5.0,0.021436200000000002,29.4
160,1.0,0.034483,29.0
161,3.0,0.033898,29.5
162,8.0,0.029565625,26.75
163,4.0,0.0331036,29.0
164,7.0,0.02660645454545455,29.181818181818183
165,5.0,0.018416555555555554,33.333333333333336
166,1.0,0.019103666666666668,33.666666666666664
167,10.0,0.02417957142857143,32.42857142857143
168,1.0,0.0127351625,28.5
169,2.0,0.03576,29.0
170,2.0,0.02137925,32.0
171,8.0,0.016664583333333333,30.208333333333332
172,7.0,0.029818625,30.25
173,2.0,0.033333,30.0
174,2.0,0.024074,30.0
175,7.0,0.01887713333333333,28.875
176,7.0,0.01518855,28.0
177,2.0,0.037037,27.0
178,6.0,0.032404749999999996,25.0
179,4.0,0.017853955555555558,28.0
180,1.0,0.0198549,28.25
181,1.0,0.027139,29.0
182,3.0,0.013643275,30.0
183,12.0,0.013316454285714291,29.042857142857144
184,2.0,0.037037,27.0
185,4.0,0.02540825,29.5
186,11.0,0.024752611111111114,30.305555555555557
187,7.0,0.019490538461538462,28.923076923076923
188,3.0,0.0268145,29.333333333333332
189,3.0,0.024509,30.5
190,2.0,0.03576,29.0
191,4.0,0.034011200000000005,27.6
192,10.0,0.024716250000000002,28.3125
193,5.0,0.018377322222222225,29.055555555555557
194,21.0,0.020551914285714287,31.34285714285714
195,5.0,0.03507766666666667,29.75
196,9.0,0.023343076923076925,29.923076923076923
197,9.0,0.0321954,32.6
198,4.0,0.022753833333333334,27.333333333333332
199,3.0,0.034991999999999995,28.0
200,1.0,0.034483,29.0
201,21.0,0.02186727714285714,30.014285714285716
202,8.0,0.024979437500000003,26.25
203,1.0,0.012705550000000001,33.666666666666664
204,4.0,0.0324998,28.0
205,21.0,0.0249817,30.266666666666666
206,2.0,0.024478,31.666666666666668
207,1.0,0.03125,32.0
208,3.0,0.021221200000000003,31.1
209,7.0,0.024992636363636366,30.727272727272727
210,10.0,0.015745115789473685,31.18421052631579
211,10.0,0.028360823529411765,30.029411764705884
212,6.0,0.03360814285714286,29.714285714285715
213,6.0,0.016267516666666666,30.333333333333332
214,3.0,0.0314625,31.0
215,7.0,0.032438499999999995,25.8
216,1.0,0.025,30.0
217,3.0,0.025048333333333336,26.833333333333332
218,5.0,0.027525874999999998,32.0
219,23.0,0.02647345714285715,30.242857142857144
220,10.0,0.023678937499999997,29.5625
221,19.0,0.026130866666666672,28.066666666666666
222,3.0,0.033041666666666664,32.0
223,2.0,0.04,25.0
224,5.0,0.025821750000000004,28.5625
225,9.0,0.03147081818181819,27.954545454545453
226,1.0,0.03125,32.0
227,12.0,0.018713,31.26086956521739
228,1.0,0.04,25.0
229,4.0,0.02986116666666667,28.0
230,2.0,0.018820040000000003,28.5
231,14.0,0.025366117647058827,31.88235294117647
232,5.0,0.014574809999999999,31.4
233,22.0,0.021875514285714284,30.62857142857143
234,18.0,0.029761689655172417,29.53448275862069
235,1.0,0.014436599999999997,29.0
236,9.0,0.021614277777777777,30.583333333333332
237,9.0,0.019892805882352947,27.029411764705884
238,6.0,0.029294111111111115,31.38888888888889
239,4.0,0.010741461538461537,32.07692307692308
240,3.0,0.024227,30.25
241,1.0,0.034483,29.0
242,4.0,0.028648000000000003,26.0
243,1.0,0.01286838333333333,33.666666666666664
244,7.0,0.02157753846153846,32.07692307692308
245,3.0,0.028164285714285715,26.642857142857142
246,1.0,0.033333,30.0
247,1.0,0.035714,28.0
248,12.0,0.0277214,27.833333333333332
249,8.0,0.0261034,31.0
250,6.0,0.02770283333333333,29.666666666666668
251,11.0,0.01890216,25.16
252,2.0,0.023297333333333333,31.0
253,2.0,0.033770499999999995,30.25
254,4.0,0.0161425625,32.125
255,6.0,0.01252134,32.6
256,1.0,0.03125,32.0
257,2.0,0.015440614285714287,29.428571428571427
258,14.0,0.02657913636363636,29.454545454545453
259,5.0,0.022515333333333335,34.5
260,7.0,0.021421285714285716,30.0
261,5.0,0.014493958333333333,27.666666666666668
262,2.0,0.024074,30.0
263,11.0,0.025676285714285714,31.428571428571427
264,2.0,0.02753833333333333,27.666666666666668
265,2.0,0.0362175,28.25
266,4.0,0.0220761,31.4
267,8.0,0.015452699999999998,32.142857142857146
268,3.0,0.033333,30.0
269,2.0,0.0201945,29.666666666666668
270,9.0,0.016915526315789475,29.86842105263158
271,3.0,0.022424166666666665,32.666666666666664
272,15.0,0.0256374347826087,30.47826086956522
273,19.0,0.020246457142857145,31.142857142857142
274,8.0,0.015327900000000002,29.875
275,2.0,0.034112333333333335,27.5
276,1.0,0.028846500000000004,26.0
277,4.0,0.016245875,31.375
278,2.0,0.035714,28.0
279,6.0,0.028365899999999993,28.0
280,5.0,0.025141374999999997,32.5625
281,3.0,0.0312565,30.0
282,6.0,0.027935375,29.0
283,9.0,0.024860076923076922,29.46153846153846
284,5.0,0.021212428571428573,30.428571428571427
285,21.0,0.030738571428571435,25.0
286,11.0,0.01599838095238095,32.095238095238095
287,13.0,0.029058391304347828,26.934782608695652
288,4.0,0.01617927692307692,30.384615384615383
289,6.0,0.01560593333333333,29.944444444444443
290,9.0,0.022708153846153843,30.615384615384617
291,7.0,0.016738875000000007,27.85
292,15.0,0.02157634285714285,27.857142857142858
293,14.0,0.016843588571428567,29.5
294,8.0,0.014518699999999995,29.4
295,3.0,0.03197975,28.0
296,7.0,0.02817775,32.5
297,7.0,0.023314461538461537,32.61538461538461
298,3.0,0.0243055,30.0
299,19.0,0.01936454285714286,29.057142857142857
300,3.0,0.01603063,30.6
301,1.0,0.026785500000000004,28.0
302,7.0,0.023923375000000004,32.1875
303,16.0,0.028385499999999994,29.0
304,6.0,0.02687109090909091,29.90909090909091
305,5.0,0.017511872727272726,31.772727272727273
306,6.0,0.023455777777777773,32.22222222222222
307,4.0,0.013009283333333335,33.541666666666664
308,8.0,0.03219222222222222,28.555555555555557
309,4.0,0.037224,28.0
310,18.0,0.01944877142857143,31.114285714285714
311,3.0,0.03772733333333333,27.666666666666668
312,7.0,0.016781484615384614,29.53846153846154
313,1.0,0.03125,32.0
314,1.0,0.025,30.0
315,7.0,0.028721777777777777,28.555555555555557
316,6.0,0.0221981,29.35
317,3.0,0.016763911111111113,30.11111111111111
318,7.0,0.01817325,34.3125
319,7.0,0.031033750000000002,27.75
320,2.0,0.022569333333333334,32.0
321,7.0,0.02442111111111111,29.77777777777778
322,2.0,0.03125,32.0
323,5.0,0.029132166666666667,33.0
324,1.0,0.017959674999999998,29.0
325,11.0,0.029303454545454546,34.36363636363637
326,2.0,0.033083,28.166666666666668
327,5.0,0.019829111111111113,30.833333333333332
328,7.0,0.019139733333333336,29.8
329,7.0,0.026897230769230767,25.846153846153847
330,3.0,0.024207,30.4
331,11.0,0.026556199999999995,30.025
332,6.0,0.023909583333333335,32.541666666666664
333,4.0,0.0299695,28.333333333333332
334,6.0,0.0285325,30.25
335,6.0,0.028932875000000004,28.0
336,4.0,0.03209875,31.625
337,15.0,0.024033541666666672,28.666666666666668
338,3.0,0.0227865,32.0
339,2.0,0.025997333333333334,28.666666666666668
340,5.0,0.025277833333333333,30.0
341,1.0,0.023881,32.25
342,6.0,0.037793428571428575,26.714285714285715
343,1.0,0.032258,31.0
344,6.0,0.025983,30.3125
345,3.0,0.03197975,28.0
346,3.0,0.02472083333333333,28.333333333333332
347,4.0,0.02919966666666667,32.333333333333336
348,15.0,0.02409233333333333,29.416666666666668
349,5.0,0.025323000000000002,28.928571428571427
350,4.0,0.017107555555555556,31.0
351,1.0,0.034483,29.0
352,22.0,0.018151828571428563,30.185714285714287
353,11.0,0.019768235294117642,30.58823529411765
354,19.0,0.024512028571428573,25.285714285714285
355,3.0,0.03472225,27.0
356,4.0,0.019095400000000002,30.25
357,8.0,0.01994446153846154,31.153846153846153
358,3.0,0.031043600000000005,31.4
359,11.0,0.01413598636363636,32.45454545454545
360,6.0,0.030416777777777775,29.444444444444443
361,4.0,0.01753342857142857,31.0
362,11.0,0.020256772727272724,28.636363636363637
363,2.0,0.025137333333333334,30.166666666666668
364,2.0,0.026903,34.0
365,1.0,0.025862,29.0
366,1.0,0.03125,32.0
367,2.0,0.0271885,30.5
368,4.0,0.03596275,29.0
369,5.0,0.028264428571428572,28.428571428571427
370,7.0,0.026111692307692305,30.653846153846153
371,9.0,0.021976285714285716,29.678571428571427
372,15.0,0.015904396296296294,26.666666666666668
373,3.0,0.022198285714285716,30.642857142857142
374,5.0,0.020262833333333334,29.708333333333332
375,6.0,0.03594933333333333,28.833333333333332
376,1.0,0.035714,28.0
377,3.0,0.033333,30.0
378,3.0,0.030241999999999998,31.0
379,5.0,0.0149944,28.192307692307693
380,22.0,0.024292665714285722,25.685714285714287
381,3.0,0.03772733333333333,27.666666666666668
382,2.0,0.027454333333333334,33.666666666666664
383,13.0,0.018962964285714288,29.857142857142858
384,10.0,0.028168230769230772,32.23076923076923
385,1.0,0.032258,31.0
386,2.0,0.0237776,30.0
387,10.0,0.02030145625,28.5
388,5.0,0.023264714285714284,27.785714285714285
389,4.0,0.0290964,30.2
390,9.0,0.0245836875,27.1875
391,5.0,0.027236,27.0
392,2.0,0.0385185,27.0
393,2.0,0.02579366666666667,28.0
394,5.0,0.030339571428571428,31.285714285714285
395,5.0,0.023839666666666665,34.111111111111114
396,5.0,0.02964442857142857,32.42857142857143
397,5.0,0.030950000000000002,28.333333333333332
398,3.0,0.0322222,27.0
399,8.0,0.02129425,29.25
400,23.0,0.028794028571428574,25.114285714285714
401,2.0,0.033713,27.166666666666668
402,1.0,0.025862,29.0
403,10.0,0.030557666666666674,29.333333333333332
404,3.0,0.021884285714285714,31.214285714285715
405,4.0,0.03481775,29.375
406,2.0,0.02866825,29.0
407,4.0,0.0319136,32.6
408,3.0,0.015122725,27.625
409,3.0,0.029788750000000003,30.0
410,2.0,0.024250333333333336,30.666666666666668
411,6.0,0.027022444444444446,28.055555555555557
412,2.0,0.033209,30.75
413,11.0,0.02235573684210526,28.0
414,6.0,0.01938236363636364,32.09090909090909
415,2.0,0.0321415,31.75
416,10.0,0.027025384615384618,27.807692307692307
417,7.0,0.024592200000000005,28.0
418,14.0,0.020821404761904767,28.285714285714285
419,5.0,0.01058951111111111,28.944444444444443
420,3.0,0.03472225,27.0
421,11.0,0.0216954,32.2
422,1.0,0.011547214285714286,32.857142857142854
423,7.0,0.0158351,32.63636363636363
424,9.0,0.026593099999999998,30.0
425,2.0,0.017708333333333333,32.0
426,11.0,0.025294647058823533,28.852941176470587
427,5.0,0.024063374999999998,30.25
428,3.0,0.025852600000000003,31.5
429,5.0,0.02933625,29.0
430,16.0,0.028643,28.227272727272727
431,13.0,0.026778947368421055,27.31578947368421
432,6.0,0.028368000000000004,30.75
433,1.0,0.037037,27.0
434,2.0,0.037037,27.0
435,2.0,0.032258,31.0
436,2.0,0.01822925,32.0
437,21.0,0.025889342857142856,27.814285714285713
438,2.0,0.035714,28.0
439,21.0,0.028351742857142866,25.942857142857143
440,19.0,0.016809582857142853,27.942857142857143
441,7.0,0.03392928571428571,30.428571428571427
442,12.0,0.021781489473684208,28.526315789473685
443,3.0,0.035173,29.333333333333332
444,5.0,0.01943436666666666,27.27777777777778
445,3.0,0.018057371428571427,28.428571428571427
446,4.0,0.029354799999999997,31.0
447,3.0,0.037037,27.0
448,5.0,0.02676822222222222,27.27777777777778
449,3.0,0.020671333333333333,29.166666666666668
450,15.0,0.025790519999999997,28.68
451,9.0,0.031228363636363634,26.818181818181817
452,4.0,0.025959249999999996,33.3125
453,3.0,0.023775750000000002,32.0
454,6.0,0.031839,28.0
455,5.0,0.02669242857142858,29.5
456,7.0,0.02318518181818182,27.681818181818183
457,3.0,0.031647499999999995,30.125
458,5.0,0.017443537500000002,32.5
459,18.0,0.0215866,29.242857142857144
460,8.0,0.024366071428571428,28.535714285714285
461,14.0,0.011631565714285714,34.6
462,8.0,0.022577812499999995,30.5
463,4.0,0.026380999999999998,31.285714285714285
464,9.0,0.023151133333333334,30.466666666666665
465,3.0,0.024902666666666667,30.0
466,3.0,0.035076,29.666666666666668
467,8.0,0.013605612500000001,31.0
468,1.0,0.025423499999999998,29.5
469,3.0,0.02192614285714286,29.571428571428573
470,5.0,0.0190479,31.6
471,20.0,0.021183971428571435,29.67142857142857
472,1.0,0.021072666666666667,29.0
473,3.0,0.023017,30.333333333333332
474,4.0,0.02342171428571429,28.785714285714285
475,7.0,0.025435666666666665,29.166666666666668
476,10.0,0.01925694444444444,29.36111111111111
477,2.0,0.0322915,30.0
478,5.0,0.02905755555555556,28.61111111111111
479,1.0,0.032258,31.0
480,1.0,0.035714,28.0
481,11.0,0.025436312500000002,33.78125
482,1.0,0.02003235,26.0
483,13.0,0.02238563636363636,29.886363636363637
484,5.0,0.025644111111111114,28.666666666666668
485,12.0,0.025188117647058823,31.058823529411764
486,2.0,0.02625425,31.0
487,3.0,0.016159642857142855,32.285714285714285
488,5.0,0.032840777777777774,26.666666666666668
489,5.0,0.01741592307692308,30.692307692307693
490,24.0,0.022683617142857142,26.62857142857143
491,7.0,0.0241735,28.2
492,11.0,0.028203882352941176,30.705882352941178
493,2.0,0.02579366666666667,28.0
494,2.0,0.0333705,31.0
495,14.0,0.03216675000000001,29.275
496,1.0,0.035714,28.0
497,7.0,0.026039800000000002,30.95
498,3.0,0.025071,29.4
499,3.0,0.03125,32.0
500,1.0,0.032258,31.0
501,2.0,0.01816736,27.0
502,18.0,0.018255485714285712,27.571428571428573
503,20.0,0.019164085714285718,25.0
504,3.0,0.029047,31.4
505,12.0,0.02553963157894737,27.526315789473685
506,24.0,0.02475762857142858,28.542857142857144
507,1.0,0.012760466666666666,32.0
508,5.0,0.023749,32.0
509,9.0,0.025976999999999997,30.0
510,3.0,0.020952400000000003,28.0
511,1.0,0.032258,31.0
512,9.0,0.033845799999999995,29.8
513,9.0,0.008311024137931033,28.03448275862069
514,3.0,0.016244537500000003,30.5
515,6.0,0.015202791666666667,28.0
516,6.0,0.026184,28.125
517,1.0,0.019103666666666668,33.666666666666664
518,17.0,0.022366457142857146,26.0
519,14.0,0.025394045454545457,30.0
520,5.0,0.020685333333333337,30.22222222222222
521,2.0,0.021222750000000002,30.875
522,3.0,0.0106408,32.4
523,18.0,0.02606682857142858,25.62857142857143
524,3.0,0.024975000000000004,27.0
525,2.0,0.018585833333333333,27.5
526,1.0,0.03125,32.0
527,17.0,0.01558177142857143,32.3
528,9.0,0.01882616470588236,32.76470588235294
529,14.0,0.02257047619047619,28.523809523809526
530,5.0,0.0239523,30.5
531,21.0,0.023727571428571435,28.557142857142857
532,1.0,0.018461825,30.0
533,13.0,0.019749359999999997,28.4
534,8.0,0.024576250000000004,26.375
535,9.0,0.03080438461538462,28.0
536,11.0,0.021768383333333332,26.583333333333332
537,2.0,0.021670000000000002,30.0
538,2.0,0.02676825,31.0
539,21.0,0.022228857142857144,28.7
540,19.0,0.01522008285714286,30.885714285714286
541,18.0,0.019092657142857145,32.285714285714285
542,1.0,0.018985425,29.0
543,6.0,0.03083171428571429,31.0
544,6.0,0.023975000000000003,29.233333333333334
545,8.0,0.031568000000000006,27.0
546,7.0,0.030973444444444442,31.166666666666668
547,19.0,0.023184028571428567,25.4
548,6.0,0.021626312499999994,25.78125
549,2.0,0.033771333333333334,27.333333333333332
550,2.0,0.02763875,31.5
551,3.0,0.034483,29.0
552,20.0,0.02048237142857143,30.485714285714284
553,3.0,0.035088,28.5
554,7.0,0.021601454545454545,31.0
555,21.0,0.031552942857142864,26.2
556,8.0,0.025758083333333334,31.375
557,5.0,0.020211444444444445,29.88888888888889
558,17.0,0.018170342857142852,32.27142857142857
559,2.0,0.02579366666666667,28.0
560,1.0,0.034483,29.0
561,11.0,0.01959185,29.975
562,1.0,0.0125483875,28.0
563,2.0,0.03125,32.0
564,2.0,0.037037,27.0
565,17.0,0.01842331428571429,31.771428571428572
566,3.0,0.036413999999999995,27.666666666666668
567,5.0,0.02921875,32.75
568,7.0,0.030651249999999998,30.0
569,5.0,0.02759,28.428571428571427
570,6.0,0.033069857142857144,30.285714285714285
571,23.0,0.02501605714285714,31.942857142857143
572,4.0,0.033465666666666664,28.333333333333332
573,3.0,0.030942749999999998,31.5
574,6.0,0.03628114285714285,27.0
575,12.0,0.03411315384615385,28.807692307692307
576,1.0,0.019500975,28.5
577,12.0,0.02228283333333333,31.22222222222222
578,3.0,0.034483,29.0
579,17.0,0.015244437142857142,27.542857142857144
580,9.0,0.013742584210526317,26.94736842105263
581,20.0,0.020878999999999998,28.0
582,11.0,0.02906321428571429,30.464285714285715
583,3.0,0.028102750000000003,34.25
584,3.0,0.025103,27.0
585,14.0,0.020566555555555553,27.14814814814815
586,3.0,0.024578500000000003,31.0
587,9.0,0.015711536363636366,26.022727272727273
588,2.0,0.023990333333333336,29.666666666666668
589,23.0,0.027156771428571428,28.0
590,5.0,0.015829049999999997,29.8
591,5.0,0.02596866666666666,30.333333333333332
592,11.0,0.026205937499999995,29.3125
593,5.0,0.03175516666666667,29.666666666666668
594,7.0,0.03193977777777778,30.22222222222222
595,3.0,0.0195806,30.0
596,8.0,0.023721700000000002,28.0
597,4.0,0.0293905,31.0
598,7.0,0.0293884,27.45
599,7.0,0.015850246153846156,29.076923076923077
600,1.0,0.027139,29.0
601,4.0,0.022283333333333336,34.111111111111114
602,11.0,0.01861673913043478,30.282608695652176
603,5.0,0.02569728571428571,28.642857142857142
604,2.0,0.02470666666666667,30.666666666666668
605,1.0,0.033333,30.0
606,2.0,0.029532666666666665,29.333333333333332
607,8.0,0.020456529411764707,29.352941176470587
608,1.0,0.026785500000000004,28.0
609,3.0,0.015120828571428572,27.857142857142858
610,13.0,0.025689000000000007,28.282608695652176
611,3.0,0.03413775,28.25
612,7.0,0.0276471,29.25
613,1.0,0.01909733333333333,32.0
614,1.0,0.016276125,32.0
615,4.0,0.018739916666666665,27.208333333333332
616,13.0,0.02723905882352941,30.323529411764707
617,3.0,0.02778514285714286,26.642857142857142
618,4.0,0.018035750000000003,30.0
619,5.0,0.019867000000000003,29.0
620,16.0,0.016904,32.114285714285714
621,1.0,0.013305333333333334,29.333333333333332
622,4.0,0.031476333333333335,29.0
623,2.0,0.0329355,29.75
624,4.0,0.026011142857142854,26.285714285714285
625,7.0,0.025672099999999996,28.45
626,5.0,0.021994,31.09090909090909
627,3.0,0.0243055,30.0
628,3.0,0.031071400000000006,28.0
629,4.0,0.026440999999999996,27.545454545454547
630,2.0,0.02579366666666667,28.0
631,2.0,0.034483,29.0
632,10.0,0.02273147368421053,30.05263157894737
633,23.0,0.02726554285714286,27.34285714285714
634,6.0,0.020276555555555555,30.333333333333332
635,1.0,0.02459,30.5
636,2.0,0.030791333333333337,29.666666666666668
637,2.0,0.032258,31.0
638,9.0,0.01666235,30.7
639,18.0,0.01634262857142857,29.771428571428572
640,3.0,0.037037,27.0
641,10.0,0.034932545454545445,28.636363636363637
642,1.0,0.027778,27.0
643,3.0,0.012307055555555554,29.88888888888889
644,8.0,0.01983083333333333,29.125
645,3.0,0.03232775,29.0
646,3.0,0.020886,30.2
647,19.0,0.020044225806451613,29.580645161290324
648,24.0,0.027853212121212122,27.166666666666668
649,3.0,0.029297,32.0
650,9.0,0.02670564285714286,28.678571428571427
651,4.0,0.01887488888888889,33.5
652,3.0,0.03197975,28.0
653,2.0,0.0390475,26.25
654,5.0,0.022687000000000002,33.857142857142854
655,7.0,0.01553019411764706,32.05882352941177
656,9.0,0.018108875,30.75
657,11.0,0.01888933333333333,31.666666666666668
658,16.0,0.021098657142857143,25.2
659,22.0,0.028587571428571427,25.228571428571428
660,1.0,0.016801125,31.0
661,10.0,0.0211410625,29.625
662,1.0,0.033333,30.0
663,1.0,0.022440333333333336,28.333333333333332
664,22.0,0.020135142857142855,28.185714285714287
665,2.0,0.03125,32.0
666,7.0,0.02182692857142857,28.428571428571427
667,8.0,0.020188050000000006,29.2
668,3.0,0.03494575,28.875
669,4.0,0.035714,28.0
670,24.0,0.022454820000000004,26.0
671,3.0,0.030506000000000002,28.0
672,1.0,0.033898,29.5
673,5.0,0.027322285714285712,30.714285714285715
674,5.0,0.012009330769230768,28.115384615384617
675,5.0,0.024121,31.166666666666668
676,13.0,0.02329522222222222,29.0
677,19.0,0.01757688571428571,29.771428571428572
678,3.0,0.018052614285714284,27.0
679,6.0,0.02139442857142857,34.32142857142857
680,8.0,0.021944500000000002,30.666666666666668
681,9.0,0.02637673333333334,30.0
682,1.0,0.0198739,28.0
683,7.0,0.0252363,30.75
684,3.0,0.018598700000000003,29.5
685,3.0,0.015708622222222222,26.555555555555557
686,1.0,0.033333,30.0
687,14.0,0.030075549999999996,29.2
688,7.0,0.019463857142857144,30.428571428571427
689,13.0,0.019618559999999997,29.5
690,6.0,0.024288300000000002,29.6
691,1.0,0.026785500000000004,28.0
692,8.0,0.017649625,29.125
693,2.0,0.03466466666666667,25.333333333333332
694,20.0,0.016029645714285716,30.557142857142857
695,2.0,0.034483,29.0
696,9.0,0.02284035294117647,27.0
697,3.0,0.02581075,29.0
698,2.0,0.03576,29.0
699,10.0,0.011839829032258064,27.79032258064516
700,3.0,0.017145449999999996,29.0
701,19.0,0.018969851428571428,25.642857142857142
702,10.0,0.019630722222222223,32.55555555555556
703,15.0,0.02164097142857143,25.17142857142857
704,2.0,0.0177868,30.0
705,5.0,0.02570633333333333,29.5
706,2.0,0.025997333333333334,28.666666666666668
707,3.0,0.03135825,32.25
708,3.0,0.01865657142857143,31.285714285714285
709,19.0,0.024305771428571432,26.15714285714286
710,21.0,0.02117163666666666,29.516666666666666
711,3.0,0.0183334,32.0
712,4.0,0.03298,29.25
713,12.0,0.026622899999999998,28.2
714,2.0,0.0329355,29.75
715,1.0,0.025862,29.0
716,2.0,0.0262678,27.6
717,3.0,0.022317749999999997,34.0
718,3.0,0.021728599999999997,27.0
719,3.0,0.015987222222222222,30.61111111111111
720,7.0,0.0265822,30.0
721,23.0,0.024180942857142864,30.3
722,6.0,0.0210382,28.6
723,11.0,0.02251026315789474,26.789473684210527
724,5.0,0.02237772727272727,28.681818181818183
725,24.0,0.024600971428571428,33.81428571428572
726,7.0,0.023497538461538462,31.46153846153846
727,2.0,0.0385185,27.0
728,3.0,0.03262975,30.0
729,7.0,0.026098799999999995,28.8
730,13.0,0.027453944444444447,28.0
731,7.0,0.02152341666666667,29.333333333333332
732,5.0,0.021622,28.0
733,15.0,0.02940070000000001,25.5
734,1.0,0.036364,27.5
735,8.0,0.021026941176470585,27.91176470588235
736,9.0,0.016777,31.1
737,7.0,0.03272877777777777,30.77777777777778
738,4.0,0.02578614285714286,29.142857142857142
739,6.0,0.024029,32.77777777777778
740,2.0,0.016964237500000003,29.0
741,4.0,0.026971333333333333,31.0
742,7.0,0.024504636363636364,32.0
743,6.0,0.027487250000000005,28.0
744,3.0,0.017010375,31.5
745,7.0,0.0268266,29.0
746,6.0,0.0241535,30.6
747,14.0,0.015043685714285708,28.014285714285716
748,11.0,0.02742742857142857,29.785714285714285
749,8.0,0.03346422222222222,28.833333333333332
750,2.0,0.0385185,27.0
751,3.0,0.024213400000000003,28.4
752,7.0,0.01896113333333333,31.166666666666668
753,2.0,0.013375100000000001,31.0
754,10.0,0.0248139375,29.75
755,7.0,0.027576899999999998,29.9
756,3.0,0.036425000000000006,28.166666666666668
757,5.0,0.02723675,32.0
758,1.0,0.032258,31.0
759,2.0,0.029144,30.5
760,2.0,0.02083325,28.0
761,2.0,0.032258,31.0
762,2.0,0.02083325,28.0
763,6.0,0.035088,28.5
764,9.0,0.019357733333333335,31.133333333333333
765,11.0,0.03097664285714286,32.5
766,21.0,0.01730421714285714,31.428571428571427
767,17.0,0.02538292592592593,26.0
768,16.0,0.029319521739130435,30.0
769,5.0,0.018481818181818183,30.636363636363637
770,9.0,0.0204383125,29.5
771,5.0,0.022812444444444444,30.166666666666668
772,3.0,0.022317749999999997,34.0
773,6.0,0.0297433,28.0
774,1.0,0.011903062499999999,30.5
775,20.0,0.0224596,30.62857142857143
776,4.0,0.03596275,29.0
777,2.0,0.02777766666666667,32.0
778,19.0,0.02339234285714286,32.128571428571426
779,1.0,0.020370333333333334,30.0
780,7.0,0.027983222222222222,30.11111111111111
781,1.0,0.0234375,32.0
782,23.0,0.02417745714285715,27.87142857142857
783,3.0,0.024201,32.666666666666664
784,11.0,0.017212527272727273,30.25
785,2.0,0.0219855,27.25
786,1.0,0.01473122,31.0
787,9.0,0.01828358823529412,33.5
788,11.0,0.027958666666666666,27.9
789,17.0,0.02439403703703704,30.074074074074073
790,8.0,0.02477266666666667,26.5
791,10.0,0.030887230769230764,28.384615384615383
792,2.0,0.022569333333333334,32.0
793,6.0,0.02004608333333333,30.666666666666668
794,8.0,0.020535176470588234,34.411764705882355
795,4.0,0.019416875,29.0
796,4.0,0.02517916666666667,31.0
797,2.0,0.031746,28.0
798,2.0,0.02962933333333333,30.0
799,20.0,0.025140028571428566,25.8
800,16.0,0.020353228571428572,26.142857142857142
801,10.0,0.020651444444444444,30.0
802,6.0,0.021654400000000004,33.35
803,2.0,0.016346883333333336,30.333333333333332
804,17.0,0.035640318181818176,27.545454545454547
805,7.0,0.03177014285714286,32.42857142857143
806,5.0,0.018755266666666666,28.27777777777778
807,18.0,0.030456730769230774,28.53846153846154
808,6.0,0.029551222222222222,27.0
809,1.0,0.0241935,31.0
810,18.0,0.026047028571428568,28.65714285714286
811,9.0,0.02933481818181818,30.454545454545453
812,4.0,0.02539,26.583333333333332
813,16.0,0.017697857142857147,33.68571428571428
814,9.0,0.02745246153846154,28.423076923076923
815,1.0,0.032258,31.0
816,4.0,0.018709499999999997,32.0
817,20.0,0.016216057142857145,30.085714285714285
818,2.0,0.022794250000000002,27.0
819,2.0,0.0218225,32.0
820,2.0,0.035714,28.0
821,2.0,0.0385185,27.0
822,10.0,0.0213176,25.975
823,5.0,0.022482916666666672,28.125
824,2.0,0.022106,28.0
825,1.0,0.0292595,27.0
826,10.0,0.02040694117647059,32.1764705882353
827,21.0,0.022513428571428577,28.142857142857142
828,11.0,0.01914232,27.2
829,1.0,0.028846500000000004,26.0
830,6.0,0.03369333333333333,30.583333333333332
831,3.0,0.0314625,31.0
832,1.0,0.021838,29.666666666666668
833,10.0,0.026388555555555557,31.0
834,1.0,0.03125,32.0
835,22.0,0.022509085714285712,26.642857142857142
836,6.0,0.013519558823529412,28.88235294117647
837,4.0,0.0331036,29.0
838,4.0,0.022263,29.642857142857142
839,21.0,0.025856371428571428,27.3
840,3.0,0.023493857142857143,26.142857142857142
841,12.0,0.0250061875,30.125
842,6.0,0.02744088888888889,28.88888888888889
843,7.0,0.02556436363636364,27.09090909090909
844,6.0,0.03489771428571429,28.571428571428573
845,21.0,0.024377428571428574,30.071428571428573
846,9.0,0.017074699999999998,28.825
847,5.0,0.03088914285714286,28.142857142857142
848,1.0,0.0234375,32.0
849,20.0,0.020312542857142863,27.514285714285716
850,16.0,0.01674945714285714,27.82857142857143
851,3.0,0.021054,28.428571428571427
852,5.0,0.023,31.5
853,9.0,0.03283046153846154,29.192307692307693
854,10.0,0.01730025,32.333333333333336
855,2.0,0.034483,29.0
856,2.0,0.02753833333333333,27.666666666666668
857,2.0,0.022403999999999997,33.666666666666664
858,9.0,0.0192329375,27.75
859,11.0,0.014917454545454546,30.227272727272727
860,4.0,0.018328875,33.5
861,4.0,0.024425000000000002,28.5
862,5.0,0.0368714,28.2
863,8.0,0.028242249999999997,28.0
864,7.0,0.028716083333333337,30.0
865,3.0,0.017145449999999996,29.0
866,4.0,0.0268475,33.083333333333336
867,18.0,0.023783914285714292,27.685714285714287
868,4.0,0.017440744444444448,30.11111111111111
869,20.0,0.028297542857142855,25.4
870,7.0,0.026821300000000003,32.4
871,23.0,0.022417600000000003,28.0
872,1.0,0.02287133333333333,27.0
873,2.0,0.023968800000000002,29.6
874,17.0,0.018192272727272727,28.757575757575758
875,2.0,0.01822925,32.0
876,2.0,0.029380749999999997,29.25
877,24.0,0.027961857142857142,27.34285714285714
878,10.0,0.022830199999999995,28.1
879,2.0,0.01881725,31.0
880,13.0,0.02697258333333333,26.416666666666668
881,5.0,0.0348406,30.4
882,9.0,0.0248038,26.933333333333334
883,3.0,0.011017606666666667,29.2
884,13.0,0.017577942857142856,25.457142857142856
885,20.0,0.021929999999999995,26.757142857142856
886,3.0,0.02879775,33.5
887,6.0,0.03327377777777777,28.555555555555557
888,9.0,0.023608904761904765,30.333333333333332
889,3.0,0.0235215,31.0
890,5.0,0.028825833333333332,30.333333333333332
891,11.0,0.016708315,33.4
892,1.0,0.017361075,30.0
893,1.0,0.014327383333333334,30.333333333333332
894,19.0,0.024345366666666667,30.7
895,25.0,0.03367931428571429,25.071428571428573
896,21.0,0.026914428571428582,26.9
897,3.0,0.034483,29.0
898,16.0,0.015315099999999998,25.848484848484848
899,1.0,0.032258,31.0
900,2.0,0.033552000000000005,26.5
901,7.0,0.01475154285714286,29.0
902,21.0,0.02100551428571429,27.9
903,19.0,0.023977971428571426,27.17142857142857
904,2.0,0.02415233333333333,28.5
905,14.0,0.02006874285714285,30.071428571428573
906,7.0,0.022033066666666667,26.9
907,2.0,0.024204000000000003,29.0
908,5.0,0.020254125,34.0
909,2.0,0.0167033,31.4
910,21.0,0.02289017142857143,26.9
911,1.0,0.032258,31.0
912,2.0,0.017275236363636363,27.681818181818183
913,6.0,0.014702785714285715,26.035714285714285
914,2.0,0.037790000000000004,27.5
915,5.0,0.031878399999999994,33.0
916,12.0,0.020768636363636364,25.795454545454547
917,6.0,0.03570628571428571,29.428571428571427
918,7.0,0.020492923076923082,33.57692307692308
919,7.0,0.02645830769230769,27.46153846153846
920,6.0,0.022625777777777783,28.555555555555557
921,3.0,0.03125,32.0
922,6.0,0.022859000000000004,27.0
923,3.0,0.026041750000000002,28.0
924,8.0,0.03101191666666667,27.041666666666668
925,6.0,0.009395992,28.02
926,1.0,0.035714,28.0
927,4.0,0.0334785,31.0
928,15.0,0.016858588235294115,29.38235294117647
929,20.0,0.02095705714285714,26.285714285714285
930,18.0,0.019028542857142856,30.557142857142857
931,20.0,0.022868314285714286,28.0
932,2.0,0.02159575,33.0
933,5.0,0.029320374999999996,26.3125
934,4.0,0.0324998,28.0
935,3.0,0.021443200000000003,33.8
936,19.0,0.025265314285714293,26.457142857142856
937,4.0,0.0273355,32.0
938,4.0,0.021200500000000004,30.0
939,13.0,0.024197749999999997,27.0
940,1.0,0.032258,31.0
941,23.0,0.025254171428571427,32.44285714285714
942,20.0,0.030684371428571434,25.0
943,15.0,0.021407148148148144,30.35185185185185
944,1.0,0.035088,28.5
945,5.0,0.026971571428571428,27.0
946,11.0,0.031171153846153852,30.46153846153846
947,3.0,0.0210246,34.4
948,3.0,0.02117,32.142857142857146
949,20.0,0.01858339142857143,27.4
950,1.0,0.0241935,31.0
951,25.0,0.02440828571428572,32.82857142857143
952,6.0,0.015597261111111113,30.5
953,10.0,0.0224959375,30.25
954,6.0,0.022619,32.0
955,8.0,0.02639376923076923,31.0
956,12.0,0.026744823529411765,33.23529411764706
957,5.0,0.019954875,32.125
958,9.0,0.027386611111111108,30.63888888888889
959,5.0,0.029610111111111108,29.0
960,6.0,0.02782711111111111,26.77777777777778
961,8.0,0.025486857142857144,30.285714285714285
962,8.0,0.03146141666666667,28.666666666666668
963,6.0,0.021707222222222225,28.444444444444443
964,5.0,0.03202828571428572,28.928571428571427
965,3.0,0.0243055,30.0
966,20.0,0.02470837142857143,28.014285714285716
967,9.0,0.03287927272727273,30.09090909090909
968,3.0,0.021960875,33.125
969,9.0,0.030070909090909093,29.09090909090909
970,2.0,0.028157500000000002,29.5
971,5.0,0.034069166666666664,31.0
972,19.0,0.01717084285714286,32.97142857142857
973,3.0,0.017379616666666667,30.0
974,14.0,0.024212952380952377,28.61904761904762
975,16.0,0.014595596875000004,29.171875
976,6.0,0.01732054166666667,30.166666666666668
977,6.0,0.018806916666666666,26.333333333333332
978,21.0,0.021661714285714288,27.62857142857143
979,12.0,0.03171566666666667,31.066666666666666
980,22.0,0.02114645714285714,31.12857142857143
981,13.0,0.020324761904761905,31.547619047619047
982,7.0,0.02226536363636364,31.363636363636363
983,9.0,0.021133647058823528,28.647058823529413
984,8.0,0.0325959,29.0
985,11.0,0.02546426315789474,27.63157894736842
986,3.0,0.03453666666666667,29.666666666666668
987,4.0,0.031127399999999993,33.0
988,3.0,0.03772733333333333,27.666666666666668
989,4.0,0.023300750000000002,31.0
990,5.0,0.035714,28.0
991,5.0,0.015292092857142855,28.142857142857142
992,1.0,0.01756434,26.0
993,1.0,0.015819549999999998,34.25
994,20.0,0.021122342857142862,32.457142857142856
995,5.0,0.0332305,27.0
996,6.0,0.022649454545454546,32.63636363636363
997,4.0,0.028794333333333335,33.0
998,1.0,0.020159725,27.5
999,4.0,0.025562800000000004,34.2
1000,5.0,0.02650042857142857,25.357142857142858
1001,4.0,0.021478999999999998,28.5
1002,1.0,0.035714,28.0
1003,10.0,0.02220195,28.8
1004,1.0,0.033333,30.0
1005,20.0,0.0285243076923077,27.403846153846153
1006,20.0,0.025725371428571436,25.0
1007,3.0,0.012783188888888889,29.72222222222222
1008,24.0,0.026900400000000005,25.457142857142856
1009,26.0,0.03036574285714286,25.457142857142856
1010,3.0,0.0243055,30.0
1011,11.0,0.027130066666666668,30.9
1012,3.0,0.0314625,31.0
1013,3.0,0.02700625,27.0
1014,23.0,0.022068457142857142,29.857142857142858
1015,3.0,0.027808,32.0
1016,8.0,0.01716836666666667,29.866666666666667
1017,5.0,0.010984450000000003,32.535714285714285
1018,8.0,0.02408918181818182,30.863636363636363
1019,6.0,0.030138428571428573,28.0
1020,4.0,0.033898,29.5
1021,28.0,0.03529591428571429,25.82857142857143
1022,3.0,0.018505375,33.75
1023,5.0,0.026930333333333334,32.666666666666664
1024,3.0,0.028064600000000002,31.0
1025,3.0,0.012179327272727273,33.40909090909091
1026,4.0,0.020137571428571425,29.857142857142858
1027,22.0,0.021805114285714283,30.02857142857143
1028,6.0,0.029617857142857144,33.214285714285715
1029,4.0,0.031422,29.416666666666668
1030,5.0,0.0259326,30.4
1031,6.0,0.037813875000000004,26.125
1032,19.0,0.025258742857142864,25.0
1033,5.0,0.025484090909090908,27.90909090909091
1034,9.0,0.020821000000000003,27.25
1035,2.0,0.01675002,32.4
1036,18.0,0.029794827586206895,28.75862068965517
1037,6.0,0.030208444444444444,31.0
1038,11.0,0.02293820000000001,28.8
1039,9.0,0.02240053333333334,28.933333333333334
1040,9.0,0.019115916666666666,25.958333333333332
1041,4.0,0.019089333333333333,33.166666666666664
1042,1.0,0.0127626375,27.9375
1043,2.0,0.032258,31.0
1044,10.0,0.01827618,29.2
1045,18.0,0.024119633333333335,26.1
1046,20.0,0.02425417142857143,28.0
1047,3.0,0.027929000000000002,27.0
1048,6.0,0.025845250000000004,31.375
1049,6.0,0.01713031818181818,28.454545454545453
1050,2.0,0.021691385714285718,30.428571428571427
1051,18.0,0.021790571428571427,27.17142857142857
1052,2.0,0.033898,29.5
1053,18.0,0.018661845714285707,27.085714285714285
1054,14.0,0.014937377142857144,31.614285714285714
1055,2.0,0.034483,29.0
1056,7.0,0.0241769,28.7
1057,5.0,0.03063857142857143,31.571428571428573
1058,11.0,0.022770124999999995,31.8125
1059,9.0,0.03220983333333333,28.0
1060,4.0,0.025048285714285714,33.214285714285715
1061,4.0,0.025648000000000004,30.2
1062,1.0,0.037037,27.0
1063,5.0,0.033193,31.2
1064,19.0,0.023321185185185184,26.962962962962962
1065,3.0,0.0243055,30.0
1066,4.0,0.031735285714285716,26.571428571428573
1067,2.0,0.0355735,28.75
1068,10.0,0.01441787037037037,30.48148148148148
1069,6.0,0.0299708,28.2
1070,3.0,0.022613625,26.0
1071,21.0,0.02773760000000001,27.5
1072,10.0,0.031344000000000004,30.75
1073,18.0,0.024929857142857146,25.0
1074,5.0,0.037037,27.0
1075,3.0,0.025045400000000002,30.5
1076,5.0,0.022009,30.714285714285715
1077,20.0,0.021346685714285715,28.0
1078,11.0,0.024547199999999995,29.2
1079,7.0,0.02662244444444444,31.333333333333332
1080,17.0,0.029438458333333323,30.083333333333332
1081,14.0,0.020323619047619045,28.047619047619047
1082,21.0,0.0226646,27.442857142857143
1083,17.0,0.027813523809523805,30.88095238095238
1084,9.0,0.02927217647058824,29.470588235294116
1085,16.0,0.018080602857142854,26.0
1086,2.0,0.034483,29.0
1087,6.0,0.019173727272727273,29.90909090909091
1088,2.0,0.0195238,28.0
1089,3.0,0.023430625,32.375
1090,8.0,0.023336588235294116,26.941176470588236
1091,2.0,0.015181049999999998,32.0
1092,4.0,0.020406125,33.0
1093,6.0,0.0253879,26.0
1094,7.0,0.018975,29.0
1095,11.0,0.019308785714285712,28.821428571428573
1096,1.0,0.0241935,31.0
1097,2.0,0.02564125,26.0
1098,3.0,0.01394084,31.45
1099,4.0,0.01923825,32.3125
1100,2.0,0.02777766666666667,32.0
1101,8.0,0.01930711111111112,29.0
1102,6.0,0.026438111111111107,28.61111111111111
1103,17.0,0.018593971428571426,30.257142857142856
1104,23.0,0.02662831428571429,25.914285714285715
1105,13.0,0.01655270285714286,28.0
1106,4.0,0.02,30.0
1107,2.0,0.02666566666666667,29.5
1108,17.0,0.024617542857142856,31.071428571428573
1109,3.0,0.019528714285714288,31.571428571428573
1110,4.0,0.031911,31.2
1111,6.0,0.026268857142857146,30.428571428571427
1112,14.0,0.02294442105263158,32.21052631578947
1113,7.0,0.024305999999999994,28.73076923076923
1114,19.0,0.024922965517241383,30.448275862068964
1115,3.0,0.011117199999999999,28.636363636363637
1116,7.0,0.014182230769230768,34.19230769230769
1117,3.0,0.0286288,26.9
1118,1.0,0.033333,30.0
1119,9.0,0.027497999999999998,29.0
1120,6.0,0.03187257142857143,26.857142857142858
1121,5.0,0.029872125,31.8125
1122,9.0,0.02242,34.5
1123,14.0,0.01899054166666667,30.041666666666668
1124,9.0,0.023319705882352944,28.764705882352942
1125,3.0,0.0286906,28.0
1126,6.0,0.022678799999999995,31.8
1127,3.0,0.01533295,29.5
1128,1.0,0.026785500000000004,28.0
1129,10.0,0.018588863636363636,31.34090909090909
1130,5.0,0.0322,28.857142857142858
1131,26.0,0.03145677142857143,26.0
1132,2.0,0.0297475,28.0
1133,1.0,0.01234692857142857,30.0
1134,20.0,0.022952914285714294,27.228571428571428
1135,7.0,0.02368318181818182,30.636363636363637
1136,6.0,0.028423875,26.25
1137,19.0,0.018856942857142848,31.02857142857143
1138,2.0,0.0362175,28.25
1139,18.0,0.024699628571428576,28.67142857142857
1140,2.0,0.02638875,30.0
1141,3.0,0.023416999999999997,30.0
1142,10.0,0.019750944444444446,28.63888888888889
1143,21.0,0.026401687500000003,27.75
1144,1.0,0.023522333333333336,27.666666666666668
1145,1.0,0.03125,32.0
1146,13.0,0.01951325,31.3
1147,6.0,0.017036866666666668,32.0
1148,2.0,0.0247395,32.0
1149,6.0,0.02951575,29.0
1150,13.0,0.019714571428571425,28.089285714285715
1151,2.0,0.037037,27.0
1152,6.0,0.03125,32.0
1153,2.0,0.0322915,30.0
1154,7.0,0.015594166666666668,27.666666666666668
1155,2.0,0.03292166666666667,27.0
1156,6.0,0.027120125,29.875
1157,1.0,0.0241935,31.0
1158,3.0,0.03413,30.0
1159,6.0,0.017394685714285714,30.285714285714285
1160,3.0,0.0212576,30.6
1161,2.0,0.031330666666666666,29.666666666666668
1162,2.0,0.032258,31.0
1163,19.0,0.024082942857142863,28.585714285714285
1164,22.0,0.02047894285714286,28.885714285714286
1165,6.0,0.03353289999999999,29.0
1166,1.0,0.025,30.0
1167,2.0,0.0385185,27.0
1168,1.0,0.034483,29.0
1169,1.0,0.019239666666666665,32.333333333333336
1170,3.0,0.0229386,33.0
1171,7.0,0.03131527272727273,27.0
1172,10.0,0.02526135,28.0
1173,2.0,0.03292166666666667,27.0
1174,7.0,0.027518874999999998,34.0
1175,6.0,0.02478525,30.5
1176,4.0,0.0331686,26.0
1177,3.0,0.02523085714285714,28.0
1178,5.0,0.024259285714285712,31.0
1179,11.0,0.035466000000000004,28.0
1180,7.0,0.018106499999999998,30.0
1181,4.0,0.03339879999999999,29.4
1182,3.0,0.018642000000000002,32.0
1183,1.0,0.032258,31.0
1184,1.0,0.04,25.0
1185,17.0,0.01976235483870968,28.274193548387096
1186,10.0,0.0202974,29.8
1187,9.0,0.01224135238095238,30.952380952380953
1188,9.0,0.025991750000000004,28.0
1189,11.0,0.02620442105263158,29.63157894736842
1190,10.0,0.021485666666666674,28.833333333333332
1191,3.0,0.033438,26.375
1192,6.0,0.025657333333333334,27.22222222222222
1193,8.0,0.026088600000000003,27.6
1194,21.0,0.02638262857142858,26.485714285714284
1195,6.0,0.0264656,32.2
1196,1.0,0.019720666666666668,32.666666666666664
1197,2.0,0.0155605,31.5
1198,8.0,0.025702666666666665,31.0
1199,20.0,0.021336571428571427,30.5
1200,7.0,0.024945299999999997,28.25
1201,10.0,0.0188042,34.43333333333333
1202,9.0,0.034245,28.3
1203,4.0,0.025319222222222222,27.833333333333332
1204,13.0,0.01870686363636364,29.772727272727273
1205,10.0,0.029573625000000006,28.25
1206,4.0,0.01588611111111111,33.666666666666664
1207,3.0,0.016706444444444444,33.111111111111114
1208,12.0,0.020541681818181813,27.363636363636363
1209,2.0,0.02753833333333333,27.666666666666668
1210,4.0,0.037224,28.0
1211,4.0,0.023805285714285716,28.785714285714285
1212,15.0,0.014775871428571428,27.5
1213,1.0,0.017828875,31.0
1214,4.0,0.037224,28.0
1215,10.0,0.025575999999999995,28.75
1216,2.0,0.024482,29.5
1217,4.0,0.019163714285714287,31.285714285714285
1218,5.0,0.015516999999999998,33.15
1219,3.0,0.015147633333333334,29.0
1220,5.0,0.030950000000000002,28.333333333333332
1221,7.0,0.031420500000000004,28.35
1222,6.0,0.012865407142857142,30.0
1223,7.0,0.016334335714285716,30.892857142857142
1224,1.0,0.035714,28.0
1225,10.0,0.02384738888888889,26.583333333333332
1226,13.0,0.02311121052631579,30.05263157894737
1227,2.0,0.0203125,32.0
1228,1.0,0.03125,32.0
1229,2.0,0.0345235,30.0
1230,1.0,0.0292595,27.0
1231,4.0,0.0319136,32.6
1232,5.0,0.02364216666666667,32.416666666666664
1233,18.0,0.022446628571428564,32.2
1234,2.0,0.03125,32.0
1235,25.0,0.02799291428571429,28.228571428571428
1236,8.0,0.024336277777777776,26.75
1237,4.0,0.018009625,31.5
1238,4.0,0.012472377777777778,34.55555555555556
1239,6.0,0.014549217647058823,26.558823529411764
1240,6.0,0.0273237,29.0
1241,14.0,0.013631208571428575,33.114285714285714
1242,20.0,0.018877828571428574,30.928571428571427
1243,5.0,0.0368714,28.2
1244,5.0,0.025492499999999994,30.2
1245,18.0,0.022382028571428573,25.457142857142856
1246,5.0,0.023698,32.0
1247,25.0,0.02439725714285714,32.01428571428571
1248,1.0,0.013172066666666668,31.0
1249,18.0,0.01744793714285714,29.02857142857143
1250,3.0,0.025455833333333334,27.666666666666668
1251,21.0,0.020543885714285712,30.457142857142856
1252,5.0,0.017136612500000002,34.625
1253,4.0,0.03208366666666667,31.0
1254,8.0,0.02765233333333333,30.333333333333332
1255,3.0,0.0261356,28.2
1256,6.0,0.0170575,32.285714285714285
1257,3.0,0.035076,29.666666666666668
1258,1.0,0.019713333333333333,31.0
1259,5.0,0.023666,29.77777777777778
1260,2.0,0.02216816666666667,32.333333333333336
1261,4.0,0.01649981818181818,27.40909090909091
1262,18.0,0.032589807692307696,25.5
1263,3.0,0.0229226,34.2
1264,5.0,0.01884066666666667,29.0
1265,13.0,0.028691666666666664,28.0
1266,13.0,0.023210052631578947,31.86842105263158
1267,2.0,0.0229312,28.2
1268,5.0,0.030173285714285715,31.0
1269,13.0,0.03234441176470588,28.764705882352942
1270,2.0,0.022988500000000002,29.0
1271,18.0,0.01919308571428571,28.928571428571427
1272,6.0,0.03215285714285714,29.928571428571427
1273,6.0,0.025859777777777777,33.22222222222222
1274,1.0,0.01473122,31.0
1275,8.0,0.015569105263157898,27.86842105263158
1276,12.0,0.018598304347826087,26.17391304347826
1277,5.0,0.032429,30.2
1278,6.0,0.015392533333333335,28.466666666666665
1279,16.0,0.0260058,28.0
1280,11.0,0.01900242307692308,25.673076923076923
1281,3.0,0.0194612,30.2
1282,1.0,0.015190150000000001,31.5
1283,14.0,0.020972461538461537,30.53846153846154
1284,11.0,0.021747157894736847,28.526315789473685
1285,5.0,0.021487000000000003,33.5
1286,5.0,0.025924333333333334,28.38888888888889
1287,11.0,0.020405466666666667,25.833333333333332
1288,12.0,0.02093713636363636,29.181818181818183
1289,7.0,0.021438538461538464,27.923076923076923
1290,4.0,0.013346107692307691,32.42307692307692
1291,3.0,0.026435833333333335,26.75
1292,4.0,0.021242142857142855,27.357142857142858
1293,11.0,0.02484839130434783,30.47826086956522
1294,1.0,0.033333,30.0
1295,13.0,0.026172458333333325,31.166666666666668
1296,4.0,0.026026666666666667,31.166666666666668
1297,3.0,0.032397333333333334,30.666666666666668
1298,10.0,0.027366583333333337,27.333333333333332
1299,8.0,0.025311466666666668,27.933333333333334
1300,2.0,0.03125,32.0
1301,2.0,0.0216665,30.0
1302,6.0,0.03305414285714286,29.285714285714285
1303,13.0,0.01865065714285714,26.714285714285715
1304,1.0,0.034483,29.0
1305,4.0,0.020156428571428575,30.571428571428573
1306,5.0,0.03129616666666667,30.0
1307,5.0,0.031159333333333334,31.833333333333332
1308,7.0,0.025176888888888888,31.88888888888889
1309,7.0,0.027067615384615388,30.192307692307693
1310,3.0,0.020206412500000003,30.0
1311,8.0,0.028448909090909094,31.0
1312,8.0,0.027793111111111116,32.0
1313,5.0,0.017181872727272725,29.227272727272727
1314,1.0,0.01574706,29.0
1315,6.0,0.03255142857142857,29.857142857142858
1316,3.0,0.022317749999999997,34.0
1317,4.0,0.033163,30.625
1318,19.0,0.025218458333333332,30.666666666666668
1319,12.0,0.02552211764705883,28.41176470588235
1320,21.0,0.023493371428571438,26.714285714285715
1321,2.0,0.017738120000000003,28.0
1322,1.0,0.034483,29.0
1323,21.0,0.02364665714285714,29.15714285714286
1324,4.0,0.032258,31.0
1325,9.0,0.022574785714285717,32.42857142857143
1326,4.0,0.02125322222222222,30.11111111111111
1327,2.0,0.02083325,28.0
1328,6.0,0.027075090909090906,30.40909090909091
1329,7.0,0.016442053846153847,30.846153846153847
1330,1.0,0.025862,29.0
1331,3.0,0.033333,30.0
1332,4.0,0.023322857142857145,29.714285714285715
1333,6.0,0.013882333333333335,31.666666666666668
1334,8.0,0.02209030769230769,30.0
1335,4.0,0.022146875,29.0
1336,18.0,0.02696554285714286,26.428571428571427
1337,4.0,0.03305480000000001,28.7
1338,12.0,0.02909163157894737,26.289473684210527
1339,1.0,0.025862,29.0
1340,17.0,0.014547254285714286,30.9
1341,3.0,0.03232775,29.0
1342,2.0,0.032787,30.5
1343,4.0,0.035453,28.2
1344,21.0,0.0315762962962963,29.814814814814813
1345,2.0,0.023297333333333333,31.0
1346,1.0,0.033333,30.0
1347,7.0,0.014865960000000004,30.28
1348,16.0,0.017414257142857145,26.5
1349,8.0,0.019951733333333336,30.133333333333333
1350,2.0,0.034483,29.0
1351,2.0,0.026836,29.5
1352,8.0,0.01725189333333333,30.733333333333334
1353,8.0,0.0321973,27.0
1354,14.0,0.026002777777777777,30.555555555555557
1355,5.0,0.02886185714285714,29.857142857142858
1356,3.0,0.01305117,33.0
1357,6.0,0.03290075,27.5
1358,5.0,0.024126428571428573,29.0
1359,15.0,0.01595293548387097,29.322580645161292
1360,13.0,0.019223300000000002,28.454545454545453
1361,21.0,0.02751705714285715,27.271428571428572
1362,5.0,0.0335315,28.0
1363,4.0,0.025725714285714286,31.428571428571427
1364,7.0,0.035551374999999996,29.0
1365,6.0,0.022953600000000005,29.266666666666666
1366,1.0,0.0234375,32.0
1367,24.0,0.02553542857142857,27.514285714285716
1368,1.0,0.034483,29.0
1369,1.0,0.03125,32.0
1370,3.0,0.033333,30.0
1371,9.0,0.01564448947368421,31.473684210526315
1372,3.0,0.024341166666666664,29.75
1373,5.0,0.02292881818181818,28.727272727272727
1374,1.0,0.017828875,31.0
1375,18.0,0.018363937142857143,26.728571428571428
1376,14.0,0.01672234838709677,29.822580645161292
1377,3.0,0.02601475,29.625
1378,2.0,0.026749,27.0
1379,6.0,0.01776977692307692,29.692307692307693
1380,4.0,0.024506600000000003,32.4
1381,12.0,0.02029940740740741,28.537037037037038
1382,7.0,0.037985625,26.0625
1383,3.0,0.012351919999999999,30.4
1384,2.0,0.02335425,30.0
1385,9.0,0.015774723529411765,29.176470588235293
1386,25.0,0.025578742857142848,27.87142857142857
1387,6.0,0.031839,28.0
1388,5.0,0.025290666666666666,29.0
1389,1.0,0.029524,26.25
1390,2.0,0.0141039375,30.75
1391,3.0,0.0287095,31.0
1392,17.0,0.026749208333333333,29.875
1393,21.0,0.02305491428571429,26.3
1394,6.0,0.012286700000000001,26.892857142857142
1395,13.0,0.015323208571428576,29.17142857142857
1396,24.0,0.02919585714285714,26.32857142857143
1397,19.0,0.02028442857142857,29.285714285714285
1398,11.0,0.028563066666666675,27.0
1399,12.0,0.022583,29.157894736842106
1400,2.0,0.028673666666666667,31.0
1401,13.0,0.017075,28.314814814814813
1402,2.0,0.027298999999999997,29.0
1403,1.0,0.025423499999999998,29.5
1404,16.0,0.01865655357142857,29.535714285714285
1405,5.0,0.025768857142857142,28.071428571428573
1406,5.0,0.025059500000000002,31.6
1407,12.0,0.015163814814814816,28.59259259259259
1408,9.0,0.034520909090909095,26.454545454545453
1409,4.0,0.02677183333333334,30.666666666666668
1410,22.0,0.022696028571428568,25.957142857142856
1411,4.0,0.037037,27.0
1412,3.0,0.033333,30.0
1413,5.0,0.018467454545454544,27.727272727272727
1414,2.0,0.025000333333333333,26.0
1415,1.0,0.025862,29.0
1416,21.0,0.025291628571428575,25.0
1417,11.0,0.021629333333333334,28.38888888888889
1418,14.0,0.021900047619047618,31.19047619047619
1419,1.0,0.03125,32.0
1420,10.0,0.0224721875,26.75
1421,9.0,0.0258246,26.433333333333334
1422,2.0,0.0266,29.0
1423,17.0,0.018033685714285715,25.0
1424,20.0,0.0199778,26.15714285714286
1425,4.0,0.019864,30.0
1426,21.0,0.021112988571428577,25.357142857142858
1427,2.0,0.023297333333333333,31.0
1428,18.0,0.016018908571428573,33.05714285714286
1429,4.0,0.023835,31.0
1430,2.0,0.026247666666666666,29.0
1431,9.0,0.020749315789473685,30.57894736842105
1432,3.0,0.019024000000000003,29.0
1433,1.0,0.035714,28.0
1434,19.0,0.016746942857142857,31.67142857142857
1435,4.0,0.02357733333333333,30.0
1436,12.0,0.02779542105263158,27.789473684210527
1437,1.0,0.027778,27.0
1438,2.0,0.02585475,32.0
1439,6.0,0.01871223529411765,27.823529411764707
1440,14.0,0.017259942857142857,26.771428571428572
1441,8.0,0.01698270588235294,32.76470588235294
1442,5.0,0.037030600000000004,28.5
1443,21.0,0.025316314285714285,31.2
1444,5.0,0.033695833333333335,28.583333333333332
1445,11.0,0.0227176875,32.125
1446,5.0,0.035921,28.5
1447,19.0,0.020947971428571428,25.942857142857143
1448,3.0,0.026319,28.333333333333332
1449,5.0,0.025397333333333338,33.916666666666664
1450,14.0,0.016223314285714288,25.0
1451,6.0,0.026714666666666664,31.555555555555557
1452,21.0,0.01976417142857143,32.885714285714286
1453,4.0,0.026667833333333335,32.666666666666664
1454,13.0,0.016397200000000008,29.285714285714285
1455,5.0,0.03464933333333333,28.416666666666668
1456,20.0,0.026970678571428573,26.892857142857142
1457,2.0,0.037037,27.0
1458,1.0,0.0241935,31.0
1459,23.0,0.022100714285714283,26.228571428571428
1460,4.0,0.03395783333333333,29.666666666666668
1461,2.0,0.031385,29.333333333333332
1462,2.0,0.0385185,27.0
1463,4.0,0.019880000000000002,28.5
1464,1.0,0.033333,30.0
1465,9.0,0.0259069375,29.25
1466,5.0,0.024259285714285712,31.0
1467,5.0,0.019781555555555552,34.388888888888886
1468,1.0,0.0292595,27.0
1469,6.0,0.02993175,30.0
1470,17.0,0.019239114285714287,27.485714285714284
1471,6.0,0.024734666666666665,30.77777777777778
1472,15.0,0.01646709142857143,26.7
1473,8.0,0.029197999999999998,30.46153846153846
1474,5.0,0.0280865,27.0
1475,11.0,0.02033405,32.725
1476,15.0,0.03310899999999999,26.45
1477,3.0,0.035076,29.666666666666668
1478,2.0,0.02962933333333333,30.0
1479,21.0,0.017553857142857142,30.714285714285715
1480,4.0,0.0290675,28.0
1481,13.0,0.0185302,28.2
1482,2.0,0.035714,28.0
1483,7.0,0.031561,29.6875
1484,6.0,0.0337795,28.5
1485,5.0,0.02085388888888889,29.22222222222222
1486,4.0,0.035453,28.2
1487,20.0,0.017254514285714284,30.614285714285714
1488,19.0,0.01867221142857143,26.0
1489,4.0,0.02260142857142857,29.0
1490,3.0,0.034483,29.0
1491,13.0,0.025296250000000006,30.3125
1492,1.0,0.029524,26.25
1493,4.0,0.029927500000000003,34.25
1494,17.0,0.025975742857142856,26.071428571428573
1495,4.0,0.013419166666666666,32.0
1496,12.0,0.02411854166666667,26.458333333333332
1497,5.0,0.020637571428571425,25.714285714285715
1498,11.0,0.02305257142857143,25.80952380952381
1499,3.0,0.034991999999999995,28.0
1500,3.0,0.033482000000000005,28.0
1501,2.0,0.03292166666666667,27.0
1502,1.0,0.0292595,27.0
1503,3.0,0.019167875,28.5
1504,6.0,0.022321874999999998,31.6875
1505,5.0,0.02055076470588236,28.558823529411764
1506,4.0,0.018196000000000004,29.0
1507,4.0,0.028002333333333334,34.0
1508,16.0,0.022738742857142863,25.0
1509,4.0,0.019952636363636367,31.045454545454547
1510,10.0,0.014870155555555554,34.77777777777778
1511,13.0,0.019280600000000002,30.614285714285714
1512,7.0,0.02958125,31.5
1513,17.0,0.020895600000000004,25.485714285714284
1514,4.0,0.034713,30.0
1515,2.0,0.037037,27.0
1516,6.0,0.014830108333333333,32.125
1517,8.0,0.03211163636363636,28.636363636363637
1518,1.0,0.027778,27.0
1519,1.0,0.0234375,32.0
1520,8.0,0.024397352941176474,28.08823529411765
1521,1.0,0.03125,32.0
1522,19.0,0.02127162857142857,25.357142857142858
1523,1.0,0.033333,30.0
1524,13.0,0.02316579166666667,27.333333333333332
1525,3.0,0.02308433333333333,29.0
1526,5.0,0.02231675,32.0
1527,5.0,0.029985714285714282,28.428571428571427
1528,1.0,0.018155699999999997,27.625
1529,4.0,0.03464025,30.0
1530,7.0,0.01319981764705882,32.73529411764706
1531,1.0,0.0292595,27.0
1532,3.0,0.031731666666666665,32.666666666666664
1533,4.0,0.0210905,32.333333333333336
1534,22.0,0.01667994285714286,28.428571428571427
1535,11.0,0.027140666666666664,31.966666666666665
1536,1.0,0.023522333333333336,27.666666666666668
1537,22.0,0.02428077419354838,27.758064516129032
1538,2.0,0.015515099999999999,29.833333333333332
1539,4.0,0.023898199999999998,31.2
1540,1.0,0.032258,31.0
1541,7.0,0.031267500000000004,29.375
1542,20.0,0.021720771428571425,31.285714285714285
1543,18.0,0.016170457142857142,28.0
1544,14.0,0.014612942857142855,29.642857142857142
1545,9.0,0.024102500000000002,30.714285714285715
1546,15.0,0.019865257142857147,27.414285714285715
1547,5.0,0.022640375,33.3125
1548,8.0,0.0243352,29.433333333333334
1549,9.0,0.020827999999999996,32.11764705882353
1550,25.0,0.026091314285714293,30.042857142857144
1551,17.0,0.02247568571428572,25.085714285714285
1552,9.0,0.020724647058823528,32.0
1553,2.0,0.0277055,30.0
1554,1.0,0.01691374,27.0
1555,17.0,0.020425294117647062,30.352941176470587
1556,2.0,0.02962933333333333,30.0
1557,2.0,0.0185785,33.0
1558,16.0,0.02063725714285714,25.9
1559,19.0,0.01402167714285714,30.1
1560,1.0,0.033898,29.5
1561,3.0,0.0141265625,29.0
1562,2.0,0.033333,30.0
1563,23.0,0.01868817142857143,34.42857142857143
1564,8.0,0.023068909090909088,31.0
1565,3.0,0.03041625,28.875
1566,1.0,0.018461825,30.0
1567,1.0,0.020370333333333334,30.0
1568,7.0,0.01656176923076923,33.26923076923077
1569,2.0,0.034483,29.0
1570,2.0,0.0115517375,32.5
1571,4.0,0.020836250000000004,31.75
1572,6.0,0.024212833333333333,30.0
1573,3.0,0.033482000000000005,28.0
1574,24.0,0.022257942857142866,29.02857142857143
1575,18.0,0.022823500000000004,30.058823529411764
1576,14.0,0.02479333333333333,31.555555555555557
1577,4.0,0.024901142857142854,28.428571428571427
1578,6.0,0.018599,27.6875
1579,21.0,0.02750096969696969,27.37878787878788
1580,3.0,0.03772733333333333,27.666666666666668
1581,1.0,0.04,25.0
1582,7.0,0.019342933333333333,27.1
1583,4.0,0.017212818181818183,34.63636363636363
1584,6.0,0.0264702,28.75
1585,6.0,0.0249892,30.0
1586,3.0,0.014233685714285713,33.714285714285715
1587,8.0,0.018607866666666664,30.066666666666666
1588,11.0,0.021769559999999993,26.88
1589,1.0,0.026785500000000004,28.0
1590,2.0,0.035714,28.0
1591,5.0,0.02152475,30.0
1592,5.0,0.024040799999999998,29.1
1593,1.0,0.033898,29.5
1594,7.0,0.02050636363636363,29.772727272727273
1595,7.0,0.023631923076923075,28.923076923076923
1596,1.0,0.035088,28.5
1597,21.0,0.02519045714285715,29.67142857142857
1598,5.0,0.025419714285714285,29.428571428571427
1599,5.0,0.019124,29.136363636363637
1600,3.0,0.02795625,29.75
1601,3.0,0.03197975,28.0
1602,2.0,0.02543266666666667,29.333333333333332
1603,2.0,0.02962933333333333,30.0
1604,5.0,0.032057,30.666666666666668
1605,11.0,0.023416277777777782,25.555555555555557
1606,4.0,0.03427075,29.875
1607,7.0,0.02206927272727273,31.0
1608,5.0,0.025031333333333336,28.555555555555557
1609,5.0,0.027276285714285715,30.428571428571427
1610,4.0,0.022429,29.5
1611,2.0,0.031746,28.0
1612,8.0,0.033120750000000004,31.0
1613,17.0,0.01894333428571428,26.0
1614,2.0,0.01648745,28.0
1615,7.0,0.022473399999999998,33.0
1616,24.0,0.02413462857142858,31.3
1617,12.0,0.027845888888888885,28.555555555555557
1618,7.0,0.012728004545454542,33.0
1619,4.0,0.01695324545454546,28.545454545454547
1620,11.0,0.025822444444444443,30.77777777777778
1621,7.0,0.024041555555555552,27.0
1622,12.0,0.0261421875,30.3125
1623,20.0,0.018006228571428567,28.3
1624,1.0,0.037037,27.0
1625,6.0,0.028932875000000004,28.0
1626,1.0,0.0262505,27.75
1627,3.0,0.03447033333333333,30.166666666666668
1628,18.0,0.02631736,27.26
1629,7.0,0.02593841666666667,28.833333333333332
1630,19.0,0.01891387714285714,30.071428571428573
1631,2.0,0.018722799999999998,34.2
1632,2.0,0.02962933333333333,30.0
1633,5.0,0.019782124999999998,30.0
1634,2.0,0.020400500000000002,30.0
1635,1.0,0.04,25.0
1636,2.0,0.032258,31.0
1637,10.0,0.02107882352941176,31.470588235294116
1638,5.0,0.017517484615384618,29.923076923076923
1639,1.0,0.02003235,26.0
1640,3.0,0.027198800000000002,33.2
1641,3.0,0.02302325,33.0
1642,19.0,0.021076285714285718,26.17142857142857
1643,10.0,0.016262486363636367,29.636363636363637
1644,10.0,0.030663727272727273,28.727272727272727
1645,5.0,0.03682,28.333333333333332
1646,23.0,0.02476631428571429,26.34285714285714
1647,19.0,0.024768228571428574,27.2
1648,5.0,0.013669899999999999,29.333333333333332
1649,16.0,0.02218785714285714,27.385714285714286
1650,2.0,0.038462,26.0
1651,15.0,0.016853885714285716,32.07142857142857
1652,5.0,0.025844625,29.5
1653,8.0,0.020001050000000003,29.666666666666668
1654,3.0,0.023904833333333333,27.0
1655,3.0,0.02069688888888889,31.555555555555557
1656,1.0,0.02459,30.5
1657,4.0,0.02428925,29.5
1658,2.0,0.034483,29.0
1659,8.0,0.02057014285714286,30.5
1660,7.0,0.013468070000000002,30.2
1661,6.0,0.0241045,28.6
1662,10.0,0.018880277777777777,30.77777777777778
1663,22.0,0.026291285714285715,30.042857142857144
1664,8.0,0.02471278571428571,28.428571428571427
1665,11.0,0.02844246666666667,33.333333333333336
1666,12.0,0.032165294117647056,28.0
1667,11.0,0.021981900000000006,28.0
1668,4.0,0.03156716666666667,29.75
1669,25.0,0.02849851428571428,29.0
1670,2.0,0.027778,26.0
1671,13.0,0.02040366666666667,28.055555555555557
1672,3.0,0.02735025,28.0
1673,11.0,0.025973555555555555,31.13888888888889
1674,5.0,0.022836454545454545,29.59090909090909
1675,10.0,0.024046166666666667,29.75
1676,14.0,0.013995231999999995,28.86
1677,5.0,0.029373624999999997,30.0
1678,8.0,0.026862399999999998,30.0
1679,6.0,0.024958875000000002,32.625
1680,17.0,0.030593159999999998,28.76
1681,2.0,0.0362175,28.25
1682,7.0,0.02387807142857143,25.571428571428573
1683,1.0,0.032258,31.0
1684,13.0,0.01848278,29.85
1685,13.0,0.021187026923076925,27.076923076923077
1686,18.0,0.02113777142857143,30.257142857142856
1687,1.0,0.034483,29.0
1688,19.0,0.016560411428571432,29.65714285714286
1689,9.0,0.03026091666666667,29.333333333333332
1690,8.0,0.020995363636363635,29.09090909090909
1691,11.0,0.015982931034482763,30.06896551724138
1692,17.0,0.021514000000000005,27.82857142857143
1693,2.0,0.019540166666666667,29.0
1694,1.0,0.034483,29.0
1695,3.0,0.010058653846153846,29.384615384615383
1696,9.0,0.018752857142857144,29.857142857142858
1697,1.0,0.01609174,29.5
1698,2.0,0.023655500000000003,29.0
1699,22.0,0.02522805714285715,25.385714285714286
1700,2.0,0.014670249999999998,32.0
1701,3.0,0.0269048,28.0
1702,1.0,0.024444333333333332,25.0
1703,16.0,0.02645428571428572,28.303571428571427
1704,1.0,0.034483,29.0
1705,20.0,0.01694398,28.142857142857142
1706,8.0,0.017623757142857143,29.714285714285715
1707,8.0,0.021282214285714286,30.714285714285715
1708,5.0,0.024173700000000003,28.0
1709,21.0,0.024738028571428566,26.857142857142858
1710,3.0,0.025132250000000002,27.0625
1711,1.0,0.04,25.0
1712,6.0,0.028129142857142853,30.0
1713,7.0,0.017255883333333336,33.666666666666664
1714,13.0,0.023807277777777774,30.11111111111111
1715,5.0,0.020836100000000003,30.0
1716,1.0,0.033333,30.0
1717,1.0,0.032258,31.0
1718,9.0,0.025760166666666667,29.166666666666668
1719,5.0,0.0227805,30.0
1720,11.0,0.02366885714285714,27.80952380952381
1721,4.0,0.035714,28.0
1722,1.0,0.025423499999999998,29.5
1723,2.0,0.0345235,30.0
1724,1.0,0.027778,27.0
1725,2.0,0.01890025,30.375
1726,22.0,0.029175342857142857,25.114285714285714
1727,2.0,0.02817625,28.625
1728,17.0,0.01920134,25.17142857142857
1729,15.0,0.016117285714285712,28.228571428571428
1730,8.0,0.019656933333333335,27.4
1731,20.0,0.023097885714285712,29.5
1732,3.0,0.0219402,28.2
1733,21.0,0.01982798571428571,26.885714285714286
1734,19.0,0.01739248571428571,30.02857142857143
1735,5.0,0.025068142857142855,30.0
1736,5.0,0.035950333333333334,27.666666666666668
1737,20.0,0.020044199999999998,27.4
1738,18.0,0.02371268965517241,28.586206896551722
1739,13.0,0.016105400000000006,29.7
1740,2.0,0.026945800000000002,27.8
1741,2.0,0.0247395,32.0
1742,1.0,0.037037,27.0
1743,1.0,0.027778,27.0
1744,3.0,0.030418,29.5
1745,5.0,0.01700132727272727,31.90909090909091
1746,5.0,0.02609433333333333,33.666666666666664
1747,4.0,0.0293905,31.0
1748,3.0,0.025973999999999997,32.666666666666664
1749,6.0,0.02959157142857143,28.071428571428573
1750,5.0,0.035573,29.4
1751,3.0,0.024788428571428572,29.214285714285715
1752,18.0,0.025489457142857153,26.014285714285716
1753,2.0,0.029841000000000003,29.166666666666668
1754,3.0,0.03125,32.0
1755,11.0,0.021393499999999996,32.25
1756,22.0,0.022515882352941174,30.11764705882353
1757,6.0,0.022068583333333336,30.0
1758,5.0,0.016222,33.76923076923077
1759,3.0,0.021241555555555555,27.38888888888889
1760,22.0,0.028130799999999997,28.12857142857143
1761,10.0,0.020738,30.25
1762,1.0,0.035714,28.0
1763,1.0,0.037037,27.0
1764,3.0,0.027701399999999998,29.0
1765,2.0,0.0297475,28.0
1766,3.0,0.027553750000000002,31.0
1767,5.0,0.023292444444444442,32.77777777777778
1768,5.0,0.021888363636363636,28.636363636363637
1769,4.0,0.0290806,29.0
1770,12.0,0.023986619047619045,31.238095238095237
1771,6.0,0.032041,31.0
1772,3.0,0.0294805,33.0
1773,1.0,0.016165975,34.0
1774,21.0,0.021387914285714283,27.4
1775,3.0,0.03388533333333333,30.666666666666668
1776,3.0,0.022550857142857143,30.428571428571427
1777,5.0,0.01604846,27.25
1778,21.0,0.023961828571428572,25.02857142857143
1779,5.0,0.019136,28.666666666666668
1780,2.0,0.0255375,31.0
1781,4.0,0.024471399999999997,32.2
1782,15.0,0.014952997142857142,30.857142857142858
1783,3.0,0.03447425,28.0
1784,5.0,0.037037,27.0
1785,14.0,0.024679999999999997,32.30434782608695
1786,2.0,0.02962933333333333,30.0
1787,17.0,0.02574251851851852,27.85185185185185
1788,7.0,0.0130665,28.736842105263158
1789,3.0,0.025914000000000003,31.0
1790,1.0,0.033898,29.5
1791,2.0,0.037037,27.0
1792,16.0,0.01863329375,27.578125
1793,2.0,0.02753833333333333,27.666666666666668
1794,5.0,0.023496083333333334,28.958333333333332
1795,13.0,0.014294465714285717,28.557142857142857
1796,10.0,0.022198157894736843,27.31578947368421
1797,16.0,0.019592771428571434,28.0
1798,8.0,0.019961384615384617,31.576923076923077
1799,2.0,0.033713,27.166666666666668
1800,5.0,0.03295816666666666,28.333333333333332
1801,12.0,0.019299000000000004,26.4375
1802,3.0,0.021786166666666665,33.166666666666664
1803,3.0,0.032557,30.0
1804,8.0,0.024983923076923077,26.46153846153846
1805,9.0,0.030858199999999995,32.5
1806,9.0,0.018220250000000004,28.0
1807,22.0,0.02607045714285714,25.8
1808,4.0,0.026953714285714282,29.857142857142858
1809,11.0,0.022056866666666664,31.0
1810,2.0,0.014983100000000001,27.083333333333332
1811,3.0,0.023923999999999997,29.75
1812,5.0,0.0320435,28.0
1813,19.0,0.026012199999999992,29.1
1814,2.0,0.02827375,28.0
1815,4.0,0.029180333333333332,29.833333333333332
1816,3.0,0.0300512,30.4
1817,7.0,0.031124,30.4375
1818,10.0,0.02308276190476191,29.61904761904762
1819,8.0,0.0243461,30.0
1820,2.0,0.02335425,30.0
1821,12.0,0.017192269230769233,28.634615384615383
1822,3.0,0.032258,31.0
1823,1.0,0.016309499999999998,28.0
1824,1.0,0.03125,32.0
1825,11.0,0.022911833333333336,29.22222222222222
1826,6.0,0.02577957142857143,34.142857142857146
1827,7.0,0.0212041875,26.6875
1828,21.0,0.023776342857142863,28.0
1829,6.0,0.0203981,32.0
1830,2.0,0.0297475,28.0
1831,5.0,0.02865614285714286,27.785714285714285
1832,1.0,0.019720666666666668,32.666666666666664
1833,15.0,0.015544185294117649,25.61764705882353
1834,13.0,0.0194936,32.75
1835,2.0,0.019085200000000004,30.2
1836,9.0,0.020097550000000006,29.025
1837,23.0,0.023225542857142862,25.0
1838,9.0,0.021631954545454544,28.886363636363637
1839,6.0,0.0197724,28.136363636363637
1840,4.0,0.02791,30.333333333333332
1841,7.0,0.026836,27.4
1842,21.0,0.020072342857142853,30.17142857142857
1843,8.0,0.031626,29.0
1844,8.0,0.028993727272727275,29.09090909090909
1845,9.0,0.018151941176470586,31.823529411764707
1846,6.0,0.029587625,31.5
1847,23.0,0.02761968571428572,26.257142857142856
1848,2.0,0.019784799999999998,31.0
1849,1.0,0.016309499999999998,28.0
1850,7.0,0.019064176470588237,32.1764705882353
1851,19.0,0.019235800000000004,29.97142857142857
1852,6.0,0.02905925,30.0
1853,4.0,0.01854211111111111,29.11111111111111
1854,1.0,0.025,30.0
1855,9.0,0.019956999999999996,29.25
1856,1.0,0.021825333333333335,28.0
1857,7.0,0.022618857142857142,31.285714285714285
1858,2.0,0.037037,27.0
1859,3.0,0.01425499,27.2
1860,3.0,0.037037,27.0
1861,9.0,0.0237818,27.233333333333334
1862,6.0,0.022035363636363634,30.09090909090909
1863,11.0,0.024328312500000004,28.75
1864,4.0,0.02370028571428572,30.142857142857142
1865,22.0,0.021837228571428568,30.285714285714285
1866,4.0,0.019209499999999997,30.083333333333332
1867,1.0,0.018461825,30.0
1868,10.0,0.033738874999999995,25.75
1869,22.0,0.02048017142857143,27.17142857142857
1870,5.0,0.0190691,29.6
1871,4.0,0.022102555555555556,32.111111111111114
1872,4.0,0.0171688875,26.25
1873,2.0,0.034483,29.0
1874,4.0,0.022706999999999998,30.785714285714285
1875,3.0,0.0243055,30.0
1876,4.0,0.03305480000000001,28.7
1877,7.0,0.02336772727272727,27.227272727272727
1878,1.0,0.017942975,27.5
1879,8.0,0.02522430769230769,31.0
1880,2.0,0.023122,32.666666666666664
1881,8.0,0.012158278260869565,30.195652173913043
1882,4.0,0.01677607142857143,33.285714285714285
1883,2.0,0.02426725,34.0
1884,1.0,0.0234375,32.0
1885,5.0,0.031042166666666666,29.583333333333332
1886,3.0,0.013843257142857142,32.714285714285715
1887,8.0,0.030522181818181823,29.363636363636363
1888,4.0,0.013625677777777777,30.666666666666668
1889,1.0,0.0241935,31.0
1890,7.0,0.021392374999999998,29.875
1891,7.0,0.02362808333333333,31.5
1892,10.0,0.012916337142857143,28.97142857142857
1893,12.0,0.025892850000000002,29.575
1894,2.0,0.022754999999999997,31.166666666666668
1895,19.0,0.01671143428571429,33.15714285714286
1896,6.0,0.02064263636363636,30.681818181818183
1897,18.0,0.022606228571428563,27.84285714285714
1898,17.0,0.015525542857142855,32.357142857142854
1899,4.0,0.013149879999999997,30.5
1900,19.0,0.018886742857142858,30.557142857142857
1901,17.0,0.021691857142857145,29.34285714285714
1902,3.0,0.03772733333333333,27.666666666666668
1903,1.0,0.034483,29.0
1904,2.0,0.03125,32.0
1905,9.0,0.031677000000000004,30.818181818181817
1906,11.0,0.018642839999999994,28.68
1907,6.0,0.03456733333333333,32.0
1908,2.0,0.036412,28.5
1909,6.0,0.026121444444444447,26.444444444444443
1910,9.0,0.031801199999999995,28.0
1911,9.0,0.016694714285714292,30.0
1912,1.0,0.019713333333333333,31.0
1913,2.0,0.012794642857142857,32.285714285714285
1914,4.0,0.01907042857142857,30.0
1915,3.0,0.0259706,34.4
1916,10.0,0.020498028571428573,27.02857142857143
1917,13.0,0.018514394736842105,30.05263157894737
1918,2.0,0.03576,29.0
1919,12.0,0.03222069230769231,27.307692307692307
1920,10.0,0.03467509090909091,28.681818181818183
1921,8.0,0.02361791666666667,27.333333333333332
1922,24.0,0.025702257142857142,27.242857142857144
1923,23.0,0.020464828571428572,28.542857142857144
1924,3.0,0.017981857142857143,29.285714285714285
1925,6.0,0.0214426,27.8
1926,19.0,0.01858445714285715,26.928571428571427
1927,14.0,0.012933388571428573,28.542857142857144
1928,21.0,0.02040282857142857,28.6
1929,8.0,0.02259622222222222,27.22222222222222
1930,9.0,0.02760221428571429,33.857142857142854
1931,18.0,0.01985448571428572,29.071428571428573
1932,19.0,0.024139542857142853,25.314285714285713
1933,1.0,0.033898,29.5
1934,2.0,0.03125,32.0
1935,9.0,0.0329314,27.4
1936,13.0,0.02239694736842106,30.07894736842105
1937,2.0,0.037037,27.0
1938,5.0,0.017763745454545454,29.545454545454547
1939,11.0,0.02549575,27.075
1940,2.0,0.025889,28.833333333333332
1941,10.0,0.02781125,29.0625
1942,8.0,0.016845542105263157,28.05263157894737
1943,4.0,0.0280465,31.0
1944,3.0,0.0273126,30.6
1945,16.0,0.0208709,31.566666666666666
1946,1.0,0.034483,29.0
1947,13.0,0.027069526315789474,28.0
1948,2.0,0.01527198,34.2
1949,5.0,0.0306075,31.083333333333332
1950,5.0,0.029970249999999997,27.5
1951,3.0,0.022983833333333332,31.166666666666668
1952,1.0,0.016165975,34.0
1953,21.0,0.027279000000000005,26.714285714285715
1954,12.0,0.016808069565217392,30.543478260869566
1955,3.0,0.03075466666666667,33.666666666666664
1956,3.0,0.01456912,31.6
1957,11.0,0.027863529411764707,29.705882352941178
1958,19.0,0.02206594285714286,25.0
1959,1.0,0.016276125,32.0
1960,15.0,0.027814619047619043,25.38095238095238
1961,2.0,0.033333,30.0
1962,1.0,0.021072666666666667,29.0
1963,6.0,0.032224125,29.5
1964,2.0,0.028438666666666668,26.333333333333332
1965,4.0,0.02692114285714286,27.0
1966,9.0,0.027404846153846155,30.923076923076923
1967,8.0,0.01635521176470588,30.41176470588235
1968,6.0,0.017627818181818182,29.454545454545453
1969,1.0,0.014246642857142857,26.0
1970,21.0,0.023499114285714284,26.742857142857144
1971,6.0,0.012683613333333335,30.6
1972,12.0,0.024151105263157897,31.210526315789473
1973,1.0,0.020965666666666664,29.833333333333332
1974,18.0,0.025546971428571423,26.185714285714287
1975,8.0,0.033939,28.833333333333332
1976,7.0,0.024940999999999998,31.0
1977,3.0,0.031071400000000006,28.0
1978,5.0,0.023391333333333333,31.88888888888889
1979,16.0,0.021404828571428575,26.071428571428573
1980,6.0,0.02134875,31.625
1981,23.0,0.02267657142857143,27.085714285714285
1982,11.0,0.024574375000000002,29.28125
1983,21.0,0.025786857142857143,29.257142857142856
1984,14.0,0.022812999999999996,29.782608695652176
1985,9.0,0.023279374999999998,28.125
1986,4.0,0.023325363636363637,31.90909090909091
1987,4.0,0.0256322,29.0
1988,5.0,0.01744673,29.8
1989,3.0,0.026041750000000002,28.0
1990,7.0,0.030670250000000003,29.0
1991,10.0,0.02493437500000001,28.75
1992,7.0,0.026802416666666665,26.041666666666668
1993,2.0,0.026749,27.0
1994,8.0,0.020828368421052634,26.0
1995,2.0,0.02893125,28.25
1996,12.0,0.03177166666666667,28.0
1997,10.0,0.018877631578947368,31.0
1998,10.0,0.01680262105263158,25.605263157894736
1999,5.0,0.01941925,31.125
2000,10.0,0.021234857142857142,27.857142857142858
2001,11.0,0.017388791666666664,29.729166666666668
2002,15.0,0.019700342857142863,31.87142857142857
2003,3.0,0.026818750000000002,28.5
2004,8.0,0.0325527,30.6
2005,2.0,0.01617186,31.0
2006,5.0,0.021078625,30.375
2007,7.0,0.01788805882352942,29.11764705882353
2008,12.0,0.027896944444444443,31.88888888888889
2009,3.0,0.027410799999999996,31.8
2010,6.0,0.02207866666666666,31.666666666666668
2011,4.0,0.010811525,34.166666666666664
2012,2.0,0.0125922625,29.5
2013,17.0,0.021662249999999997,25.839285714285715
2014,17.0,0.016812657142857144,30.957142857142856
2015,3.0,0.034991999999999995,28.0
2016,5.0,0.03160185714285714,28.428571428571427
2017,5.0,0.028055499999999997,30.0
2018,2.0,0.0382995,26.75
2019,5.0,0.02282055555555556,28.0
2020,21.0,0.01912562857142857,31.15714285714286
2021,16.0,0.02008833333333333,30.90740740740741
2022,1.0,0.035714,28.0
2023,6.0,0.021240750000000003,31.375
2024,2.0,0.025583333333333333,29.666666666666668
2025,2.0,0.024904333333333334,29.0
2026,4.0,0.0263628,33.2
2027,7.0,0.030960111111111115,29.833333333333332
2028,4.0,0.030626142857142855,30.071428571428573
2029,1.0,0.025,30.0
2030,3.0,0.03041625,28.875
2031,2.0,0.032258,31.0
2032,23.0,0.025018828571428574,25.271428571428572
2033,10.0,0.027179562499999994,28.25
2034,5.0,0.0328032,32.4
2035,18.0,0.02110417142857143,25.0
2036,1.0,0.027778,27.0
2037,3.0,0.024794333333333335,27.0
2038,13.0,0.018232630434782605,28.391304347826086
2039,5.0,0.03523371428571429,28.071428571428573
2040,25.0,0.028901428571428578,25.257142857142856
2041,8.0,0.018731352941176473,30.529411764705884
2042,11.0,0.022888571428571428,30.285714285714285
2043,21.0,0.028487971428571433,26.3
2044,2.0,0.033711,27.666666666666668
2045,22.0,0.025955542857142862,28.9
2046,5.0,0.037037,27.0
2047,1.0,0.0234375,32.0
2048,17.0,0.022094571428571425,27.742857142857144
2049,5.0,0.025318500000000004,32.166666666666664
2050,12.0,0.01954096153846154,25.71153846153846
2051,14.0,0.025291181818181827,30.363636363636363
2052,11.0,0.026000437499999998,25.59375
2053,2.0,0.035714,28.0
2054,3.0,0.0235215,31.0
2055,5.0,0.019199571428571434,28.714285714285715
2056,3.0,0.0202298,29.0
2057,3.0,0.03125,32.0
2058,3.0,0.017762283333333333,32.0
2059,1.0,0.022634,27.0
2060,12.0,0.030884928571428574,29.642857142857142
2061,18.0,0.024103771428571435,25.37142857142857
2062,9.0,0.021173866666666666,33.4
2063,15.0,0.02384504761904762,30.61904761904762
2064,8.0,0.023195571428571427,30.428571428571427
2065,6.0,0.0204515,27.35
2066,3.0,0.019722200000000002,31.2
2067,5.0,0.02596588888888889,28.555555555555557
2068,7.0,0.03555325,28.375
2069,14.0,0.030074799999999995,28.75
2070,22.0,0.020479257142857147,28.5
2071,17.0,0.029773666666666667,28.22222222222222
2072,3.0,0.022423666666666665,34.5
2073,15.0,0.02516607142857143,26.696428571428573
2074,3.0,0.022442714285714288,32.142857142857146
2075,4.0,0.0330912,31.3
2076,9.0,0.020422076923076925,31.153846153846153
2077,16.0,0.018789041666666662,31.333333333333332
2078,11.0,0.03479123076923077,28.0
2079,22.0,0.031768142857142856,26.242857142857144
2080,11.0,0.02136795652173913,27.91304347826087
2081,3.0,0.023926500000000003,29.333333333333332
2082,16.0,0.02286678260869566,29.23913043478261
2083,12.0,0.021883892857142852,32.142857142857146
2084,22.0,0.019774142857142855,29.0
2085,4.0,0.027445999999999998,27.166666666666668
2086,3.0,0.028471999999999997,30.0
2087,2.0,0.032258,31.0
2088,3.0,0.032258,31.0
2089,13.0,0.018935800000000003,27.928571428571427
2090,8.0,0.01703242142857143,32.285714285714285
2091,18.0,0.024657730769230765,28.865384615384617
2092,2.0,0.02753833333333333,27.666666666666668
2093,3.0,0.02835625,26.25
2094,1.0,0.011742987500000001,31.0
2095,10.0,0.02088287499999999,33.0
2096,25.0,0.025335314285714287,28.12857142857143
2097,22.0,0.02452957142857143,27.314285714285713
2098,18.0,0.0188138125,29.6875
2099,3.0,0.02514375,29.0
2100,5.0,0.028824166666666665,33.333333333333336
2101,2.0,0.022569333333333334,32.0
2102,1.0,0.022529333333333332,28.166666666666668
2103,3.0,0.033333,30.0
2104,2.0,0.022424,27.0
2105,3.0,0.02006185714285715,27.5
2106,13.0,0.0281253125,25.5
2107,21.0,0.023987228571428574,26.8
2108,9.0,0.025734214285714287,29.571428571428573
2109,6.0,0.020100588888888892,28.38888888888889
2110,7.0,0.029454636363636363,29.454545454545453
2111,1.0,0.03125,32.0
2112,7.0,0.018542384615384613,33.34615384615385
2113,9.0,0.023592571428571428,31.857142857142858
2114,3.0,0.01944514285714286,31.285714285714285
2115,9.0,0.02002284210526316,32.05263157894737
2116,2.0,0.035714,28.0
2117,5.0,0.039216,25.5
2118,5.0,0.03487716666666667,29.5
2119,4.0,0.016482375,34.25
2120,3.0,0.035714,28.0
2121,17.0,0.020748058823529408,29.029411764705884
2122,4.0,0.035453,28.2
2123,14.0,0.03575313333333333,29.266666666666666
2124,3.0,0.026041750000000002,28.0
2125,20.0,0.019656257142857143,29.257142857142856
2126,3.0,0.03772733333333333,27.666666666666668
2127,3.0,0.014650871428571426,34.142857142857146
2128,4.0,0.03374483333333333,27.0
2129,5.0,0.016546255555555556,30.0
2130,7.0,0.036660124999999995,28.0625
2131,14.0,0.019459821428571424,29.285714285714285
2132,10.0,0.03507754545454545,27.363636363636363
2133,7.0,0.024673666666666667,29.166666666666668
2134,17.0,0.0193402,25.257142857142856
2135,5.0,0.021287375,34.1875
2136,15.0,0.019137129032258064,32.16129032258065
2137,7.0,0.0205436,30.0
2138,5.0,0.0370206,28.5
2139,15.0,0.01816145714285715,28.12857142857143
2140,3.0,0.0292122,27.5
2141,4.0,0.026301,31.0
2142,8.0,0.01796054166666667,28.833333333333332
2143,2.0,0.037037,27.0
2144,6.0,0.03207471428571429,31.857142857142858
2145,16.0,0.019558428571428567,27.0
2146,21.0,0.025903799999999998,25.114285714285714
2147,3.0,0.02363925,32.5625
2148,20.0,0.025403961538461542,31.615384615384617
2149,11.0,0.03525466666666667,29.0
2150,8.0,0.03609025,29.0
2151,3.0,0.032258,31.0
2152,8.0,0.024262416666666665,31.0
2153,5.0,0.026858571428571433,28.0
2154,1.0,0.016276125,32.0
2155,5.0,0.01667246,28.6
2156,5.0,0.03131071428571428,31.285714285714285
2157,9.0,0.0322128,30.0
2158,5.0,0.024099100000000005,28.2
2159,2.0,0.015663399999999997,29.666666666666668
2160,3.0,0.036007333333333336,28.333333333333332
2161,3.0,0.022859142857142856,28.428571428571427
2162,4.0,0.0312576,28.2
2163,4.0,0.020500625,32.5
2164,1.0,0.028846500000000004,26.0
2165,5.0,0.021152111111111108,30.333333333333332
2166,7.0,0.030727749999999998,29.6875
2167,3.0,0.03124975,30.0
2168,2.0,0.01113017,28.6
2169,14.0,0.025979590909090914,31.65909090909091
2170,9.0,0.0242655,29.285714285714285
2171,4.0,0.021038666666666664,34.333333333333336
2172,5.0,0.0174035,32.375
2173,9.0,0.020639538461538466,28.0
2174,15.0,0.033612562500000005,27.40625
2175,26.0,0.02627122857142856,27.2
2176,2.0,0.02534133333333333,28.5
2177,21.0,0.02364222857142858,27.0
2178,23.0,0.021944714285714276,25.485714285714284
2179,1.0,0.0129513,30.428571428571427
2180,17.0,0.01576805142857143,28.885714285714286
2181,23.0,0.023927771428571436,32.08571428571429
2182,1.0,0.025862,29.0
2183,4.0,0.035714,28.0
2184,7.0,0.02379330769230769,30.846153846153847
2185,1.0,0.035714,28.0
2186,19.0,0.022912687500000004,27.546875
2187,4.0,0.025549285714285712,30.5
2188,6.0,0.022444636363636365,26.818181818181817
2189,14.0,0.018589685714285716,30.314285714285713
2190,18.0,0.021899742857142857,26.257142857142856
2191,1.0,0.026316,28.5
2192,10.0,0.017618250000000002,30.175
2193,14.0,0.02456688461538462,29.596153846153847
2194,1.0,0.033333,30.0
2195,5.0,0.032258,31.0
2196,2.0,0.033711,27.666666666666668
2197,9.0,0.022090636363636364,32.45454545454545
2198,2.0,0.030737249999999997,26.25
2199,13.0,0.029773947368421053,28.31578947368421
2200,5.0,0.01644755,30.428571428571427
2201,5.0,0.027350875,29.5
2202,2.0,0.0204444,30.0
2203,1.0,0.034483,29.0
2204,22.0,0.021299342857142856,32.6
2205,19.0,0.02167194285714286,25.8
2206,6.0,0.013982621428571427,29.428571428571427
2207,1.0,0.016309499999999998,28.0
2208,18.0,0.01675074285714286,27.142857142857142
2209,10.0,0.02525753846153846,31.76923076923077
2210,7.0,0.03041172727272727,30.40909090909091
2211,3.0,0.0269048,28.0
2212,4.0,0.016926500000000004,33.2
2213,5.0,0.020718555555555556,29.5
2214,1.0,0.034483,29.0
2215,1.0,0.020479325,27.0
2216,8.0,0.01687864285714286,33.07142857142857
2217,24.0,0.02680934285714286,27.357142857142858
2218,15.0,0.021623750000000008,33.729166666666664
2219,21.0,0.022465799999999998,31.34285714285714
2220,11.0,0.019216153846153845,31.307692307692307
2221,3.0,0.03125,32.0
2222,19.0,0.020748628571428573,26.37142857142857
2223,8.0,0.017565791666666667,33.083333333333336
2224,4.0,0.0300794,31.5
2225,11.0,0.031850866666666665,31.2
2226,5.0,0.0308646,33.8
2227,20.0,0.0212266,28.214285714285715
2228,22.0,0.026158714285714285,25.771428571428572
2229,4.0,0.034195500000000004,30.0
2230,5.0,0.028055499999999997,30.0
2231,5.0,0.0392392,26.0
2232,2.0,0.035714,28.0
2233,3.0,0.0188655,29.1875
2234,3.0,0.034483,29.0
2235,19.0,0.024963714285714284,27.214285714285715
2236,3.0,0.0259915,28.875
2237,4.0,0.023663714285714288,28.0
2238,19.0,0.018380200000000003,25.714285714285715
2239,3.0,0.032557,30.0
2240,2.0,0.035714,28.0
2241,14.0,0.019397942857142855,25.87142857142857
2242,10.0,0.024461857142857146,29.928571428571427
2243,16.0,0.028453590909090908,31.136363636363637
2244,22.0,0.027420085714285718,26.0
2245,13.0,0.028896000000000005,29.294117647058822
2246,4.0,0.0246392,30.8
2247,8.0,0.028807500000000003,29.85
2248,3.0,0.031635750000000004,27.0
2249,8.0,0.021698142857142853,30.714285714285715
2250,4.0,0.0313745,33.0
2251,10.0,0.019960199999999997,25.95
2252,5.0,0.0368714,28.2
2253,8.0,0.018951685714285713,28.714285714285715
2254,13.0,0.012607842857142858,27.428571428571427
2255,2.0,0.012794642857142857,32.285714285714285
2256,3.0,0.011506763636363637,29.5
2257,11.0,0.023691999999999998,27.676470588235293
2258,1.0,0.010473177777777778,33.22222222222222
2259,19.0,0.022546942857142854,27.0
2260,4.0,0.021698571428571428,27.142857142857142
2261,20.0,0.024893066666666675,27.8
2262,8.0,0.023555764705882352,31.470588235294116
2263,7.0,0.029527428571428576,34.57142857142857
2264,8.0,0.027984769230769233,30.03846153846154
2265,1.0,0.037736,26.5
2266,1.0,0.032258,31.0
2267,17.0,0.019290457142857143,28.142857142857142
2268,2.0,0.016585375,26.5
2269,2.0,0.0362175,28.25
2270,2.0,0.033141333333333335,27.833333333333332
2271,10.0,0.0206188,34.2
2272,4.0,0.027977000000000002,28.357142857142858
2273,8.0,0.023882999999999998,27.916666666666668
2274,6.0,0.020478583333333335,30.333333333333332
2275,5.0,0.0235394,29.5
2276,2.0,0.02160525,27.0
2277,19.0,0.022899828571428575,28.771428571428572
2278,6.0,0.028169624999999997,27.8125
2279,14.0,0.01731085714285714,30.857142857142858
2280,3.0,0.034991999999999995,28.0
2281,15.0,0.012179422857142857,26.9
2282,1.0,0.0119091,32.142857142857146
2283,6.0,0.019239571428571432,30.785714285714285
2284,3.0,0.0162984,29.833333333333332
2285,9.0,0.028614818181818182,33.0
2286,1.0,0.016309499999999998,28.0
2287,9.0,0.0308417,33.35
2288,4.0,0.018513750000000002,31.25
2289,1.0,0.033898,29.5
2290,9.0,0.027635470588235296,28.323529411764707
2291,5.0,0.021882153846153846,30.0
2292,4.0,0.010352476923076922,32.0
2293,4.0,0.018880583333333333,28.041666666666668
2294,4.0,0.02111271428571429,28.0
2295,1.0,0.026785500000000004,28.0
2296,1.0,0.020036333333333333,30.5
2297,9.0,0.025620285714285713,28.785714285714285
2298,18.0,0.020228799999999995,26.5
2299,2.0,0.018254000000000003,28.0
2300,20.0,0.022360171428571423,28.042857142857144
2301,6.0,0.016295666666666667,27.0
2302,4.0,0.035714,28.0
2303,2.0,0.029593000000000005,27.5
2304,4.0,0.0319998,30.0
2305,4.0,0.0226055,29.0
2306,6.0,0.023584357142857143,32.035714285714285
2307,8.0,0.022514727272727273,30.636363636363637
2308,16.0,0.017017922857142858,27.0
2309,9.0,0.01490570666666667,29.233333333333334
2310,7.0,0.028058666666666666,30.333333333333332
2311,5.0,0.021479454545454545,28.772727272727273
2312,19.0,0.021813342857142856,27.642857142857142
2313,4.0,0.032209666666666664,28.75
2314,6.0,0.014799693750000002,29.0
2315,5.0,0.034483,29.0
2316,7.0,0.0290078,30.2
2317,10.0,0.017240521739130432,31.434782608695652
2318,19.0,0.020339399999999994,29.87142857142857
2319,16.0,0.021066714285714282,26.385714285714286
2320,20.0,0.023367181818181815,28.96969696969697
2321,2.0,0.023297333333333333,31.0
2322,5.0,0.027853428571428574,27.0
2323,22.0,0.01982126571428572,30.485714285714284
2324,25.0,0.027951742857142862,31.785714285714285
2325,2.0,0.02579366666666667,28.0
2326,2.0,0.02579366666666667,28.0
2327,4.0,0.023185666666666663,31.583333333333332
2328,16.0,0.018486800000000008,28.4
2329,5.0,0.026374727272727272,27.227272727272727
2330,3.0,0.022664108333333332,25.666666666666668
2331,5.0,0.0351656,28.7
2332,7.0,0.020924785714285715,29.0
2333,7.0,0.01958870588235294,32.35294117647059
2334,12.0,0.028794250000000004,28.5
2335,10.0,0.025149066666666667,30.066666666666666
2336,5.0,0.023951444444444442,33.0
2337,6.0,0.032774777777777785,27.0
2338,3.0,0.017007916666666668,31.666666666666668
2339,6.0,0.015076558333333332,32.166666666666664
2340,2.0,0.014292233333333336,28.444444444444443
2341,7.0,0.020331636363636364,29.454545454545453
2342,13.0,0.02234627586206897,30.224137931034484
2343,20.0,0.02957954285714286,25.214285714285715
2344,2.0,0.033333,30.0
2345,16.0,0.01533518125,30.5
2346,14.0,0.033008176470588235,31.11764705882353
2347,3.0,0.014366262500000001,31.75
2348,20.0,0.02943854285714286,25.114285714285714
2349,19.0,0.019346522857142848,27.0
2350,2.0,0.026749,27.0
2351,7.0,0.015473653846153845,32.19230769230769
2352,5.0,0.02817,30.142857142857142
2353,5.0,0.0214746,32.75
2354,3.0,0.028241166666666668,28.583333333333332
2355,4.0,0.025648000000000004,30.2
2356,10.0,0.029458999999999996,28.142857142857142
2357,8.0,0.017486155555555553,31.444444444444443
2358,1.0,0.0241935,31.0
2359,2.0,0.03125,32.0
2360,14.0,0.023765700000000008,28.116666666666667
2361,6.0,0.029931333333333334,28.333333333333332
2362,3.0,0.02320516666666667,33.5
2363,7.0,0.020742545454545454,30.363636363636363
2364,14.0,0.02038476923076923,31.153846153846153
2365,25.0,0.028898285714285717,26.614285714285714
2366,8.0,0.018087842105263163,29.526315789473685
2367,1.0,0.035714,28.0
2368,24.0,0.0214254,31.957142857142856
2369,20.0,0.01850522285714286,28.3
2370,4.0,0.02282983333333333,32.0
2371,5.0,0.0210975,31.5
2372,9.0,0.013758177777777781,28.814814814814813
2373,2.0,0.032258,31.0
2374,7.0,0.025474818181818182,29.136363636363637
2375,3.0,0.018218250000000002,34.1875
2376,1.0,0.017828875,31.0
2377,10.0,0.027064,28.625
2378,3.0,0.0314625,31.0
2379,5.0,0.02033988888888889,30.11111111111111
2380,4.0,0.037037,27.0
2381,3.0,0.03124975,30.0
2382,8.0,0.017065904761904765,28.761904761904763
2383,5.0,0.02262677777777778,28.61111111111111
2384,10.0,0.02637373333333333,30.333333333333332
2385,9.0,0.02979618181818182,29.0
2386,4.0,0.024125166666666666,28.916666666666668
2387,5.0,0.03319116666666667,30.333333333333332
2388,7.0,0.029626142857142858,34.5
2389,12.0,0.022757095238095233,28.071428571428573
2390,3.0,0.033482000000000005,28.0
2391,19.0,0.022416971428571426,27.37142857142857
2392,1.0,0.025,30.0
2393,7.0,0.02027563157894737,29.526315789473685
2394,18.0,0.020296,32.714285714285715
2395,2.0,0.0385185,27.0
2396,1.0,0.023522333333333336,27.666666666666668
2397,8.0,0.035011400000000005,27.25
2398,7.0,0.026602153846153845,29.53846153846154
2399,2.0,0.02962933333333333,30.0
2400,10.0,0.028061176470588235,30.470588235294116
2401,19.0,0.01929645333333333,31.85
2402,9.0,0.019180812500000005,26.03125
2403,21.0,0.024526457142857148,27.7
2404,10.0,0.016616750000000003,27.95
2405,12.0,0.031404400000000006,30.733333333333334
2406,12.0,0.01846526086956522,25.543478260869566
2407,1.0,0.035714,28.0
2408,5.0,0.022531444444444448,31.22222222222222
2409,9.0,0.025653333333333334,28.708333333333332
2410,4.0,0.033838,28.333333333333332
2411,4.0,0.024213,28.333333333333332
2412,10.0,0.01977015789473684,28.973684210526315
2413,2.0,0.0194445,30.0
2414,13.0,0.022669095238095235,30.023809523809526
2415,3.0,0.018458833333333334,31.0
2416,3.0,0.0223415,31.166666666666668
2417,3.0,0.03048975,29.125
2418,19.0,0.0199386,32.385714285714286
2419,4.0,0.03556625,30.5
2420,1.0,0.026785500000000004,28.0
2421,12.0,0.028199312499999997,31.5
2422,1.0,0.03125,32.0
2423,10.0,0.030843375000000003,25.5
2424,13.0,0.028373235294117647,28.0
2425,1.0,0.034483,29.0
2426,24.0,0.029256457142857142,25.0
2427,19.0,0.023290199999999997,27.914285714285715
2428,20.0,0.027528085714285704,26.97142857142857
2429,15.0,0.016238553124999996,26.609375
2430,2.0,0.032258,31.0
2431,5.0,0.0256788,29.6
2432,7.0,0.022973999999999998,27.0
2433,5.0,0.026517285714285715,32.214285714285715
2434,2.0,0.026969000000000003,27.666666666666668
2435,1.0,0.025862,29.0
2436,11.0,0.021877124999999997,28.46875
2437,19.0,0.02455645714285715,25.485714285714284
2438,2.0,0.032787,30.5
2439,6.0,0.028392222222222225,30.22222222222222
2440,12.0,0.024314947368421057,28.736842105263158
2441,16.0,0.02967713043478261,27.934782608695652
2442,4.0,0.03125,32.0
2443,15.0,0.018988249999999995,31.678571428571427
2444,25.0,0.03215408571428571,27.142857142857142
2445,8.0,0.018276166666666666,30.0
2446,2.0,0.035714,28.0
2447,2.0,0.02777766666666667,32.0
2448,4.0,0.022693333333333333,31.666666666666668
2449,15.0,0.02075244444444444,30.037037037037038
2450,2.0,0.031746,28.0
2451,10.0,0.028129714285714286,28.5
2452,1.0,0.01909965,28.375
2453,10.0,0.01840190476190476,25.238095238095237
2454,18.0,0.023586000000000006,25.62857142857143
2455,1.0,0.033333,30.0
2456,4.0,0.0220195,34.625
2457,2.0,0.02827375,28.0
2458,20.0,0.02094865714285713,29.84285714285714
2459,2.0,0.0385185,27.0
2460,2.0,0.024488600000000003,30.0
2461,6.0,0.01620292727272727,27.40909090909091
2462,5.0,0.022498875,31.0
2463,11.0,0.016852857142857145,33.54761904761905
2464,9.0,0.01961514285714286,33.642857142857146
2465,4.0,0.024542833333333333,33.0
2466,1.0,0.035714,28.0
2467,3.0,0.011539344444444441,34.666666666666664
2468,2.0,0.03125,32.0
2469,2.0,0.015143416666666666,31.0
2470,1.0,0.035714,28.0
2471,16.0,0.014866394285714282,30.614285714285714
2472,4.0,0.018665328571428573,27.857142857142858
2473,9.0,0.020875357142857147,28.928571428571427
2474,9.0,0.02888381818181818,32.04545454545455
2475,8.0,0.024899555555555557,32.0
2476,16.0,0.017537099999999996,30.483333333333334
2477,5.0,0.019474333333333333,31.88888888888889
2478,6.0,0.025624499999999998,31.0
2479,2.0,0.025117999999999998,28.0
2480,1.0,0.025,30.0
2481,3.0,0.031635750000000004,27.0
2482,6.0,0.014141392307692308,30.923076923076923
2483,16.0,0.019604742857142858,26.357142857142858
2484,12.0,0.019849047619047617,30.904761904761905
2485,3.0,0.033273500000000004,27.0
2486,1.0,0.035714,28.0
2487,1.0,0.020627333333333334,30.666666666666668
2488,8.0,0.024145727272727277,30.59090909090909
2489,1.0,0.025,30.0
2490,7.0,0.029209545454545457,33.04545454545455
2491,1.0,0.025,30.0
2492,8.0,0.017750526315789467,31.05263157894737
2493,8.0,0.026746083333333334,27.666666666666668
2494,2.0,0.0314745,26.0
2495,12.0,0.009986033333333333,32.46666666666667
2496,2.0,0.022569333333333334,32.0
2497,2.0,0.03125,32.0
2498,3.0,0.033333,30.0
2499,1.0,0.023405,28.5
