,averag,DR_epi,ho_den,Reward,R_tele,R_tran,score_
0,39.107,205850000.0,0.0018265,-876.49,124.01,-1000.5,-3.4525
1,36.556,5365700.0,0.0030395,-917.37,89.13,-1006.5,-3.671
2,38.45,133380000.0,0.0026008,4369.3,5369.8,-1000.5,-3.6155
3,35.565,210790000.0,0.0012225,-934.78,73.217,-1008.0,-3.182
4,37.158,123280000.0,0.0070822,-938.89,64.113,-1003.0,-3.294
5,37.583,25147000.0,0.013304,-22.952,980.05,-1003.0,-3.3235
6,40.667,65115000.0,0.0090164,-979.21,26.792,-1006.0,-2.78
7,36.409,54360000.0,0.0099875,-900.6,103.9,-1004.5,-3.5995
8,38.426,36554000.0,0.00096386,-507.4,490.1,-997.5,-2.9625
9,37.667,1856700000.0,0.0088496,-940.69,61.308,-1002.0,-3.887
10,38.676,24706000.0,0.0015209,-887.44,111.56,-999.0,-3.3425
11,36.881,207550000.0,0.0012912,-917.78,85.224,-1003.0,-3.2255
12,36.1,59442000.0,0.0022161,-709.82,297.18,-1007.0,-3.0975
13,39.083,15315000.0,0.0042644,-793.97,204.53,-998.5,-3.7655
14,39.0,60712000.0,0.0076923,789.32,1786.3,-997.0,-3.61
15,37.5,161900000.0,0.0083333,-942.42,62.078,-1004.5,-3.4
16,36.0,19880000.0,0.020833,-1000.3,6.7033,-1007.0,-3.856
17,38.931,9099800.0,0.0044287,-792.8,210.7,-1003.5,-2.871
18,41.222,63362000.0,0.0013477,-760.85,236.15,-997.0,-3.258
19,36.75,78639000.0,0.0022676,-526.01,473.49,-999.5,-3.559
20,36.333,10814000.0,0.015291,-969.81,32.194,-1002.0,-3.673
21,37.667,161420000.0,0.017699,-869.04,133.96,-1003.0,-3.887
22,36.875,190650000.0,0.0090395,-934.97,68.027,-1003.0,-3.5575
23,38.0,424210000.0,0.02193,-991.61,13.392,-1005.0,-3.772
24,,,,,,,
25,37.944,329680000.0,0.023426,-1001.3,5.6995,-1007.0,-3.6585
26,,,,,,,
27,40.5,626840000.0,0.018519,-992.88,5.1231,-998.0,-3.676
28,41.125,264100000.0,0.0030395,-928.16,71.838,-1000.0,-3.671
29,36.4,69580000.0,0.010989,-904.18,100.32,-1004.5,-3.818
30,37.667,1444600000.0,0.0088496,-993.63,7.3707,-1001.0,-3.887
31,42.344,2884300.0,0.004428,-940.35,60.148,-1000.5,-3.3225
32,40.0,167930000.0,0.00625,1212.4,2210.4,-998.0,-3.84
33,37.0,105670000.0,0.0067568,-975.1,27.902,-1003.0,-3.852
34,37.667,440210000.0,0.0088496,-909.24,93.755,-1003.0,-3.887
35,37.222,231910000.0,0.0029851,7295.9,8298.9,-1003.0,-3.665
36,42.429,424670000.0,0.003367,10353.0,11350.0,-997.0,-3.703
37,0.0,0.0,0.0,112.19,108.19,4.0,-2.679
38,37.786,167030000.0,0.0018904,-950.32,48.182,-998.5,-3.471
39,38.3,173540000.0,0.0052219,-899.31,106.19,-1005.5,-3.8085
40,36.25,6401100.0,0.013793,-921.07,83.435,-1004.5,-3.7825
41,35.732,52558000.0,0.0009995,-727.5,276.0,-1003.5,-2.9995
42,38.5,499050000.0,0.002886,16790.0,17791.0,-1000.5,-3.6535
43,,,,,,,
44,39.056,87268000.0,0.0014225,5641.9,6641.4,-999.5,-3.297
45,39.083,133670000.0,0.0014215,-886.74,109.26,-996.0,-3.2965
46,36.75,575750000.0,0.0045351,-990.34,12.658,-1003.0,-3.7795
47,,,,,,,
48,,,,,,,
49,38.0,634840000.0,0.0087719,-882.96,122.54,-1005.5,-3.886
50,38.0,154360000.0,0.0065789,-207.16,795.84,-1003.0,-3.848
51,36.6,41074000.0,0.0018215,-872.55,135.45,-1008.0,-3.451
52,40.625,200120000.0,0.0030769,5233.1,6229.1,-996.0,-3.675
53,40.938,57656000.0,0.0030534,-901.2,94.795,-996.0,-3.6725
54,36.69,167620000.0,0.0012979,-982.07,20.927,-1003.0,-3.2295
55,,,,,,,
56,38.467,110280000.0,0.015598,-955.85,46.651,-1002.5,-3.423
57,36.0,674420000.0,0.0055556,-984.26,20.237,-1004.5,-3.82
58,38.6,272230000.0,0.014249,-977.35,18.648,-996.0,-3.228
59,36.667,14985000.0,0.0090909,-982.91,21.594,-1004.5,-3.89
60,36.6,939920000.0,0.0054645,-953.48,47.524,-1001.0,-3.817
61,40.385,88463000.0,0.0019048,3735.5,4731.5,-996.0,-3.475
62,40.533,127760000.0,0.0016447,-896.12,99.884,-996.0,-3.392
63,35.674,88449000.0,0.0012188,7717.3,8719.3,-1002.0,-3.1795
64,38.0,151400000.0,0.019737,-977.15,26.854,-1004.0,-3.848
65,35.958,33586000.0,0.0023175,-513.56,489.44,-1003.0,-3.5685
66,,,,,,,
67,37.333,126420000.0,0.0044643,-946.5,59.002,-1005.5,-3.776
68,35.0,695840000.0,0.0057143,-910.08,94.922,-1005.0,-3.825
69,36.778,71316000.0,0.0015106,-833.35,169.65,-1003.0,-3.338
70,41.889,137770000.0,0.0026525,3917.7,4913.7,-996.0,-3.623
71,0.0,0.0,0.0,7529.4,7533.9,-4.5,-2.6995
72,37.875,540050000.0,0.0033003,-968.49,33.011,-1001.5,-3.697
73,38.077,37190000.0,0.010101,-964.05,36.446,-1000.5,-3.505
74,35.357,44589000.0,0.0060606,-51.673,951.83,-1003.5,-3.505
75,39.2,527980000.0,0.005102,-956.94,42.56,-999.5,-3.804
76,38.625,969230000.0,0.0064725,-896.75,104.75,-1001.5,-3.8455
77,38.7,199610000.0,0.005168,-592.98,407.52,-1000.5,-3.8065
78,38.9,38439000.0,0.0051414,-970.38,32.623,-1003.0,-3.8055
79,38.222,60381000.0,0.002907,-778.08,226.42,-1004.5,-3.656
80,36.75,45824000.0,0.0019436,-584.11,424.39,-1008.5,-3.4855
81,,,,,,,
82,37.182,81949000.0,0.002445,-783.03,221.47,-1004.5,-3.591
83,35.0,35661000.0,0.0019048,-749.18,256.82,-1006.0,-3.475
84,38.0,498160000.0,0.0087719,-895.3,110.2,-1005.5,-3.886
85,37.269,190100000.0,0.01032,-951.27,49.225,-1000.5,-3.5155
86,39.4,151890000.0,0.010152,-871.29,125.71,-997.0,-3.803
87,35.0,365990000.0,0.0047619,-904.72,100.28,-1005.0,-3.79
88,38.875,544650000.0,0.0064309,6186.7,7187.2,-1000.5,-3.8445
89,35.714,68785000.0,0.002,3003.0,4008.5,-1005.5,-3.5
90,35.656,55754000.0,0.00087642,6751.1,7754.1,-1003.0,-2.859
91,,,,,,,
92,41.1,48792000.0,0.0097324,-379.98,617.02,-997.0,-3.7945
93,37.0,453840000.0,0.009009,-947.15,56.85,-1004.0,-3.778
94,38.429,365870000.0,0.0037175,8851.0,9854.0,-1003.0,-3.731
95,,,,,,,
96,37.4,96459000.0,0.0026738,-873.02,133.98,-1007.0,-3.626
97,35.417,517120000.0,0.0047059,-944.13,60.375,-1004.5,-3.7875
98,,,,,,,
99,36.929,54061000.0,0.0038685,444.0,1446.0,-1002.0,-3.7415
100,35.0,9822800.0,0.011429,-990.6,14.396,-1005.0,-3.825
101,,,,,,,
102,41.222,82856000.0,0.016173,-957.61,38.389,-996.0,-3.629
103,0.0,0.0,0.0,8930.7,8932.7,-2.0,-2.7525
104,35.881,31972000.0,0.0013271,42.775,1044.3,-1001.5,-3.2465
105,,,,,,,
106,,,,,,,
107,40.333,259500000.0,0.0041322,-993.74,3.2623,-997.0,-3.758
108,41.4,387420000.0,0.0024155,-997.02,0.98436,-998.0,-3.586
109,,,,,,,
110,36.786,684470000.0,0.0038835,-998.61,6.8924,-1005.5,-3.7425
111,37.667,614200000.0,0.0088496,-837.98,164.02,-1002.0,-3.887
112,40.8,42950000.0,0.0073529,297.25,1293.2,-996.0,-3.592
113,42.3,83333000.0,0.00094563,-838.78,166.22,-1005.0,-2.9425
114,38.0,453020000.0,0.017544,-978.89,26.608,-1005.5,-3.886
115,37.342,62315000.0,0.0014094,4000.6,4997.6,-997.0,-3.2905
116,40.571,230810000.0,0.0035211,-862.4,134.6,-997.0,-3.716
117,38.167,35791000.0,0.0131,-951.47,44.531,-996.0,-3.771
118,41.056,13001000.0,0.013532,-939.3,66.701,-1006.0,-3.6305
119,36.75,68359000.0,0.020408,-969.83,33.672,-1003.5,-3.853
120,,,,,,,
121,36.875,151850000.0,0.0067797,1033.9,2038.4,-1004.5,-3.8525
122,0.0,0.0,0.0,669.69,664.69,5.0,-2.706
123,40.7,484540000.0,0.002457,18397.0,19394.0,-997.0,-3.593
124,36.647,2232500.0,0.0032103,-936.54,59.459,-996.0,-3.377
125,41.889,301850000.0,0.015915,2472.7,3469.7,-997.0,-3.623
126,,,,,,,
127,36.333,792660000.0,0.0091743,-957.34,49.655,-1007.0,-3.891
128,38.462,300670000.0,0.004,-973.15,27.349,-1000.5,-3.5
129,37.286,55778000.0,0.0057471,1646.6,2645.6,-999.0,-3.478
130,41.062,45376000.0,0.0030441,-963.19,39.312,-1002.5,-3.6715
131,36.368,172750000.0,0.0072359,-995.1,0.89878,-996.0,-3.309
132,35.957,17707000.0,0.0007946,-885.89,118.11,-1004.0,-2.7415
133,38.5,21378000.0,0.000999,1391.8,2388.8,-997.0,-2.999
134,38.273,248290000.0,0.014252,-977.45,30.545,-1008.0,-3.579
135,37.083,711240000.0,0.013483,-931.03,70.97,-1002.0,-3.7775
136,36.667,57251000.0,0.0090909,-494.1,509.4,-1003.5,-3.89
137,36.714,368310000.0,0.0038911,-975.85,27.154,-1003.0,-3.743
138,38.6,54056000.0,0.007772,692.21,1695.2,-1003.0,-3.614
139,36.0,258990000.0,0.0023148,-995.83,7.1697,-1003.0,-3.568
140,0.0,0.0,0.0,397.91,407.91,-10.0,-2.6415
141,39.0,16341000.0,0.008547,-896.41,106.59,-1003.0,-3.883
142,37.3,565470000.0,0.0053619,-955.27,49.225,-1004.5,-3.8135
143,36.778,643680000.0,0.0030211,-933.36,70.644,-1004.0,-3.669
144,37.0,326080000.0,0.0067568,-894.96,108.04,-1003.0,-3.852
145,,,,,,,
146,36.8,29668000.0,0.0013587,-340.83,657.17,-998.0,-3.264
147,37.893,39873000.0,0.001885,-984.09,18.91,-1003.0,-3.4695
148,38.25,260440000.0,0.0026144,9417.3,10418.0,-1000.5,-3.6175
149,36.786,570840000.0,0.0038835,14359.0,15363.0,-1003.5,-3.7425
150,0.0,0.0,0.0,4995.9,5000.4,-4.5,-2.71
151,35.0,1396700000.0,0.0095238,-999.56,5.4424,-1005.0,-3.895
152,35.842,197510000.0,0.011747,-940.25,67.745,-1008.0,-3.319
153,37.676,371870000.0,0.0015613,25540.0,26539.0,-999.0,-3.3595
154,37.667,704250000.0,0.0088496,-902.07,99.928,-1002.0,-3.887
155,39.0,126550000.0,0.0051282,-772.81,231.19,-1004.0,-3.805
156,38.333,84267000.0,0.013043,999.22,1998.2,-999.0,-3.54
157,39.0,1158600000.0,0.015385,7823.9,8822.9,-999.0,-3.805
158,,,,,,,
159,0.0,0.0,0.0,9536.9,9540.4,-3.5,-2.673
160,36.25,248480000.0,0.015764,5395.9,6400.4,-1004.5,-3.4925
161,,,,,,,
162,42.0,87516000.0,0.0079365,521.02,1519.0,-998.0,-3.748
163,37.5,785610000.0,0.026667,-1003.0,0.0,-1003.0,-3.8875
164,36.0,993170000.0,0.0069444,-1000.0,7.9817,-1008.0,-3.856
165,39.7,516070000.0,0.015113,-981.45,16.546,-998.0,-3.8015
166,42.278,131570000.0,0.0078844,2440.9,3437.9,-997.0,-3.6195
167,38.0,28717000.0,0.001462,-567.98,428.02,-996.0,-3.316
168,35.741,18804000.0,0.0010363,1190.4,2192.4,-1002.0,-3.035
169,37.0,81722000.0,0.0012285,6699.9,7702.9,-1003.0,-3.186
170,35.654,26440000.0,0.015102,337.0,1341.5,-1004.5,-3.073
171,38.0,284090000.0,0.019737,175.47,1177.5,-1002.0,-3.848
172,0.0,0.0,0.0,4870.0,4875.0,-5.0,-2.7725
173,42.833,254870000.0,0.0019455,-899.26,97.744,-997.0,-3.486
174,41.4,21894000.0,0.014493,-825.65,171.35,-997.0,-3.793
175,41.444,335060000.0,0.002681,-917.52,78.477,-996.0,-3.627
176,38.0,495250000.0,0.0087719,-893.21,111.29,-1004.5,-3.886
177,39.875,30690000.0,0.012539,-978.98,19.024,-998.0,-3.8405
178,42.778,397700000.0,0.0025974,13228.0,14224.0,-996.0,-3.615
179,38.5,74664000.0,0.0032468,-770.69,233.31,-1004.0,-3.692
180,38.2,81333000.0,0.0052356,454.33,1456.3,-1002.0,-3.809
181,39.375,157280000.0,0.0063492,-979.29,23.706,-1003.0,-3.685
182,0.0,0.0,0.0,27107.0,27114.0,-7.0,-2.775
183,,,,,,,
184,37.667,1054800000.0,0.0088496,-969.1,32.9,-1002.0,-3.887
185,37.0,14976000.0,0.0019305,-129.55,872.45,-1002.0,-3.482
186,42.8,232960000.0,0.0023364,-950.28,46.725,-997.0,-3.572
187,35.0,88467000.0,0.0125,-877.34,129.66,-1007.0,-3.44
188,36.875,213600000.0,0.0067797,1862.9,2867.4,-1004.5,-3.8525
189,40.048,129040000.0,0.0011891,10573.0,11571.0,-998.0,-3.159
190,44.053,7610300.0,0.014337,-765.11,230.89,-996.0,-3.163
191,38.0,242620000.0,0.0065789,2244.6,3246.6,-1002.0,-3.848
192,36.875,902010000.0,0.0067797,11104.0,12108.0,-1004.5,-3.8525
193,42.938,102890000.0,0.0014556,5927.1,6923.1,-996.0,-3.313
194,37.324,101810000.0,0.0086682,8504.2,9501.2,-997.0,-2.731
195,37.875,1406800000.0,0.0066007,-971.94,32.564,-1004.5,-3.8485
196,39.0,1354100000.0,0.008547,-966.32,36.682,-1003.0,-3.883
197,39.267,251820000.0,0.0016978,14703.0,15699.0,-996.0,-3.411
198,36.333,560770000.0,0.0045872,-972.78,31.222,-1004.0,-3.782
199,35.75,245370000.0,0.0083916,-972.14,31.365,-1003.5,-3.6425
200,35.938,13458000.0,0.0011594,382.33,1381.8,-999.5,-3.1375
201,37.667,273930000.0,0.026549,-1003.0,0.0,-1003.0,-3.887
202,41.4,31041000.0,0.0048309,-853.13,143.87,-997.0,-3.793
203,40.111,395070000.0,0.0027701,-959.13,43.869,-1003.0,-3.639
204,36.083,27462000.0,0.0069284,93.165,1097.7,-1004.5,-3.567
205,36.222,397410000.0,0.0030675,-992.86,12.638,-1005.5,-3.674
206,35.571,261160000.0,0.0080321,-892.59,115.41,-1008.0,-3.751
207,36.25,171010000.0,0.013793,-975.07,28.43,-1003.5,-3.42
208,40.0,523690000.0,0.00625,5895.1,6893.1,-998.0,-3.84
209,37.083,103960000.0,0.0044944,1330.4,2333.9,-1003.5,-3.7775
210,36.241,38771000.0,0.001022,3520.9,4522.9,-1002.0,-3.0215
211,0.0,0.0,0.0,12047.0,12050.0,-3.0,-2.7145
212,35.571,163030000.0,0.0040161,-960.82,41.181,-1002.0,-3.253
213,35.667,459490000.0,0.0093458,-984.16,22.84,-1007.0,-3.786
214,35.962,60502000.0,0.0074866,3878.9,4879.4,-1000.5,-3.065
215,37.8,86573000.0,0.0026455,2489.8,3493.8,-1004.0,-3.622
216,40.333,2944900.0,0.0020661,-850.76,144.24,-995.0,-3.516
217,36.333,32723000.0,0.011468,-945.79,57.212,-1003.0,-3.128
218,37.667,830560000.0,0.0088496,6340.8,7342.8,-1002.0,-3.887
219,0.0,0.0,0.0,4427.7,4428.7,-1.0,-2.7625
220,40.682,44046000.0,0.011173,88.041,1084.0,-996.0,-3.5525
221,38.2,645870000.0,0.0052356,10563.0,11565.0,-1002.0,-3.809
222,0.0,0.0,0.0,2985.2,2983.7,1.5,-2.592
223,,,,,,,
224,37.455,5279400.0,0.0012136,-789.56,217.44,-1007.0,-3.176
225,37.667,197410000.0,0.017699,5105.2,6108.2,-1003.0,-3.209
226,0.0,0.0,0.0,2757.4,2759.9,-2.5,-2.663
227,35.25,195020000.0,0.0028369,-900.1,105.4,-1005.5,-3.6475
228,0.0,0.0,0.0,5009.1,5011.6,-2.5,-2.739
229,35.667,134270000.0,0.0046729,-875.63,131.37,-1007.0,-3.786
230,,,,,,,
231,0.0,0.0,0.0,9632.4,9631.4,1.0,-2.699
232,42.2,24584000.0,0.007109,-244.63,752.37,-997.0,-3.578
233,37.3,429720000.0,0.0053619,-917.76,87.74,-1005.5,-3.8135
234,35.4,188790000.0,0.011299,-888.07,119.93,-1008.0,-3.646
235,0.0,0.0,0.0,25017.0,25022.0,-5.0,-2.775
236,40.6,145790000.0,0.014778,196.73,1195.7,-999.0,-3.797
237,37.75,241240000.0,0.004415,-752.28,254.22,-1006.5,-3.7735
238,41.5,321690000.0,0.0060241,-978.63,17.373,-996.0,-3.502
239,38.143,696170000.0,0.0037453,-973.01,22.992,-996.0,-3.733
240,35.444,146590000.0,0.0010449,16082.0,17084.0,-1002.0,-3.043
241,36.343,68188000.0,0.012579,4468.1,5471.1,-1003.0,-2.728
242,36.875,33785000.0,0.0011299,2490.7,3494.2,-1003.5,-3.115
243,43.0,87640000.0,0.002584,2140.7,3136.7,-996.0,-3.613
244,39.895,55391000.0,0.0013193,3476.1,4476.6,-1000.5,-3.242
245,37.0,11934000.0,0.010811,-844.85,159.65,-1004.5,-3.815
246,37.1,163020000.0,0.0053908,-857.77,143.23,-1001.0,-3.8145
247,0.0,0.0,0.0,17194.0,17201.0,-7.0,-2.775
248,41.5,200090000.0,0.0040161,3430.1,4426.1,-996.0,-3.751
249,0.0,0.0,0.0,7110.0,7115.0,-5.0,-2.7645
250,0.0,0.0,0.0,3661.6,3667.6,-6.0,-2.775
251,,,,,,,
252,35.25,46435000.0,0.00088652,5453.4,6455.4,-1002.0,-2.872
253,35.429,23196000.0,0.0010081,-983.46,20.538,-1004.0,-3.008
254,0.0,0.0,0.0,9036.6,9037.6,-1.0,-2.755
255,35.224,98152000.0,0.0048948,-970.96,37.039,-1008.0,-2.9785
256,42.333,10206000.0,0.0019685,-493.69,502.31,-996.0,-3.492
257,37.667,265520000.0,0.0088496,1345.4,2347.4,-1002.0,-3.887
258,0.0,0.0,0.0,57.746,61.746,-4.0,-2.775
259,0.0,0.0,0.0,11264.0,11269.0,-5.0,-2.775
260,38.714,58400000.0,0.00369,-776.2,220.8,-997.0,-3.729
261,36.833,224150000.0,0.0045249,4048.1,5052.6,-1004.5,-3.779
262,40.0,75122000.0,0.003125,1343.0,2341.0,-998.0,-3.68
263,0.0,0.0,0.0,13114.0,13119.0,-5.0,-2.775
264,38.2,18284000.0,0.0052356,-674.62,327.38,-1002.0,-3.809
265,37.067,35393000.0,0.010791,-951.11,51.889,-1003.0,-2.888
266,40.214,192220000.0,0.0035524,4184.3,5183.8,-999.5,-3.7185
267,35.776,101920000.0,0.00096386,11817.0,12819.0,-1002.5,-2.9625
268,40.6,372050000.0,0.0049261,5600.8,6597.8,-997.0,-3.797
269,39.903,79746000.0,0.0024252,-895.25,101.75,-997.0,-2.763
270,36.25,92952000.0,0.0068966,-981.3,24.204,-1005.5,-3.855
271,38.117,49783000.0,0.00087451,5460.2,6456.2,-996.0,-2.8565
272,0.0,0.0,0.0,12868.0,12873.0,-5.0,-2.775
273,38.184,194720000.0,0.0013784,14641.0,15639.0,-998.0,-3.2745
274,0.0,0.0,0.0,24474.0,24481.0,-7.0,-2.775
275,,,,,,,
276,36.25,233650000.0,0.0034483,6320.3,7323.8,-1003.5,-3.71
277,42.0,50611000.0,0.0095238,-889.27,106.73,-996.0,-3.58
278,0.0,0.0,0.0,22810.0,22815.0,-5.0,-2.775
279,0.0,0.0,0.0,3711.1,3717.1,-6.0,-2.775
280,37.8,306510000.0,0.015873,-919.09,85.406,-1004.5,-3.811
281,37.737,43363000.0,0.0013947,2478.8,3474.8,-996.0,-3.283
282,37.812,228510000.0,0.0033058,6136.5,7138.5,-1002.0,-3.6975
283,37.667,16036000.0,0.013274,-980.7,21.304,-1002.0,-3.774
284,40.1,11908000.0,0.0049875,-955.95,40.047,-996.0,-3.7995
285,37.5,709710000.0,0.0088889,-960.73,41.272,-1002.0,-3.8875
286,36.667,696800000.0,0.0090909,-979.58,23.921,-1003.5,-3.89
287,42.422,87365000.0,0.016943,2310.0,3308.5,-998.5,-2.6425
288,42.75,128210000.0,0.01462,583.05,1579.0,-996.0,-3.658
289,38.053,105370000.0,0.0082988,5274.6,6280.1,-1005.5,-3.277
290,38.967,185740000.0,0.0017109,10597.0,11594.0,-997.0,-3.4155
291,41.286,140520000.0,0.0034602,2769.7,3767.7,-998.0,-3.711
292,39.0,637810000.0,0.017094,-988.15,14.851,-1003.0,-3.883
293,40.333,172480000.0,0.0027548,5187.2,6186.7,-999.5,-3.637
294,0.0,0.0,0.0,5759.2,5766.2,-7.0,-2.775
295,44.053,37934000.0,0.0059737,1375.5,2371.5,-996.0,-3.163
296,36.333,112080000.0,0.0091743,-999.26,7.7423,-1007.0,-3.891
297,0.0,0.0,0.0,5373.8,5378.8,-5.0,-2.775
298,0.0,0.0,0.0,4443.3,4444.3,-1.0,-2.767
299,39.423,311830000.0,0.0019512,-995.53,1.4679,-997.0,-3.4875
300,35.846,101990000.0,0.012876,-968.45,28.55,-997.0,-3.068
301,42.75,269560000.0,0.002924,24285.0,25282.0,-997.0,-2.974
302,0.0,0.0,0.0,18365.0,18371.0,-6.0,-2.775
303,35.0,109860000.0,0.0095238,-957.45,49.548,-1007.0,-3.895
304,42.429,499080000.0,0.003367,12343.0,13339.0,-996.0,-3.703
305,37.875,242770000.0,0.0066007,-398.73,605.77,-1004.5,-3.8485
306,41.0,35589000.0,0.004065,-989.37,7.6333,-997.0,-3.754
307,36.333,648510000.0,0.0091743,-930.23,76.772,-1007.0,-3.891
308,42.429,74085000.0,0.003367,-943.2,53.798,-997.0,-3.703
309,37.905,125980000.0,0.0012563,-941.24,55.759,-997.0,-3.204
310,36.63,146490000.0,0.0010111,16094.0,17097.0,-1003.0,-3.011
311,0.0,0.0,0.0,21476.0,21484.0,-8.0,-2.775
312,40.5,27781000.0,0.0061728,-988.62,8.3753,-997.0,-3.838
313,36.867,61132000.0,0.0018083,2833.4,3835.4,-1002.0,-3.447
314,,,,,,,
315,39.364,15083000.0,0.0023095,-326.55,672.45,-999.0,-3.567
316,0.0,0.0,0.0,768.8,773.8,-5.0,-2.775
317,39.0,21462000.0,0.017094,-982.03,20.968,-1003.0,-3.883
318,36.875,1133800000.0,0.013559,9027.5,10031.0,-1003.5,-3.8525
319,0.0,0.0,0.0,7964.6,7969.6,-5.0,-2.775
320,36.211,15284000.0,0.0014535,228.43,1227.9,-999.5,-3.312
321,36.333,48097000.0,0.012615,1634.9,2638.9,-1004.0,-3.128
322,40.8,53706000.0,0.004902,-822.7,173.3,-996.0,-2.98
323,0.0,0.0,0.0,9016.8,9023.8,-7.0,-2.775
324,36.524,110850000.0,0.0013038,8940.3,9942.3,-1002.0,-3.233
325,0.0,0.0,0.0,2010.4,2014.4,-4.0,-2.775
326,43.0,299100000.0,0.002584,9708.8,10705.0,-996.0,-3.613
327,0.0,0.0,0.0,93.415,99.415,-6.0,-2.775
328,0.0,0.0,0.0,3048.0,3053.0,-5.0,-2.775
329,40.278,59667000.0,0.0027586,-818.61,178.39,-997.0,-3.6375
330,40.824,115180000.0,0.0014409,7291.1,8291.1,-1000.0,-3.306
331,36.231,22243000.0,0.024416,-996.0,0.0,-996.0,-3.058
332,43.0,81282000.0,0.0062016,2959.4,3955.4,-996.0,-3.355
333,35.296,126050000.0,0.0010493,13687.0,14689.0,-1002.0,-3.047
334,36.111,20411000.0,0.010769,-810.54,193.46,-1004.0,-3.35
335,,,,,,,
336,38.188,326690000.0,0.0032733,9162.6,10163.0,-1000.5,-3.6945
337,0.0,0.0,0.0,16799.0,16798.0,1.0,-2.6995
338,38.917,36757000.0,0.0014276,1790.0,2786.0,-996.0,-3.2995
339,0.0,0.0,0.0,18691.0,18696.0,-5.0,-2.775
340,0.0,0.0,0.0,5252.1,5258.1,-6.0,-2.775
341,42.75,36936000.0,0.002924,-609.22,386.78,-996.0,-3.658
342,40.0,86993000.0,0.00625,147.04,1145.0,-998.0,-3.84
343,36.452,58524000.0,0.0013063,4262.3,5266.8,-1004.5,-3.2345
344,35.0,119810000.0,0.021429,-974.97,30.03,-1005.0,-3.86
345,42.625,26901000.0,0.0043988,557.46,1553.5,-996.0,-3.318
346,0.0,0.0,0.0,8015.8,8021.8,-6.0,-2.775
347,37.143,310720000.0,0.0076923,5960.9,6964.4,-1003.5,-3.74
348,36.333,41562000.0,0.0018349,1602.7,2604.7,-1002.0,-3.455
349,36.6,199340000.0,0.0054645,9586.1,10588.0,-1002.0,-3.451
350,40.467,284980000.0,0.0016474,16814.0,17810.0,-996.0,-3.393
351,38.0,441700000.0,0.0065789,4907.6,5910.6,-1003.0,-3.848
352,44.143,3779600.0,0.0010787,-975.09,20.914,-996.0,-3.073
353,39.0,243730000.0,0.0042735,-773.5,233.5,-1007.0,-3.766
354,0.0,0.0,0.0,1571.8,1576.8,-5.0,-2.775
355,35.333,71923000.0,0.0035377,5693.9,6695.9,-1002.0,-3.152
356,41.0,73226000.0,0.004878,-914.3,82.703,-997.0,-3.795
357,36.2,19548000.0,0.00092081,1535.5,2534.5,-999.0,-2.914
358,0.0,0.0,0.0,785.61,790.61,-5.0,-2.775
359,37.875,164970000.0,0.0022002,7049.0,8046.0,-997.0,-3.5455
360,35.571,44268000.0,0.003012,3920.5,4922.5,-1002.0,-3.004
361,38.6,476290000.0,0.010363,-981.69,17.808,-999.5,-3.807
362,38.333,142010000.0,0.0043478,2181.1,3184.1,-1003.0,-3.77
363,37.0,48882000.0,0.0054054,-127.6,876.9,-1004.5,-3.815
364,38.5,118650000.0,0.0032468,2727.5,3730.5,-1003.0,-3.692
365,39.306,42034000.0,0.014134,-889.93,106.07,-996.0,-3.2925
366,42.143,423110000.0,0.0033898,10299.0,11295.0,-996.0,-3.705
367,0.0,0.0,0.0,3168.6,3164.6,4.0,-2.507
368,,,,,,,
369,36.647,161930000.0,0.0016051,10533.0,11532.0,-999.0,-3.377
370,35.0,67154000.0,0.0035714,-683.52,322.48,-1006.0,-3.72
371,0.0,0.0,0.0,10013.0,10019.0,-6.0,-2.775
372,0.0,0.0,0.0,9412.8,9418.8,-6.0,-2.775
373,37.0,548400000.0,0.0054054,-949.56,54.938,-1004.5,-3.815
374,36.875,341960000.0,0.013559,2021.9,3025.4,-1003.5,-3.8525
375,0.0,0.0,0.0,7126.1,7131.1,-5.0,-2.775
376,39.0,983450000.0,0.008547,-991.15,12.853,-1004.0,-3.883
377,43.136,3297100.0,0.012645,-979.74,19.759,-999.5,-3.5255
378,43.435,25313000.0,0.009009,561.77,1557.8,-996.0,-3.001
379,0.0,0.0,0.0,25523.0,25528.0,-5.0,-2.775
380,38.694,215190000.0,0.0014358,15392.0,16391.0,-999.5,-3.3035
381,39.0,75941000.0,0.008547,-968.4,34.597,-1003.0,-3.883
382,38.2,6587100.0,0.0010471,-996.23,11.77,-1008.0,-3.045
383,0.0,0.0,0.0,5759.6,5766.6,-7.0,-2.775
384,44.357,28915000.0,0.00080515,2515.3,3511.3,-996.0,-2.758
385,37.233,220640000.0,0.0017905,12928.0,13933.0,-1005.0,-3.4415
386,0.0,0.0,0.0,3309.3,3314.3,-5.0,-2.775
387,0.0,0.0,0.0,4046.8,4052.8,-6.0,-2.775
388,0.0,0.0,0.0,4728.7,4733.7,-5.0,-2.775
389,43.2,56174000.0,0.0023148,1268.5,2264.5,-996.0,-3.568
390,0.0,0.0,0.0,5213.7,5219.7,-6.0,-2.775
391,42.375,90445000.0,0.0029499,1827.8,2823.8,-996.0,-3.661
392,0.0,0.0,0.0,7757.5,7763.5,-6.0,-2.775
393,38.0,218660000.0,0.0065789,1922.1,2926.1,-1004.0,-3.848
394,0.0,0.0,0.0,2831.2,2836.2,-5.0,-2.775
395,35.323,101150000.0,0.00091324,12624.0,13628.0,-1003.5,-2.905
396,0.0,0.0,0.0,450.26,456.26,-6.0,-2.775
397,0.0,0.0,0.0,13785.0,13789.0,-4.0,-2.775
398,0.0,0.0,0.0,914.93,919.93,-5.0,-2.775
399,41.0,345810000.0,0.0034843,-902.47,93.525,-996.0,-3.713
400,42.818,49242000.0,0.0021231,1207.6,2204.6,-997.0,-3.529
401,36.636,13316000.0,0.013648,-454.33,544.67,-999.0,-3.194
402,0.0,0.0,0.0,8892.8,8897.8,-5.0,-2.775
403,0.0,0.0,0.0,11977.0,11982.0,-5.0,-2.775
404,37.889,24255000.0,0.0087977,-994.04,2.9559,-997.0,-3.659
405,37.667,449650000.0,0.017699,877.16,1880.2,-1003.0,-3.887
406,35.948,40472000.0,0.00095923,4088.2,5091.7,-1003.5,-2.9575
407,42.722,354250000.0,0.0078023,8312.9,9309.9,-997.0,-3.6155
408,43.667,17967000.0,0.010178,-921.81,84.195,-1006.0,-3.214
409,0.0,0.0,0.0,6266.5,6271.5,-5.0,-2.775
410,0.0,0.0,0.0,3545.5,3551.5,-6.0,-2.775
411,41.938,139690000.0,0.0029806,3358.4,4354.4,-996.0,-3.6645
412,39.0,24605000.0,0.0042735,-994.11,9.8881,-1004.0,-3.766
413,38.5,550360000.0,0.008658,-916.54,84.959,-1001.5,-3.8845
414,0.0,0.0,0.0,2164.3,2169.3,-5.0,-2.775
415,37.667,2222300000.0,0.0088496,18643.0,19646.0,-1003.0,-3.887
416,0.0,0.0,0.0,2704.3,2709.3,-5.0,-2.775
417,41.667,160360000.0,0.013333,1773.0,2771.0,-998.0,-3.625
418,38.0,710320000.0,0.013158,5221.6,6224.6,-1003.0,-3.848
419,37.0,75007000.0,0.0081081,1306.0,2308.0,-1002.0,-3.63
420,0.0,0.0,0.0,1863.3,1863.3,0.0,-2.759
421,41.75,254260000.0,0.002994,6924.0,7920.0,-996.0,-3.666
422,0.0,0.0,0.0,3387.5,3392.5,-5.0,-2.775
423,0.0,0.0,0.0,54.073,57.573,-3.5,-2.7725
424,41.154,363820000.0,0.0018692,-985.45,10.549,-996.0,-3.465
425,,,,,,,
426,39.792,188630000.0,0.0020942,8230.2,9226.2,-996.0,-3.5225
427,35.741,171110000.0,0.0010363,18947.0,19949.0,-1002.0,-3.035
428,36.143,15399000.0,0.00079051,1348.9,2353.4,-1004.5,-2.735
429,0.0,0.0,0.0,7852.2,7858.2,-6.0,-2.775
430,38.5,815210000.0,0.008658,-931.31,69.191,-1000.5,-3.8845
431,38.2,240280000.0,0.0052356,3299.4,4302.4,-1003.0,-3.809
432,35.341,68169000.0,0.0012862,-784.98,218.02,-1003.0,-3.2225
433,37.234,199680000.0,0.00083928,26672.0,27668.0,-996.0,-2.8085
434,0.0,0.0,0.0,9770.4,9775.4,-5.0,-2.775
435,0.0,0.0,0.0,4697.2,4702.2,-5.0,-2.775
436,0.0,0.0,0.0,1959.6,1964.6,-5.0,-2.775
437,0.0,0.0,0.0,2203.5,2209.5,-6.0,-2.775
438,38.5,27062000.0,0.008658,-984.47,17.035,-1001.5,-3.8845
439,0.0,0.0,0.0,1691.1,1696.1,-5.0,-2.775
440,0.0,0.0,0.0,19350.0,19355.0,-5.0,-2.775
441,0.0,0.0,0.0,-4.332,1.668,-6.0,-2.7685
442,42.0,79061000.0,0.0011905,5752.3,6751.3,-999.0,-3.16
443,40.304,189890000.0,0.0064725,-894.46,102.54,-997.0,-3.073
444,0.0,0.0,0.0,701.02,705.02,-4.0,-2.775
445,35.69,14163000.0,0.00096618,776.62,1778.6,-1002.0,-2.965
446,38.714,84573000.0,0.01476,1259.0,2261.0,-1002.0,-3.458
447,0.0,0.0,0.0,1441.6,1448.6,-7.0,-2.775
448,37.933,248810000.0,0.012302,7733.6,8736.6,-1003.0,-3.431
449,0.0,0.0,0.0,-2.4196,4.5804,-7.0,-2.775
450,0.0,0.0,0.0,865.69,870.69,-5.0,-2.775
451,0.0,0.0,0.0,10761.0,10756.0,5.0,-2.443
452,37.361,219110000.0,0.001487,15754.0,16759.0,-1004.5,-3.3275
453,0.0,0.0,0.0,4828.7,4834.7,-6.0,-2.775
454,0.0,0.0,0.0,175.13,180.13,-5.0,-2.775
455,42.75,17607000.0,0.0087719,-613.36,383.64,-997.0,-3.658
456,42.136,187190000.0,0.0021575,7370.5,8366.5,-996.0,-3.5365
457,43.0,48408000.0,0.002584,736.55,1732.5,-996.0,-3.613
458,36.809,12151000.0,0.015182,-312.7,687.8,-1000.5,-2.7485
459,,,,,,,
460,0.0,0.0,0.0,9809.4,9815.4,-6.0,-2.775
461,0.0,0.0,0.0,1652.1,1659.1,-7.0,-2.775
462,38.5,48807000.0,0.0032468,532.56,1534.6,-1002.0,-3.692
463,0.0,0.0,0.0,6211.8,6216.8,-5.0,-2.775
464,38.333,166210000.0,0.0043478,2723.6,3726.6,-1003.0,-3.77
465,36.3,76169000.0,0.0027548,-890.69,115.81,-1006.5,-3.637
466,0.0,0.0,0.0,7887.3,7893.3,-6.0,-2.775
467,0.0,0.0,0.0,4452.8,4458.8,-6.0,-2.775
468,36.6,15762000.0,0.0054645,358.55,1356.5,-998.0,-3.085
469,0.0,0.0,0.0,5679.0,5684.0,-5.0,-2.775
470,41.4,71461000.0,0.0024155,1870.2,2866.2,-996.0,-3.586
471,0.0,0.0,0.0,20752.0,20758.0,-6.0,-2.775
472,43.714,51248000.0,0.001634,1994.2,2991.2,-997.0,-3.388
473,38.2,135470000.0,0.020942,-443.45,558.55,-1002.0,-3.809
474,43.765,131150000.0,0.0040323,7216.8,8212.8,-996.0,-3.256
475,0.0,0.0,0.0,12860.0,12866.0,-6.0,-2.763
476,0.0,0.0,0.0,6988.6,6994.6,-6.0,-2.775
477,37.625,10103000.0,0.0039867,-717.94,279.06,-997.0,-3.2475
478,36.875,427170000.0,0.020339,820.01,1824.5,-1004.5,-3.8525
479,44.217,50008000.0,0.00098328,3950.8,4946.8,-996.0,-2.983
480,35.727,242830000.0,0.0025445,9825.3,10827.0,-1002.0,-3.607
481,37.4,40887000.0,0.0026738,646.05,1648.1,-1002.0,-3.626
482,38.333,708360000.0,0.0086957,11636.0,12640.0,-1004.0,-3.77
483,38.2,62751000.0,0.0078534,955.92,1958.9,-1003.0,-3.618
484,42.429,3952200.0,0.010101,-939.32,57.681,-997.0,-3.703
485,0.0,0.0,0.0,21332.0,21337.0,-5.0,-2.775
486,37.308,53854000.0,0.0020619,1903.4,2906.9,-1003.5,-3.515
487,0.0,0.0,0.0,18457.0,18462.0,-5.0,-2.775
488,35.919,28031000.0,0.00089807,2758.8,3755.8,-997.0,-2.8865
489,42.4,17869000.0,0.014151,-981.98,18.018,-1000.0,-3.576
490,37.045,362150000.0,0.002454,15272.0,16277.0,-1004.5,-3.5925
491,0.0,0.0,0.0,5928.3,5934.3,-6.0,-2.775
492,39.333,12792000.0,0.014831,-989.45,7.5535,-997.0,-3.528
493,0.0,0.0,0.0,1845.1,1851.1,-6.0,-2.775
494,0.0,0.0,0.0,19905.0,19912.0,-7.0,-2.775
495,0.0,0.0,0.0,4812.3,4818.3,-6.0,-2.775
496,37.5,16420000.0,0.0088889,-977.74,25.264,-1003.0,-3.8875
497,0.0,0.0,0.0,101.49,107.49,-6.0,-2.775
498,0.0,0.0,0.0,1940.7,1943.2,-2.5,-2.765
499,,,,,,,
500,36.357,4896500.0,0.00098232,-408.69,591.81,-1000.5,-2.982
501,0.0,0.0,0.0,1295.9,1299.9,-4.0,-2.775
502,0.0,0.0,0.0,9779.9,9784.9,-5.0,-2.775
503,0.0,0.0,0.0,1990.8,1997.8,-7.0,-2.775
504,37.583,56606000.0,0.0062084,-811.98,188.52,-1000.5,-2.8725
505,43.222,160440000.0,0.0012853,11247.0,12244.0,-997.0,-3.222
506,0.0,0.0,0.0,5803.0,5809.0,-6.0,-2.775
507,0.0,0.0,0.0,34.972,39.972,-5.0,-2.775
508,0.0,0.0,0.0,3151.5,3158.5,-7.0,-2.775
509,0.0,0.0,0.0,2714.4,2719.4,-5.0,-2.775
510,35.457,2268000.0,0.016116,-869.3,132.7,-1002.0,-2.759
511,36.853,188590000.0,0.0047885,-928.5,70.502,-999.0,-3.3735
512,,,,,,,
513,42.75,7221100.0,0.002924,-959.18,37.82,-997.0,-3.658
514,38.0,23841000.0,0.0065789,-682.97,319.03,-1002.0,-3.848
515,0.0,0.0,0.0,8917.0,8923.0,-6.0,-2.775
516,43.167,135290000.0,0.0019305,5675.8,6670.8,-995.0,-3.482
517,37.429,27226000.0,0.0009542,2287.2,3283.2,-996.0,-2.952
518,0.0,0.0,0.0,16237.0,16241.0,-4.0,-2.775
519,35.148,3064800.0,0.014752,-962.77,45.228,-1008.0,-3.051
520,42.75,386380000.0,0.0087719,-957.69,38.314,-996.0,-3.658
521,40.8,590300000.0,0.004902,-960.34,36.656,-997.0,-3.796
522,44.0,22571000.0,0.0012626,728.37,1724.4,-996.0,-3.208
523,0.0,0.0,0.0,3981.6,3986.6,-5.0,-2.775
524,0.0,0.0,0.0,16523.0,16528.0,-5.0,-2.775
525,0.0,0.0,0.0,12272.0,12277.0,-5.0,-2.775
526,0.0,0.0,0.0,3294.1,3299.1,-5.0,-2.775
527,37.0,42294000.0,0.010811,98.799,1100.8,-1002.0,-3.63
528,0.0,0.0,0.0,8213.0,8218.0,-5.0,-2.775
529,0.0,0.0,0.0,5280.6,5284.6,-4.0,-2.775
530,38.556,19877000.0,0.0028818,-288.46,714.54,-1003.0,-3.653
531,43.2,10959000.0,0.0023148,-555.2,441.8,-997.0,-3.568
532,36.5,430120000.0,0.010959,9869.8,10871.0,-1001.0,-3.635
533,36.9,6889500.0,0.0054201,-968.18,38.817,-1007.0,-3.8155
534,37.667,405820000.0,0.0088496,2585.8,3587.8,-1002.0,-3.887
535,0.0,0.0,0.0,11705.0,11711.0,-6.0,-2.775
536,42.75,10595000.0,0.002924,-665.76,331.24,-997.0,-3.658
537,36.333,38796000.0,0.027523,-1007.0,0.0,-1007.0,-3.891
538,37.8,384670000.0,0.005291,-866.55,138.95,-1005.5,-3.811
539,0.0,0.0,0.0,4122.8,4127.8,-5.0,-2.775
540,,,,,,,
541,0.0,0.0,0.0,9561.7,9566.7,-5.0,-2.775
542,0.0,0.0,0.0,11550.0,11558.0,-8.0,-2.775
543,0.0,0.0,0.0,4303.9,4307.4,-3.5,-2.7575
544,41.429,7453500.0,0.010345,-930.44,75.563,-1006.0,-3.71
545,0.0,0.0,0.0,6562.4,6567.4,-5.0,-2.775
546,37.083,190650000.0,0.0044944,3275.6,4280.1,-1004.5,-3.7775
547,0.0,0.0,0.0,148.18,143.18,5.0,-2.723
548,38.636,120220000.0,0.0094118,2763.5,3766.5,-1003.0,-3.575
549,0.0,0.0,0.0,598.51,603.51,-5.0,-2.775
550,43.0,335060000.0,0.012522,8537.6,9537.6,-1000.0,-3.441
551,0.0,0.0,0.0,9649.0,9655.0,-6.0,-2.775
552,39.308,16003000.0,0.0019569,-141.61,857.39,-999.0,-3.489
553,0.0,0.0,0.0,2456.1,2462.1,-6.0,-2.775
554,0.0,0.0,0.0,13940.0,13948.0,-8.0,-2.775
555,38.094,77483000.0,0.0016407,4199.4,5198.9,-999.5,-3.3905
556,0.0,0.0,0.0,3698.6,3704.6,-6.0,-2.775
557,0.0,0.0,0.0,8049.1,8055.1,-6.0,-2.775
558,0.0,0.0,0.0,15585.0,15590.0,-5.0,-2.775
559,0.0,0.0,0.0,11036.0,11042.0,-6.0,-2.775
560,39.438,230300000.0,0.0095087,4018.7,5019.2,-1000.5,-3.6845
561,0.0,0.0,0.0,5905.0,5911.0,-6.0,-2.775
562,0.0,0.0,0.0,1045.8,1052.8,-7.0,-2.775
563,40.409,4679900.0,0.015748,-925.86,71.137,-997.0,-3.5555
564,40.5,21286000.0,0.018519,-972.2,24.803,-997.0,-3.838
565,,,,,,,
566,0.0,0.0,0.0,847.31,853.31,-6.0,-2.775
567,0.0,0.0,0.0,6365.0,6370.0,-5.0,-2.775
568,0.0,0.0,0.0,2320.5,2326.5,-6.0,-2.775
569,39.654,33248000.0,0.0077595,268.86,1265.9,-997.0,-3.4845
570,0.0,0.0,0.0,6975.4,6980.4,-5.0,-2.775
571,38.333,316560000.0,0.0021739,14642.0,15645.0,-1003.0,-3.54
572,40.0,3925000.0,0.0078125,-982.56,18.437,-1001.0,-3.36
573,40.6,89167000.0,0.0049261,-918.65,79.347,-998.0,-3.797
574,37.0,335920000.0,0.0054054,5021.7,6026.2,-1004.5,-3.815
575,0.0,0.0,0.0,7069.5,7076.5,-7.0,-2.775
576,39.32,55386000.0,0.0091556,3003.0,4006.0,-1003.0,-3.017
577,0.0,0.0,0.0,5583.0,5589.0,-6.0,-2.775
578,0.0,0.0,0.0,13770.0,13775.0,-5.0,-2.775
579,42.429,8833700.0,0.003367,-933.26,63.739,-997.0,-3.703
580,0.0,0.0,0.0,1320.0,1325.0,-5.0,-2.775
581,0.0,0.0,0.0,7602.3,7609.3,-7.0,-2.775
582,38.6,159210000.0,0.0051813,1811.5,2812.0,-1000.5,-3.807
583,36.018,87210000.0,0.00099157,9512.0,10509.0,-997.0,-2.9915
584,0.0,0.0,0.0,3552.4,3555.9,-3.5,-2.7625
585,0.0,0.0,0.0,12488.0,12493.0,-5.0,-2.775
586,0.0,0.0,0.0,12388.0,12393.0,-5.0,-2.775
587,39.0,54335000.0,0.0078895,-816.13,187.87,-1004.0,-3.493
588,41.857,311180000.0,0.010239,4289.8,5285.8,-996.0,-3.707
589,36.5,418040000.0,0.027397,-1004.5,0.0,-1004.5,-3.8175
590,0.0,0.0,0.0,3456.4,3461.4,-5.0,-2.775
591,0.0,0.0,0.0,18296.0,18301.0,-5.0,-2.775
592,0.0,0.0,0.0,18216.0,18221.0,-5.0,-2.775
593,38.333,100680000.0,0.0043478,1254.4,2257.4,-1003.0,-3.77
594,0.0,0.0,0.0,4248.4,4254.4,-6.0,-2.775
595,0.0,0.0,0.0,5762.3,5768.3,-6.0,-2.775
596,0.0,0.0,0.0,1712.7,1718.7,-6.0,-2.775
597,41.375,13894000.0,0.0060423,-824.2,171.8,-996.0,-3.5035
598,38.2,442980000.0,0.0052356,6929.9,7931.9,-1002.0,-3.809
599,,,,,,,
600,0.0,0.0,0.0,11748.0,11753.0,-5.0,-2.775
601,0.0,0.0,0.0,14713.0,14718.0,-5.0,-2.775
602,0.0,0.0,0.0,8701.7,8706.7,-5.0,-2.775
603,42.368,29613000.0,0.0037267,1127.2,2126.2,-999.0,-3.195
604,35.625,136620000.0,0.0070175,-689.86,315.64,-1005.5,-3.8575
605,40.0,474920000.0,0.0041667,9606.0,10605.0,-999.5,-3.76
606,0.0,0.0,0.0,8854.7,8861.7,-7.0,-2.775
607,0.0,0.0,0.0,10308.0,10313.0,-5.0,-2.775
608,0.0,0.0,0.0,2695.1,2702.1,-7.0,-2.775
609,43.667,99140000.0,0.013995,1976.1,2973.1,-997.0,-3.214
610,36.875,212790000.0,0.0067797,1853.0,2856.5,-1003.5,-3.8525
611,0.0,0.0,0.0,2279.5,2284.5,-5.0,-2.775
612,37.0,178570000.0,0.0054054,2200.0,3203.5,-1003.5,-3.815
613,0.0,0.0,0.0,12567.0,12572.0,-5.0,-2.775
614,42.0,743890000.0,0.0039683,15501.0,16498.0,-997.0,-3.748
615,0.0,0.0,0.0,1257.6,1264.6,-7.0,-2.775
616,0.0,0.0,0.0,1010.9,1016.9,-6.0,-2.775
617,35.104,34916000.0,0.0035608,-984.64,20.859,-1005.5,-3.1575
618,0.0,0.0,0.0,407.17,412.17,-5.0,-2.775
619,43.0,278790000.0,0.015504,-973.87,22.131,-996.0,-3.613
620,37.083,333130000.0,0.0089888,4958.1,5962.6,-1004.5,-3.7775
621,0.0,0.0,0.0,9277.1,9282.1,-5.0,-2.775
622,0.0,0.0,0.0,15595.0,15601.0,-6.0,-2.775
623,0.0,0.0,0.0,7560.7,7566.7,-6.0,-2.775
624,0.0,0.0,0.0,4942.4,4947.4,-5.0,-2.775
625,37.667,246010000.0,0.0088496,1172.9,2174.9,-1002.0,-3.887
626,0.0,0.0,0.0,3012.6,3018.6,-6.0,-2.775
627,35.308,24655000.0,0.0010893,1759.1,2762.1,-1003.0,-3.082
628,0.0,0.0,0.0,20483.0,20489.0,-6.0,-2.775
629,43.714,201990000.0,0.001634,10794.0,11790.0,-996.0,-3.388
630,41.824,99720000.0,0.018284,631.86,1630.9,-999.0,-3.289
631,0.0,0.0,0.0,11753.0,11758.0,-5.0,-2.775
632,38.692,91029000.0,0.0019881,3909.3,4912.3,-1003.0,-3.497
633,0.0,0.0,0.0,5153.3,5159.3,-6.0,-2.775
634,35.735,26212000.0,0.0016461,877.94,1881.4,-1003.5,-3.3925
635,37.0,10854000.0,0.0033784,-662.74,339.26,-1002.0,-3.704
636,0.0,0.0,0.0,18260.0,18264.0,-4.0,-2.775
637,0.0,0.0,0.0,1701.4,1706.4,-5.0,-2.775
638,0.0,0.0,0.0,7334.8,7340.8,-6.0,-2.775
639,0.0,0.0,0.0,7888.0,7893.0,-5.0,-2.775
640,0.0,0.0,0.0,15070.0,15073.0,-3.5,-2.725
641,0.0,0.0,0.0,2048.6,2054.6,-6.0,-2.775
642,36.25,13823000.0,0.0025862,787.75,1789.8,-1002.0,-2.84
643,0.0,0.0,0.0,9724.5,9730.5,-6.0,-2.775
644,0.0,0.0,0.0,26469.0,26475.0,-6.0,-2.775
645,0.0,0.0,0.0,26234.0,26239.0,-5.0,-2.775
646,0.0,0.0,0.0,7100.7,7107.7,-7.0,-2.775
647,40.455,22551000.0,0.0022472,9.4309,1008.4,-999.0,-3.555
648,0.0,0.0,0.0,13244.0,13250.0,-6.0,-2.775
649,0.0,0.0,0.0,11660.0,11665.0,-5.0,-2.775
650,0.0,0.0,0.0,16248.0,16254.0,-6.0,-2.775
651,41.1,26458000.0,0.012165,81.653,1077.7,-996.0,-3.178
652,0.0,0.0,0.0,20.856,27.856,-7.0,-2.775
653,0.0,0.0,0.0,7562.1,7567.1,-5.0,-2.775
654,0.0,0.0,0.0,5747.3,5752.3,-5.0,-2.775
655,0.0,0.0,0.0,2650.6,2654.6,-4.0,-2.775
656,,,,,,,
657,41.8,198270000.0,0.0023923,7006.5,8004.5,-998.0,-3.582
658,42.455,347580000.0,0.0021413,14551.0,15547.0,-996.0,-3.533
659,0.0,0.0,0.0,14876.0,14882.0,-6.0,-2.775
660,36.875,945110000.0,0.020339,3033.2,4036.7,-1003.5,-3.8525
661,0.0,0.0,0.0,2956.9,2962.9,-6.0,-2.775
662,42.0,13480000.0,0.020408,-993.88,3.1242,-997.0,-3.706
663,42.857,271850000.0,0.005,12276.0,13273.0,-997.0,-3.4
664,0.0,0.0,0.0,9937.6,9943.6,-6.0,-2.775
665,40.778,469440000.0,0.0027248,15787.0,16785.0,-998.0,-3.633
666,0.0,0.0,0.0,5395.5,5401.5,-6.0,-2.775
667,0.0,0.0,0.0,3884.8,3891.8,-7.0,-2.775
668,0.0,0.0,0.0,14950.0,14957.0,-7.0,-2.775
669,0.0,0.0,0.0,3013.2,3018.2,-5.0,-2.775
670,0.0,0.0,0.0,16444.0,16449.0,-5.0,-2.775
671,0.0,0.0,0.0,6682.6,6690.6,-8.0,-2.775
672,0.0,0.0,0.0,2856.6,2863.6,-7.0,-2.775
673,37.667,312960000.0,0.0088496,1764.8,2766.8,-1002.0,-3.887
674,0.0,0.0,0.0,4321.1,4327.1,-6.0,-2.775
675,0.0,0.0,0.0,5019.7,5025.7,-6.0,-2.775
676,0.0,0.0,0.0,13118.0,13125.0,-7.0,-2.775
677,0.0,0.0,0.0,27010.0,27016.0,-6.0,-2.775
678,36.333,248920000.0,0.0091743,-960.19,46.813,-1007.0,-3.891
679,36.667,104500000.0,0.0090909,-74.701,929.8,-1004.5,-3.89
680,36.9,1074200000.0,0.01626,-1004.7,2.2503,-1007.0,-3.8155
681,0.0,0.0,0.0,12385.0,12391.0,-6.0,-2.775
682,37.083,293160000.0,0.0044944,5576.7,6581.2,-1004.5,-3.7775
683,0.0,0.0,0.0,59.833,63.833,-4.0,-2.775
684,0.0,0.0,0.0,2638.4,2645.4,-7.0,-2.775
685,0.0,0.0,0.0,2753.8,2758.8,-5.0,-2.775
686,36.875,115850000.0,0.0067797,550.69,1555.2,-1004.5,-3.8525
687,42.636,132950000.0,0.010661,2426.7,3423.7,-997.0,-3.531
688,0.0,0.0,0.0,1266.5,1272.5,-6.0,-2.775
689,37.407,39238000.0,0.0089109,2169.8,3174.3,-1004.5,-2.99
690,35.833,1256800000.0,0.018605,-998.17,6.3331,-1004.5,-3.8925
691,0.0,0.0,0.0,4660.3,4665.3,-5.0,-2.775
692,0.0,0.0,0.0,3296.7,3302.7,-6.0,-2.775
693,0.0,0.0,0.0,3479.7,3486.7,-7.0,-2.775
694,0.0,0.0,0.0,18626.0,18631.0,-5.0,-2.775
695,0.0,0.0,0.0,337.14,341.14,-4.0,-2.775
696,0.0,0.0,0.0,19836.0,19841.0,-5.0,-2.775
697,39.0,377660000.0,0.008547,-883.95,120.05,-1004.0,-3.883
698,36.467,48487000.0,0.00091408,5309.4,6312.4,-1003.0,-2.906
699,38.0,145100000.0,0.0087719,-357.19,647.31,-1004.5,-3.886
700,0.0,0.0,0.0,2234.2,2240.2,-6.0,-2.775
701,35.667,94586000.0,0.0056075,4038.5,5042.0,-1003.5,-3.465
702,0.0,0.0,0.0,7419.8,7424.8,-5.0,-2.775
703,42.719,8440200.0,0.0073153,-581.74,418.76,-1000.5,-3.3165
704,0.0,0.0,0.0,9564.8,9570.8,-6.0,-2.775
705,42.333,94078000.0,0.0065617,4374.2,5370.2,-996.0,-3.238
706,37.029,18044000.0,0.0007716,-881.0,116.0,-997.0,-2.704
707,44.143,56086000.0,0.0010787,4046.9,5042.9,-996.0,-3.073
708,42.143,213230000.0,0.0033898,4696.2,5692.2,-996.0,-3.705
709,0.0,0.0,0.0,9917.1,9922.1,-5.0,-2.775
710,40.214,188870000.0,0.0035524,4022.4,5019.4,-997.0,-3.7185
711,41.077,103760000.0,0.0018727,4562.6,5558.6,-996.0,-3.466
712,0.0,0.0,0.0,8584.0,8590.0,-6.0,-2.775
713,0.0,0.0,0.0,15154.0,15159.0,-5.0,-2.775
714,,,,,,,
715,35.577,10396000.0,0.0086486,-974.55,29.952,-1004.5,-3.5375
716,0.0,0.0,0.0,11671.0,11676.0,-5.0,-2.775
717,37.0,8265900.0,0.013514,-985.95,21.045,-1007.0,-3.778
718,41.25,665000000.0,0.0040404,13766.0,14763.0,-997.0,-3.7525
719,0.0,0.0,0.0,10336.0,10341.0,-5.0,-2.775
720,43.714,132320000.0,0.001634,6727.0,7723.0,-996.0,-3.388
721,0.0,0.0,0.0,1550.0,1555.0,-5.0,-2.775
722,43.455,3188100.0,0.0094142,-815.09,181.91,-997.0,-3.044
723,38.2,16122000.0,0.0052356,-952.74,50.264,-1003.0,-3.809
724,39.667,75098000.0,0.0042017,663.31,1661.3,-998.0,-3.762
725,0.0,0.0,0.0,6375.2,6380.2,-5.0,-2.775
726,36.667,648980000.0,0.018182,1784.2,2787.7,-1003.5,-3.89
727,0.0,0.0,0.0,3103.5,3109.5,-6.0,-2.775
728,35.7,42430000.0,0.0011204,3569.4,4572.9,-1003.5,-3.1075
729,0.0,0.0,0.0,8562.2,8569.2,-7.0,-2.775
730,0.0,0.0,0.0,20797.0,20803.0,-6.0,-2.775
731,0.0,0.0,0.0,10509.0,10514.0,-5.0,-2.775
732,44.25,106420000.0,0.0028249,9036.4,10032.0,-996.0,-2.938
733,37.667,161580000.0,0.0088496,425.47,1428.5,-1003.0,-3.887
734,37.25,454330000.0,0.013423,4843.2,5845.2,-1002.0,-3.7765
735,40.5,425190000.0,0.0027435,14145.0,15142.0,-997.0,-3.6355
736,40.636,10198000.0,0.011186,-745.29,250.71,-996.0,-3.553
737,40.929,355690000.0,0.0034904,8486.6,9483.6,-997.0,-3.7135
738,35.333,14414000.0,0.014151,-979.72,28.276,-1008.0,-3.576
739,0.0,0.0,0.0,1057.4,1063.4,-6.0,-2.775
740,39.414,171620000.0,0.0087489,12582.0,13579.0,-997.0,-2.857
741,0.0,0.0,0.0,6084.1,6088.1,-4.0,-2.775
742,0.0,0.0,0.0,25132.0,25138.0,-6.0,-2.775
743,36.407,18924000.0,0.015259,-894.93,113.07,-1008.0,-3.017
744,0.0,0.0,0.0,6827.9,6832.9,-5.0,-2.775
745,39.75,153740000.0,0.012579,-799.23,196.77,-996.0,-3.841
746,37.667,826820000.0,0.0088496,-987.13,15.874,-1003.0,-3.887
747,0.0,0.0,0.0,18075.0,18081.0,-6.0,-2.775
748,0.0,0.0,0.0,10569.0,10576.0,-7.0,-2.775
749,0.0,0.0,0.0,3719.6,3725.6,-6.0,-2.775
750,0.0,0.0,0.0,9556.4,9561.4,-5.0,-2.775
751,38.333,130600000.0,0.0043478,1925.3,2928.3,-1003.0,-3.77
752,0.0,0.0,0.0,7866.5,7871.5,-5.0,-2.775
753,0.0,0.0,0.0,21007.0,21013.0,-6.0,-2.775
754,0.0,0.0,0.0,13881.0,13886.0,-5.0,-2.775
755,0.0,0.0,0.0,17759.0,17763.0,-4.0,-2.775
756,35.593,10471000.0,0.0052029,12.054,1014.1,-1002.0,-3.039
757,0.0,0.0,0.0,4616.8,4621.8,-5.0,-2.775
758,0.0,0.0,0.0,8264.7,8269.7,-5.0,-2.775
759,0.0,0.0,0.0,16703.0,16707.0,-4.0,-2.775
760,0.0,0.0,0.0,5662.1,5667.1,-5.0,-2.775
761,0.0,0.0,0.0,38.76,42.76,-4.0,-2.775
762,0.0,0.0,0.0,69.753,75.753,-6.0,-2.775
763,0.0,0.0,0.0,2976.8,2981.8,-5.0,-2.775
764,0.0,0.0,0.0,6934.5,6939.5,-5.0,-2.775
765,36.385,8433500.0,0.011628,-463.74,539.26,-1003.0,-3.054
766,37.286,18667000.0,0.0038314,-501.86,500.14,-1002.0,-3.739
767,0.0,0.0,0.0,10433.0,10439.0,-6.0,-2.7175
768,40.118,57836000.0,0.0021994,7013.0,8012.0,-999.0,-2.636
769,0.0,0.0,0.0,443.85,447.85,-4.0,-2.775
770,40.5,516790000.0,0.0061728,-859.82,136.18,-996.0,-3.838
771,0.0,0.0,0.0,8704.3,8711.3,-7.0,-2.775
772,0.0,0.0,0.0,5925.8,5930.8,-5.0,-2.775
773,0.0,0.0,0.0,8469.7,8473.7,-4.0,-2.775
774,0.0,0.0,0.0,3544.7,3550.7,-6.0,-2.775
775,44.4,60475000.0,0.00075075,6891.3,7888.3,-997.0,-2.668
776,38.6,106010000.0,0.0025907,3285.5,4288.5,-1003.0,-3.614
777,,,,,,,
778,41.4,175340000.0,0.019324,-991.58,5.422,-997.0,-3.793
779,38.2,107290000.0,0.020942,-906.04,95.962,-1002.0,-3.809
780,42.25,25727000.0,0.0019724,274.3,1272.8,-998.5,-3.493
781,0.0,0.0,0.0,9174.8,9178.8,-4.0,-2.775
782,39.0,22503000.0,0.0025641,-92.242,908.76,-1001.0,-3.61
783,0.0,0.0,0.0,4283.8,4288.8,-5.0,-2.775
784,0.0,0.0,0.0,260.3,264.3,-4.0,-2.775
785,0.0,0.0,0.0,847.47,852.47,-5.0,-2.775
786,0.0,0.0,0.0,1486.8,1492.8,-6.0,-2.775
787,,,,,,,
788,0.0,0.0,0.0,2400.1,2406.1,-6.0,-2.775
789,0.0,0.0,0.0,14668.0,14674.0,-6.0,-2.775
790,0.0,0.0,0.0,9935.5,9942.5,-7.0,-2.775
791,0.0,0.0,0.0,213.72,217.72,-4.0,-2.775
792,38.4,35498000.0,0.0013021,2029.6,3032.6,-1003.0,-3.232
793,0.0,0.0,0.0,23691.0,23696.0,-5.0,-2.775
794,0.0,0.0,0.0,1352.1,1358.1,-6.0,-2.775
795,41.308,10860000.0,0.0018622,-588.91,408.09,-997.0,-3.463
796,0.0,0.0,0.0,15806.0,15812.0,-6.0,-2.775
797,42.429,847720000.0,0.003367,21661.0,22657.0,-996.0,-3.703
798,0.0,0.0,0.0,22829.0,22835.0,-6.0,-2.775
799,0.0,0.0,0.0,2286.5,2291.5,-5.0,-2.775
800,0.0,0.0,0.0,12409.0,12415.0,-6.0,-2.775
801,36.875,233270000.0,0.0067797,2127.9,3131.4,-1003.5,-3.8525
802,43.0,7268300.0,0.018088,-942.23,54.766,-997.0,-3.613
803,0.0,0.0,0.0,3294.9,3301.9,-7.0,-2.775
804,39.0,1101400000.0,0.008547,-962.66,41.34,-1004.0,-3.883
805,0.0,0.0,0.0,3898.5,3903.5,-5.0,-2.775
806,0.0,0.0,0.0,1065.1,1062.1,3.0,-2.747
807,0.0,0.0,0.0,2386.4,2391.4,-5.0,-2.775
808,0.0,0.0,0.0,10985.0,10992.0,-7.0,-2.775
809,38.2,794970000.0,0.0052356,13233.0,14235.0,-1002.0,-3.809
810,41.286,333380000.0,0.0034602,7939.9,8938.9,-999.0,-3.711
811,36.875,157870000.0,0.0067797,1114.7,2119.2,-1004.5,-3.8525
812,0.0,0.0,0.0,7450.0,7455.0,-5.0,-2.775
813,0.0,0.0,0.0,1935.3,1939.3,-4.0,-2.775
814,0.0,0.0,0.0,6503.8,6509.8,-6.0,-2.775
815,0.0,0.0,0.0,13900.0,13905.0,-5.0,-2.775
816,42.25,73594000.0,0.010355,1940.4,2939.4,-999.0,-3.324
817,0.0,0.0,0.0,4084.5,4089.5,-5.0,-2.775
818,39.0,94724000.0,0.008547,-794.81,208.19,-1003.0,-3.883
819,0.0,0.0,0.0,3180.4,3186.4,-6.0,-2.71
820,0.0,0.0,0.0,7733.4,7739.4,-6.0,-2.775
821,0.0,0.0,0.0,6450.0,6455.0,-5.0,-2.775
822,0.0,0.0,0.0,7827.1,7833.1,-6.0,-2.77
823,40.361,2033800.0,0.0082588,-891.04,108.96,-1000.0,-3.2735
824,0.0,0.0,0.0,5913.2,5919.2,-6.0,-2.775
825,37.31,8164800.0,0.011487,-595.74,403.76,-999.5,-3.2165
826,39.0,164920000.0,0.0032051,4121.0,5119.0,-998.0,-3.688
827,41.4,180500000.0,0.012077,2712.0,3708.0,-996.0,-3.586
828,43.115,9827300.0,0.012489,-744.19,251.81,-996.0,-3.4395
829,0.0,0.0,0.0,4266.8,4271.8,-5.0,-2.775
830,0.0,0.0,0.0,3586.8,3591.8,-5.0,-2.775
831,36.714,24360000.0,0.0038911,-352.09,650.91,-1003.0,-3.743
832,38.5,130410000.0,0.0032468,3097.2,4100.2,-1003.0,-3.692
833,0.0,0.0,0.0,1684.1,1690.1,-6.0,-2.775
834,0.0,0.0,0.0,1378.3,1383.3,-5.0,-2.775
835,,,,,,,
836,0.0,0.0,0.0,7312.9,7319.9,-7.0,-2.775
837,43.5,240900000.0,0.0019157,10890.0,11887.0,-997.0,-3.478
838,39.889,9593600.0,0.0027855,-993.88,13.125,-1007.0,-3.641
839,40.0,99803000.0,0.0041667,1229.2,2228.7,-999.5,-3.76
840,0.0,0.0,0.0,20262.0,20267.0,-5.0,-2.775
841,0.0,0.0,0.0,26057.0,26062.0,-5.0,-2.775
842,40.0,64511000.0,0.01875,-773.02,224.98,-998.0,-3.84
843,0.0,0.0,0.0,17561.0,17567.0,-6.0,-2.775
844,36.667,823720000.0,0.0090909,6324.8,7329.3,-1004.5,-3.89
845,41.571,88918000.0,0.0034364,1370.8,2367.8,-997.0,-3.709
846,37.5,498870000.0,0.0053333,-926.6,75.398,-1002.0,-3.8125
847,0.0,0.0,0.0,8927.7,8933.7,-6.0,-2.775
848,40.167,17842000.0,0.0020747,-122.5,873.5,-996.0,-3.518
849,40.474,32569000.0,0.0013004,1624.7,2621.7,-997.0,-3.231
850,38.5,257490000.0,0.0032468,7092.0,8096.0,-1004.0,-3.692
851,0.0,0.0,0.0,260.44,265.44,-5.0,-2.775
852,0.0,0.0,0.0,2912.5,2918.5,-6.0,-2.775
853,0.0,0.0,0.0,12677.0,12681.0,-4.0,-2.775
854,0.0,0.0,0.0,7457.5,7462.5,-5.0,-2.775
855,38.868,204470000.0,0.0081246,10375.0,11374.0,-999.0,-3.2615
856,41.0,174170000.0,0.0020325,7549.1,8545.1,-996.0,-3.508
857,39.962,74839000.0,0.0096246,1526.0,2524.0,-998.0,-3.4805
858,0.0,0.0,0.0,6846.6,6851.6,-5.0,-2.775
859,44.0,142640000.0,0.0012626,-916.93,80.071,-997.0,-3.208
860,39.0,2044400000.0,0.008547,-964.56,38.438,-1003.0,-3.883
861,0.0,0.0,0.0,7501.6,7507.6,-6.0,-2.775
862,0.0,0.0,0.0,3660.7,3665.7,-5.0,-2.775
863,,,,,,,
864,0.0,0.0,0.0,8041.0,8048.0,-7.0,-2.775
865,40.75,48675000.0,0.002045,1390.6,2386.6,-996.0,-3.511
866,0.0,0.0,0.0,161.22,167.22,-6.0,-2.775
867,0.0,0.0,0.0,7745.4,7749.4,-4.0,-2.775
868,,,,,,,
869,0.0,0.0,0.0,638.15,643.15,-5.0,-2.775
870,0.0,0.0,0.0,6308.3,6313.3,-5.0,-2.775
871,0.0,0.0,0.0,34.768,38.768,-4.0,-2.775
872,0.0,0.0,0.0,5489.4,5494.4,-5.0,-2.775
873,0.0,0.0,0.0,10422.0,10427.0,-5.0,-2.775
874,0.0,0.0,0.0,8040.0,8045.0,-5.0,-2.775
875,0.0,0.0,0.0,2216.5,2221.5,-5.0,-2.775
876,37.0,576700000.0,0.0054054,9342.1,10346.0,-1003.5,-3.815
877,0.0,0.0,0.0,12949.0,12954.0,-5.0,-2.775
878,0.0,0.0,0.0,17427.0,17435.0,-8.0,-2.775
879,39.909,4419300.0,0.013667,-984.31,20.186,-1004.5,-3.561
880,39.88,41652000.0,0.01003,-932.46,63.538,-996.0,-3.003
881,0.0,0.0,0.0,5805.6,5810.6,-5.0,-2.775
882,0.0,0.0,0.0,4884.5,4889.5,-5.0,-2.775
883,38.0,186530000.0,0.026316,-1004.0,0.0,-1004.0,-3.848
884,0.0,0.0,0.0,8027.9,8032.9,-5.0,-2.775
885,43.941,68502000.0,0.0013387,3927.7,4924.7,-997.0,-3.253
886,0.0,0.0,0.0,5792.1,5798.1,-6.0,-2.775
887,0.0,0.0,0.0,58.991,62.991,-4.0,-2.775
888,0.0,0.0,0.0,10166.0,10171.0,-5.0,-2.775
889,0.0,0.0,0.0,4427.7,4434.7,-7.0,-2.775
890,0.0,0.0,0.0,2222.5,2228.5,-6.0,-2.775
891,0.0,0.0,0.0,876.39,880.39,-4.0,-2.775
892,41.667,100650000.0,0.018667,-343.81,652.19,-996.0,-3.625
893,0.0,0.0,0.0,2803.7,2810.7,-7.0,-2.775
894,38.6,115050000.0,0.0025907,3651.0,4654.0,-1003.0,-3.614
895,0.0,0.0,0.0,1099.7,1103.7,-4.0,-2.775
896,0.0,0.0,0.0,4160.2,4165.2,-5.0,-2.775
897,41.667,248050000.0,0.008,3290.3,4286.3,-996.0,-3.75
898,0.0,0.0,0.0,1011.6,1015.6,-4.0,-2.775
899,0.0,0.0,0.0,2190.3,2196.3,-6.0,-2.775
900,0.0,0.0,0.0,20.534,24.534,-4.0,-2.775
901,0.0,0.0,0.0,14394.0,14400.0,-6.0,-2.775
902,41.727,60012000.0,0.0021786,1683.4,2679.4,-996.0,-3.541
903,0.0,0.0,0.0,20071.0,20076.0,-5.0,-2.775
904,43.5,69849000.0,0.001642,3079.3,4075.3,-996.0,-3.391
905,37.143,266360000.0,0.0038462,6175.6,7180.1,-1004.5,-3.74
906,42.607,8554900.0,0.0083822,-988.54,8.4605,-997.0,-3.4035
907,42.25,417970000.0,0.0029586,12048.0,13044.0,-996.0,-3.662
908,39.235,25537000.0,0.0014993,-897.6,106.4,-1004.0,-3.333
909,38.0,267020000.0,0.0065789,2570.2,3573.2,-1003.0,-3.848
910,,,,,,,
911,0.0,0.0,0.0,1620.1,1625.1,-5.0,-2.775
912,41.182,13262000.0,0.0022075,-986.61,9.3885,-996.0,-3.547
913,38.0,455920000.0,0.0065789,5098.9,6100.9,-1002.0,-3.848
914,42.75,91688000.0,0.002924,1870.5,2866.5,-996.0,-3.658
915,0.0,0.0,0.0,13314.0,13320.0,-6.0,-2.775
916,0.0,0.0,0.0,8148.9,8154.9,-6.0,-2.775
917,37.667,494920000.0,0.0088496,3373.5,4375.5,-1002.0,-3.887
918,0.0,0.0,0.0,11649.0,11655.0,-6.0,-2.775
919,42.429,52609000.0,0.003367,409.09,1406.1,-997.0,-3.703
920,0.0,0.0,0.0,18692.0,18698.0,-6.0,-2.775
921,41.571,17094000.0,0.0068729,-985.88,10.116,-996.0,-3.709
922,0.0,0.0,0.0,13939.0,13946.0,-7.0,-2.775
923,38.5,989300000.0,0.017316,-985.86,14.637,-1000.5,-3.8845
924,35.625,96026000.0,0.0023392,3727.1,4730.6,-1003.5,-3.5725
925,0.0,0.0,0.0,1789.2,1795.2,-6.0,-2.775
926,0.0,0.0,0.0,6908.1,6913.1,-5.0,-2.775
927,39.155,7359900.0,0.00088067,-73.6,922.4,-996.0,-2.8645
928,40.0,876210000.0,0.0041667,18567.0,19567.0,-999.5,-3.76
929,43.8,275570000.0,0.0015221,16331.0,17327.0,-996.0,-3.343
930,0.0,0.0,0.0,3279.0,3283.0,-4.0,-2.775
931,,,,,,,
932,0.0,0.0,0.0,161.3,165.3,-4.0,-2.775
933,0.0,0.0,0.0,12702.0,12708.0,-6.0,-2.775
934,38.556,458300000.0,0.0028818,15472.0,16475.0,-1003.0,-3.653
935,0.0,0.0,0.0,24053.0,24058.0,-5.0,-2.775
936,0.0,0.0,0.0,8005.7,8010.7,-5.0,-2.775
937,0.0,0.0,0.0,13292.0,13297.0,-5.0,-2.775
938,40.0,16460000.0,0.00625,-782.35,216.65,-999.0,-3.84
939,0.0,0.0,0.0,24539.0,24543.0,-4.0,-2.775
940,37.917,88899000.0,0.0043956,977.25,1978.2,-1001.0,-3.7725
941,0.0,0.0,0.0,895.87,901.87,-6.0,-2.775
942,0.0,0.0,0.0,15333.0,15338.0,-5.0,-2.775
943,37.143,245220000.0,0.0038462,5605.8,6610.3,-1004.5,-3.74
944,38.429,144850000.0,0.0037175,2898.3,3901.3,-1003.0,-3.731
945,43.875,99862000.0,0.0071225,3889.5,4885.5,-996.0,-3.298
946,39.939,74702000.0,0.00075873,-892.85,104.15,-997.0,-2.682
947,40.5,19232000.0,0.0061728,-978.36,17.636,-996.0,-3.838
948,,,,,,,
949,0.0,0.0,0.0,1661.5,1667.5,-6.0,-2.775
950,0.0,0.0,0.0,15410.0,15416.0,-6.0,-2.775
951,0.0,0.0,0.0,861.13,868.13,-7.0,-2.775
952,42.2,382230000.0,0.0078989,16038.0,17037.0,-999.0,-3.367
953,0.0,0.0,0.0,344.34,348.34,-4.0,-2.775
954,0.0,0.0,0.0,4409.9,4415.9,-6.0,-2.7495
955,40.6,12774000.0,0.014778,-985.89,13.106,-999.0,-3.797
956,0.0,0.0,0.0,1316.7,1321.7,-5.0,-2.775
957,42.091,444200000.0,0.0021598,18855.0,19851.0,-996.0,-3.537
958,0.0,0.0,0.0,15992.0,15999.0,-7.0,-2.775
959,36.286,101840000.0,0.01378,1747.6,2747.1,-999.5,-3.492
960,0.0,0.0,0.0,9889.4,9894.4,-5.0,-2.775
961,0.0,0.0,0.0,17320.0,17325.0,-5.0,-2.775
962,0.0,0.0,0.0,10507.0,10513.0,-6.0,-2.775
963,41.675,87670000.0,0.0011998,6468.3,7464.3,-996.0,-3.1665
964,37.5,72701000.0,0.017778,-1002.1,0.91988,-1003.0,-3.8875
965,44.053,155250000.0,0.004779,9423.1,10419.0,-996.0,-3.163
966,0.0,0.0,0.0,19407.0,19412.0,-5.0,-2.775
967,37.0,86210000.0,0.0054054,543.04,1546.5,-1003.5,-3.815
968,0.0,0.0,0.0,4421.9,4428.9,-7.0,-2.775
969,0.0,0.0,0.0,5435.0,5441.0,-6.0,-2.775
970,0.0,0.0,0.0,8034.6,8039.6,-5.0,-2.775
971,0.0,0.0,0.0,3733.8,3738.8,-5.0,-2.775
972,36.667,806440000.0,0.018182,2459.5,3464.0,-1004.5,-3.89
973,42.053,24669000.0,0.0012516,-906.02,90.978,-997.0,-3.201
974,42.636,74031000.0,0.0021322,-729.08,267.92,-997.0,-3.531
975,0.0,0.0,0.0,4142.2,4147.2,-5.0,-2.775
976,38.5,623730000.0,0.0032468,18608.0,19611.0,-1003.0,-3.692
977,,,,,,,
978,0.0,0.0,0.0,16872.0,16878.0,-6.0,-2.767
979,0.0,0.0,0.0,3432.3,3439.3,-7.0,-2.775
980,37.083,158340000.0,0.0044944,2551.1,3554.6,-1003.5,-3.7775
981,0.0,0.0,0.0,16153.0,16158.0,-5.0,-2.775
982,0.0,0.0,0.0,19271.0,19275.0,-4.0,-2.775
983,39.615,296340000.0,0.0019417,14890.0,15889.0,-999.0,-3.485
984,38.5,79916000.0,0.016234,52.508,1055.5,-1003.0,-3.692
985,0.0,0.0,0.0,6232.6,6237.6,-5.0,-2.775
986,40.65,567740000.0,0.00246,21724.0,22720.0,-996.0,-3.5935
987,0.0,0.0,0.0,3201.6,3207.6,-6.0,-2.7655
988,,,,,,,
989,37.0,50028000.0,0.013514,-923.16,80.843,-1004.0,-3.778
990,0.0,0.0,0.0,4758.9,4765.9,-7.0,-2.775
991,39.0,163050000.0,0.008547,-1000.4,2.6249,-1003.0,-3.883
992,0.0,0.0,0.0,2536.0,2541.0,-5.0,-2.775
993,0.0,0.0,0.0,1676.4,1681.4,-5.0,-2.775
994,0.0,0.0,0.0,16755.0,16761.0,-6.0,-2.775
995,0.0,0.0,0.0,3621.9,3627.9,-6.0,-2.775
996,0.0,0.0,0.0,1656.9,1662.9,-6.0,-2.7725
997,0.0,0.0,0.0,16160.0,16165.0,-5.0,-2.775
998,43.714,94102000.0,0.001634,4496.5,5492.5,-996.0,-3.388
