,averag,DR__ep,ho_den,Reward,R_tele,R_tran,score_
0,30.0,145990000.0,0.025,-992.87,3.1289,-996.0,-3.88
1,29.8,929950000.0,0.026846,-992.03,1.9683,-994.0,-3.851
2,29.571,435940000.0,0.014493,-992.12,3.8805,-996.0,-3.793
3,29.75,919840000.0,0.016807,-993.33,3.6743,-997.0,-3.881
4,30.0,34058000.0,0.011111,-993.99,3.0095,-997.0,-3.91
5,29.667,284320000.0,0.005618,-987.41,8.587,-996.0,-3.822
6,30.0,92576000.0,0.0041667,-983.85,12.152,-996.0,-3.76
7,,,,,,,
8,30.0,321440000.0,0.0055556,-981.36,13.643,-995.0,-3.82
9,,,,,,,
10,29.0,1673400000.0,0.011494,-991.26,4.7396,-996.0,-3.913
11,30.0,11865000.0,0.0083333,-992.89,4.1126,-997.0,-3.88
12,29.4,343520000.0,0.020408,-986.32,9.6848,-996.0,-3.853
13,30.0,116250000.0,0.0047619,-984.51,11.491,-996.0,-3.79
14,30.0,730580000.0,0.011111,-989.94,6.0617,-996.0,-3.91
15,30.0,31798000.0,0.0037037,-968.74,28.261,-997.0,-3.73
16,,,,,,,
17,29.667,355340000.0,0.011236,-984.3,12.703,-997.0,-3.911
18,30.0,86983000.0,0.022222,-987.05,9.9522,-997.0,-3.73
19,29.4,308220000.0,0.020408,-989.05,5.9458,-995.0,-3.853
20,30.0,893380000.0,0.0066667,-993.83,3.1747,-997.0,-3.85
21,29.0,389820000.0,0.011494,-959.78,35.219,-995.0,-3.913
22,30.0,490360000.0,0.011111,-985.53,10.472,-996.0,-3.91
23,30.0,144670000.0,0.0037037,-965.27,31.733,-997.0,-3.73
24,,,,,,,
25,29.6,448100000.0,0.0067568,-993.57,3.4304,-997.0,-3.852
26,29.0,540360000.0,0.022989,-989.31,6.6932,-996.0,-3.913
27,30.0,79088000.0,0.0047619,-887.72,108.28,-996.0,-3.79
28,29.875,26485000.0,0.0041841,-964.97,30.026,-995.0,-3.283
29,,,,,,,
30,29.6,972380000.0,0.02027,-994.9,1.0974,-996.0,-3.852
31,,,,,,,
32,29.6,760890000.0,0.027027,-996.68,0.32438,-997.0,-3.852
33,30.0,17535000.0,0.0027778,-909.2,86.799,-996.0,-3.64
34,29.0,17627000.0,0.011494,-992.37,2.6327,-995.0,-3.913
35,30.0,1637700000.0,0.011111,-992.9,4.1041,-997.0,-3.91
36,,,,,,,
37,,,,,,,
38,29.8,255170000.0,0.020134,-985.25,11.752,-997.0,-3.851
39,29.75,1330600000.0,0.0084034,-982.67,13.33,-996.0,-3.881
40,30.0,805680000.0,0.019048,-995.24,1.7579,-997.0,-3.79
41,30.0,69836000.0,0.0083333,-989.86,6.1413,-996.0,-3.88
42,,,,,,,
43,,,,,,,
44,,,,,,,
45,,,,,,,
46,29.75,492030000.0,0.0084034,-991.29,5.7092,-997.0,-3.881
47,,,,,,,
48,30.0,101010000.0,0.016667,-988.19,8.8074,-997.0,-3.76
49,30.0,58724000.0,0.011111,-973.79,22.21,-996.0,-3.91
50,30.0,210590000.0,0.011111,-806.47,189.53,-996.0,-3.91
51,28.125,213050000.0,0.0088889,-708.76,289.74,-998.5,-3.8875
52,28.571,475050000.0,0.005,-991.17,5.8308,-997.0,-3.8
53,,,,,,,
54,0.0,0.0,0.0,18.711,23.711,-5.0,-3.2895
55,27.6,296330000.0,0.0072464,-473.2,521.8,-995.0,-3.862
56,27.0,96890000.0,0.024691,-955.4,43.601,-999.0,-3.919
57,26.0,218970000.0,0.0076923,-972.3,23.695,-996.0,-3.87
58,28.545,44735000.0,0.0031847,-971.56,23.441,-995.0,-3.686
59,28.4,901920000.0,0.014085,-993.17,2.8301,-996.0,-3.858
60,,,,,,,
61,,,,,,,
62,26.0,874070000.0,0.0076923,572.33,1573.3,-1001.0,-3.87
63,24.0,621610000.0,0.0083333,115.89,1118.9,-1003.0,-3.88
64,26.0,35474000.0,0.0032051,-825.4,175.6,-1001.0,-3.688
65,23.0,54535000.0,0.0043478,-783.13,220.87,-1004.0,-3.77
66,25.0,42441000.0,0.0025,-714.53,286.47,-1001.0,-3.6
67,,,,,,,
68,27.0,250040000.0,0.0092593,-661.44,337.56,-999.0,-3.892
69,27.0,407190000.0,0.0061728,-82.813,916.19,-999.0,-3.838
70,24.0,14353000.0,0.0046296,-951.33,51.672,-1003.0,-3.784
71,27.0,110240000.0,0.0046296,-992.12,7.8773,-1000.0,-3.784
72,27.0,166630000.0,0.012346,-971.5,28.504,-1000.0,-3.919
73,24.0,55880000.0,0.0014368,-986.29,17.706,-1004.0,-3.304
74,26.0,32623000.0,0.0021368,-751.43,249.57,-1001.0,-3.532
75,25.0,1123800000.0,0.01,516.07,1517.1,-1001.0,-3.9
76,26.286,412780000.0,0.0054348,103.39,1102.4,-999.0,-3.816
77,25.0,1959700.0,0.014545,-999.51,3.4883,-1003.0,-3.725
78,28.0,144760000.0,0.02381,-998.76,1.2372,-1000.0,-3.916
79,27.0,100450000.0,0.0046296,-945.09,55.913,-1001.0,-3.784
80,24.0,466220000.0,0.013889,-582.4,419.6,-1002.0,-3.928
81,24.0,205540000.0,0.020833,-448.05,554.95,-1003.0,-3.712
82,0.0,0.0,0.0,4.6473,10.647,-6.0,-3.2115
83,0.0,0.0,0.0,1612.3,1618.3,-6.0,-3.2935
84,0.0,0.0,0.0,1076.7,1080.7,-4.0,-3.261
85,0.0,0.0,0.0,2292.7,2298.7,-6.0,-3.29
86,27.219,113960000.0,0.013777,-470.25,532.25,-1002.5,-3.5645
87,25.0,134920000.0,0.002,-997.88,4.1215,-1002.0,-3.5
88,27.0,109500000.0,0.018519,-851.18,147.82,-999.0,-3.838
89,23.0,377300000.0,0.01087,-995.17,8.8251,-1004.0,-3.908
90,28.0,11367000.0,0.020408,-986.42,11.584,-998.0,-3.804
91,27.0,49527000.0,0.012346,-998.87,2.1344,-1001.0,-3.838
92,27.0,403020000.0,0.0092593,-978.24,22.757,-1001.0,-3.892
93,23.0,663110000.0,0.014493,-994.99,8.0097,-1003.0,-3.931
94,,,,,,,
95,24.0,364980000.0,0.0059524,-17.553,985.45,-1003.0,-3.832
96,,,,,,,
97,0.0,0.0,0.0,200.76,207.76,-7.0,-3.291
98,,,,,,,
99,0.0,0.0,0.0,70.054,77.054,-7.0,-3.297
100,24.0,316540000.0,0.013889,-941.87,62.133,-1004.0,-3.928
101,27.0,273160000.0,0.0092593,-996.21,2.794,-999.0,-3.892
102,25.0,92779000.0,0.01,-983.14,18.856,-1002.0,-3.9
103,27.0,920330000.0,0.0074074,-994.29,3.708,-998.0,-3.865
104,23.0,217550000.0,0.0086957,-962.66,42.34,-1005.0,-3.885
105,,,,,,,
106,,,,,,,
107,23.0,204970000.0,0.0096618,-998.23,6.7703,-1005.0,-3.793
108,,,,,,,
109,27.0,1453700000.0,0.024691,-346.84,654.16,-1001.0,-3.919
110,,,,,,,
111,23.0,1908500000.0,0.014493,-997.18,6.8205,-1004.0,-3.931
112,29.0,208860000.0,0.013793,-959.35,37.65,-997.0,-3.855
113,30.0,1238200000.0,0.02,-992.24,3.763,-996.0,-3.85
114,26.0,558210000.0,0.0076923,-995.12,3.8757,-999.0,-3.87
115,26.0,293500000.0,0.0096154,-604.78,396.22,-1001.0,-3.896
116,26.0,284190000.0,0.015385,-233.68,767.32,-1001.0,-3.74
117,27.0,265080000.0,0.012346,-761.43,238.57,-1000.0,-3.919
118,,,,,,,
119,24.0,317650000.0,0.013889,-999.91,4.0884,-1004.0,-3.928
120,28.0,535650000.0,0.005102,448.27,1446.3,-998.0,-3.804
121,,,,,,,
122,23.0,37008000.0,0.0045767,-976.2,28.798,-1005.0,-3.563
123,,,,,,,
124,,,,,,,
125,0.0,0.0,0.0,-1.7144,4.2856,-6.0,-3.2945
126,27.0,249320000.0,0.0074074,-552.22,448.78,-1001.0,-3.865
127,28.0,529920000.0,0.0089286,-297.64,698.36,-996.0,-3.888
128,0.0,0.0,0.0,377.35,382.35,-5.0,-3.3
129,28.0,1115200000.0,0.011905,-996.21,2.7868,-999.0,-3.916
130,27.0,221570000.0,0.0061728,-972.5,28.5,-1001.0,-3.838
131,0.0,0.0,0.0,21.451,26.451,-5.0,-3.3
132,,,,,,,
133,0.0,0.0,0.0,-2.2128,1.7872,-4.0,-3.3
134,0.0,0.0,0.0,-1.8195,3.1805,-5.0,-3.156
135,,,,,,,
136,27.0,866040000.0,0.014815,-994.79,5.2077,-1000.0,-3.865
137,0.0,0.0,0.0,-3.251,0.74904,-4.0,-3.2665
138,23.0,318250000.0,0.0039526,429.11,1432.1,-1003.0,-3.747
139,23.0,175890000.0,0.0062112,-528.1,474.9,-1003.0,-3.839
140,0.0,0.0,0.0,1116.1,1117.1,-1.0,-3.195
141,28.0,19473000.0,0.017857,-992.29,4.7089,-997.0,-3.832
142,25.0,185670000.0,0.025455,-996.32,4.6828,-1001.0,-3.725
143,28.0,78263000.0,0.0089286,-979.03,20.968,-1000.0,-3.888
144,27.0,281300000.0,0.0023148,899.77,1898.8,-999.0,-3.568
145,25.0,200020000.0,0.0021053,617.2,1620.2,-1003.0,-3.525
146,23.0,66224000.0,0.014493,-999.74,5.2605,-1005.0,-3.586
147,0.0,0.0,0.0,731.83,735.83,-4.0,-3.2895
148,24.0,106190000.0,0.010417,-1001.3,1.7472,-1003.0,-3.904
149,27.0,390700000.0,0.012346,-988.5,11.496,-1000.0,-3.919
150,23.0,55325000.0,0.0043478,-779.93,224.07,-1004.0,-3.77
151,0.0,0.0,0.0,2.3277,6.3277,-4.0,-3.2995
152,0.0,0.0,0.0,-3.7783,1.2217,-5.0,-3.3
153,0.0,0.0,0.0,31.841,36.841,-5.0,-3.3
154,0.0,0.0,0.0,6.8641,11.864,-5.0,-3.2995
155,0.0,0.0,0.0,-1.097,5.903,-7.0,-3.284
156,20.0,70350000.0,0.016667,-992.79,12.207,-1005.0,-3.88
157,27.25,229210000.0,0.0045872,-284.39,711.61,-996.0,-3.782
158,27.0,139140000.0,0.0092593,-972.57,26.427,-999.0,-3.784
159,0.0,0.0,0.0,-3.4534,2.5466,-6.0,-3.271
160,27.0,595930000.0,0.018519,-463.67,536.33,-1000.0,-3.892
161,27.0,158290000.0,0.005291,-937.75,61.254,-999.0,-3.811
162,28.0,416550000.0,0.011905,-248.21,749.79,-998.0,-3.832
163,28.0,360010000.0,0.005102,-25.972,972.03,-998.0,-3.804
164,0.0,0.0,0.0,11.709,14.709,-3.0,-3.195
165,28.286,217680000.0,0.0050505,-992.74,3.2644,-996.0,-3.802
166,,,,,,,
167,28.667,568910000.0,0.011628,-976.11,19.89,-996.0,-3.914
168,30.0,1057600000.0,0.011111,-991.54,5.4594,-997.0,-3.91
169,,,,,,,
170,30.0,853770000.0,0.016667,-995.11,1.8924,-997.0,-3.88
171,,,,,,,
172,29.842,138910000.0,0.0017637,-990.63,6.3691,-997.0,-3.433
173,29.0,38984000.0,0.0031348,-975.53,19.473,-995.0,-3.681
174,30.0,212810000.0,0.0083333,-709.7,287.3,-997.0,-3.88
175,30.0,957440000.0,0.025,-565.15,430.85,-996.0,-3.88
176,30.0,408560000.0,0.0037037,-995.65,0.34545,-996.0,-3.73
177,29.727,237470000.0,0.015291,-995.59,1.4084,-997.0,-3.673
178,23.0,693910000.0,0.016304,-1003.0,1.0449,-1004.0,-3.816
179,29.111,295770000.0,0.0038168,-989.38,6.6245,-996.0,-3.738
180,,,,,,,
181,,,,,,,
182,30.0,1746300000.0,0.022222,-996.95,0.053599,-997.0,-3.91
183,27.0,643920000.0,0.024691,-709.23,289.77,-999.0,-3.919
184,,,,,,,
185,,,,,,,
186,25.0,248990000.0,0.032727,-1002.0,0.9963,-1003.0,-3.725
187,28.0,810010000.0,0.02381,-996.2,2.797,-999.0,-3.916
188,29.429,138260000.0,0.0048544,-985.38,12.616,-998.0,-3.794
189,29.8,44263000.0,0.0033557,-984.84,11.161,-996.0,-3.702
190,29.625,294280000.0,0.0042194,-986.65,8.3493,-995.0,-3.763
191,,,,,,,
192,26.0,175440000.0,0.0096154,-988.09,11.913,-1000.0,-3.792
193,29.75,61315000.0,0.0042017,-926.71,70.289,-997.0,-3.762
194,26.333,45314000.0,0.012658,-996.42,3.5776,-1000.0,-3.921
195,,,,,,,
196,26.0,51909000.0,0.021368,-977.43,21.573,-999.0,-3.766
197,,,,,,,
198,,,,,,,
199,,,,,,,
200,0.0,0.0,0.0,3.9005,8.9005,-5.0,-3.27
201,26.75,885250000.0,0.0093458,-996.53,3.9679,-1000.5,-3.893
202,0.0,0.0,0.0,43.446,47.446,-4.0,-3.286
203,24.0,74405000.0,0.0069444,-835.59,167.41,-1003.0,-3.856
204,,,,,,,
205,27.0,371280000.0,0.0074074,-330.69,668.31,-999.0,-3.865
206,27.0,1242100000.0,0.024691,-442.04,558.96,-1001.0,-3.919
207,0.0,0.0,0.0,5.0018,10.002,-5.0,-3.2935
208,25.0,268580000.0,0.013333,-759.28,241.72,-1001.0,-3.925
209,0.0,0.0,0.0,-3.5943,0.40571,-4.0,-3.2865
210,24.0,948530000.0,0.041667,-1002.0,0.0,-1002.0,-3.904
211,24.0,186560000.0,0.022436,-499.3,503.7,-1003.0,-3.688
212,29.0,743930000.0,0.011494,-338.01,657.99,-996.0,-3.913
213,0.0,0.0,0.0,0.46593,4.4659,-4.0,-3.2995
214,0.0,0.0,0.0,16.785,21.785,-5.0,-3.284
215,0.0,0.0,0.0,-3.3446,0.65536,-4.0,-3.2975
216,22.5,236830000.0,0.011111,-995.88,8.6189,-1004.5,-3.91
217,,,,,,,
218,0.0,0.0,0.0,9.9029,15.903,-6.0,-3.283
219,,,,,,,
220,29.846,25582000.0,0.0025773,-975.76,21.244,-997.0,-3.612
221,0.0,0.0,0.0,-0.030059,5.9699,-6.0,-3.26
222,27.179,97566000.0,0.0026281,-971.08,25.917,-997.0,-3.6195
223,0.0,0.0,0.0,0.52316,4.5232,-4.0,-3.2825
224,0.0,0.0,0.0,-2.7549,4.2451,-7.0,-3.2925
225,0.0,0.0,0.0,4.0993,9.0993,-5.0,-3.2725
226,22.854,31719000.0,0.0036463,-980.83,18.669,-999.5,-3.4515
227,,,,,,,
228,,,,,,,
229,0.0,0.0,0.0,0.56867,5.5687,-5.0,-3.254
230,0.0,0.0,0.0,1.9637,5.9637,-4.0,-3.2985
231,0.0,0.0,0.0,-2.8547,2.1453,-5.0,-3.228
232,22.375,33455000.0,0.018622,-968.52,35.977,-1004.5,-3.7315
233,0.0,0.0,0.0,-2.7634,2.2366,-5.0,-3.2995
234,0.0,0.0,0.0,4.2142,9.2142,-5.0,-3.3
235,,,,,,,
236,0.0,0.0,0.0,1522.2,1527.2,-5.0,-3.2775
237,,,,,,,
238,0.0,0.0,0.0,-3.7778,3.2222,-7.0,-3.279
239,0.0,0.0,0.0,7.4687,13.469,-6.0,-3.294
240,0.0,0.0,0.0,16.138,22.138,-6.0,-3.291
241,0.0,0.0,0.0,-4.3599,0.64007,-5.0,-3.2985
242,0.0,0.0,0.0,12.087,17.087,-5.0,-3.2845
243,0.0,0.0,0.0,-2.0852,2.9148,-5.0,-3.291
244,0.0,0.0,0.0,-2.0363,1.9637,-4.0,-3.288
245,0.0,0.0,0.0,-3.0994,3.9006,-7.0,-3.2775
246,27.75,115340000.0,0.003003,-978.3,17.701,-996.0,-3.667
247,0.0,0.0,0.0,-3.6853,1.3147,-5.0,-3.291
248,22.5,120650000.0,0.011111,-841.62,162.88,-1004.5,-3.91
249,0.0,0.0,0.0,320.48,325.48,-5.0,-3.2335
250,,,,,,,
251,27.0,107700000.0,0.0079365,-985.63,17.371,-1003.0,-3.622
252,29.0,383050000.0,0.011494,-976.47,19.526,-996.0,-3.913
253,0.0,0.0,0.0,-3.6695,1.3305,-5.0,-3.283
254,0.0,0.0,0.0,-3.6306,1.3694,-5.0,-3.2955
255,0.0,0.0,0.0,1448.3,1454.3,-6.0,-3.2995
256,0.0,0.0,0.0,10.459,15.459,-5.0,-3.2615
257,,,,,,,
258,27.433,11506000.0,0.0024301,-952.74,44.261,-997.0,-3.5885
259,30.0,1570400000.0,0.011111,-988.72,7.2791,-996.0,-3.91
260,0.0,0.0,0.0,605.16,611.16,-6.0,-3.289
261,25.0,394570000.0,0.013333,-645.88,355.12,-1001.0,-3.925
262,,,,,,,
263,27.0,49851000.0,0.0046296,-991.28,7.7231,-999.0,-3.784
264,,,,,,,
265,27.667,287550000.0,0.012048,-986.16,9.8441,-996.0,-3.917
266,0.0,0.0,0.0,61.186,65.186,-4.0,-3.3
267,28.0,61206000.0,0.0089286,-999.27,0.72971,-1000.0,-3.888
268,26.0,322400000.0,0.0076923,-980.26,19.742,-1000.0,-3.87
269,20.156,129780000.0,0.0031008,-998.9,6.0988,-1005.0,-3.6775
270,,,,,,,
271,0.0,0.0,0.0,36.093,41.093,-5.0,-3.2985
272,25.0,68108000.0,0.004,-953.98,48.02,-1002.0,-3.75
273,27.0,505360000.0,0.012346,-546.17,454.83,-1001.0,-3.919
274,,,,,,,
275,26.0,400380000.0,0.0076923,-279.32,720.68,-1000.0,-3.87
276,26.167,442260000.0,0.019108,-367.43,635.07,-1002.5,-3.843
277,28.0,773120000.0,0.0071429,392.62,1391.6,-999.0,-3.86
278,0.0,0.0,0.0,-5.8526,0.1474,-6.0,-3.2945
279,26.0,81374000.0,0.0024038,-451.73,549.27,-1001.0,-3.584
280,25.0,38486000.0,0.016,-949.04,51.956,-1001.0,-3.875
281,23.029,88489000.0,0.0012407,345.92,1344.4,-998.5,-3.194
282,27.0,522870000.0,0.024691,-763.71,235.29,-999.0,-3.919
283,0.0,0.0,0.0,4.4485,8.4485,-4.0,-3.2975
284,0.0,0.0,0.0,303.14,310.14,-7.0,-3.2935
285,27.0,193030000.0,0.0037037,-217.25,781.75,-999.0,-3.73
286,22.833,702330000.0,0.014599,-996.55,8.9536,-1005.5,-3.9315
287,0.0,0.0,0.0,-3.2354,0.76455,-4.0,-3.2975
288,0.0,0.0,0.0,3.6732,7.6732,-4.0,-3.2985
289,,,,,,,
290,23.0,596700000.0,0.0062112,-995.35,8.649,-1004.0,-3.839
291,28.667,62445000.0,0.011628,-941.11,54.894,-996.0,-3.914
292,,,,,,,
293,,,,,,,
294,28.8,105310000.0,0.0069444,-934.68,63.324,-998.0,-3.856
295,27.667,1668400000.0,0.012048,-998.4,0.5995,-999.0,-3.917
296,30.0,222480000.0,0.011111,-955.94,41.061,-997.0,-3.91
297,,,,,,,
298,24.667,486230000.0,0.0067568,-1000.1,3.863,-1004.0,-3.852
299,27.0,83280000.0,0.0061728,-812.62,187.38,-1000.0,-3.838
300,26.382,102620000.0,0.022297,-993.24,2.7643,-996.0,-3.5515
301,,,,,,,
302,30.0,476510000.0,0.0083333,-984.37,12.628,-997.0,-3.88
303,25.833,252490000.0,0.0043011,-998.2,2.7983,-1001.0,-3.7675
304,0.0,0.0,0.0,318.57,324.57,-6.0,-3.256
305,22.5,43920000.0,0.014815,-995.73,7.7687,-1003.5,-3.9325
306,0.0,0.0,0.0,-0.58501,3.415,-4.0,-3.2985
307,24.167,190180000.0,0.0068966,-953.57,43.428,-997.0,-3.855
308,,,,,,,
309,23.278,116170000.0,0.0023866,-115.95,887.05,-1003.0,-3.581
310,30.0,237380000.0,0.0083333,-940.45,54.546,-995.0,-3.88
311,0.0,0.0,0.0,1413.1,1417.1,-4.0,-3.283
312,0.0,0.0,0.0,-3.5659,2.4341,-6.0,-3.2985
313,29.875,60619000.0,0.016736,-979.77,16.235,-996.0,-3.761
314,24.846,52496000.0,0.003096,-996.43,5.573,-1002.0,-3.677
315,25.0,632050000.0,0.01,-178.86,819.14,-998.0,-3.9
316,,,,,,,
317,29.6,290800000.0,0.0067568,-960.55,36.455,-997.0,-3.852
318,29.4,68119000.0,0.020408,-994.9,2.1016,-997.0,-3.853
319,29.857,10990000.0,0.014354,-976.29,19.711,-996.0,-3.791
320,25.667,368980000.0,0.004329,303.29,1300.3,-997.0,-3.769
321,0.0,0.0,0.0,113.62,119.62,-6.0,-3.3
322,0.0,0.0,0.0,285.54,290.54,-5.0,-3.252
323,29.091,431440000.0,0.003125,-986.48,10.519,-997.0,-3.68
324,24.0,33377000.0,0.010417,-956.94,45.06,-1002.0,-3.904
325,27.0,406610000.0,0.012346,-634.05,365.95,-1000.0,-3.919
326,25.333,9622000.0,0.0032895,-995.53,6.4656,-1002.0,-3.696
327,25.0,181550000.0,0.01,-955.14,45.864,-1001.0,-3.9
328,,,,,,,
329,0.0,0.0,0.0,41.153,46.153,-5.0,-3.3
330,,,,,,,
331,0.0,0.0,0.0,46.377,51.377,-5.0,-3.3
332,0.0,0.0,0.0,1.3982,7.3982,-6.0,-3.3
333,0.0,0.0,0.0,-3.1999,2.8001,-6.0,-3.3
334,0.0,0.0,0.0,482.83,488.83,-6.0,-3.294
335,0.0,0.0,0.0,1525.8,1529.8,-4.0,-3.3
336,0.0,0.0,0.0,0.49403,4.494,-4.0,-3.3
337,22.667,303490000.0,0.0073529,-998.29,4.706,-1003.0,-3.864
338,0.0,0.0,0.0,10.671,17.671,-7.0,-3.292
339,21.294,173570000.0,0.0027624,-992.58,4.4238,-997.0,-3.638
340,0.0,0.0,0.0,-0.23935,6.7606,-7.0,-3.3
341,23.143,136880000.0,0.0061728,-986.08,21.923,-1008.0,-3.838
342,0.0,0.0,0.0,-4.1804,0.81961,-5.0,-3.3
343,0.0,0.0,0.0,39.267,45.267,-6.0,-3.2975
344,0.0,0.0,0.0,1644.2,1649.2,-5.0,-3.2945
345,27.0,20957000.0,0.018519,-981.14,18.861,-1000.0,-3.892
346,30.0,47116000.0,0.0017544,-891.24,102.76,-994.0,-3.43
347,,,,,,,
348,29.333,98081000.0,0.0037879,-986.07,10.926,-997.0,-3.736
349,29.5,352840000.0,0.0056497,-205.8,791.2,-997.0,-3.823
350,,,,,,,
351,29.571,693530000.0,0.014493,-992.96,1.0443,-994.0,-3.793
352,28.0,1009300000.0,0.011905,-90.595,908.4,-999.0,-3.916
353,26.0,645670000.0,0.0054945,-994.79,6.2134,-1001.0,-3.818
354,23.333,24511000.0,0.0071429,-948.17,54.834,-1003.0,-3.86
355,,,,,,,
356,0.0,0.0,0.0,-4.5726,1.4274,-6.0,-3.2985
357,0.0,0.0,0.0,-1.1056,3.8944,-5.0,-3.2485
358,0.0,0.0,0.0,10.504,15.504,-5.0,-3.296
359,28.0,11921000.0,0.017857,-992.51,4.4869,-997.0,-3.888
360,28.667,1858300000.0,0.011628,-994.53,2.4715,-997.0,-3.914
361,25.455,490530000.0,0.014286,458.88,1456.9,-998.0,-3.72
362,0.0,0.0,0.0,78.731,83.731,-5.0,-3.293
363,27.333,75114000.0,0.02439,-1000.7,0.34764,-1001.0,-3.918
364,24.0,182580000.0,0.020833,-1000.7,3.2617,-1004.0,-3.856
365,26.375,155580000.0,0.0031596,-232.2,765.8,-998.0,-3.6835
366,0.0,0.0,0.0,-0.77848,3.2215,-4.0,-3.3
367,,,,,,,
368,,,,,,,
369,,,,,,,
370,,,,,,,
371,0.0,0.0,0.0,1.9252,7.9252,-6.0,-3.292
372,22.833,188690000.0,0.0072993,-990.3,16.699,-1007.0,-3.863
373,0.0,0.0,0.0,-2.2853,2.7147,-5.0,-3.2595
374,29.3,150700000.0,0.0068259,-884.42,111.58,-996.0,-3.8535
375,0.0,0.0,0.0,-1.9182,3.0818,-5.0,-3.2995
376,,,,,,,
377,0.0,0.0,0.0,-2.2188,2.7812,-5.0,-3.284
378,,,,,,,
379,,,,,,,
380,30.0,80861000.0,0.0037037,-978.91,18.091,-997.0,-3.73
381,30.0,39537000.0,0.0047619,-985.47,12.53,-998.0,-3.79
382,0.0,0.0,0.0,19.857,23.857,-4.0,-3.292
383,21.312,475510000.0,0.035191,-1005.0,0.97333,-1006.0,-3.8295
384,30.0,182360000.0,0.0055556,-988.63,7.3706,-996.0,-3.82
385,,,,,,,
386,0.0,0.0,0.0,5.5085,12.508,-7.0,-3.283
387,30.0,262410000.0,0.016667,-995.28,0.72216,-996.0,-3.88
388,,,,,,,
389,22.574,116180000.0,0.0052117,-1003.1,1.9411,-1005.0,-3.2325
390,28.5,762840000.0,0.017544,-990.92,6.0782,-997.0,-3.886
391,26.889,38158000.0,0.012397,-995.94,6.0597,-1002.0,-3.758
392,29.75,220390000.0,0.016807,-978.86,17.144,-996.0,-3.881
393,,,,,,,
394,0.0,0.0,0.0,-3.532,2.468,-6.0,-3.279
395,0.0,0.0,0.0,3.2501,9.2501,-6.0,-3.2935
396,22.667,360390000.0,0.014706,-993.46,13.536,-1007.0,-3.932
397,26.5,568580000.0,0.009434,-990.54,5.4572,-996.0,-3.894
398,0.0,0.0,0.0,4.413,9.413,-5.0,-3.3
399,0.0,0.0,0.0,59.869,65.869,-6.0,-3.228
400,0.0,0.0,0.0,-4.2681,2.7319,-7.0,-3.2055
401,0.0,0.0,0.0,-4.2781,0.72188,-5.0,-3.291
402,0.0,0.0,0.0,18.674,22.674,-4.0,-3.2965
403,0.0,0.0,0.0,-1.4864,5.5136,-7.0,-3.2935
404,0.0,0.0,0.0,-0.50856,3.4914,-4.0,-3.3
405,26.0,191970000.0,0.0054945,-957.74,43.262,-1001.0,-3.818
406,0.0,0.0,0.0,18.332,23.332,-5.0,-3.2975
407,26.0,403440000.0,0.012821,-982.9,19.103,-1002.0,-3.922
408,28.2,178770000.0,0.021277,-987.34,10.658,-998.0,-3.859
409,0.0,0.0,0.0,506.42,510.42,-4.0,-3.3
410,0.0,0.0,0.0,18.856,22.856,-4.0,-3.267
411,,,,,,,
412,24.0,150340000.0,0.010417,-982.85,20.153,-1003.0,-3.712
413,24.0,682340000.0,0.033333,-999.64,1.3611,-1001.0,-3.88
414,0.0,0.0,0.0,51.687,56.687,-5.0,-3.2865
415,0.0,0.0,0.0,14.762,20.762,-6.0,-3.291
416,0.0,0.0,0.0,10.064,16.064,-6.0,-3.2955
417,0.0,0.0,0.0,38.556,44.556,-6.0,-3.284
418,21.147,25902000.0,0.030598,-1004.0,2.5218,-1006.5,-3.6405
419,0.0,0.0,0.0,46.928,51.928,-5.0,-3.252
420,,,,,,,
421,0.0,0.0,0.0,18.683,24.683,-6.0,-3.3
422,,,,,,,
423,28.0,436950000.0,0.0071429,-996.37,1.6318,-998.0,-3.86
424,,,,,,,
425,27.0,196790000.0,0.0092593,-990.87,9.1325,-1000.0,-3.892
426,24.0,60822000.0,0.0052083,-946.42,56.576,-1003.0,-3.808
427,26.0,51260000.0,0.019231,-981.97,18.026,-1000.0,-3.896
428,0.0,0.0,0.0,50.789,55.789,-5.0,-3.2185
429,,,,,,,
430,0.0,0.0,0.0,3.9712,10.971,-7.0,-3.288
431,0.0,0.0,0.0,-2.0922,3.9078,-6.0,-3.2985
432,27.0,99378000.0,0.0061728,-981.27,18.735,-1000.0,-3.676
433,0.0,0.0,0.0,18.46,23.46,-5.0,-3.2325
434,28.0,906680000.0,0.02381,-997.55,0.4475,-998.0,-3.916
435,0.0,0.0,0.0,50.397,57.397,-7.0,-3.29
436,0.0,0.0,0.0,-2.751,0.24896,-3.0,-3.195
437,0.0,0.0,0.0,17.051,23.051,-6.0,-3.2965
438,25.0,438800000.0,0.013333,-964.25,37.749,-1002.0,-3.925
439,27.0,178680000.0,0.023148,-757.78,241.22,-999.0,-3.784
440,0.0,0.0,0.0,17.85,23.85,-6.0,-3.229
441,25.0,281930000.0,0.0088889,-989.66,12.342,-1002.0,-3.775
442,,,,,,,
443,0.0,0.0,0.0,-6.4505,0.54946,-7.0,-3.2625
444,27.0,19396000.0,0.0092593,-994.57,6.425,-1001.0,-3.892
445,22.5,84195000.0,0.0049383,-701.4,303.1,-1004.5,-3.7975
446,23.0,166710000.0,0.0072464,-950.04,54.962,-1005.0,-3.862
447,0.0,0.0,0.0,1295.0,1299.0,-4.0,-3.297
448,25.0,974050000.0,0.024,-1001.7,1.2896,-1003.0,-3.875
449,0.0,0.0,0.0,19.495,23.495,-4.0,-3.286
450,27.0,199170000.0,0.0092593,-732.12,268.88,-1001.0,-3.892
451,25.4,188110000.0,0.007874,-986.79,15.21,-1002.0,-3.746
452,28.4,736340000.0,0.0070423,-995.21,1.7872,-997.0,-3.858
453,30.0,29486000.0,0.0066667,-992.66,4.3423,-997.0,-3.85
454,0.0,0.0,0.0,-0.57764,4.4224,-5.0,-3.284
455,,,,,,,
456,,,,,,,
457,22.333,73683000.0,0.0029851,-985.44,21.556,-1007.0,-3.665
458,26.333,487660000.0,0.0063291,92.69,1091.7,-999.0,-3.842
459,21.818,155570000.0,0.0083333,278.49,1283.5,-1005.0,-3.52
460,,,,,,,
461,26.5,527120000.0,0.028302,-994.64,2.3562,-997.0,-3.894
462,25.714,446070000.0,0.0055556,188.55,1186.5,-998.0,-3.82
463,,,,,,,
464,0.0,0.0,0.0,91.938,88.938,3.0,-3.063
465,,,,,,,
466,25.857,40611000.0,0.0027624,-762.23,236.77,-999.0,-3.638
467,26.0,87727000.0,0.0076923,-211.45,789.55,-1001.0,-3.35
468,0.0,0.0,0.0,295.22,300.22,-5.0,-3.3
469,24.0,28925000.0,0.0059524,-924.9,78.098,-1003.0,-3.832
470,0.0,0.0,0.0,1456.1,1461.1,-5.0,-3.286
471,21.9,15316000.0,0.027397,-1003.0,5.0095,-1008.0,-3.562
472,30.0,361240000.0,0.011111,-671.88,325.12,-997.0,-3.91
473,,,,,,,
474,24.0,134050000.0,0.013889,-883.35,120.65,-1004.0,-3.928
475,30.0,427390000.0,0.0055556,-989.76,7.2373,-997.0,-3.82
476,29.875,673870000.0,0.012552,-996.07,0.9271,-997.0,-3.761
477,27.0,74812000.0,0.023569,-996.24,2.7605,-999.0,-3.406
478,0.0,0.0,0.0,-4.4213,0.57871,-5.0,-3.3
479,24.0,577290000.0,0.010417,-1000.2,1.758,-1002.0,-3.808
480,0.0,0.0,0.0,-2.6004,2.3996,-5.0,-3.3
481,0.0,0.0,0.0,2.437,7.437,-5.0,-3.288
482,20.727,209050000.0,0.004386,-1001.8,4.2291,-1006.0,-3.772
483,0.0,0.0,0.0,-2.2401,1.7599,-4.0,-3.286
484,0.0,0.0,0.0,6.2534,13.253,-7.0,-3.296
485,0.0,0.0,0.0,3.7128,7.7128,-4.0,-3.3
486,23.0,67412000.0,0.026087,-996.18,7.8228,-1004.0,-3.655
487,0.0,0.0,0.0,24.663,32.663,-8.0,-3.276
488,,,,,,,
489,27.0,1171800000.0,0.024691,-999.26,0.74463,-1000.0,-3.919
490,29.852,202200000.0,0.0012407,-994.76,0.2368,-995.0,-3.194
491,29.818,122230000.0,0.0030488,-983.98,13.023,-997.0,-3.672
492,27.0,123280000.0,0.0061728,-971.73,27.27,-999.0,-3.838
493,29.6,195660000.0,0.0033784,-990.91,4.0931,-995.0,-3.704
494,28.875,210310000.0,0.004329,-971.6,24.398,-996.0,-3.769
495,29.0,290080000.0,0.0043103,-995.37,1.6275,-997.0,-3.768
496,,,,,,,
497,0.0,0.0,0.0,11.426,6.4263,5.0,-3.112
498,22.571,35373000.0,0.018987,-993.57,11.431,-1005.0,-3.842
499,0.0,0.0,0.0,-3.4792,1.5208,-5.0,-3.221
500,,,,,,,
501,29.667,99537000.0,0.005618,-982.06,14.939,-997.0,-3.822
502,26.667,240590000.0,0.0125,-971.51,25.488,-997.0,-3.92
503,,,,,,,
504,,,,,,,
505,,,,,,,
506,0.0,0.0,0.0,6.0898,1.0898,5.0,-3.188
507,,,,,,,
508,23.0,20484000.0,0.032609,-1003.6,1.4375,-1005.0,-3.908
509,21.0,64451000.0,0.010989,-1006.5,0.50463,-1007.0,-3.727
510,26.0,120290000.0,0.0096154,-965.39,35.609,-1001.0,-3.896
511,25.778,372550000.0,0.0086207,175.64,1177.1,-1001.5,-3.768
512,0.0,0.0,0.0,6.969,11.969,-5.0,-3.296
513,0.0,0.0,0.0,8.0528,13.053,-5.0,-3.2955
514,0.0,0.0,0.0,414.46,418.46,-4.0,-3.299
515,0.0,0.0,0.0,8.0097,13.01,-5.0,-3.3
516,0.0,0.0,0.0,15.712,20.712,-5.0,-3.3
517,0.0,0.0,0.0,7.131,12.131,-5.0,-3.293
518,28.0,756190000.0,0.011905,-317.43,680.57,-998.0,-3.916
519,0.0,0.0,0.0,1416.5,1420.5,-4.0,-3.2985
520,0.0,0.0,0.0,-4.8516,0.14842,-5.0,-3.3
521,0.0,0.0,0.0,20.935,25.935,-5.0,-3.3
522,0.0,0.0,0.0,87.712,92.712,-5.0,-3.3
523,0.0,0.0,0.0,28.592,32.592,-4.0,-3.294
524,25.0,417450000.0,0.004,-1000.4,0.56272,-1001.0,-3.75
525,0.0,0.0,0.0,-3.1645,0.83551,-4.0,-3.29
526,,,,,,,
527,27.0,64586000.0,0.0061728,-986.45,10.546,-997.0,-3.838
528,23.85,113700000.0,0.0041929,-995.67,8.8279,-1004.5,-3.7615
529,,,,,,,
530,,,,,,,
531,28.0,485910000.0,0.011905,-562.68,437.32,-1000.0,-3.916
532,,,,,,,
533,0.0,0.0,0.0,85.056,92.056,-7.0,-3.2925
534,0.0,0.0,0.0,-5.2245,0.77551,-6.0,-3.292
535,0.0,0.0,0.0,105.76,111.76,-6.0,-3.295
536,0.0,0.0,0.0,14.397,19.397,-5.0,-3.3
537,0.0,0.0,0.0,8.2915,3.2915,5.0,-3.172
538,,,,,,,
539,0.0,0.0,0.0,1701.9,1702.9,-1.0,-3.178
540,28.5,15920000.0,0.004386,-984.03,11.968,-996.0,-3.772
541,21.3,3674000.0,0.0093897,-993.56,9.4432,-1003.0,-3.787
542,0.0,0.0,0.0,4.6186,10.619,-6.0,-3.3
543,23.0,72254000.0,0.0054348,-998.69,5.3085,-1004.0,-3.816
544,,,,,,,
545,,,,,,,
546,0.0,0.0,0.0,1.9169,5.9169,-4.0,-3.288
547,0.0,0.0,0.0,2.5965,6.5965,-4.0,-3.3
548,0.0,0.0,0.0,-2.7776,3.2224,-6.0,-3.252
549,29.467,93733000.0,0.0022624,-406.24,589.76,-996.0,-3.558
550,0.0,0.0,0.0,-1.0694,3.9306,-5.0,-3.2955
551,0.0,0.0,0.0,2.8233,6.8233,-4.0,-3.2945
552,,,,,,,
553,21.188,25646000.0,0.0098328,-981.6,25.403,-1007.0,-3.4915
554,0.0,0.0,0.0,23.9,28.9,-5.0,-3.2865
555,,,,,,,
556,20.167,11138000.0,0.0041322,-995.35,10.646,-1006.0,-3.758
557,0.0,0.0,0.0,508.67,513.67,-5.0,-3.277
558,0.0,0.0,0.0,399.79,405.79,-6.0,-3.3
559,0.0,0.0,0.0,-0.18884,4.8112,-5.0,-3.3
560,0.0,0.0,0.0,-1.3965,3.6035,-5.0,-3.294
561,,,,,,,
562,0.0,0.0,0.0,19.619,25.619,-6.0,-3.297
563,0.0,0.0,0.0,150.81,157.81,-7.0,-3.3
564,0.0,0.0,0.0,-3.8561,1.1439,-5.0,-3.294
565,0.0,0.0,0.0,11.196,19.196,-8.0,-3.29
566,0.0,0.0,0.0,9.7937,13.794,-4.0,-3.298
567,26.0,295660000.0,0.025641,-990.05,10.951,-1001.0,-3.922
568,0.0,0.0,0.0,437.59,442.59,-5.0,-3.3
569,0.0,0.0,0.0,2.8404,7.8404,-5.0,-3.297
570,0.0,0.0,0.0,1654.1,1659.1,-5.0,-3.288
571,25.0,783750000.0,0.01,57.064,1058.1,-1001.0,-3.9
572,28.0,219190000.0,0.0071429,-988.93,10.071,-999.0,-3.86
573,27.0,609510000.0,0.014815,-177.16,822.84,-1000.0,-3.865
574,25.0,277630000.0,0.032,-999.4,2.5997,-1002.0,-3.875
575,28.0,59060000.0,0.0089286,-918.22,78.782,-997.0,-3.888
576,,,,,,,
577,20.176,10721000.0,0.0029155,-995.06,9.942,-1005.0,-3.657
578,25.0,855660000.0,0.013333,-995.6,5.4022,-1001.0,-3.925
579,24.0,299730000.0,0.03125,-868.12,134.88,-1003.0,-3.904
580,0.0,0.0,0.0,0.48425,4.4843,-4.0,-3.3
581,0.0,0.0,0.0,-1.2365,3.7635,-5.0,-3.3
582,,,,,,,
583,23.0,73880000.0,0.0062112,-963.87,40.133,-1004.0,-3.839
584,,,,,,,
585,,,,,,,
586,,,,,,,
587,0.0,0.0,0.0,-0.19488,4.8051,-5.0,-3.3
588,26.0,221310000.0,0.032051,-998.39,2.6111,-1001.0,-3.844
589,0.0,0.0,0.0,-2.9221,3.0779,-6.0,-3.296
590,24.0,47371000.0,0.0018939,-555.35,447.65,-1003.0,-3.472
591,20.0,137380000.0,0.022222,-997.4,9.6008,-1007.0,-3.82
592,,,,,,,
593,0.0,0.0,0.0,1.5535,6.5535,-5.0,-3.297
594,0.0,0.0,0.0,9.6564,13.656,-4.0,-3.296
595,26.0,635020000.0,0.0096154,-143.73,857.27,-1001.0,-3.896
596,0.0,0.0,0.0,-6.7206,0.27943,-7.0,-3.297
597,0.0,0.0,0.0,-1.4039,3.5961,-5.0,-3.3
598,0.0,0.0,0.0,21.856,25.856,-4.0,-3.296
599,29.571,218590000.0,0.0048309,-407.22,588.78,-996.0,-3.793
600,0.0,0.0,0.0,-5.2931,0.70694,-6.0,-3.298
601,0.0,0.0,0.0,10.227,14.227,-4.0,-3.297
602,0.0,0.0,0.0,5.5786,12.579,-7.0,-3.298
603,20.0,1183000000.0,0.01,-1004.6,0.37414,-1005.0,-3.9
604,0.0,0.0,0.0,3.8814,7.8814,-4.0,-3.292
605,0.0,0.0,0.0,-4.8854,1.1146,-6.0,-3.3
606,0.0,0.0,0.0,-1.4068,3.5932,-5.0,-3.296
607,0.0,0.0,0.0,-1.5229,2.4771,-4.0,-3.3
608,0.0,0.0,0.0,0.59711,6.5971,-6.0,-3.297
609,0.0,0.0,0.0,2.3429,7.3429,-5.0,-3.3
610,0.0,0.0,0.0,-2.8367,2.1633,-5.0,-3.3
611,0.0,0.0,0.0,1.9132,7.9132,-6.0,-3.288
612,0.0,0.0,0.0,6.902,12.902,-6.0,-3.3
613,,,,,,,
614,25.0,103950000.0,0.0061538,-487.44,514.56,-1002.0,-3.675
615,0.0,0.0,0.0,425.47,430.47,-5.0,-3.292
616,25.0,663310000.0,0.011429,490.44,1492.4,-1002.0,-3.825
617,,,,,,,
618,0.0,0.0,0.0,9.2349,13.235,-4.0,-3.298
619,0.0,0.0,0.0,30.457,35.457,-5.0,-3.299
620,23.0,222940000.0,0.024845,-702.03,300.97,-1003.0,-3.839
621,0.0,0.0,0.0,-1.2694,3.7306,-5.0,-3.298
622,0.0,0.0,0.0,1845.8,1850.8,-5.0,-3.3
623,0.0,0.0,0.0,3.1891,8.1891,-5.0,-3.296
624,0.0,0.0,0.0,97.638,103.64,-6.0,-3.299
625,0.0,0.0,0.0,921.37,926.37,-5.0,-3.297
626,26.0,200160000.0,0.0038462,-189.34,810.66,-1000.0,-3.74
627,0.0,0.0,0.0,-3.2997,2.7003,-6.0,-3.3
628,0.0,0.0,0.0,-0.75196,3.248,-4.0,-3.3
629,0.0,0.0,0.0,-0.28326,4.7167,-5.0,-3.3
630,0.0,0.0,0.0,-4.3686,0.63143,-5.0,-3.298
631,0.0,0.0,0.0,-0.78524,4.2148,-5.0,-3.296
632,0.0,0.0,0.0,-3.3901,1.6099,-5.0,-3.289
633,30.0,431740000.0,0.0033333,-995.42,0.58298,-996.0,-3.7
634,0.0,0.0,0.0,-1.1193,3.8807,-5.0,-3.2985
635,0.0,0.0,0.0,-3.0613,3.9387,-7.0,-3.2865
636,0.0,0.0,0.0,-1.7215,4.2785,-6.0,-3.2995
637,0.0,0.0,0.0,9.6432,15.643,-6.0,-3.2955
638,27.167,542290000.0,0.01227,-987.71,13.789,-1001.5,-3.9185
639,,,,,,,
640,0.0,0.0,0.0,-1.328,2.672,-4.0,-3.2985
641,0.0,0.0,0.0,-2.0619,1.9381,-4.0,-3.3
642,30.0,145930000.0,0.011111,-950.6,45.399,-996.0,-3.91
643,28.9,138830000.0,0.010381,-990.03,6.969,-997.0,-3.711
644,29.688,3632500.0,0.014737,-993.78,5.7213,-999.5,-3.525
645,23.4,1956800.0,0.01567,-1000.7,2.2808,-1003.0,-3.298
646,27.0,330010000.0,0.0074074,-404.99,594.01,-999.0,-3.865
647,0.0,0.0,0.0,0.99399,5.994,-5.0,-3.295
648,0.0,0.0,0.0,36.158,43.158,-7.0,-3.297
649,25.905,25419000.0,0.022059,-991.89,5.108,-997.0,-3.456
650,0.0,0.0,0.0,10.89,14.89,-4.0,-3.2955
651,,,,,,,
652,28.667,1432100000.0,0.011628,-994.77,1.2304,-996.0,-3.914
653,,,,,,,
654,27.5,217290000.0,0.0090909,-983.23,11.769,-995.0,-3.89
655,0.0,0.0,0.0,5.3513,9.3513,-4.0,-3.15
656,,,,,,,
657,,,,,,,
658,0.0,0.0,0.0,10.62,15.62,-5.0,-3.276
659,0.0,0.0,0.0,58.496,64.496,-6.0,-3.2995
660,0.0,0.0,0.0,-3.8878,2.1122,-6.0,-3.2995
661,0.0,0.0,0.0,6.8363,11.836,-5.0,-3.2975
662,0.0,0.0,0.0,-0.50467,5.4953,-6.0,-3.27
663,25.75,442940000.0,0.0048544,-1000.3,1.727,-1002.0,-3.794
664,,,,,,,
665,0.0,0.0,0.0,8.926,14.926,-6.0,-3.272
666,,,,,,,
667,0.0,0.0,0.0,5.3008,10.301,-5.0,-3.1955
668,0.0,0.0,0.0,314.09,318.09,-4.0,-3.276
669,27.0,172310000.0,0.0074074,-980.1,13.897,-994.0,-3.865
670,0.0,0.0,0.0,17.027,23.027,-6.0,-3.2685
671,0.0,0.0,0.0,-6.4398,0.56022,-7.0,-3.293
672,29.963,60757000.0,0.0012361,-987.41,9.5905,-997.0,-3.191
673,25.0,35010000.0,0.004,-860.21,141.79,-1002.0,-3.75
674,26.0,14326000.0,0.0013736,-825.93,174.07,-1000.0,-3.272
675,25.0,298310000.0,0.0033333,-998.46,2.5359,-1001.0,-3.7
676,23.0,763040000.0,0.026087,-316.27,686.73,-1003.0,-3.885
677,,,,,,,
678,,,,,,,
679,0.0,0.0,0.0,262.8,268.8,-6.0,-3.2185
680,28.0,302050000.0,0.0071429,-454.31,543.69,-998.0,-3.86
681,24.667,104590000.0,0.0027027,-341.92,662.08,-1004.0,-3.63
682,,,,,,,
683,0.0,0.0,0.0,192.07,191.57,0.5,-3.1945
684,,,,,,,
685,0.0,0.0,0.0,556.55,561.55,-5.0,-3.292
686,0.0,0.0,0.0,-4.4348,0.56524,-5.0,-3.295
687,0.0,0.0,0.0,3.3587,7.3587,-4.0,-3.2585
688,0.0,0.0,0.0,3.7302,7.7302,-4.0,-3.298
689,28.0,848490000.0,0.0089286,-991.94,7.0615,-999.0,-3.888
690,0.0,0.0,0.0,0.95184,5.9518,-5.0,-3.283
691,0.0,0.0,0.0,-0.89038,4.1096,-5.0,-3.2995
692,27.0,230910000.0,0.0026455,-998.54,0.46156,-999.0,-3.622
693,0.0,0.0,0.0,6.0695,12.07,-6.0,-3.2935
694,27.0,52228000.0,0.024691,-976.5,23.502,-1000.0,-3.919
695,30.0,417770000.0,0.0047619,-990.77,5.232,-996.0,-3.79
696,25.0,224250000.0,0.03,-996.37,5.6336,-1002.0,-3.8
697,27.0,167620000.0,0.003367,-244.7,754.3,-999.0,-3.703
698,0.0,0.0,0.0,-0.57367,6.4263,-7.0,-3.2305
699,27.0,550300000.0,0.0092593,-990.51,9.4946,-1000.0,-3.892
700,0.0,0.0,0.0,5.2607,11.261,-6.0,-3.3
701,0.0,0.0,0.0,583.69,587.69,-4.0,-3.276
702,25.0,207700000.0,0.008,-627.14,373.86,-1001.0,-3.875
703,0.0,0.0,0.0,8.6075,8.6075,0.0,-3.125
704,26.0,219720000.0,0.0076923,-994.98,5.0216,-1000.0,-3.61
705,23.0,259610000.0,0.0028986,-992.75,11.246,-1004.0,-3.655
706,0.0,0.0,0.0,41.569,45.569,-4.0,-3.3
707,0.0,0.0,0.0,10.642,15.642,-5.0,-3.292
708,0.0,0.0,0.0,-3.2348,0.76516,-4.0,-3.297
709,0.0,0.0,0.0,78.017,84.017,-6.0,-3.3
710,0.0,0.0,0.0,-4.9336,0.066435,-5.0,-3.3
711,0.0,0.0,0.0,12.449,16.449,-4.0,-3.3
712,0.0,0.0,0.0,-3.8011,0.19888,-4.0,-3.3
713,0.0,0.0,0.0,-3.1254,2.8746,-6.0,-3.291
714,24.0,143670000.0,0.010417,-987.49,16.512,-1004.0,-3.904
715,,,,,,,
716,30.0,109530000.0,0.011111,-992.75,3.2542,-996.0,-3.91
717,27.3,278320000.0,0.007326,-970.73,29.767,-1000.5,-3.8635
718,,,,,,,
719,,,,,,,
720,24.0,64405000.0,0.017857,-977.64,25.356,-1003.0,-3.832
721,0.0,0.0,0.0,-0.59924,5.4008,-6.0,-3.2975
722,,,,,,,
723,0.0,0.0,0.0,-0.23088,3.7691,-4.0,-3.2925
724,0.0,0.0,0.0,-0.50486,5.4951,-6.0,-3.2935
725,0.0,0.0,0.0,59.812,63.812,-4.0,-3.3
726,0.0,0.0,0.0,0.46333,5.4633,-5.0,-3.3
727,0.0,0.0,0.0,16.331,22.331,-6.0,-3.3
728,0.0,0.0,0.0,-2.3499,1.6501,-4.0,-3.3
729,0.0,0.0,0.0,14.755,21.755,-7.0,-3.2895
730,29.87,176850000.0,0.0014556,-995.72,1.2781,-997.0,-3.313
731,0.0,0.0,0.0,137.29,141.29,-4.0,-3.295
732,21.562,662340000.0,0.023188,-1002.8,1.2119,-1004.0,-3.8275
733,,,,,,,
734,,,,,,,
735,29.0,946280000.0,0.0086207,-990.57,5.4298,-996.0,-3.884
736,27.571,66043000.0,0.0025907,-973.61,27.886,-1001.5,-3.614
737,,,,,,,
738,0.0,0.0,0.0,8.3836,12.384,-4.0,-3.2985
739,27.895,2967000.0,0.0018868,-990.28,5.7169,-996.0,-3.47
740,0.0,0.0,0.0,3.5805,9.5805,-6.0,-3.216
741,,,,,,,
742,30.0,492490000.0,0.025,-994.04,2.9622,-997.0,-3.88
743,0.0,0.0,0.0,3.6082,10.608,-7.0,-3.3
744,0.0,0.0,0.0,575.25,579.25,-4.0,-3.29
745,0.0,0.0,0.0,212.41,217.41,-5.0,-3.255
746,20.328,120820000.0,0.021522,-998.62,7.3752,-1006.0,-3.3495
747,,,,,,,
748,24.708,24904000.0,0.010118,-998.9,6.0954,-1005.0,-3.7035
749,,,,,,,
750,28.0,666470000.0,0.0071429,201.65,1199.6,-998.0,-3.86
751,0.0,0.0,0.0,-1.2204,3.7796,-5.0,-3.2995
752,0.0,0.0,0.0,9.5369,14.537,-5.0,-3.2975
753,0.0,0.0,0.0,0.80327,3.8033,-3.0,-3.242
754,,,,,,,
755,29.0,615270000.0,0.011494,-979.02,16.981,-996.0,-3.913
756,,,,,,,
757,29.75,939220000.0,0.0084034,-994.0,2.9978,-997.0,-3.881
758,,,,,,,
759,,,,,,,
760,,,,,,,
761,28.0,375000000.0,0.011905,-968.9,27.101,-996.0,-3.916
762,23.0,18948000.0,0.0018904,-816.41,187.59,-1004.0,-3.471
763,0.0,0.0,0.0,2541.6,2547.6,-6.0,-3.288
764,23.105,62637000.0,0.0022779,-940.23,65.772,-1006.0,-3.561
765,23.818,148000000.0,0.0038168,-964.29,31.71,-996.0,-3.738
766,29.8,521580000.0,0.0067114,-994.17,1.8287,-996.0,-3.851
767,0.0,0.0,0.0,64.528,69.528,-5.0,-3.288
768,0.0,0.0,0.0,1.1888,6.1888,-5.0,-3.299
769,29.8,64556000.0,0.026846,-991.7,5.297,-997.0,-3.851
770,30.0,447110000.0,0.0041667,413.39,1408.4,-995.0,-3.76
771,29.286,52737000.0,0.029268,-956.48,40.518,-997.0,-3.59
772,28.0,110450000.0,0.0089286,-848.67,147.33,-996.0,-3.888
773,,,,,,,
774,25.545,6024300.0,0.010676,-989.24,6.7587,-996.0,-3.719
775,30.0,514570000.0,0.025,-992.96,3.0443,-996.0,-3.88
776,0.0,0.0,0.0,1720.1,1726.1,-6.0,-3.236
777,0.0,0.0,0.0,2.2169,7.2169,-5.0,-3.299
778,0.0,0.0,0.0,-2.9314,2.0686,-5.0,-3.3
779,0.0,0.0,0.0,1645.7,1649.7,-4.0,-3.3
780,30.0,68435000.0,0.013889,-975.09,20.912,-996.0,-3.64
781,25.2,214690000.0,0.0079365,-991.62,5.3758,-997.0,-3.874
782,28.0,917900000.0,0.0059524,-994.13,3.8713,-998.0,-3.832
783,28.6,123270000.0,0.0034965,-945.44,50.556,-996.0,-3.714
784,29.667,50096000.0,0.011236,-993.8,2.2007,-996.0,-3.911
785,24.0,643970000.0,0.0069444,445.92,1448.9,-1003.0,-3.856
786,0.0,0.0,0.0,28.945,33.945,-5.0,-3.293
787,0.0,0.0,0.0,62.067,68.067,-6.0,-3.1595
788,0.0,0.0,0.0,-0.96247,4.0375,-5.0,-3.292
789,0.0,0.0,0.0,4.8623,10.862,-6.0,-3.29
790,0.0,0.0,0.0,26.42,30.42,-4.0,-3.3
791,0.0,0.0,0.0,12.935,18.935,-6.0,-3.3
792,,,,,,,
793,0.0,0.0,0.0,4.663,10.663,-6.0,-3.3
794,,,,,,,
795,0.0,0.0,0.0,618.83,625.83,-7.0,-3.295
796,,,,,,,
797,,,,,,,
798,0.0,0.0,0.0,1034.8,1035.8,-1.0,-3.195
799,0.0,0.0,0.0,5.4778,9.4778,-4.0,-3.276
800,24.5,7123700.0,0.027211,-1001.5,1.0227,-1002.5,-3.6325
801,0.0,0.0,0.0,511.19,516.19,-5.0,-3.274
802,0.0,0.0,0.0,-2.2079,3.7921,-6.0,-3.296
803,0.0,0.0,0.0,736.59,740.59,-4.0,-3.265
804,30.0,352810000.0,0.0090909,-986.76,8.2357,-995.0,-3.67
805,0.0,0.0,0.0,32.957,36.957,-4.0,-3.3
806,28.0,109620000.0,0.02381,-949.67,49.329,-999.0,-3.916
807,0.0,0.0,0.0,21.088,25.088,-4.0,-3.3
808,,,,,,,
809,0.0,0.0,0.0,1656.3,1661.3,-5.0,-3.3
810,0.0,0.0,0.0,24.291,29.291,-5.0,-3.2855
811,0.0,0.0,0.0,-2.5252,4.4748,-7.0,-3.3
812,0.0,0.0,0.0,42.003,47.003,-5.0,-3.2725
813,29.333,1242800000.0,0.022727,-995.98,0.023655,-996.0,-3.912
814,0.0,0.0,0.0,-0.35996,6.64,-7.0,-3.278
815,20.0,42243000.0,0.016667,-998.46,8.5376,-1007.0,-3.94
816,0.0,0.0,0.0,19.557,20.557,-1.0,-3.125
817,0.0,0.0,0.0,24.052,28.052,-4.0,-3.3
818,0.0,0.0,0.0,1.0535,5.0535,-4.0,-3.3
819,29.5,43897000.0,0.0067797,-978.88,21.624,-1000.5,-3.8525
820,0.0,0.0,0.0,11.351,15.351,-4.0,-3.2945
821,,,,,,,
822,,,,,,,
823,30.0,439740000.0,0.0066667,-985.47,11.531,-997.0,-3.85
824,29.333,241630000.0,0.011364,-955.03,41.973,-997.0,-3.912
825,29.6,174630000.0,0.0067568,-980.48,16.524,-997.0,-3.852
826,,,,,,,
827,30.0,423890000.0,0.0083333,-424.75,572.25,-997.0,-3.88
828,0.0,0.0,0.0,44.953,49.953,-5.0,-3.255
829,0.0,0.0,0.0,5.197,10.197,-5.0,-3.287
830,,,,,,,
831,29.8,22713000.0,0.010067,-992.27,2.7255,-995.0,-3.702
832,0.0,0.0,0.0,-0.54011,5.4599,-6.0,-3.3
833,0.0,0.0,0.0,6.8701,11.87,-5.0,-3.296
834,0.0,0.0,0.0,4.1538,9.1538,-5.0,-3.3
835,0.0,0.0,0.0,29.803,35.803,-6.0,-3.3
836,0.0,0.0,0.0,7.9074,11.907,-4.0,-3.3
837,29.75,278300000.0,0.0084034,-978.24,17.755,-996.0,-3.881
838,29.333,9848500.0,0.022727,-983.31,12.691,-996.0,-3.736
839,25.0,779640000.0,0.016,-997.51,4.4877,-1002.0,-3.875
840,,,,,,,
841,30.0,299820000.0,0.023333,-995.64,0.36184,-996.0,-3.7
842,27.667,421890000.0,0.0060241,-996.79,8.2054,-1005.0,-3.834
843,0.0,0.0,0.0,-3.3855,0.61445,-4.0,-3.2945
844,30.0,162430000.0,0.013333,-966.92,28.079,-995.0,-3.85
845,0.0,0.0,0.0,-0.66591,4.3341,-5.0,-3.2965
846,0.0,0.0,0.0,3.503,8.503,-5.0,-3.1865
847,27.0,6012300.0,0.018519,-996.05,0.94655,-997.0,-3.676
848,0.0,0.0,0.0,0.6545,6.6545,-6.0,-3.291
849,29.0,121180000.0,0.011494,-920.99,76.01,-997.0,-3.913
850,0.0,0.0,0.0,-4.122,1.878,-6.0,-3.3
851,0.0,0.0,0.0,-2.1878,2.8122,-5.0,-3.297
852,,,,,,,
853,27.0,619950000.0,0.0074074,115.91,1115.9,-1000.0,-3.865
854,29.4,410040000.0,0.020408,-990.5,6.5009,-997.0,-3.853
855,0.0,0.0,0.0,-6.7391,0.2609,-7.0,-3.3
856,,,,,,,
857,30.0,284190000.0,0.011111,-980.61,16.386,-997.0,-3.91
858,0.0,0.0,0.0,-4.8089,0.19115,-5.0,-3.2995
859,29.917,450790000.0,0.011142,-995.04,0.96363,-996.0,-3.641
860,24.0,96868000.0,0.013889,-740.46,261.54,-1002.0,-3.784
861,29.75,1191500000.0,0.016807,-993.78,2.2181,-996.0,-3.881
862,0.0,0.0,0.0,0.94228,5.9423,-5.0,-3.2985
863,29.909,230450000.0,0.0030395,-990.03,5.9689,-996.0,-3.671
864,0.0,0.0,0.0,0.321,4.321,-4.0,-3.2875
865,30.0,388930000.0,0.0066667,-978.92,18.083,-997.0,-3.85
866,0.0,0.0,0.0,-0.78821,5.2118,-6.0,-3.291
867,29.947,177610000.0,0.0017575,-988.84,8.1559,-997.0,-3.431
868,0.0,0.0,0.0,5.6531,10.653,-5.0,-3.3
869,30.0,1598700000.0,0.011111,-995.96,0.037199,-996.0,-3.91
870,,,,,,,
871,20.375,109060000.0,0.00409,-977.09,30.912,-1008.0,-3.7555
872,,,,,,,
873,,,,,,,
874,30.0,215240000.0,0.0076923,-992.77,3.2311,-996.0,-3.61
875,0.0,0.0,0.0,206.16,207.16,-1.0,-3.195
876,29.889,102940000.0,0.01487,-986.56,8.4372,-995.0,-3.731
877,0.0,0.0,0.0,2.6069,7.6069,-5.0,-3.2945
878,,,,,,,
879,30.0,144500000.0,0.016667,-984.65,11.354,-996.0,-3.82
880,0.0,0.0,0.0,4.1339,11.134,-7.0,-3.3
881,30.0,708130000.0,0.033333,-996.0,0.0,-996.0,-3.91
882,0.0,0.0,0.0,-3.8956,1.1044,-5.0,-3.295
883,29.875,401680000.0,0.0041841,-991.38,5.6239,-997.0,-3.761
884,0.0,0.0,0.0,3.1852,8.1852,-5.0,-3.3
885,29.8,111050000.0,0.016779,-985.07,10.931,-996.0,-3.702
886,0.0,0.0,0.0,3.5818,9.5818,-6.0,-3.29
887,,,,,,,
888,29.917,69799000.0,0.019499,-986.94,9.0605,-996.0,-3.641
889,0.0,0.0,0.0,1.7219,6.7219,-5.0,-3.298
890,30.0,289410000.0,0.0047619,-979.23,15.766,-995.0,-3.79
891,0.0,0.0,0.0,61.537,66.537,-5.0,-3.291
892,30.0,214280000.0,0.0083333,-971.75,24.252,-996.0,-3.88
893,24.5,62766000.0,0.013605,-993.25,8.2548,-1001.5,-3.9265
894,29.8,63068000.0,0.0022371,-914.58,79.417,-994.0,-3.553
895,,,,,,,
896,0.0,0.0,0.0,19.667,24.667,-5.0,-3.2965
897,,,,,,,
898,29.8,131920000.0,0.016779,-981.5,12.499,-994.0,-3.702
899,29.5,174160000.0,0.0016142,-994.0,2.0001,-996.0,-3.3805
900,30.0,22886000.0,0.011111,-989.78,7.2215,-997.0,-3.91
901,0.0,0.0,0.0,-4.8285,2.1715,-7.0,-3.291
902,29.231,174760000.0,0.0026316,-54.346,941.65,-996.0,-3.62
903,0.0,0.0,0.0,893.1,897.1,-4.0,-3.276
904,,,,,,,
905,0.0,0.0,0.0,-2.2725,2.7275,-5.0,-3.272
906,0.0,0.0,0.0,22.378,26.378,-4.0,-3.3
907,0.0,0.0,0.0,1.9068,6.9068,-5.0,-3.3
908,0.0,0.0,0.0,73.468,78.468,-5.0,-3.297
909,0.0,0.0,0.0,-0.66125,3.3388,-4.0,-3.297
910,0.0,0.0,0.0,3.1764,8.1764,-5.0,-3.296
911,0.0,0.0,0.0,-5.7656,0.2344,-6.0,-3.3
912,0.0,0.0,0.0,10.726,14.726,-4.0,-3.3
913,26.0,231660000.0,0.0054945,-976.31,24.693,-1001.0,-3.818
914,0.0,0.0,0.0,89.272,94.272,-5.0,-3.297
915,0.0,0.0,0.0,2.3494,9.3494,-7.0,-3.295
916,0.0,0.0,0.0,36.659,41.659,-5.0,-3.3
917,,,,,,,
918,,,,,,,
919,23.429,541230000.0,0.030488,-544.59,457.41,-1002.0,-3.836
920,,,,,,,
921,0.0,0.0,0.0,-1.7472,4.2528,-6.0,-3.2925
922,0.0,0.0,0.0,10.826,15.826,-5.0,-3.296
923,0.0,0.0,0.0,-0.34887,4.6511,-5.0,-3.2955
924,0.0,0.0,0.0,-0.44707,5.5529,-6.0,-3.3
925,0.0,0.0,0.0,2.8881,8.8881,-6.0,-3.294
926,0.0,0.0,0.0,6.6234,10.623,-4.0,-3.3
927,0.0,0.0,0.0,426.86,430.86,-4.0,-3.3
928,0.0,0.0,0.0,932.09,937.09,-5.0,-3.265
929,0.0,0.0,0.0,14.731,20.731,-6.0,-3.2625
930,0.0,0.0,0.0,3.7383,9.7383,-6.0,-3.3
931,26.167,18766000.0,0.012739,-1002.0,0.49762,-1002.5,-3.9215
932,21.638,75021000.0,0.0047809,-997.82,6.6755,-1004.5,-3.3725
933,0.0,0.0,0.0,-4.5364,0.46365,-5.0,-3.2825
934,0.0,0.0,0.0,11.939,16.939,-5.0,-3.291
935,0.0,0.0,0.0,-3.8385,2.1615,-6.0,-3.254
936,0.0,0.0,0.0,-1.5379,3.4621,-5.0,-3.291
937,0.0,0.0,0.0,-2.8598,3.1402,-6.0,-3.2935
938,0.0,0.0,0.0,8.6209,13.621,-5.0,-3.2965
939,0.0,0.0,0.0,28.694,33.694,-5.0,-3.2965
940,0.0,0.0,0.0,4.8857,8.8857,-4.0,-3.297
941,0.0,0.0,0.0,31.394,35.394,-4.0,-3.294
942,0.0,0.0,0.0,20.453,25.453,-5.0,-3.229
943,28.0,209370000.0,0.0089286,-985.87,11.131,-997.0,-3.888
944,28.0,736720000.0,0.021429,-994.44,3.5617,-998.0,-3.86
945,0.0,0.0,0.0,1.481,5.481,-4.0,-3.2975
946,,,,,,,
947,,,,,,,
948,0.0,0.0,0.0,-0.79144,5.2086,-6.0,-3.2985
949,0.0,0.0,0.0,5.0986,10.099,-5.0,-3.2705
950,26.0,636470000.0,0.0096154,-995.88,4.1235,-1000.0,-3.896
951,24.5,204060000.0,0.010204,-980.51,20.988,-1001.5,-3.902
952,28.0,72148000.0,0.0059524,-835.67,162.33,-998.0,-3.832
953,0.0,0.0,0.0,1510.0,1514.0,-4.0,-3.3
954,0.0,0.0,0.0,8.4961,12.496,-4.0,-3.285
955,,,,,,,
956,,,,,,,
957,0.0,0.0,0.0,46.225,53.225,-7.0,-3.3
958,0.0,0.0,0.0,6.7131,12.713,-6.0,-3.3
959,26.0,938510000.0,0.0076923,688.32,1689.3,-1001.0,-3.87
960,,,,,,,
961,,,,,,,
962,0.0,0.0,0.0,29.799,33.799,-4.0,-3.28
963,0.0,0.0,0.0,1.0346,6.0346,-5.0,-3.283
964,0.0,0.0,0.0,4.4609,9.4609,-5.0,-3.2945
965,26.0,55416000.0,0.0038462,-959.15,41.846,-1001.0,-3.74
966,28.0,117200000.0,0.0059524,-937.2,60.8,-998.0,-3.832
967,0.0,0.0,0.0,2.791,8.791,-6.0,-3.2935
968,0.0,0.0,0.0,-2.9512,2.0488,-5.0,-3.296
969,0.0,0.0,0.0,20.365,25.365,-5.0,-3.284
970,0.0,0.0,0.0,3.9553,7.9553,-4.0,-3.291
971,0.0,0.0,0.0,6.8895,13.889,-7.0,-3.3
972,0.0,0.0,0.0,18.647,22.647,-4.0,-3.3
973,,,,,,,
974,0.0,0.0,0.0,29.144,35.144,-6.0,-3.298
975,23.0,141450000.0,0.0048309,-968.54,35.461,-1004.0,-3.793
976,,,,,,,
977,21.5,132050000.0,0.0093023,-999.64,6.8587,-1006.5,-3.8925
978,0.0,0.0,0.0,88.294,95.294,-7.0,-3.291
979,0.0,0.0,0.0,-1.3203,2.6797,-4.0,-3.2955
980,,,,,,,
981,,,,,,,
982,24.0,169890000.0,0.0037879,-990.69,12.311,-1003.0,-3.736
983,,,,,,,
984,25.0,13163000.0,0.01,-984.5,18.495,-1003.0,-3.8
985,0.0,0.0,0.0,6.1059,10.106,-4.0,-3.267
986,,,,,,,
987,,,,,,,
988,23.0,68824000.0,0.014493,-1002.5,2.4888,-1005.0,-3.931
989,25.0,189960000.0,0.013333,-988.43,14.57,-1003.0,-3.925
990,28.0,15941000.0,0.035714,-999.0,0.0,-999.0,-3.916
991,,,,,,,
992,24.0,642870000.0,0.0083333,-1000.0,2.964,-1003.0,-3.88
993,,,,,,,
994,24.0,487880000.0,0.0032051,-991.25,11.754,-1003.0,-3.688
995,0.0,0.0,0.0,5.1456,9.1456,-4.0,-3.2795
996,,,,,,,
997,20.0,9248600.0,0.0125,-1002.4,2.6138,-1005.0,-3.76
998,0.0,0.0,0.0,-3.4672,1.5328,-5.0,-3.2985
999,0.0,0.0,0.0,260.14,265.14,-5.0,-3.275
1000,0.0,0.0,0.0,-1.925,4.075,-6.0,-3.2835
1001,27.0,284210000.0,0.030864,-999.94,0.064389,-1000.0,-3.838
1002,25.5,1505200000.0,0.026144,-998.26,3.2386,-1001.5,-3.9235
1003,0.0,0.0,0.0,-4.8246,0.17541,-5.0,-3.3
1004,0.0,0.0,0.0,9.7877,15.788,-6.0,-3.2805
1005,0.0,0.0,0.0,80.59,84.59,-4.0,-3.292
1006,0.0,0.0,0.0,23.395,27.395,-4.0,-3.236
1007,25.286,297790000.0,0.0056497,-186.85,816.15,-1003.0,-3.823
1008,,,,,,,
1009,25.0,58501000.0,0.0066667,-870.37,131.63,-1002.0,-3.85
1010,0.0,0.0,0.0,-5.1933,0.80668,-6.0,-3.222
1011,23.0,193480000.0,0.0043478,-992.18,11.819,-1004.0,-3.77
1012,,,,,,,
1013,,,,,,,
1014,25.0,35091000.0,0.005,-964.54,37.464,-1002.0,-3.8
1015,,,,,,,
1016,25.0,27403000.0,0.0057143,-997.69,5.3072,-1003.0,-3.825
1017,,,,,,,
1018,23.0,62286000.0,0.0015528,-993.54,10.462,-1004.0,-3.356
1019,0.0,0.0,0.0,11.458,18.458,-7.0,-3.296
1020,,,,,,,
1021,,,,,,,
1022,,,,,,,
1023,,,,,,,
1024,,,,,,,
1025,28.0,117430000.0,0.0059524,-979.05,20.955,-1000.0,-3.832
1026,28.0,205230000.0,0.014881,-991.79,8.2084,-1000.0,-3.664
1027,28.0,323150000.0,0.005102,-993.94,5.0634,-999.0,-3.804
1028,0.0,0.0,0.0,-4.2076,0.7924,-5.0,-3.288
1029,20.0,127100000.0,0.0033333,-996.99,8.0056,-1005.0,-3.7
1030,24.0,34402000.0,0.0034722,-831.71,170.29,-1002.0,-3.712
1031,25.0,504390000.0,0.026667,-1002.6,0.41733,-1003.0,-3.85
1032,0.0,0.0,0.0,1.7495,7.7495,-6.0,-3.291
1033,25.0,58191000.0,0.0057143,-844.89,157.11,-1002.0,-3.825
1034,28.0,11992000.0,0.0089286,-998.08,0.9228,-999.0,-3.888
1035,0.0,0.0,0.0,75.452,80.452,-5.0,-3.283
1036,,,,,,,
1037,0.0,0.0,0.0,17.284,22.284,-5.0,-3.3
1038,0.0,0.0,0.0,40.51,45.51,-5.0,-3.294
1039,,,,,,,
1040,,,,,,,
1041,0.0,0.0,0.0,22.98,26.98,-4.0,-3.292
1042,0.0,0.0,0.0,78.935,84.935,-6.0,-3.294
1043,,,,,,,
1044,0.0,0.0,0.0,59.488,65.488,-6.0,-3.3
1045,0.0,0.0,0.0,-0.3167,3.6833,-4.0,-3.293
1046,0.0,0.0,0.0,3.9018,7.9018,-4.0,-3.294
1047,0.0,0.0,0.0,21.05,25.05,-4.0,-3.292
1048,0.0,0.0,0.0,211.32,218.32,-7.0,-3.292
1049,0.0,0.0,0.0,12.325,18.325,-6.0,-3.298
1050,27.0,1444400000.0,0.0092593,951.92,1949.9,-998.0,-3.892
1051,25.0,293070000.0,0.03,-989.14,13.864,-1003.0,-3.9
1052,0.0,0.0,0.0,226.02,230.02,-4.0,-3.299
1053,0.0,0.0,0.0,51.817,57.817,-6.0,-3.3
1054,0.0,0.0,0.0,1.0829,8.0829,-7.0,-3.276
1055,,,,,,,
1056,28.0,12010000.0,0.0039683,-955.76,43.235,-999.0,-3.748
1057,27.5,555050000.0,0.0090909,-250.18,749.32,-999.5,-3.89
1058,,,,,,,
1059,0.0,0.0,0.0,61.875,66.875,-5.0,-3.2745
1060,28.0,7021700.0,0.02381,-992.68,6.3195,-999.0,-3.832
1061,,,,,,,
1062,23.941,41326000.0,0.019656,-979.65,24.855,-1004.5,-3.593
1063,25.0,21496000.0,0.026667,-1000.9,1.075,-1002.0,-3.85
1064,0.0,0.0,0.0,0.063344,7.0633,-7.0,-3.296
1065,24.0,621310000.0,0.0052083,-993.33,10.672,-1004.0,-3.808
1066,0.0,0.0,0.0,-0.40596,3.594,-4.0,-3.288
1067,27.0,611260000.0,0.012346,-450.87,550.13,-1001.0,-3.919
1068,28.0,184440000.0,0.011905,-500.02,497.98,-998.0,-3.748
1069,,,,,,,
1070,23.148,64294000.0,0.0256,-672.28,331.22,-1003.5,-3.375
1071,28.0,35347000.0,0.014286,-950.28,47.718,-998.0,-3.86
1072,28.0,122400000.0,0.0044643,-612.44,385.56,-998.0,-3.776
1073,27.0,273260000.0,0.0026455,598.59,1598.6,-1000.0,-3.622
1074,0.0,0.0,0.0,1860.8,1864.3,-3.5,-3.156
1075,0.0,0.0,0.0,144.32,147.32,-3.0,-3.195
1076,26.0,209070000.0,0.023077,-812.83,188.17,-1001.0,-3.87
1077,26.978,233650000.0,0.0016116,1305.4,2301.4,-996.0,-3.3795
1078,,,,,,,
1079,,,,,,,
1080,,,,,,,
1081,,,,,,,
1082,27.0,707240000.0,0.0092593,-45.227,954.77,-1000.0,-3.892
1083,24.0,181110000.0,0.0037879,-188.01,814.99,-1003.0,-3.736
1084,0.0,0.0,0.0,9.0837,14.084,-5.0,-3.285
1085,24.75,47974000.0,0.020202,-1003.4,3.5562,-1007.0,-3.802
1086,26.0,136380000.0,0.012821,-988.2,10.795,-999.0,-3.688
1087,,,,,,,
1088,23.0,205110000.0,0.0054348,-973.58,30.422,-1004.0,-3.816
1089,,,,,,,
1090,28.0,125150000.0,0.0071429,-773.73,225.27,-999.0,-3.86
1091,,,,,,,
1092,,,,,,,
1093,27.0,796920000.0,0.012346,-995.92,5.0761,-1001.0,-3.919
1094,27.0,890060000.0,0.012346,-988.59,10.407,-999.0,-3.919
1095,23.0,47635000.0,0.036232,-982.56,21.436,-1004.0,-3.862
1096,,,,,,,
1097,24.0,133720000.0,0.010417,-1001.2,1.7763,-1003.0,-3.712
1098,,,,,,,
1099,,,,,,,
1100,25.8,18816000.0,0.0077519,-995.96,6.0386,-1002.0,-3.871
1101,23.0,340630000.0,0.0036232,-1000.7,4.2984,-1005.0,-3.724
1102,24.0,241480000.0,0.010417,-992.49,10.515,-1003.0,-3.904
1103,,,,,,,
1104,0.0,0.0,0.0,19.118,23.118,-4.0,-3.285
1105,27.0,203890000.0,0.018519,-993.53,4.4669,-998.0,-3.838
1106,25.0,256330000.0,0.013333,-771.31,230.69,-1002.0,-3.925
1107,25.0,322450000.0,0.013333,-710.8,290.2,-1001.0,-3.925
1108,26.0,81370000.0,0.025641,-984.6,16.402,-1001.0,-3.61
1109,0.0,0.0,0.0,337.25,341.75,-4.5,-3.2825
1110,28.0,895810000.0,0.0089286,210.34,1209.3,-999.0,-3.888
1111,,,,,,,
1112,0.0,0.0,0.0,520.57,525.57,-5.0,-3.164
1113,0.0,0.0,0.0,1.7143,6.7143,-5.0,-3.3
1114,0.0,0.0,0.0,542.18,542.18,0.0,-3.252
1115,23.0,95649000.0,0.0031056,-444.45,559.55,-1004.0,-3.678
1116,28.0,86759000.0,0.010714,-724.71,273.29,-998.0,-3.72
1117,0.0,0.0,0.0,930.28,935.28,-5.0,-3.2955
1118,0.0,0.0,0.0,6.1348,0.13477,6.0,-3.2395
1119,,,,,,,
1120,20.593,69812000.0,0.0017986,-988.07,16.431,-1004.5,-3.444
1121,26.0,169520000.0,0.012821,-849.44,152.56,-1002.0,-3.922
1122,24.0,558990000.0,0.015625,253.73,1257.7,-1004.0,-3.808
1123,28.0,569490000.0,0.011905,-487.46,512.54,-1000.0,-3.916
1124,25.0,54056000.0,0.008,-982.27,20.733,-1003.0,-3.375
1125,23.0,532670000.0,0.0048309,-998.0,5.9968,-1004.0,-3.793
1126,25.0,294610000.0,0.0030769,-998.89,3.1079,-1002.0,-3.675
1127,26.0,250570000.0,0.0064103,-436.21,563.79,-1000.0,-3.844
1128,,,,,,,
1129,24.0,728030000.0,0.020833,-1000.8,3.2287,-1004.0,-3.904
1130,,,,,,,
1131,,,,,,,
1132,,,,,,,
1133,25.0,73493000.0,0.03,-989.34,13.655,-1003.0,-3.9
1134,25.0,71392000.0,0.005,-776.12,224.88,-1001.0,-3.8
1135,27.0,175650000.0,0.0092593,-762.88,237.12,-1000.0,-3.892
1136,,,,,,,
1137,23.556,88258000.0,0.004717,-981.22,22.779,-1004.0,-3.788
1138,27.0,493610000.0,0.0037037,-1000.7,0.25212,-1001.0,-3.73
1139,23.0,451160000.0,0.01087,214.14,1218.1,-1004.0,-3.816
1140,27.0,792730000.0,0.0092593,70.18,1070.2,-1000.0,-3.892
1141,27.0,173620000.0,0.0019493,-996.95,2.0476,-999.0,-3.487
1142,,,,,,,
1143,25.0,69011000.0,0.00125,-38.296,962.7,-1001.0,-3.2
1144,24.0,522930000.0,0.025,-532.37,470.63,-1003.0,-3.88
1145,26.0,1136700000.0,0.012821,-994.67,6.3272,-1001.0,-3.922
1146,,,,,,,
1147,28.0,493170000.0,0.0059524,-994.56,3.4439,-998.0,-3.832
1148,,,,,,,
1149,,,,,,,
1150,25.714,11334000.0,0.019444,-999.36,0.63576,-1000.0,-3.64
1151,23.0,321690000.0,0.0062112,-135.45,868.55,-1004.0,-3.839
1152,0.0,0.0,0.0,477.26,482.26,-5.0,-3.297
1153,0.0,0.0,0.0,-3.5572,2.4428,-6.0,-3.285
1154,0.0,0.0,0.0,423.06,430.06,-7.0,-3.286
1155,26.625,237380000.0,0.0093897,-943.47,53.532,-997.0,-3.8935
1156,0.0,0.0,0.0,224.88,224.88,0.0,-3.16
1157,0.0,0.0,0.0,974.17,980.17,-6.0,-3.252
1158,0.0,0.0,0.0,11.296,16.296,-5.0,-3.3
1159,0.0,0.0,0.0,6.3471,10.347,-4.0,-3.3
1160,0.0,0.0,0.0,-4.61,1.39,-6.0,-3.2975
1161,27.667,508010000.0,0.0060241,126.75,1123.8,-997.0,-3.834
1162,0.0,0.0,0.0,-4.8276,0.1724,-5.0,-3.2995
1163,0.0,0.0,0.0,1.1968,6.1968,-5.0,-3.272
1164,0.0,0.0,0.0,28.417,32.417,-4.0,-3.288
1165,0.0,0.0,0.0,2.8363,8.8363,-6.0,-3.273
1166,0.0,0.0,0.0,45.888,52.888,-7.0,-3.296
1167,25.0,340040000.0,0.01,376.15,1377.1,-1001.0,-3.7
1168,27.0,95050000.0,0.037037,-1000.0,0.0,-1000.0,-3.892
1169,28.0,266930000.0,0.028571,-878.88,120.12,-999.0,-3.86
1170,27.0,641050000.0,0.0092593,-134.58,865.42,-1000.0,-3.892
1171,27.0,442150000.0,0.012346,-602.06,397.94,-1000.0,-3.919
1172,,,,,,,
1173,,,,,,,
1174,28.0,158260000.0,0.026786,-926.78,71.216,-998.0,-3.888
1175,21.714,608870000.0,0.0065789,-995.92,8.0833,-1004.0,-3.848
1176,0.0,0.0,0.0,13.545,19.545,-6.0,-3.3
1177,0.0,0.0,0.0,484.42,488.42,-4.0,-3.27
1178,30.0,1126000000.0,0.011111,17.416,1013.4,-996.0,-3.91
1179,0.0,0.0,0.0,249.98,255.98,-6.0,-3.3
1180,20.154,91600000.0,0.0038168,-968.27,38.731,-1007.0,-3.738
1181,0.0,0.0,0.0,-4.3498,0.65019,-5.0,-3.294
1182,0.0,0.0,0.0,15.31,20.31,-5.0,-3.292
1183,0.0,0.0,0.0,485.75,491.75,-6.0,-3.228
1184,0.0,0.0,0.0,593.45,598.45,-5.0,-3.297
1185,0.0,0.0,0.0,3.6003,7.6003,-4.0,-3.299
1186,0.0,0.0,0.0,28.249,32.249,-4.0,-3.3
1187,0.0,0.0,0.0,-3.1966,1.8034,-5.0,-3.269
1188,22.0,1589900000.0,0.015152,-1004.1,0.87029,-1005.0,-3.934
1189,0.0,0.0,0.0,-0.23104,3.769,-4.0,-3.29
1190,21.806,239390000.0,0.0025478,-1007.0,0.99669,-1008.0,-3.6075
1191,0.0,0.0,0.0,397.95,402.95,-5.0,-3.3
1192,0.0,0.0,0.0,6.8808,11.881,-5.0,-3.3
1193,0.0,0.0,0.0,1218.3,1223.3,-5.0,-3.292
1194,0.0,0.0,0.0,5.087,11.087,-6.0,-3.3
1195,0.0,0.0,0.0,2.7464,8.7464,-6.0,-3.297
1196,0.0,0.0,0.0,5.9472,9.9472,-4.0,-3.299
1197,0.0,0.0,0.0,264.3,268.3,-4.0,-3.268
1198,23.0,249100000.0,0.0048309,-994.84,8.1576,-1003.0,-3.793
1199,0.0,0.0,0.0,-4.923,0.077029,-5.0,-3.299
1200,,,,,,,
1201,23.0,441640000.0,0.0048309,-1004.2,0.83359,-1005.0,-3.793
1202,,,,,,,
1203,25.5,492780000.0,0.013072,-558.0,443.5,-1001.5,-3.9235
1204,0.0,0.0,0.0,78.155,82.155,-4.0,-3.292
1205,0.0,0.0,0.0,51.84,57.84,-6.0,-3.3
1206,0.0,0.0,0.0,40.06,44.06,-4.0,-3.3
1207,0.0,0.0,0.0,9.3847,14.385,-5.0,-3.2945
1208,0.0,0.0,0.0,23.215,28.215,-5.0,-3.2945
1209,0.0,0.0,0.0,4.6374,8.6374,-4.0,-3.3
1210,0.0,0.0,0.0,-5.9601,0.039898,-6.0,-3.2745
1211,26.0,115940000.0,0.023077,-896.65,104.35,-1001.0,-3.87
1212,26.0,67744000.0,0.019231,-908.55,91.455,-1000.0,-3.844
1213,26.0,1027100000.0,0.0076923,-995.84,5.1609,-1001.0,-3.87
1214,0.0,0.0,0.0,0.0043818,4.0044,-4.0,-3.292
1215,0.0,0.0,0.0,937.38,941.38,-4.0,-3.298
1216,0.0,0.0,0.0,32.417,36.417,-4.0,-3.296
1217,25.0,17152000.0,0.013333,-985.56,15.437,-1001.0,-3.925
1218,0.0,0.0,0.0,139.24,145.24,-6.0,-3.29
1219,0.0,0.0,0.0,61.68,65.68,-4.0,-3.297
1220,0.0,0.0,0.0,2.0717,7.0717,-5.0,-3.272
1221,0.0,0.0,0.0,13.697,17.697,-4.0,-3.3
1222,0.0,0.0,0.0,1.5511,7.5511,-6.0,-3.296
1223,0.0,0.0,0.0,-1.0511,3.9489,-5.0,-3.297
1224,0.0,0.0,0.0,73.342,77.342,-4.0,-3.3
1225,0.0,0.0,0.0,-3.5554,1.4446,-5.0,-3.299
1226,23.0,82944000.0,0.034783,-966.68,37.325,-1004.0,-3.885
1227,0.0,0.0,0.0,1851.1,1856.1,-5.0,-3.299
1228,0.0,0.0,0.0,591.58,596.58,-5.0,-3.259
1229,0.0,0.0,0.0,15.976,19.976,-4.0,-3.3
1230,0.0,0.0,0.0,2.2621,6.2621,-4.0,-3.3
1231,0.0,0.0,0.0,51.438,56.438,-5.0,-3.3
1232,,,,,,,
1233,0.0,0.0,0.0,85.396,90.396,-5.0,-3.288
1234,24.0,1692300.0,0.011719,-985.48,17.515,-1003.0,-3.232
1235,,,,,,,
1236,0.0,0.0,0.0,836.28,841.28,-5.0,-3.3
1237,27.0,1270700000.0,0.0092593,716.41,1715.4,-999.0,-3.892
1238,24.444,117010000.0,0.0045455,-585.41,413.59,-999.0,-3.78
1239,23.0,165020000.0,0.0054348,-484.17,519.83,-1004.0,-3.816
1240,0.0,0.0,0.0,13.653,20.653,-7.0,-3.3
1241,0.0,0.0,0.0,-2.5484,2.4516,-5.0,-3.291
1242,0.0,0.0,0.0,-2.6498,3.3502,-6.0,-3.298
1243,20.714,15271000.0,0.011494,-942.52,65.48,-1008.0,-3.565
1244,29.875,540870000.0,0.0083682,-984.05,11.95,-996.0,-3.8805
1245,,,,,,,
1246,23.0,147420000.0,0.0062112,-606.96,398.04,-1005.0,-3.839
1247,0.0,0.0,0.0,-3.1105,0.88953,-4.0,-3.297
1248,,,,,,,
1249,0.0,0.0,0.0,2463.6,2468.6,-5.0,-3.297
1250,26.0,43555000.0,0.0032051,-784.4,215.6,-1000.0,-3.688
1251,0.0,0.0,0.0,18.913,23.913,-5.0,-3.28
1252,28.0,766060000.0,0.0089286,36.186,1034.2,-998.0,-3.888
1253,23.0,34674000.0,0.0018116,-922.91,81.088,-1004.0,-3.448
1254,0.0,0.0,0.0,20.414,24.414,-4.0,-3.3
1255,23.0,210820000.0,0.0036232,40.576,1043.6,-1003.0,-3.724
1256,26.0,527470000.0,0.0096154,-287.92,712.08,-1000.0,-3.896
1257,0.0,0.0,0.0,-0.94653,5.0535,-6.0,-3.2925
1258,0.0,0.0,0.0,15.369,19.369,-4.0,-3.297
1259,0.0,0.0,0.0,517.54,522.54,-5.0,-3.2785
1260,0.0,0.0,0.0,364.11,369.11,-5.0,-3.3
1261,0.0,0.0,0.0,-3.0659,1.9341,-5.0,-3.296
1262,28.0,314720000.0,0.014286,-980.94,18.064,-999.0,-3.86
1263,0.0,0.0,0.0,30.789,36.789,-6.0,-3.291
1264,28.0,324930000.0,0.0071429,-996.37,3.6274,-1000.0,-3.86
1265,25.0,56761000.0,0.0017391,-440.07,561.93,-1002.0,-3.425
1266,26.0,243120000.0,0.0064103,-453.98,547.02,-1001.0,-3.844
1267,,,,,,,
1268,0.0,0.0,0.0,-1.9191,2.0809,-4.0,-3.297
1269,0.0,0.0,0.0,6.8968,10.897,-4.0,-3.296
1270,0.0,0.0,0.0,2147.0,2151.0,-4.0,-3.28
1271,0.0,0.0,0.0,-3.563,1.437,-5.0,-3.3
1272,0.0,0.0,0.0,4.8454,8.8454,-4.0,-3.294
1273,0.0,0.0,0.0,20.195,25.195,-5.0,-3.297
1274,0.0,0.0,0.0,-1.3563,3.6437,-5.0,-3.299
1275,0.0,0.0,0.0,411.77,417.77,-6.0,-3.2865
1276,25.0,947130000.0,0.028571,-999.18,2.8169,-1002.0,-3.825
1277,,,,,,,
1278,23.0,57553000.0,0.0054348,-958.19,46.812,-1005.0,-3.816
1279,0.0,0.0,0.0,-2.0883,3.9117,-6.0,-3.3
1280,0.0,0.0,0.0,16.733,21.733,-5.0,-3.299
1281,0.0,0.0,0.0,-5.1344,1.8656,-7.0,-3.283
1282,0.0,0.0,0.0,4.7992,8.7992,-4.0,-3.2865
1283,0.0,0.0,0.0,526.48,531.48,-5.0,-3.296
1284,0.0,0.0,0.0,14.36,20.36,-6.0,-3.296
1285,0.0,0.0,0.0,633.5,633.5,0.0,-3.125
1286,0.0,0.0,0.0,557.83,561.83,-4.0,-3.2455
1287,0.0,0.0,0.0,471.16,475.16,-4.0,-3.2975
1288,0.0,0.0,0.0,11.63,15.63,-4.0,-3.2935
1289,0.0,0.0,0.0,-3.2014,1.7986,-5.0,-3.2985
1290,0.0,0.0,0.0,24.077,28.077,-4.0,-3.2895
1291,0.0,0.0,0.0,7.2793,12.279,-5.0,-3.2975
1292,26.0,102900000.0,0.0064103,-769.47,231.53,-1001.0,-3.844
1293,,,,,,,
1294,0.0,0.0,0.0,2089.7,2087.7,2.0,-3.176
1295,27.0,46105000.0,0.010101,-834.02,165.98,-1000.0,-3.703
1296,25.155,131970000.0,0.006854,-995.89,1.1141,-997.0,-3.2705
1297,26.333,1742300000.0,0.012658,-1001.3,0.68721,-1002.0,-3.921
1298,30.0,122830000.0,0.0030303,-979.63,17.369,-997.0,-3.67
1299,24.0,49069000.0,0.035714,-981.92,22.081,-1004.0,-3.832
1300,0.0,0.0,0.0,32.518,36.518,-4.0,-3.3
1301,0.0,0.0,0.0,30.305,35.305,-5.0,-3.294
1302,0.0,0.0,0.0,556.97,563.97,-7.0,-3.294
1303,0.0,0.0,0.0,54.798,60.798,-6.0,-3.295
1304,,,,,,,
1305,0.0,0.0,0.0,771.42,775.42,-4.0,-3.3
1306,0.0,0.0,0.0,10.218,15.218,-5.0,-3.279
1307,0.0,0.0,0.0,18.088,23.088,-5.0,-3.278
1308,0.0,0.0,0.0,63.274,69.274,-6.0,-3.294
1309,0.0,0.0,0.0,43.023,48.023,-5.0,-3.297
1310,0.0,0.0,0.0,46.363,50.363,-4.0,-3.272
1311,0.0,0.0,0.0,18.452,22.452,-4.0,-3.282
1312,0.0,0.0,0.0,72.54,78.54,-6.0,-3.296
1313,0.0,0.0,0.0,-5.43,0.57005,-6.0,-3.297
1314,0.0,0.0,0.0,19.088,24.088,-5.0,-3.3
1315,0.0,0.0,0.0,-4.8599,0.14012,-5.0,-3.29
1316,,,,,,,
1317,25.0,488840000.0,0.0066667,98.879,1099.9,-1001.0,-3.85
1318,0.0,0.0,0.0,758.76,763.76,-5.0,-3.288
1319,23.0,64983000.0,0.0048309,-769.06,233.94,-1003.0,-3.793
1320,25.0,5962500.0,0.0066667,-988.58,13.416,-1002.0,-3.85
1321,0.0,0.0,0.0,1255.2,1257.2,-2.0,-3.195
1322,,,,,,,
1323,,,,,,,
1324,27.0,99367000.0,0.032407,-955.29,44.715,-1000.0,-3.784
1325,,,,,,,
1326,,,,,,,
1327,26.0,304700000.0,0.0038462,233.02,1234.0,-1001.0,-3.74
1328,,,,,,,
1329,26.0,588340000.0,0.012821,58.019,1059.0,-1001.0,-3.844
1330,28.0,855290000.0,0.0059524,-998.21,0.7932,-999.0,-3.832
1331,23.0,124240000.0,0.0086957,-993.54,10.463,-1004.0,-3.885
1332,26.0,437980000.0,0.0076923,-212.64,788.36,-1001.0,-3.87
1333,24.0,11189000.0,0.0019841,-973.96,29.043,-1003.0,-3.496
1334,22.4,25021000.0,0.013393,-1003.8,2.1705,-1006.0,-3.776
1335,26.2,296430000.0,0.019084,-995.02,0.97724,-996.0,-3.738
1336,24.5,295250000.0,0.013605,-969.14,36.859,-1006.0,-3.9265
1337,0.0,0.0,0.0,0.37439,5.3744,-5.0,-3.3
1338,0.0,0.0,0.0,28.119,33.119,-5.0,-3.3
1339,0.0,0.0,0.0,-0.64169,5.3583,-6.0,-3.3
1340,0.0,0.0,0.0,54.182,59.182,-5.0,-3.285
1341,,,,,,,
1342,24.533,49616000.0,0.0027174,-995.23,7.772,-1003.0,-3.632
1343,26.0,862250000.0,0.012821,-995.56,5.4408,-1001.0,-3.922
1344,21.0,159900000.0,0.011905,-980.31,27.69,-1008.0,-3.916
1345,,,,,,,
1346,0.0,0.0,0.0,2.1297,7.1297,-5.0,-3.276
1347,28.154,390880000.0,0.0027322,-987.87,13.134,-1001.0,-3.634
1348,21.2,16658000.0,0.018868,-1006.1,0.93886,-1007.0,-3.894
1349,0.0,0.0,0.0,23.714,28.714,-5.0,-3.29
1350,,,,,,,
1351,30.0,229940000.0,0.011111,-789.05,206.95,-996.0,-3.91
1352,30.0,269160000.0,0.0055556,-991.0,4.9982,-996.0,-3.82
1353,26.1,800520000.0,0.0076628,-996.64,2.8581,-999.5,-3.8695
1354,27.75,50818000.0,0.003003,-986.96,10.037,-997.0,-3.667
1355,25.0,305350000.0,0.03,-997.21,3.7859,-1001.0,-3.9
1356,26.0,208220000.0,0.0054945,-966.63,34.375,-1001.0,-3.818
1357,28.0,166980000.0,0.017857,-983.98,15.017,-999.0,-3.832
1358,0.0,0.0,0.0,20.451,24.451,-4.0,-3.3
1359,0.0,0.0,0.0,12.646,16.646,-4.0,-3.3
1360,27.0,388940000.0,0.0074074,-993.53,6.4727,-1000.0,-3.865
1361,22.816,9729100.0,0.027682,-998.0,7.5031,-1005.5,-3.5665
1362,25.0,65055000.0,0.0028571,-979.37,22.629,-1002.0,-3.65
1363,27.333,134920000.0,0.036585,-997.0,0.0,-997.0,-3.918
1364,0.0,0.0,0.0,-4.5765,0.4235,-5.0,-3.2995
1365,,,,,,,
1366,25.8,199760000.0,0.03876,-1004.0,0.0,-1004.0,-3.871
1367,0.0,0.0,0.0,48.169,53.169,-5.0,-3.3
1368,0.0,0.0,0.0,1.933,6.933,-5.0,-3.2985
1369,26.0,56629000.0,0.025641,-960.32,39.684,-1000.0,-3.766
1370,25.0,10285000.0,0.0016,-917.15,83.851,-1001.0,-3.375
1371,26.0,230440000.0,0.019231,-996.07,4.9334,-1001.0,-3.792
1372,,,,,,,
1373,0.0,0.0,0.0,2.1253,8.1253,-6.0,-3.2855
1374,0.0,0.0,0.0,9.2567,13.257,-4.0,-3.3
1375,0.0,0.0,0.0,-4.8154,2.1846,-7.0,-3.295
1376,23.0,141960000.0,0.031304,-1000.3,2.7127,-1003.0,-3.425
1377,23.0,140040000.0,0.0036232,-989.67,13.335,-1003.0,-3.724
1378,28.0,116760000.0,0.0059524,-969.49,29.513,-999.0,-3.832
1379,0.0,0.0,0.0,0.58468,4.0847,-3.5,-3.275
1380,25.5,446970000.0,0.0056022,207.32,1206.8,-999.5,-3.8215
1381,0.0,0.0,0.0,33.484,38.484,-5.0,-3.2845
1382,0.0,0.0,0.0,87.632,91.632,-4.0,-3.2935
1383,27.0,23659000.0,0.022222,-998.97,1.0333,-1000.0,-3.865
1384,23.0,40238000.0,0.0036232,-804.82,199.18,-1004.0,-3.724
1385,23.0,30446000.0,0.013587,-853.29,150.71,-1004.0,-3.632
1386,24.0,43320000.0,0.021739,-787.57,214.43,-1002.0,-3.448
1387,25.0,709240000.0,0.013333,-998.8,2.1984,-1001.0,-3.925
1388,0.0,0.0,0.0,13.397,19.397,-6.0,-3.296
1389,,,,,,,
1390,24.0,294720000.0,0.0052083,-993.99,9.0059,-1003.0,-3.808
1391,26.0,419820000.0,0.025641,-997.59,3.4074,-1001.0,-3.922
1392,26.0,122420000.0,0.0076923,-780.65,220.35,-1001.0,-3.87
1393,0.0,0.0,0.0,14.347,19.347,-5.0,-3.2995
1394,0.0,0.0,0.0,6.4962,12.496,-6.0,-3.26
1395,28.0,778510000.0,0.0089286,52.99,1051.0,-998.0,-3.888
1396,,,,,,,
1397,26.0,33945000.0,0.0016722,-664.94,336.06,-1001.0,-3.402
1398,0.0,0.0,0.0,211.44,215.44,-4.0,-3.195
1399,0.0,0.0,0.0,783.73,788.73,-5.0,-3.3
1400,,,,,,,
1401,22.5,75694000.0,0.0063492,-886.4,121.6,-1008.0,-3.8425
1402,27.0,68742000.0,0.0046296,-872.53,124.47,-997.0,-3.784
1403,0.0,0.0,0.0,1122.2,1126.2,-4.0,-3.2905
1404,23.613,124830000.0,0.0013661,-997.39,3.6052,-1001.0,-3.268
1405,25.0,22966000.0,0.022857,-993.25,2.7547,-996.0,-3.825
1406,30.0,310820000.0,0.011111,-992.8,3.1961,-996.0,-3.91
1407,0.0,0.0,0.0,2.1909,7.1909,-5.0,-3.296
1408,0.0,0.0,0.0,-3.4166,2.5834,-6.0,-3.288
1409,,,,,,,
1410,0.0,0.0,0.0,-2.9754,2.0246,-5.0,-3.297
1411,,,,,,,
1412,0.0,0.0,0.0,4.7748,10.775,-6.0,-3.297
1413,0.0,0.0,0.0,-1.2172,3.7828,-5.0,-3.296
1414,0.0,0.0,0.0,998.45,1002.4,-4.0,-3.299
1415,0.0,0.0,0.0,384.54,388.54,-4.0,-3.296
1416,27.818,54912000.0,0.0098039,-802.13,191.87,-994.0,-3.694
1417,21.5,59795000.0,0.002584,-548.06,457.44,-1005.5,-3.613
1418,0.0,0.0,0.0,4.2641,9.2641,-5.0,-3.298
1419,0.0,0.0,0.0,14.241,18.241,-4.0,-3.3
1420,23.0,235920000.0,0.028986,-685.5,318.5,-1004.0,-3.793
1421,0.0,0.0,0.0,70.316,75.316,-5.0,-3.2795
1422,0.0,0.0,0.0,6.6896,12.69,-6.0,-3.2945
1423,0.0,0.0,0.0,-4.6584,1.3416,-6.0,-3.2935
1424,0.0,0.0,0.0,796.26,801.26,-5.0,-3.293
1425,25.0,88082000.0,0.0026667,-446.08,554.92,-1001.0,-3.625
1426,25.0,568270000.0,0.0066667,277.61,1278.6,-1001.0,-3.85
1427,0.0,0.0,0.0,235.69,241.69,-6.0,-3.2515
1428,26.0,795860000.0,0.024038,73.416,1074.4,-1001.0,-3.792
1429,28.0,110180000.0,0.022321,-849.25,148.75,-998.0,-3.776
1430,0.0,0.0,0.0,457.98,461.98,-4.0,-3.296
1431,21.5,232280000.0,0.011628,-691.92,313.58,-1005.5,-3.914
1432,0.0,0.0,0.0,3.0041,8.0041,-5.0,-3.297
1433,0.0,0.0,0.0,4.3685,9.3685,-5.0,-3.299
1434,0.0,0.0,0.0,-4.4624,0.5376,-5.0,-3.3
1435,0.0,0.0,0.0,756.84,761.84,-5.0,-3.3
1436,0.0,0.0,0.0,0.088529,4.0885,-4.0,-3.296
1437,0.0,0.0,0.0,-0.092048,4.908,-5.0,-3.294
1438,0.0,0.0,0.0,-3.5659,1.4341,-5.0,-3.298
1439,,,,,,,
1440,0.0,0.0,0.0,3.4485,8.4485,-5.0,-3.2965
1441,0.0,0.0,0.0,53.252,59.252,-6.0,-3.293
1442,,,,,,,
1443,24.923,93210000.0,0.0030864,-497.43,506.57,-1004.0,-3.676
1444,0.0,0.0,0.0,1.9123,6.9123,-5.0,-3.288
1445,0.0,0.0,0.0,3.0964,8.0964,-5.0,-3.299
1446,0.0,0.0,0.0,1.6958,6.6958,-5.0,-3.3
1447,0.0,0.0,0.0,766.96,771.96,-5.0,-3.296
1448,0.0,0.0,0.0,76.434,81.434,-5.0,-3.288
1449,0.0,0.0,0.0,17.476,24.476,-7.0,-3.3
1450,0.0,0.0,0.0,13.183,19.183,-6.0,-3.3
1451,,,,,,,
1452,26.0,710920000.0,0.0096154,-40.261,959.74,-1000.0,-3.896
1453,0.0,0.0,0.0,1.9833,5.9833,-4.0,-3.29
1454,0.0,0.0,0.0,35.974,39.974,-4.0,-3.297
1455,0.0,0.0,0.0,0.72182,4.7218,-4.0,-3.2995
1456,0.0,0.0,0.0,49.863,55.863,-6.0,-3.2855
1457,28.0,317200000.0,0.017857,-712.52,285.48,-998.0,-3.888
1458,22.667,493210000.0,0.014706,-993.69,10.309,-1004.0,-3.932
1459,26.0,101620000.0,0.0076923,-987.74,13.257,-1001.0,-3.87
1460,26.0,502750000.0,0.0054945,357.42,1357.4,-1000.0,-3.818
1461,,,,,,,
1462,0.0,0.0,0.0,59.109,64.109,-5.0,-3.2725
1463,0.0,0.0,0.0,-2.9988,2.0012,-5.0,-3.295
1464,,,,,,,
1465,0.0,0.0,0.0,-0.33321,3.6668,-4.0,-3.286
1466,0.0,0.0,0.0,374.54,378.54,-4.0,-3.2865
1467,0.0,0.0,0.0,0.40467,6.4047,-6.0,-3.2955
1468,0.0,0.0,0.0,16.348,20.348,-4.0,-3.294
1469,21.25,212590000.0,0.011765,-930.75,76.249,-1007.0,-3.915
1470,0.0,0.0,0.0,1068.2,1073.2,-5.0,-3.2635
1471,28.0,12502000.0,0.013975,-920.24,78.761,-999.0,-3.356
1472,0.0,0.0,0.0,-5.4356,0.56444,-6.0,-3.2865
1473,0.0,0.0,0.0,1.1318,5.1318,-4.0,-3.296
1474,0.0,0.0,0.0,46.826,51.826,-5.0,-3.3
1475,0.0,0.0,0.0,15.314,22.314,-7.0,-3.2855
1476,27.763,164040000.0,0.0018957,330.89,1329.4,-998.5,-3.4725
1477,0.0,0.0,0.0,378.01,385.01,-7.0,-3.2905
1478,0.0,0.0,0.0,677.98,674.98,3.0,-3.0865
1479,0.0,0.0,0.0,1030.7,1035.7,-5.0,-3.2725
1480,0.0,0.0,0.0,3.9688,8.9688,-5.0,-3.3
1481,0.0,0.0,0.0,-4.741,0.25895,-5.0,-3.288
1482,0.0,0.0,0.0,935.77,937.27,-1.5,-3.214
1483,,,,,,,
1484,0.0,0.0,0.0,-0.70491,3.2951,-4.0,-3.2975
1485,0.0,0.0,0.0,7.5055,12.505,-5.0,-3.283
1486,26.0,135800000.0,0.012821,-999.05,0.95248,-1000.0,-3.922
1487,24.0,107280000.0,0.0032051,-423.71,579.29,-1003.0,-3.688
1488,25.0,410560000.0,0.0057143,106.52,1108.5,-1002.0,-3.825
1489,25.5,343060000.0,0.015083,233.51,1235.0,-1001.5,-3.6685
1490,28.0,24696000.0,0.0027473,-865.64,133.36,-999.0,-3.636
1491,27.0,1324400000.0,0.012346,192.96,1192.0,-999.0,-3.919
1492,0.0,0.0,0.0,24.402,29.402,-5.0,-3.2935
1493,0.0,0.0,0.0,35.252,42.252,-7.0,-3.276
1494,30.0,801460000.0,0.0083333,-990.5,5.4957,-996.0,-3.88
1495,27.0,472630000.0,0.0092593,-360.95,638.05,-999.0,-3.892
1496,0.0,0.0,0.0,27.062,31.062,-4.0,-3.2965
1497,0.0,0.0,0.0,22.066,27.066,-5.0,-3.288
1498,27.19,3132700.0,0.015762,-995.95,5.0506,-1001.0,-3.429
1499,,,,,,,
1500,22.714,419300000.0,0.0062893,-1000.0,3.9501,-1004.0,-3.841
1501,29.0,268900000.0,0.0086207,-633.99,363.01,-997.0,-3.884
1502,25.0,459160000.0,0.016,-997.41,3.5922,-1001.0,-3.75
1503,24.0,587580000.0,0.010417,-995.7,8.3035,-1004.0,-3.904
1504,,,,,,,
1505,,,,,,,
1506,27.0,51387000.0,0.0074074,-992.74,7.2649,-1000.0,-3.865
1507,,,,,,,
1508,,,,,,,
1509,28.0,1206100000.0,0.021429,86.534,1085.5,-999.0,-3.86
1510,0.0,0.0,0.0,24.55,31.55,-7.0,-3.2935
1511,0.0,0.0,0.0,-4.6871,1.3129,-6.0,-3.3
1512,0.0,0.0,0.0,1.2686,7.2686,-6.0,-3.284
1513,0.0,0.0,0.0,-2.2132,4.7868,-7.0,-3.289
1514,,,,,,,
1515,,,,,,,
1516,25.0,225680000.0,0.0066667,-982.88,18.123,-1001.0,-3.85
1517,0.0,0.0,0.0,4.4241,8.4241,-4.0,-3.3
1518,0.0,0.0,0.0,-1.2986,4.7014,-6.0,-3.295
1519,0.0,0.0,0.0,10.074,14.074,-4.0,-3.3
1520,,,,,,,
1521,26.0,1109200000.0,0.0096154,-1001.5,0.46995,-1002.0,-3.896
1522,,,,,,,
1523,29.2,1106400000.0,0.020548,-992.9,4.0986,-997.0,-3.854
1524,21.0,184550000.0,0.0022676,-996.04,9.9557,-1006.0,-3.559
1525,27.75,34691000.0,0.027027,-995.31,0.69261,-996.0,-3.889
1526,0.0,0.0,0.0,4.1998,8.1998,-4.0,-3.296
1527,0.0,0.0,0.0,-2.1927,2.8073,-5.0,-3.298
1528,0.0,0.0,0.0,4.2222,10.222,-6.0,-3.3
1529,0.0,0.0,0.0,41.895,47.895,-6.0,-3.296
1530,0.0,0.0,0.0,9.58,16.58,-7.0,-3.296
1531,0.0,0.0,0.0,50.462,57.462,-7.0,-3.3
1532,0.0,0.0,0.0,102.7,107.7,-5.0,-3.2945
1533,0.0,0.0,0.0,0.37141,4.3714,-4.0,-3.3
1534,0.0,0.0,0.0,30.095,34.095,-4.0,-3.299
1535,0.0,0.0,0.0,2.0152,7.0152,-5.0,-3.294
1536,0.0,0.0,0.0,4.2347,9.2347,-5.0,-3.3
1537,0.0,0.0,0.0,14.878,21.878,-7.0,-3.299
1538,0.0,0.0,0.0,4.0285,8.0285,-4.0,-3.298
1539,20.0,7225100.0,0.0125,-991.38,15.619,-1007.0,-3.76
1540,27.2,350430000.0,0.0073529,-372.86,626.14,-999.0,-3.864
1541,0.0,0.0,0.0,14.942,18.942,-4.0,-3.3
1542,,,,,,,
1543,,,,,,,
1544,,,,,,,
1545,,,,,,,
1546,27.0,494560000.0,0.0074074,-994.45,4.548,-999.0,-3.865
1547,,,,,,,
1548,,,,,,,
1549,,,,,,,
1550,0.0,0.0,0.0,4.9555,9.9555,-5.0,-3.291
1551,27.0,1044100000.0,0.018519,-59.339,939.66,-999.0,-3.892
1552,0.0,0.0,0.0,13.814,19.814,-6.0,-3.297
1553,0.0,0.0,0.0,3.3471,7.3471,-4.0,-3.3
1554,0.0,0.0,0.0,-2.7816,1.2184,-4.0,-3.283
1555,,,,,,,
1556,,,,,,,
1557,,,,,,,
1558,30.0,378850000.0,0.013333,-989.54,6.4578,-996.0,-3.7
1559,30.0,1677800000.0,0.011111,-995.84,0.16492,-996.0,-3.91
1560,30.0,239560000.0,0.0083333,-969.54,24.459,-994.0,-3.88
1561,30.0,278900000.0,0.0025641,-989.57,6.4271,-996.0,-3.61
1562,,,,,,,
1563,,,,,,,
1564,29.0,237930000.0,0.034483,-997.0,0.0,-997.0,-3.913
1565,30.0,225630000.0,0.011111,-961.95,35.047,-997.0,-3.91
1566,29.625,131030000.0,0.025316,-985.26,9.7401,-995.0,-3.763
1567,28.071,154620000.0,0.0050891,-989.98,6.0219,-996.0,-3.8035
1568,28.0,25125000.0,0.0044643,-919.86,79.145,-999.0,-3.776
1569,24.0,745310000.0,0.0069444,-990.77,11.23,-1002.0,-3.856
1570,29.333,2104100000.0,0.022727,-992.42,2.5842,-995.0,-3.912
1571,30.0,898000000.0,0.011111,-994.46,1.5437,-996.0,-3.91
1572,27.6,88026000.0,0.0036232,-642.94,353.06,-996.0,-3.724
1573,0.0,0.0,0.0,625.64,628.64,-3.0,-3.16
1574,30.0,88639000.0,0.0025641,-518.35,478.65,-997.0,-3.61
1575,24.0,436850000.0,0.0083333,-991.6,11.402,-1003.0,-3.88
1576,29.75,413010000.0,0.016807,-984.41,10.586,-995.0,-3.881
1577,,,,,,,
1578,29.0,627050000.0,0.011494,-432.65,564.35,-997.0,-3.913
1579,,,,,,,
1580,24.0,465400000.0,0.0037879,1091.3,2094.3,-1003.0,-3.736
1581,0.0,0.0,0.0,1080.2,1087.2,-7.0,-3.2775
1582,23.0,45010000.0,0.016018,-760.95,243.05,-1004.0,-3.563
1583,29.667,394040000.0,0.022472,-978.88,17.124,-996.0,-3.911
1584,26.0,10761000.0,0.0048077,-997.12,2.8756,-1000.0,-3.792
1585,25.0,21142000.0,0.016,-802.21,199.79,-1002.0,-3.125
1586,0.0,0.0,0.0,8.6348,14.635,-6.0,-3.272
1587,26.0,104360000.0,0.0064103,-766.19,234.81,-1001.0,-3.844
1588,,,,,,,
1589,,,,,,,
1590,30.0,546730000.0,0.0095238,-995.94,1.0593,-997.0,-3.79
1591,26.0,55330000.0,0.0064103,-960.87,40.127,-1001.0,-3.844
1592,28.773,49693000.0,0.0031596,-984.65,11.352,-996.0,-3.6835
1593,,,,,,,
1594,,,,,,,
1595,0.0,0.0,0.0,990.73,996.73,-6.0,-3.291
1596,30.0,421510000.0,0.016667,-994.91,0.085616,-995.0,-3.64
1597,0.0,0.0,0.0,9.0178,13.018,-4.0,-3.2985
1598,30.0,16778000.0,0.0066667,-992.42,4.5807,-997.0,-3.85
