,DR__ep,ho_den,Reward,R_tele,R_tran,speed_,tele_r,total_,tran_r
0,,,,,,,,,
1,177420000.0,0.0052632,-937.13,63.873,-1001.0,38.0,85.563,-121.84,-207.4
2,572640000.0,0.012605,-865.75,147.25,-1013.0,34.0,33.637,-120.36,-154.0
3,192030000.0,0.019737,-980.4,21.604,-1002.0,38.0,25.631,-232.12,-257.75
4,644470000.0,0.0067002,-787.49,217.51,-1005.0,37.312,990.24,859.3,-130.94
5,111590000.0,0.0054496,-963.33,40.173,-1003.5,36.7,109.09,-98.814,-207.9
6,222290000.0,0.0034483,-905.26,85.739,-991.0,41.429,176.83,32.405,-144.43
7,70892000.0,0.0028571,-963.09,27.914,-991.0,43.75,219.99,96.243,-123.75
8,241690000.0,0.0018779,-892.3,99.699,-992.0,44.375,45.649,-35.559,-81.208
9,287690000.0,0.0034662,-880.03,110.97,-991.0,41.214,317.48,172.83,-144.64
10,11739000.0,0.0088889,-988.83,3.1695,-992.0,45.0,59.611,-38.489,-98.1
11,412330000.0,0.0051613,-850.19,144.31,-994.5,43.056,37.051,-74.005,-111.06
12,199990000.0,0.0025974,-913.5,79.995,-993.5,42.778,170.41,59.298,-111.11
13,425820000.0,0.010526,-886.03,114.97,-1001.0,38.0,12.117,-196.08,-208.2
14,450980000.0,0.0040816,-820.88,169.12,-990.0,40.833,49.258,-120.91,-170.17
15,301920000.0,0.0098039,-917.42,90.577,-1008.0,34.0,122.67,-222.66,-345.33
16,215570000.0,0.02807,-1002.5,0.0,-1002.5,35.625,0.0,-258.88,-258.88
17,83027000.0,0.0054945,-979.11,29.89,-1009.0,36.4,367.76,158.76,-209.0
18,893740000.0,0.015915,-835.63,160.87,-996.5,37.7,0.48657,-206.01,-206.5
19,232270000.0,0.010526,-937.29,62.713,-1000.0,38.0,295.49,89.688,-205.8
20,182340000.0,0.00625,-941.36,65.643,-1007.0,32.0,956.56,745.56,-211.0
21,452380000.0,0.0098039,-870.28,135.72,-1006.0,34.0,115.49,-228.17,-343.67
22,197170000.0,0.002994,-914.36,77.636,-992.0,41.75,304.65,178.4,-126.25
23,445020000.0,0.010101,-876.99,133.51,-1010.5,33.0,51.082,-293.25,-344.33
24,488290000.0,0.029412,-1008.0,0.0,-1008.0,34.0,0.0,-346.0,-346.0
25,276750000.0,0.021053,-970.37,31.134,-1001.5,35.625,78.387,-179.74,-258.12
26,551750000.0,0.0070922,-819.28,186.22,-1005.5,35.25,50.96,-207.54,-258.5
27,71210000.0,0.0027778,-982.63,29.374,-1012.0,30.0,141.71,46.379,-95.333
28,107090000.0,0.0022409,-946.88,43.12,-990.0,46.974,88.659,42.001,-46.658
29,43518000.0,0.0044412,-978.83,15.667,-994.5,45.033,363.35,301.18,-62.167
30,453250000.0,0.019608,-941.01,67.987,-1009.0,34.0,11.694,-332.97,-344.67
31,562030000.0,0.02346,-956.92,50.582,-1007.5,34.1,1.9744,-208.93,-210.9
32,764150000.0,0.0063492,-734.41,275.09,-1009.5,31.5,2577.5,2365.4,-212.1
33,,,,,,,,,
34,158470000.0,0.002584,-927.61,63.387,-991.0,43.0,259.96,147.74,-112.22
35,230820000.0,0.0095238,-938.75,69.246,-1008.0,35.0,170.14,-175.19,-345.33
36,501590000.0,0.019608,-932.76,75.239,-1008.0,34.0,54.791,-288.88,-343.67
37,297970000.0,0.015789,-947.37,53.634,-1001.0,38.0,58.433,-149.77,-208.2
38,166230000.0,0.005,-939.16,59.842,-999.0,40.0,275.99,70.194,-205.8
39,96107000.0,0.0069686,-969.56,32.436,-1002.0,35.875,95.584,-163.04,-258.62
40,1707800000.0,0.0099502,-493.17,512.33,-1005.5,33.5,17.552,-325.28,-342.83
41,155210000.0,0.012579,-959.58,34.921,-994.5,39.75,168.44,-3.475,-171.92
42,,,,,,,,,
43,51958000.0,0.012821,-980.61,10.392,-991.0,43.333,74.604,-36.396,-111.0
44,174990000.0,0.0042827,-930.88,65.622,-996.5,38.917,176.34,5.4201,-170.92
45,131640000.0,0.021429,-988.19,14.809,-1003.0,35.0,111.46,-146.54,-258.0
46,117200000.0,0.0087912,-969.33,37.671,-1007.0,32.5,773.48,620.7,-152.79
47,577830000.0,0.0096618,-835.15,173.35,-1008.5,34.5,43.64,-300.86,-344.5
48,89168000.0,0.0029412,-956.89,35.11,-992.0,42.5,161.54,34.911,-126.62
49,448320000.0,0.0052632,-838.6,161.4,-1000.0,38.0,201.76,-5.0433,-206.8
50,157610000.0,0.0053908,-940.26,56.738,-997.0,37.1,287.35,81.851,-205.5
51,250640000.0,0.005618,-913.77,90.231,-1004.0,35.6,742.11,534.11,-208.0
52,,,,,,,,,
53,113380000.0,0.0050378,-954.68,40.818,-995.5,39.7,398.14,193.44,-204.7
54,46864000.0,0.010296,-979.28,11.716,-991.0,43.167,198.18,88.12,-110.06
55,265680000.0,0.0055556,-904.86,95.644,-1000.5,36.0,967.65,761.05,-206.6
56,182860000.0,0.0098039,-954.14,54.859,-1009.0,34.0,123.7,-222.63,-346.33
57,752530000.0,0.029851,-1005.5,0.0,-1005.5,33.5,0.0,-342.83,-342.83
58,320370000.0,0.033333,-1013.0,0.0,-1013.0,30.0,0.0,-345.0,-345.0
59,177110000.0,0.022449,-982.75,21.253,-1004.0,32.667,588.73,513.4,-75.333
60,186480000.0,0.0029762,-930.48,75.524,-1006.0,33.6,1924.7,1816.0,-108.7
61,89589000.0,0.0014134,-963.52,38.483,-1002.0,32.159,2669.7,2615.8,-53.841
62,86553000.0,0.018349,-994.69,17.311,-1012.0,30.278,247.61,125.45,-122.17
63,53714000.0,0.0018349,-989.17,22.829,-1012.0,30.278,719.69,654.14,-65.556
64,1406700000.0,0.011111,-590.99,422.01,-1013.0,30.0,24.881,-319.45,-344.33
65,115650000.0,0.0086133,-970.41,37.587,-1008.0,32.25,3697.2,3632.9,-64.306
66,73620000.0,0.002454,-971.63,30.368,-1002.0,33.958,1168.4,1078.2,-90.208
67,73384000.0,0.0024361,-976.98,30.021,-1007.0,37.318,329.89,233.48,-96.409
68,140320000.0,0.017778,-982.44,28.063,-1010.5,31.25,246.33,181.24,-65.083
69,109750000.0,0.016058,-983.28,22.224,-1005.5,34.25,471.21,413.86,-57.35
70,14629000.0,0.00091617,-1003.1,6.395,-1009.5,31.186,1018.7,980.84,-37.814
71,69888000.0,0.0038911,-977.98,27.519,-1005.5,32.125,659.88,524.75,-135.12
72,608000000.0,0.0033898,-760.3,243.2,-1003.5,32.778,2443.0,2323.6,-119.33
73,28404000.0,0.010714,-999.48,8.5211,-1008.0,31.111,157.19,34.746,-122.44
74,533570000.0,0.020513,-926.96,80.036,-1007.0,32.5,14.694,-327.81,-342.5
75,53348000.0,0.0018182,-978.49,22.506,-1001.0,34.375,1017.4,948.56,-68.875
76,18749000.0,0.0046512,-2.2681,7.2319,-9.5,30.714,481.56,471.22,-10.343
77,,,,,,,,,
78,347750000.0,0.023026,-965.05,46.946,-1012.0,30.4,6.961,-104.14,-111.1
79,124620000.0,0.001462,-956.72,53.277,-1010.0,34.2,3592.3,3535.2,-57.1
80,,,,,,,,,
81,74948000.0,0.0029499,-978.84,30.66,-1009.5,30.818,199.48,97.846,-101.64
82,28461000.0,0.00093589,3.4414,12.441,-9.0,30.529,788.06,779.1,-8.9571
83,87007000.0,0.0043668,-976.69,33.814,-1010.5,31.227,263.7,207.83,-55.864
84,,,,,,,,,
85,26310000.0,0.0074349,-1001.0,9.0206,-1010.0,32.024,1405.7,1349.8,-55.881
86,595200000.0,0.0059701,-791.23,214.27,-1005.5,33.5,1759.7,1550.6,-209.1
87,97809000.0,0.016867,-990.19,20.314,-1010.5,31.923,255.37,168.14,-87.231
88,541270000.0,0.016667,-891.21,121.79,-1013.0,30.0,10.837,-166.33,-177.17
89,47989000.0,0.0021858,-985.57,19.934,-1005.5,35.192,2017.1,1934.5,-82.577
90,,,,,,,,,
91,46252000.0,0.0016529,-988.73,19.773,-1008.5,30.25,1237.2,1176.5,-60.7
92,25028000.0,0.0047253,-1002.3,9.6535,-1012.0,30.232,599.69,552.17,-47.518
93,,,,,,,,,
94,65113000.0,0.0013012,-974.42,28.08,-1002.5,32.021,1445.6,1395.6,-49.979
95,,,,,,,,,
96,14633000.0,0.0091813,-1001.8,4.7034,-1006.5,31.119,325.21,266.75,-58.452
97,87645000.0,0.012371,-984.85,24.65,-1009.5,30.312,503.32,367.5,-135.81
98,131350000.0,0.024845,-997.68,11.821,-1009.5,32.2,20.692,-88.408,-109.1
99,201870000.0,0.005571,-927.83,72.675,-1000.5,35.9,226.21,19.906,-206.3
100,259350000.0,0.0020555,-902.59,109.41,-1012.0,30.406,757.56,683.9,-73.656
101,86419000.0,0.00093985,25.777,37.777,-12.0,30.4,397.19,386.76,-10.429
102,73747000.0,0.017751,-993.92,15.085,-1009.0,30.727,53.985,-47.924,-101.91
103,,,,,,,,,
104,25469000.0,0.030612,-1008.0,1.2724e-15,-1008.0,32.667,0.0,-344.33,-344.33
105,222330000.0,0.011111,-944.3,66.698,-1011.0,30.0,166.68,-176.98,-343.67
106,102990000.0,0.01327,15.808,27.808,-12.0,30.143,710.11,698.08,-12.029
107,55514000.0,0.0068074,-992.22,19.777,-1012.0,30.604,349.83,298.26,-51.562
108,97819000.0,0.0028369,29.245,40.245,-11.0,30.214,1267.1,1256.2,-10.9
109,354060000.0,0.0018349,-857.54,149.96,-1007.5,32.059,1988.3,1919.3,-69.0
110,462530000.0,0.0083333,-854.9,156.1,-1011.0,30.0,139.09,-121.91,-261.0
111,511980000.0,0.013274,-875.35,131.65,-1007.0,32.286,48.791,-104.21,-153.0
112,6162700.0,0.014414,-1002.6,1.3866,-1004.0,34.688,42.388,-89.8,-132.19
113,62938000.0,0.0023364,-980.7,26.299,-1007.0,30.571,1043.1,960.4,-82.714
114,141730000.0,0.0066038,39.023,51.023,-12.0,30.286,1288.6,1277.3,-11.286
115,16777000.0,0.021401,-1007.8,2.6646,-1010.5,30.235,24.519,-15.893,-40.412
116,20060000.0,0.0010667,-1003.3,8.7356,-1012.0,30.242,924.86,881.65,-43.21
117,94389000.0,0.0027586,-973.06,38.935,-1012.0,30.208,732.57,640.11,-92.458
118,38948000.0,0.017544,-1003.9,8.0892,-1012.0,30.692,69.985,-17.861,-87.846
119,81290000.0,0.0045977,-978.15,31.355,-1009.5,31.071,111.87,-40.769,-152.64
120,24713000.0,0.014771,-1004.7,5.8252,-1010.5,32.238,361.86,304.43,-57.429
121,243660000.0,0.03125,-1013.0,0.0,-1013.0,32.0,0.0,-262.5,-262.5
122,85599000.0,0.0027485,23.718,35.218,-11.5,31.186,489.82,479.72,-10.1
123,44939000.0,0.00094295,10.645,19.645,-9.0,30.3,1854.4,1844.7,-9.7571
124,70246000.0,0.0030801,-980.95,28.552,-1009.5,31.419,657.11,615.92,-41.194
125,136410000.0,0.021728,-981.7,19.801,-1001.5,31.177,244.63,202.81,-41.823
126,28002000.0,0.012442,-999.2,7.8005,-1007.0,30.619,694.92,636.64,-58.286
127,15331000.0,0.0091803,-1006.0,4.9673,-1011.0,30.5,229.33,178.59,-50.74
128,137050000.0,0.026667,-997.67,12.334,-1010.0,30.0,0.0,-211.6,-211.6
129,160180000.0,0.01443,-970.18,39.317,-1009.5,31.5,750.43,649.02,-101.41
130,109200000.0,0.019621,-993.34,19.656,-1013.0,30.58,294.69,245.31,-49.38
131,183570000.0,0.0037037,-936.57,73.428,-1010.0,30.0,1191.1,1069.9,-121.22
132,132300000.0,0.0046926,40.531,51.031,-10.5,30.443,1189.7,1179.4,-10.271
133,70570000.0,0.00094787,20.849,30.849,-10.0,30.143,4998.0,4988.1,-9.9429
134,51363000.0,0.028689,-1010.1,2.8892,-1013.0,30.5,0.0,-137.0,-137.0
135,17031000.0,0.00099651,-1003.6,7.4317,-1011.0,30.409,660.49,620.02,-40.47
136,72479000.0,0.0021834,-977.56,30.441,-1008.0,30.533,436.68,358.55,-78.133
137,18820000.0,0.010256,-3.6926,5.8074,-9.5,30.643,532.73,522.6,-10.129
138,33545000.0,0.0085106,2.2138,11.214,-9.0,30.214,2009.3,1998.3,-10.986
139,37079000.0,0.022079,-3.756,5.244,-9.0,31.057,256.98,248.75,-8.2286
140,46645000.0,0.00094742,11.391,20.391,-9.0,30.157,285.47,276.46,-9.0143
141,370650000.0,0.0091954,-890.36,119.14,-1009.5,31.071,83.66,-70.125,-153.79
142,24112000.0,0.0013029,-1002.6,10.417,-1013.0,30.7,1185.0,1133.4,-51.58
143,,,,,,,,,
144,486430000.0,0.021978,-939.04,72.964,-1012.0,30.333,90.229,-255.1,-345.33
145,500720000.0,0.010204,-857.78,150.22,-1008.0,32.667,48.104,-295.23,-343.33
146,52874000.0,0.0018709,-983.19,22.306,-1005.5,33.406,1099.0,1028.7,-70.281
147,34109000.0,0.00094877,4.9106,14.911,-10.0,30.114,615.46,603.69,-11.771
148,417340000.0,0.006079,-857.76,150.24,-1008.0,32.9,589.39,379.89,-209.5
149,124150000.0,0.0090293,-966.55,40.455,-1007.0,30.552,4862.5,4818.1,-44.379
150,51806000.0,0.0175,-999.74,10.76,-1010.5,30.769,13.911,-74.32,-88.231
151,265800000.0,0.019531,-963.15,44.854,-1008.0,32.0,1318.5,1183.3,-135.25
152,136150000.0,0.0082474,-963.74,43.763,-1007.5,34.643,110.51,-43.136,-153.64
153,136890000.0,0.018445,-985.9,27.105,-1013.0,30.36,615.54,563.42,-52.12
154,64062000.0,0.00092678,21.004,28.004,-7.0,30.829,214.13,203.87,-10.257
155,17750000.0,0.0083411,-6.0665,5.9335,-12.0,30.829,516.44,505.58,-10.857
156,930770000.0,0.0066667,-676.92,335.08,-1012.0,30.0,43.727,-167.47,-211.2
157,119900000.0,0.019471,-985.38,19.62,-1005.0,32.682,30.996,-70.413,-101.41
158,5749700.0,0.0094518,-10.152,1.8481,-12.0,30.229,199.69,187.63,-12.057
159,387030000.0,0.015504,-925.92,87.081,-1013.0,32.25,857.29,747.94,-109.35
160,339620000.0,0.0027027,-869.41,140.09,-1009.5,30.833,175.61,81.856,-93.75
161,,,,,,,,,
162,28312000.0,0.019784,-6.2678,4.7322,-11.0,31.771,141.81,133.18,-8.6286
163,33332000.0,0.021546,-5.8573,5.1427,-11.0,30.5,53.434,43.848,-9.5857
164,,,,,,,,,
165,10516000.0,0.014091,-6.2959,2.7041,-9.0,30.414,197.31,187.21,-10.1
166,15699000.0,0.013993,-5.9632,4.0368,-10.0,30.629,566.84,556.64,-10.2
167,,,,,,,,,
168,147600000.0,0.018634,-981.86,22.14,-1004.0,35.778,78.359,-39.086,-117.44
169,25955000.0,0.0072365,-2.99,9.01,-12.0,31.586,557.07,547.09,-9.9857
170,27637000.0,0.0011186,-994.99,12.008,-1007.0,30.828,830.05,785.18,-44.862
171,347370000.0,0.0036697,-870.55,138.95,-1009.5,30.278,3267.7,3145.8,-121.94
172,24343000.0,0.014414,2.9467,5.9467,-3.0,31.714,461.35,452.92,-8.4286
173,337790000.0,0.023148,-978.67,25.334,-1004.0,36.0,7.4514,-166.05,-173.5
174,13800000.0,0.00095012,-3.9672,6.0328,-10.0,30.071,778.99,769.0,-9.9857
175,36998000.0,0.0064103,-998.55,13.447,-1012.0,30.0,1176.0,1126.5,-49.5
176,33141000.0,0.00095238,3.4871,14.487,-11.0,30.0,463.05,452.05,-11.0
177,37408000.0,0.011348,1.0622,11.062,-10.0,30.214,308.88,298.27,-10.614
178,13149000.0,0.017423,-1009.4,2.6106,-1012.0,32.074,138.5,99.039,-39.456
179,88578000.0,0.0012658,-972.23,38.266,-1010.5,31.6,370.5,320.22,-50.28
180,259600000.0,0.017143,-956.27,46.727,-1003.0,35.0,146.26,-60.945,-207.2
181,36734000.0,0.0046332,-994.58,13.92,-1008.5,34.079,228.5,169.22,-59.289
182,197080000.0,0.022388,-981.28,28.219,-1009.5,30.455,18.328,-38.718,-57.045
183,238300000.0,0.0060545,-918.37,87.13,-1005.5,30.969,830.15,756.24,-73.906
184,96628000.0,0.015159,13.605,23.605,-10.0,30.157,105.54,95.7,-9.8429
185,17045000.0,0.0081549,-1005.2,5.7526,-1011.0,30.656,356.37,284.97,-71.406
186,16002000.0,0.00091617,-3.0051,6.9949,-10.0,31.186,415.21,406.22,-8.9857
187,37298000.0,0.0066038,3.9272,13.427,-9.5,30.286,382.64,373.58,-9.0571
188,18015000.0,0.018792,-1001.6,3.3778,-1005.0,31.042,42.1,-8.6496,-50.75
189,280770000.0,0.0033727,-894.19,112.31,-1006.5,32.944,1816.9,1696.5,-120.39
190,149500000.0,0.00095238,56.352,65.352,-9.0,30.0,536.17,527.17,-9.0
191,161520000.0,0.0017921,-931.59,68.407,-1000.0,32.824,486.71,419.36,-67.353
192,74121000.0,0.016293,-989.93,15.565,-1005.5,32.733,233.7,159.23,-74.467
193,209500000.0,0.0045351,-931.19,80.806,-1012.0,31.5,141.12,-12.805,-153.93
194,191650000.0,0.018405,-972.17,38.33,-1010.5,30.185,11.209,-37.717,-48.926
195,,,,,,,,,
196,,,,,,,,,
197,251860000.0,0.0070796,-921.35,88.152,-1009.5,31.389,106.9,-14.821,-121.72
198,52549000.0,0.011618,-990.05,14.451,-1004.5,33.472,295.97,232.0,-63.972
199,361640000.0,0.003125,-862.03,146.47,-1008.5,32.0,965.55,856.45,-109.1
200,16270000.0,0.017582,-999.17,3.328,-1002.5,31.023,189.39,133.32,-56.068
201,371390000.0,0.012632,-907.5,95.501,-1003.0,33.929,1228.2,1077.4,-150.79
202,73144000.0,0.0082938,-987.31,24.686,-1012.0,30.143,426.76,380.58,-46.179
203,32208000.0,0.012352,-1.8898,9.1102,-11.0,30.071,359.75,348.77,-10.986
204,43347000.0,0.00087835,7.9489,18.949,-11.0,32.529,2788.0,2780.0,-7.9857
205,40205000.0,0.0028517,4.5415,16.542,-12.0,30.057,433.83,421.4,-12.429
206,57433000.0,0.012346,-991.92,15.076,-1007.0,33.75,402.73,311.98,-90.75
207,23681000.0,0.0054054,-3.1704,8.8296,-12.0,31.714,453.37,443.54,-9.8286
208,150100000.0,0.013423,-960.73,33.773,-994.5,37.25,94.074,-9.7762,-103.85
209,355540000.0,0.011163,-904.85,86.151,-991.0,41.346,28.252,-47.479,-75.731
210,,,,,,,,,
211,136440000.0,0.0022447,-952.49,57.013,-1009.5,31.821,338.76,257.94,-80.821
212,41905000.0,0.0012755,-993.87,18.132,-1012.0,30.154,6789.2,6739.7,-49.5
213,217370000.0,0.019394,-972.89,32.605,-1005.5,34.375,443.72,352.52,-91.208
214,126070000.0,0.0014599,-954.85,54.151,-1009.0,31.136,604.58,548.58,-56.0
215,253400000.0,0.018519,-963.39,45.611,-1009.0,32.4,38.506,-70.694,-109.2
216,13692000.0,0.014286,-6.4791,3.5209,-10.0,30.0,186.15,174.64,-11.514
217,,,,,,,,,
218,99063000.0,0.0065628,-976.34,35.663,-1012.0,30.475,589.85,529.27,-60.575
219,,,,,,,,,
220,99772000.0,0.0034483,-969.09,39.909,-1009.0,32.222,170.12,49.344,-120.78
221,109890000.0,0.0044444,-970.14,42.856,-1013.0,30.0,417.5,339.7,-77.8
222,25018000.0,0.0056786,-996.18,9.317,-1005.5,30.362,294.27,247.7,-46.569
223,233990000.0,0.0078431,-931.53,78.973,-1010.5,31.875,152.87,-108.01,-260.88
224,137220000.0,0.005102,-957.54,51.458,-1009.0,32.667,169.67,-6.995,-176.67
225,47574000.0,0.0024938,-990.74,19.762,-1010.5,30.846,191.06,102.75,-88.308
226,72529000.0,0.0044944,-980.52,27.975,-1008.5,31.786,302.95,151.02,-151.93
227,59727000.0,0.0088889,-993.29,19.71,-1013.0,30.0,166.27,122.84,-43.433
228,60234000.0,0.013447,-991.94,16.062,-1008.0,30.296,2118.5,2069.5,-48.926
229,11486000.0,0.017799,-8.6371,2.3629,-11.0,30.5,207.43,196.61,-10.814
230,,,,,,,,,
231,,,,,,,,,
232,76659000.0,0.022727,-999.64,9.8562,-1009.5,31.429,5.1601,-147.7,-152.86
233,13303000.0,0.018868,-1002.0,1.9955,-1004.0,35.333,44.797,-131.04,-175.83
234,57007000.0,0.018095,0.72718,11.727,-11.0,30.0,124.88,113.88,-11.0
235,37300000.0,0.00095238,7.3056,16.306,-9.0,30.0,853.19,843.42,-9.7714
236,12112000.0,0.0053524,-1003.5,4.4886,-1008.0,32.971,579.95,542.71,-37.235
237,48537000.0,0.00094518,11.218,21.218,-10.0,30.229,905.17,895.37,-9.8
238,29929000.0,0.0081633,-999.4,10.101,-1009.5,30.625,306.23,212.35,-93.875
239,18451000.0,0.018095,-6.2044,3.7956,-10.0,30.0,94.966,84.023,-10.943
240,19923000.0,0.015238,-5.1332,4.8668,-10.0,30.0,545.65,534.54,-11.114
241,595500000.0,0.010811,-830.85,178.65,-1009.5,30.833,1138.3,794.51,-343.83
242,51568000.0,0.0041667,-991.7,20.305,-1012.0,30.0,237.89,100.26,-137.62
243,,,,,,,,,
244,,,,,,,,,
245,17156000.0,0.0081633,-3.2651,5.7349,-9.0,31.5,662.15,654.59,-7.5571
246,63460000.0,0.011682,-988.64,18.358,-1007.0,30.571,363.21,279.85,-83.357
247,322840000.0,0.0099502,-909.65,96.853,-1006.5,33.5,58.645,-116.69,-175.33
248,384740000.0,0.013441,-908.01,100.99,-1009.0,31.0,45.08,-49.337,-94.417
249,28153000.0,0.00094518,0.30707,12.307,-12.0,30.229,649.06,638.03,-11.029
250,276430000.0,0.012214,-931.39,69.107,-1000.5,36.389,36.112,-80.833,-116.94
251,,,,,,,,,
252,19340000.0,0.0047695,-998.17,7.3288,-1005.5,33.105,403.35,342.61,-60.737
253,,,,,,,,,
254,15598000.0,0.0028571,-2.5826,6.4174,-9.0,30.0,2231.1,2221.4,-9.6857
255,,,,,,,,,
256,,,,,,,,,
257,54730000.0,0.02381,-2.9632,7.0368,-10.0,30.0,20.484,9.1124,-11.371
258,27507000.0,0.016183,-1005.8,6.189,-1012.0,30.896,302.5,250.1,-52.396
259,18677000.0,0.0028571,-3.3156,7.6844,-11.0,30.0,514.03,503.03,-11.0
260,194220000.0,0.0061728,-938.08,69.918,-1008.0,32.4,1116.5,905.89,-210.6
261,,,,,,,,,
262,435760000.0,0.010638,-882.27,130.73,-1013.0,31.333,105.69,-239.98,-345.67
263,41542000.0,0.0040541,-975.42,15.578,-991.0,41.111,702.3,646.3,-56.0
264,44445000.0,0.018052,0.14303,9.143,-9.0,30.071,99.452,90.495,-8.9571
265,14750000.0,0.00093765,-3.5522,6.4478,-10.0,30.471,323.69,313.64,-10.043
266,122060000.0,0.0069444,-962.8,41.196,-1004.0,36.0,139.64,-118.61,-258.25
267,85678000.0,0.0048544,-975.37,32.129,-1007.5,34.333,93.52,-83.813,-177.33
268,31661000.0,0.00094384,2.8403,13.84,-11.0,30.271,191.71,180.56,-11.157
269,67762000.0,0.022253,2.5835,9.5835,-7.0,30.814,92.385,83.713,-8.6714
270,216450000.0,0.01194,-947.56,58.442,-1006.0,33.5,143.34,-64.96,-208.3
271,,,,,,,,,
272,58494000.0,0.0010325,-987.56,25.445,-1013.0,32.283,1216.7,1174.5,-42.183
273,503620000.0,0.0037313,-805.25,194.25,-999.5,38.286,27.425,-121.43,-148.86
274,16072000.0,0.0028504,-4.3876,6.6124,-11.0,30.071,580.71,568.87,-11.843
275,31403000.0,0.012381,-3.1175,8.8825,-12.0,30.0,1279.9,1267.9,-12.0
276,105910000.0,0.0046512,-968.65,40.852,-1009.5,30.714,1433.0,1279.6,-153.43
277,118700000.0,0.0074074,-964.44,40.062,-1004.5,33.75,259.26,1.2648,-258.0
278,122430000.0,0.0069444,-960.68,41.32,-1002.0,36.0,140.97,-118.53,-259.5
279,80999000.0,0.00095238,24.408,35.408,-11.0,30.0,6345.1,6334.1,-11.029
280,97240000.0,0.011111,-981.83,29.172,-1011.0,30.0,1861.3,1739.3,-122.0
281,894590000.0,0.005102,-672.53,335.47,-1008.0,32.667,6430.5,6253.8,-176.67
282,472580000.0,0.010152,-866.73,141.77,-1008.5,32.833,112.65,-231.85,-344.5
283,166530000.0,0.0017857,-938.72,70.777,-1009.5,31.111,30.096,-35.737,-65.833
284,321000000.0,0.0093023,-905.32,103.18,-1008.5,30.714,2126.3,1972.6,-153.71
285,48052000.0,0.00095238,11.006,21.006,-10.0,30.0,3165.3,3155.3,-10.0
286,56065000.0,0.0085308,7.7417,18.742,-11.0,30.143,339.41,329.26,-10.143
287,361430000.0,0.0099502,-898.57,108.43,-1007.0,33.5,150.79,-193.37,-344.17
288,253640000.0,0.0096154,-926.91,76.092,-1003.0,34.667,790.16,614.33,-175.83
289,83682000.0,0.026667,-4.4686,7.5314,-12.0,30.0,0.89227,-10.593,-11.486
290,13940000.0,0.0046041,-1001.6,5.3769,-1007.0,31.029,300.49,262.46,-38.029
291,,,,,,,,,
292,46420000.0,0.022727,-1002.8,5.2223,-1008.0,33.0,66.657,-193.84,-260.5
293,80157000.0,0.011086,-986.95,24.047,-1011.0,30.067,384.34,306.67,-77.667
294,15035000.0,0.00093458,-3.4275,6.5725,-10.0,30.571,970.7,961.67,-9.0286
295,18884000.0,0.00095238,-2.745,8.255,-11.0,30.0,734.63,723.6,-11.029
296,34455000.0,0.011096,0.68891,10.189,-9.5,30.9,784.57,775.36,-9.2143
297,160400000.0,0.0042644,-935.35,60.15,-995.5,39.083,717.65,546.57,-171.08
298,,,,,,,,,
299,81473000.0,0.0028571,23.52,33.52,-10.0,30.0,7292.9,7282.9,-10.0
300,286690000.0,0.0064935,-908.79,103.21,-1012.0,30.8,326.03,114.23,-211.8
301,31405000.0,0.015066,2.6717,7.6717,-5.0,30.343,78.763,69.963,-8.8
302,110030000.0,0.0049383,-964.74,41.26,-1006.0,33.75,1234.8,1060.9,-173.92
303,79207000.0,0.00095238,23.625,34.625,-11.0,30.0,94.813,83.813,-11.0
304,22832000.0,0.0026786,-0.60623,9.3938,-10.0,32.0,1087.1,1078.8,-8.3143
305,125670000.0,0.015459,-972.22,28.275,-1000.5,32.344,89.316,17.66,-71.656
306,273810000.0,0.010638,-929.86,82.142,-1012.0,31.333,335.12,-9.545,-344.67
307,409680000.0,0.022222,-959.41,46.089,-1005.5,33.75,3.292,-255.71,-259.0
308,64804000.0,0.0067797,-971.17,20.83,-992.0,42.143,232.14,87.426,-144.71
309,38409000.0,0.017544,-1003.8,8.1871,-1012.0,30.0,139.08,77.294,-61.789
310,116490000.0,0.0022857,-959.83,48.675,-1008.5,31.25,3337.6,3256.8,-80.75
311,54492000.0,0.012821,-997.91,15.09,-1013.0,30.0,1538.8,1452.6,-86.231
312,39903000.0,0.015202,-2.2522,9.7478,-12.0,30.071,328.15,316.19,-11.957
313,14028000.0,0.021822,-7.8357,2.1643,-10.0,30.114,30.089,19.374,-10.714
314,127200000.0,0.0013106,-953.15,54.853,-1008.0,31.792,3022.5,2971.1,-51.375
315,635010000.0,0.029412,-1009.0,0.0,-1009.0,34.0,0.0,-344.67,-344.67
316,614450000.0,0.015789,-889.4,110.6,-1000.0,38.0,0.72433,-206.68,-207.4
317,,,,,,,,,
318,246280000.0,0.0098039,-935.12,73.885,-1009.0,34.0,292.92,-51.746,-344.67
319,110900000.0,0.01547,-985.38,26.616,-1012.0,30.167,54.107,-22.66,-76.767
320,,,,,,,,,
321,51868000.0,0.014205,-983.25,8.7526,-992.0,44.0,130.35,68.604,-61.75
322,406770000.0,0.010638,-890.97,122.03,-1013.0,31.333,151.03,-194.63,-345.67
323,167390000.0,0.0098039,-957.78,50.218,-1008.0,34.0,185.92,-157.75,-343.67
324,23693000.0,0.00095238,-0.64264,10.357,-11.0,30.0,2804.0,2793.0,-11.0
325,55263000.0,0.0028571,11.737,22.737,-11.0,30.0,5467.4,5456.4,-11.0
326,13914000.0,0.0085714,-5.3486,4.6514,-10.0,30.0,306.25,296.25,-10.0
327,9886600.0,0.00091743,-5.6781,4.3219,-10.0,31.143,862.97,854.68,-8.2857
328,34097000.0,0.0047214,3.1519,13.152,-10.0,30.257,284.92,276.01,-8.9143
329,27041000.0,0.015942,-1004.7,6.3487,-1011.0,30.0,84.461,29.983,-54.478
330,24820000.0,0.00095012,-0.14997,10.85,-11.0,30.071,208.22,197.23,-10.986
331,10937000.0,0.025714,-8.8751,1.1249,-10.0,30.0,9.7162,-0.28381,-10.0
332,35390000.0,0.014164,0.10037,9.1004,-9.0,30.257,94.826,85.883,-8.9429
333,104750000.0,0.0083333,-977.65,35.352,-1013.0,30.0,225.83,164.73,-61.1
334,421560000.0,0.0072993,-862.22,142.28,-1004.5,34.25,108.92,-149.33,-258.25
335,25746000.0,0.00095238,1.2547,11.255,-10.0,30.0,3949.8,3939.7,-10.029
336,8290500.0,0.0028571,-6.5891,3.4109,-10.0,30.0,2845.0,2835.0,-10.0
337,42905000.0,0.00095238,7.7557,18.756,-11.0,30.0,252.93,241.93,-11.0
338,132580000.0,0.0024876,-937.31,53.695,-991.0,40.2,634.83,534.53,-100.3
339,314770000.0,0.0075,-896.57,94.43,-991.0,44.444,58.075,-51.591,-109.67
340,34845000.0,0.0081466,-1000.2,11.76,-1012.0,30.688,409.19,356.92,-52.271
341,113440000.0,0.0020161,-949.6,47.404,-997.0,35.429,2192.6,2115.3,-77.357
342,59570000.0,0.017241,-983.34,7.6591,-991.0,41.429,88.731,-55.698,-144.43
343,318330000.0,0.0052632,-886.4,114.6,-1001.0,38.0,148.73,-58.668,-207.4
344,303690000.0,0.0069444,-902.51,102.49,-1005.0,36.0,93.956,-165.29,-259.25
345,252650000.0,0.022222,-978.55,18.949,-997.5,37.5,3.8987,-168.43,-172.33
346,95502000.0,0.00095238,30.748,41.748,-11.0,30.0,182.12,171.12,-11.0
347,21966000.0,0.00095238,-2.3978,9.6022,-12.0,30.0,414.69,402.69,-12.0
348,,,,,,,,,
349,324830000.0,0.020202,-961.78,48.724,-1010.5,33.0,43.637,-302.36,-346.0
350,309250000.0,0.0098039,-913.23,92.775,-1006.0,34.0,81.465,-263.2,-344.67
351,236740000.0,0.0062762,-912.52,77.48,-990.0,43.455,908.02,817.75,-90.273
352,89972000.0,0.0047059,24.704,34.704,-10.0,30.357,201.23,191.53,-9.7
353,26233000.0,0.0028571,0.79318,10.793,-10.0,30.0,164.94,154.91,-10.029
354,119140000.0,0.0030189,-952.99,48.508,-1001.5,31.548,4752.8,4695.1,-57.69
355,218770000.0,0.0020161,-904.76,90.243,-995.0,41.333,4371.9,4288.8,-83.083
356,9069300.0,0.021905,-7.6007,1.3993,-9.0,30.0,103.2,94.204,-9.0
357,55203000.0,0.00094877,11.132,24.132,-13.0,30.114,6483.5,6472.4,-11.057
358,31939000.0,0.019048,-3.8403,6.1597,-10.0,30.0,91.289,81.289,-10.0
359,59169000.0,0.02741,-1002.4,4.5645,-1007.0,30.229,10.494,-28.992,-39.486
360,13430000.0,0.011385,-7.0286,3.9714,-11.0,30.114,188.74,178.43,-10.314
361,41276000.0,0.0010417,-994.01,17.994,-1012.0,30.0,3250.8,3209.5,-41.312
362,46465000.0,0.0047326,6.9221,17.922,-11.0,30.186,190.4,179.27,-11.129
363,10200000.0,0.00094518,-6.5413,4.4587,-11.0,30.229,571.62,561.53,-10.086
364,82264000.0,0.00095238,24.961,35.961,-11.0,30.0,433.44,422.44,-11.0
365,416140000.0,0.010204,-883.16,124.84,-1008.0,32.667,117.61,-224.73,-342.33
366,437660000.0,0.0068493,-855.79,147.71,-1003.5,36.5,62.607,-195.64,-258.25
367,28830000.0,0.00099453,-982.97,12.526,-995.5,34.672,1713.0,1671.3,-41.776
368,29965000.0,0.0065646,-989.63,10.372,-1000.0,35.154,1013.6,930.92,-82.692
369,280350000.0,0.0020408,-877.31,114.69,-992.0,44.545,67.352,-22.012,-89.364
370,693760000.0,0.013793,-856.2,133.8,-990.0,41.429,29.279,-115.01,-144.29
371,236740000.0,0.0098039,-936.98,71.021,-1008.0,34.0,49.451,-294.22,-343.67
372,66915000.0,0.0028504,15.531,27.531,-12.0,30.071,2172.1,2160.8,-11.3
373,31079000.0,0.010476,-2.41,9.59,-12.0,30.0,4199.1,4187.6,-11.514
374,89716000.0,0.0044444,-973.4,34.605,-1008.0,32.143,323.98,170.98,-153.0
375,,,,,,,,,
376,689780000.0,0.011111,-805.07,206.93,-1012.0,30.0,38.765,-305.9,-344.67
377,413890000.0,0.0039216,-843.36,159.64,-1003.0,36.429,27.594,-120.26,-147.86
378,171970000.0,0.021053,-985.52,15.478,-1001.0,38.0,62.228,-145.17,-207.4
379,441220000.0,0.017544,-940.36,49.638,-990.0,42.75,155.49,30.491,-125.0
380,15094000.0,0.018735,-6.089,2.911,-9.0,30.5,722.41,713.85,-8.5571
381,109750000.0,0.0094723,-971.83,33.673,-1005.5,33.591,3756.6,3703.0,-53.591
382,12173000.0,0.0010246,-1001.2,5.3065,-1006.5,30.5,416.81,373.81,-43.0
383,79249000.0,0.017508,-993.78,16.717,-1010.5,30.344,5.6396,-37.485,-43.125
384,44357000.0,0.0028571,8.2496,18.25,-10.0,30.0,312.74,302.74,-10.0
385,16764000.0,0.0028463,-4.1029,6.8971,-11.0,30.114,292.53,281.5,-11.029
386,42705000.0,0.0028571,7.5701,17.57,-10.0,30.0,203.11,193.11,-10.0
387,27983000.0,0.007619,-1.2859,9.7141,-11.0,30.0,180.09,169.09,-11.0
388,82772000.0,0.00095238,27.183,36.183,-9.0,30.0,145.9,136.9,-9.0
389,43705000.0,0.00094742,8.1052,19.105,-11.0,30.157,338.55,328.11,-10.443
390,13292000.0,0.00095238,-5.1897,5.8103,-11.0,30.0,438.64,427.64,-11.0
391,23661000.0,0.0047506,-0.87343,9.1266,-10.0,30.071,487.84,477.89,-9.9571
392,35004000.0,0.00095238,4.3019,15.302,-11.0,30.0,2166.1,2155.1,-11.0
393,44477000.0,0.0085714,5.8681,14.868,-9.0,30.0,206.12,197.12,-9.0
394,72840000.0,0.007619,15.286,25.286,-10.0,30.0,5009.2,4999.2,-10.0
395,79112000.0,0.017054,5.2917,17.292,-12.0,30.157,15.161,3.1469,-12.014
396,15043000.0,0.0028571,-4.8111,6.1889,-11.0,30.0,3844.6,3833.6,-11.0
397,35311000.0,0.0010178,-981.12,15.377,-996.5,31.694,4096.2,4055.4,-40.823
398,28727000.0,0.00095238,2.5577,12.558,-10.0,30.0,5761.8,5751.8,-10.0
399,26923000.0,0.00095012,2.7692,11.769,-9.0,30.071,4287.1,4278.1,-8.9857
400,13160000.0,0.00095012,-6.2471,5.7529,-12.0,30.071,254.65,242.69,-11.957
401,29313000.0,0.0057007,1.4297,10.93,-9.5,30.071,702.25,690.35,-11.9
402,39420000.0,0.00095238,7.2321,17.232,-10.0,30.0,249.32,237.86,-11.457
403,27266000.0,0.022018,-1007.9,4.0899,-1012.0,30.278,16.973,-105.08,-122.06
404,49101000.0,0.017143,-0.26796,10.732,-11.0,30.0,86.583,75.583,-11.0
405,73501000.0,0.024457,-999.73,8.2688,-1008.0,30.667,1438.6,1346.3,-92.333
406,118740000.0,0.0069444,-963.93,40.073,-1004.0,36.0,128.26,-129.99,-258.25
407,821260000.0,0.027778,-1005.0,0.0,-1005.0,36.0,0.0,-343.67,-343.67
408,9759400.0,0.011765,-989.8,2.1959,-992.0,42.5,72.781,-53.469,-126.25
409,24050000.0,0.018095,-7.0525,4.9475,-12.0,30.0,1308.5,1297.3,-11.171
410,77251000.0,0.012381,10.851,21.851,-11.0,30.0,458.21,447.18,-11.029
411,23464000.0,0.00093197,1.7572,10.257,-8.5,30.657,371.77,362.26,-9.5143
412,63267000.0,0.0028571,15.03,26.03,-11.0,30.0,4890.7,4879.7,-11.0
413,15094000.0,0.0028463,-3.7899,6.2101,-10.0,30.114,430.98,421.84,-9.1429
414,288740000.0,0.0052632,-895.05,103.95,-999.0,38.0,87.405,-118.8,-206.2
415,106940000.0,0.010526,-972.13,28.875,-1001.0,38.0,173.98,-33.224,-207.2
416,86945000.0,0.0091324,-972.92,26.083,-999.0,36.5,270.81,180.14,-90.667
417,45714000.0,0.00095238,9.9838,19.984,-10.0,30.0,2256.4,2246.4,-10.0
418,22511000.0,0.00095012,0.84056,9.8406,-9.0,30.071,242.54,233.56,-8.9857
419,17615000.0,0.0082938,-1003.1,5.9449,-1009.0,30.143,184.07,137.5,-46.571
420,36191000.0,0.010456,-0.83255,11.167,-12.0,30.057,229.74,217.68,-12.057
421,1249900.0,0.011429,-10.63,0.36962,-11.0,30.0,140.93,129.45,-11.486
422,16448000.0,0.0095238,-4.713,5.287,-10.0,30.0,2404.2,2394.2,-10.0
423,45535000.0,0.0028463,7.7342,18.734,-11.0,30.114,225.88,214.85,-11.029
424,90492000.0,0.02,-989.37,11.635,-1001.0,35.714,14.204,-136.65,-150.86
425,216890000.0,0.0098039,-942.93,65.068,-1008.0,34.0,220.09,-125.24,-345.33
426,179620000.0,0.004,-923.64,67.359,-991.0,41.667,340.69,171.02,-169.67
427,313960000.0,0.0035461,-870.9,121.1,-992.0,40.286,363.68,216.82,-146.86
428,6680600.0,0.016334,-1.5398,1.4602,-3.0,31.486,253.3,244.33,-8.9714
429,412220000.0,0.0069444,-865.87,139.13,-1005.0,36.0,93.099,-166.4,-259.5
430,71510000.0,0.0012626,-977.06,30.942,-1008.0,30.462,171.19,122.65,-48.538
431,39009000.0,0.022504,-3.483,5.517,-9.0,30.471,4.6126,-4.4302,-9.0429
432,80825000.0,0.0038095,22.215,32.215,-10.0,30.0,46.804,36.804,-10.0
433,229160000.0,0.0071685,-930.16,77.343,-1007.5,34.875,495.86,237.23,-258.62
434,80518000.0,0.00095238,26.198,35.198,-9.0,30.0,9477.6,9468.6,-9.0
435,38408000.0,0.018095,-3.0988,7.9012,-11.0,30.0,1041.4,1030.4,-11.0
436,18192000.0,0.0028249,-3.5152,7.4848,-11.0,30.343,2233.0,2222.1,-10.943
437,44324000.0,0.018241,-999.72,8.7762,-1008.5,30.7,359.05,309.43,-49.62
438,28292000.0,0.0085714,-0.54232,9.4577,-10.0,30.0,2274.1,2264.1,-10.0
439,114200000.0,0.0010753,-940.51,49.487,-990.0,34.444,6298.1,6253.9,-44.111
440,283220000.0,0.0028986,-879.48,111.52,-991.0,43.125,439.03,314.28,-124.75
441,26070000.0,0.0028571,0.72588,10.726,-10.0,30.0,4578.9,4568.9,-10.0
442,61984000.0,0.00095238,16.096,27.096,-11.0,30.0,6921.7,6910.7,-11.0
443,94075000.0,0.0028369,-953.2,37.798,-991.0,37.768,3080.3,3040.6,-39.732
444,75596000.0,0.007619,14.243,26.243,-12.0,30.0,269.62,257.62,-12.0
445,78118000.0,0.0084746,-981.43,25.566,-1007.0,32.182,897.16,795.79,-101.36
446,143970000.0,0.00095238,52.936,62.936,-10.0,30.0,539.81,529.81,-10.0
447,75817000.0,0.013223,-981.44,17.059,-998.5,37.812,428.3,300.62,-127.69
448,100040000.0,0.0047371,28.586,38.586,-10.0,30.157,102.31,92.297,-10.014
449,438260000.0,0.0098039,-876.52,131.48,-1008.0,34.0,60.296,-283.37,-343.67
450,166580000.0,0.0029412,-926.87,66.632,-993.5,37.778,379.66,265.1,-114.56
451,17560000.0,0.00095238,-1.3236,7.6764,-9.0,30.0,3521.4,3512.4,-9.0
452,43503000.0,0.017143,-0.49155,9.5085,-10.0,30.0,1890.4,1880.4,-10.0
453,212670000.0,0.00625,-934.24,77.756,-1012.0,30.0,4143.1,4070.4,-72.625
454,140900000.0,0.0041667,-942.16,52.836,-995.0,40.0,63.174,-108.16,-171.33
455,1192600000.0,0.0098039,-650.21,357.79,-1008.0,34.0,33.931,-309.74,-343.67
456,,,,,,,,,
457,,,,,,,,,
458,173630000.0,0.0069444,-943.4,58.599,-1002.0,36.0,201.84,-56.409,-258.25
459,662800000.0,0.0052632,-762.39,238.61,-1001.0,38.0,73.308,-134.49,-207.8
460,84532000.0,0.0041667,-965.3,31.699,-997.0,40.0,306.33,134.83,-171.5
461,40724000.0,0.00095238,6.8024,17.802,-11.0,30.0,181.13,170.13,-11.0
462,208110000.0,0.0052632,-925.08,74.92,-1000.0,38.0,90.517,-116.68,-207.2
463,127560000.0,0.0098039,-970.73,38.268,-1009.0,34.0,261.36,-83.305,-344.67
464,33812000.0,0.014286,-2.3054,8.6946,-11.0,30.0,127.45,116.45,-11.0
465,67078000.0,0.01518,5.3861,16.386,-11.0,30.114,28.371,17.343,-11.029
466,26766000.0,0.00095238,2.7005,11.7,-9.0,30.0,1905.8,1896.8,-9.0
467,55275000.0,0.016129,-999.56,12.437,-1012.0,31.0,146.25,-115.0,-261.25
468,47910000.0,0.014286,3.3197,12.32,-9.0,30.0,86.595,77.595,-9.0
469,25134000.0,0.0090674,-988.29,7.7117,-996.0,35.091,353.46,300.87,-52.591
470,52177000.0,0.00095238,11.809,22.809,-11.0,30.0,37.457,26.457,-11.0
471,178490000.0,0.012381,39.486,50.486,-11.0,30.0,21.42,10.42,-11.0
472,44850000.0,0.028571,-8.1168,2.8832,-11.0,30.0,0.0,-11.0,-11.0
473,26115000.0,0.017595,-1001.5,5.4562,-1007.0,30.446,28.642,-17.697,-46.339
474,9986900.0,0.0085511,-6.6615,3.3385,-10.0,30.071,187.37,177.39,-9.9857
475,41591000.0,0.018975,-2.9789,8.0211,-11.0,30.114,163.73,152.7,-11.029
476,36804000.0,0.015238,-2.0093,8.9907,-11.0,30.0,124.29,113.29,-11.0
477,47809000.0,0.0030303,-990.44,19.558,-1010.0,30.0,335.54,234.63,-100.91
478,275110000.0,0.0044248,-897.33,103.17,-1000.5,37.667,102.17,-72.164,-174.33
479,136920000.0,0.028571,-1007.0,0.0,-1007.0,35.0,0.0,-344.33,-344.33
480,37366000.0,0.0060914,-976.77,12.229,-989.0,44.773,446.2,357.89,-88.318
481,89268000.0,0.014286,12.955,22.955,-10.0,30.0,38.966,28.966,-10.0
482,58360000.0,0.0028571,14.011,24.011,-10.0,30.0,194.29,184.29,-10.0
483,53379000.0,0.014151,-994.27,13.726,-1008.0,30.286,598.67,550.63,-48.036
484,86087000.0,0.00095012,27.632,37.632,-10.0,30.071,79.667,69.71,-9.9571
485,44101000.0,0.016076,3.7063,10.206,-6.5,30.214,1316.4,1307.6,-8.8143
486,195360000.0,0.0063492,-936.67,70.329,-1007.0,31.5,118.32,-91.578,-209.9
487,365370000.0,0.020833,-962.9,41.104,-1004.0,36.0,7.2565,-250.99,-258.25
488,164240000.0,0.02,-982.22,14.782,-997.0,40.0,135.48,-70.318,-205.8
489,22003000.0,0.0028571,-2.9473,9.0527,-12.0,30.0,452.73,440.73,-12.0
490,20089000.0,0.00095238,-2.2183,8.7817,-11.0,30.0,250.89,239.89,-11.0
491,18941000.0,0.00095238,-2.7199,8.2801,-11.0,30.0,2405.4,2394.4,-11.0
492,286570000.0,0.0029586,-890.77,117.23,-1008.0,30.727,4350.3,4247.6,-102.64
493,187160000.0,0.0069444,-940.83,63.167,-1004.0,36.0,285.98,27.728,-258.25
494,479040000.0,0.0065789,-840.32,161.68,-1002.0,38.0,79.695,-178.05,-257.75
495,,,,,,,,,
496,1353900000.0,0.019608,-805.91,203.09,-1009.0,34.0,11.752,-332.91,-344.67
497,53356000.0,0.012206,-983.99,13.506,-997.5,35.844,344.77,275.99,-68.781
498,472730000.0,0.028571,-1006.0,0.0,-1006.0,35.0,0.0,-344.67,-344.67
499,13439000.0,0.00095238,-3.1253,5.8747,-9.0,30.0,472.75,463.75,-9.0
500,,,,,,,,,
501,20808000.0,0.021905,-7.7896,3.2104,-11.0,30.0,39.649,28.649,-11.0
502,91988000.0,0.015152,-983.3,20.697,-1004.0,33.0,216.47,105.27,-111.2
503,390520000.0,0.030612,-1008.0,1.9511e-14,-1008.0,32.667,0.0,-343.0,-343.0
504,81052000.0,0.0054054,-979.11,30.395,-1009.5,30.833,300.9,122.73,-178.17
505,32452000.0,0.0047619,2.5173,12.517,-10.0,30.0,192.6,182.6,-10.0
506,47968000.0,0.00095238,9.9688,20.969,-11.0,30.0,449.05,438.05,-11.0
507,,,,,,,,,
508,46003000.0,0.0091533,4.7867,14.787,-10.0,31.214,76.836,67.536,-9.3
509,40154000.0,0.00094877,5.5529,17.553,-12.0,30.114,7312.6,7300.6,-12.029
510,17732000.0,0.020952,-8.0363,2.9637,-11.0,30.0,20.474,9.4737,-11.0
511,9314200.0,0.0066667,-5.6469,3.3531,-9.0,30.0,257.47,248.47,-9.0
512,30040000.0,0.0085714,0.04192,10.042,-10.0,30.0,170.56,160.56,-10.0
513,382210000.0,0.0072993,-876.0,129.0,-1005.0,34.25,30.883,-227.87,-258.75
514,65851000.0,0.013333,6.7798,17.78,-11.0,30.0,39.807,28.807,-11.0
515,137420000.0,0.021333,-989.89,20.613,-1010.5,31.25,5.0158,-172.9,-177.92
516,54489000.0,0.00095238,14.82,23.82,-9.0,30.0,5270.3,5261.3,-9.0
517,59141000.0,0.010436,8.2493,18.249,-10.0,30.114,446.6,436.6,-10.0
518,40287000.0,0.010476,2.4313,12.431,-10.0,30.0,290.14,280.14,-10.0
519,74750000.0,0.01406,-983.69,17.808,-1001.5,33.471,351.37,282.84,-68.529
520,563120000.0,0.0071685,-813.95,190.05,-1004.0,34.875,146.95,-111.93,-258.88
521,48049000.0,0.022099,-1003.3,6.1777,-1009.5,32.321,31.765,-48.914,-80.679
522,44809000.0,0.00088106,10.088,19.588,-9.5,32.429,117.6,109.66,-7.9429
523,22608000.0,0.00090334,5.3829,9.8829,-4.5,31.629,221.14,212.54,-8.6
524,94981000.0,0.001497,-956.51,40.492,-997.0,35.158,235.5,177.18,-58.316
525,28132000.0,0.0047506,-1.1493,10.851,-12.0,30.071,275.96,264.0,-11.957
526,222850000.0,0.00199,-913.49,94.013,-1007.5,31.406,107.33,36.675,-70.656
527,43469000.0,0.007619,4.0899,15.09,-11.0,30.0,290.8,279.8,-11.0
528,78843000.0,0.012381,11.301,22.301,-11.0,30.0,99.812,88.812,-11.0
529,38791000.0,0.0066414,4.9647,13.965,-9.0,30.114,309.97,300.95,-9.0286
530,33941000.0,0.00095238,5.837,14.837,-9.0,30.0,361.57,352.57,-9.0
531,20532000.0,0.00091116,-2.0246,8.9754,-11.0,31.357,559.3,549.6,-9.7
532,52735000.0,0.00095238,12.053,23.053,-11.0,30.0,321.76,310.76,-11.0
533,57034000.0,0.00094877,13.932,24.932,-11.0,30.114,5297.2,5286.1,-11.029
534,25642000.0,0.014184,-5.4063,6.5937,-12.0,30.214,95.817,83.975,-11.843
535,19567000.0,0.00095238,-0.44624,8.5538,-9.0,30.0,441.28,432.28,-9.0
536,31876000.0,0.0028571,4.1147,13.115,-9.0,30.0,206.09,197.09,-9.0
537,101430000.0,0.0020513,-968.21,42.792,-1011.0,30.469,333.69,259.54,-74.156
538,39915000.0,0.018095,-0.78894,8.2111,-9.0,30.0,62.488,53.488,-9.0
539,134830000.0,0.008,-961.99,45.506,-1007.5,31.25,130.32,-130.18,-260.5
540,124620000.0,0.0057143,-957.14,44.862,-1002.0,35.0,230.96,24.763,-206.2
541,58752000.0,0.00096386,-982.36,25.637,-1008.0,31.439,2008.1,1967.7,-40.318
542,17758000.0,0.0012555,-1001.8,7.6838,-1009.5,30.635,404.49,354.13,-50.365
543,41954000.0,0.00095238,8.34,18.34,-10.0,30.0,11351.0,11341.0,-10.0
544,207600000.0,0.0023641,-924.27,86.235,-1010.5,32.538,69.213,-17.325,-86.538
545,660580000.0,0.0088889,-797.17,212.33,-1009.5,32.143,5095.8,4943.1,-152.71
546,21772000.0,0.014286,-5.4015,5.5985,-11.0,30.0,178.01,167.01,-11.0
547,117410000.0,0.0047619,34.286,45.286,-11.0,30.0,51.334,40.334,-11.0
548,146790000.0,0.013333,27.633,39.633,-12.0,30.0,40.048,28.048,-12.0
549,37607000.0,0.02,-3.2307,6.7693,-10.0,30.0,654.79,644.79,-10.0
550,137020000.0,0.0063559,-960.55,48.448,-1009.0,33.714,1574.8,1495.6,-79.214
551,10253000.0,0.0047619,-5.0451,3.9549,-9.0,30.0,3634.4,3625.4,-9.0
552,16712000.0,0.0085714,-4.4134,5.5866,-10.0,30.0,236.49,226.49,-10.0
553,15354000.0,0.0095238,-4.0649,4.9351,-9.0,30.0,1299.3,1290.3,-9.0
554,14290000.0,0.00095238,-3.7531,6.2469,-10.0,30.0,289.46,279.15,-10.314
555,27752000.0,0.00095238,2.1316,12.132,-10.0,30.0,561.9,551.9,-10.0
556,43186000.0,0.0061983,-997.21,15.79,-1013.0,30.25,185.87,111.31,-74.562
557,323240000.0,0.013333,-923.73,87.275,-1011.0,30.0,87.308,-124.49,-211.8
558,37016000.0,0.014286,0.042536,9.0425,-9.0,32.0,221.79,213.33,-8.4571
559,26738000.0,0.00095238,-0.31172,11.688,-12.0,30.0,261.04,249.04,-12.0
560,15386000.0,0.0047619,-3.0655,5.9345,-9.0,30.0,108.26,99.257,-9.0
561,66847000.0,0.0038095,17.643,26.643,-9.0,30.0,42.46,33.46,-9.0
562,44804000.0,0.00095238,9.5858,19.586,-10.0,30.0,275.86,265.83,-10.029
563,10347000.0,0.00095238,-4.4771,4.5229,-9.0,30.0,451.39,442.39,-9.0
564,56312000.0,0.00094162,13.616,24.616,-11.0,30.343,263.2,252.03,-11.171
565,1363100000.0,0.010471,-601.56,408.94,-1010.5,31.833,30.802,-313.7,-344.5
566,30562000.0,0.00095238,4.3601,13.36,-9.0,30.0,292.3,283.3,-9.0
567,86481000.0,0.0047619,21.357,33.357,-12.0,30.0,77.397,65.397,-12.0
568,24051000.0,0.00095238,-0.48614,10.514,-11.0,30.0,365.47,354.47,-11.0
569,85634000.0,0.013889,-984.73,19.268,-1004.0,36.0,231.18,-28.067,-259.25
570,203050000.0,0.0078431,-943.23,65.266,-1008.5,36.429,145.97,-4.4625,-150.43
571,,,,,,,,,
572,261080000.0,0.019608,-969.84,39.162,-1009.0,34.0,9.2073,-335.46,-344.67
573,50919000.0,0.00095238,12.259,22.259,-10.0,30.0,120.52,110.52,-10.0
574,91906000.0,0.019048,8.7247,17.725,-9.0,30.0,251.47,242.47,-9.0
575,62321000.0,0.00095238,16.243,27.243,-11.0,30.0,367.82,356.82,-11.0
576,17635000.0,0.00095238,-1.2909,7.7091,-9.0,30.0,346.99,337.99,-9.0
577,31491000.0,0.00095238,2.766,13.766,-11.0,30.0,337.62,326.62,-11.0
578,,,,,,,,,
579,,,,,,,,,
580,17973000.0,0.01619,-6.8405,4.1595,-11.0,30.0,46.676,35.676,-11.0
581,25110000.0,0.00095238,-0.023301,10.977,-11.0,30.0,4106.3,4095.3,-11.0
582,11976000.0,0.006654,-4.6888,4.3112,-9.0,30.057,365.54,356.46,-9.0857
583,31538000.0,0.017143,-6.1066,6.8934,-13.0,30.0,196.71,184.25,-12.457
584,15522000.0,0.0028571,-4.6136,6.3864,-11.0,30.0,598.57,587.57,-11.0
585,79889000.0,0.0088235,-968.53,22.469,-991.0,42.5,23.761,-102.86,-126.62
586,15595000.0,0.028571,-9.9974,1.0026,-11.0,30.0,3.8817,-7.1183,-11.0
587,85613000.0,0.0047619,23.022,33.022,-10.0,30.0,312.34,302.34,-10.0
588,53098000.0,0.00095238,13.212,23.212,-10.0,30.0,89.707,79.222,-10.486
589,39559000.0,0.00091954,8.2927,17.293,-9.0,31.071,323.01,313.88,-9.1286
590,58618000.0,0.01619,3.5659,13.566,-10.0,30.0,75.015,65.015,-10.0
591,71632000.0,0.0066667,14.787,25.787,-11.0,30.0,538.6,527.6,-11.0
592,28785000.0,0.015238,-3.9683,7.0317,-11.0,30.0,76.819,65.819,-11.0
593,72469000.0,0.0038095,17.884,28.884,-11.0,30.0,405.99,394.96,-11.029
594,49585000.0,0.014286,0.7504,12.75,-12.0,30.0,107.2,95.69,-11.514
595,116030000.0,0.0098039,-973.19,34.809,-1008.0,34.0,169.25,-174.42,-343.67
596,134360000.0,0.0059701,-957.63,48.369,-1006.0,33.5,430.09,222.59,-207.5
597,,,,,,,,,
598,11634000.0,0.007619,-8.9612,4.0388,-13.0,30.0,2523.1,2511.6,-11.543
