,averag,DR_epi,ho_den,Reward,R_tele,R_tran,score_
0,31.0,36891000.0,0.0064516,-1002.5,1.9801,-1004.5,-3.845
1,37.031,315500000.0,0.0016878,-1000.2,5.7893,-1006.0,-3.4075
2,31.542,226560000.0,0.002642,-997.77,5.2257,-1003.0,-3.6215
3,0.0,0.0,0.0,4.6672,3.1672,1.5,-2.8295
4,34.179,190070000.0,0.0020899,110.1,1113.6,-1003.5,-3.5215
5,30.167,251740000.0,0.0022099,-1004.4,2.6052,-1007.0,-3.5475
6,33.667,196110000.0,0.019802,-999.73,1.7704,-1001.5,-3.899
7,35.429,13767000.0,0.012097,-995.51,1.4899,-997.0,-3.752
8,34.654,369390000.0,0.0022198,987.26,1988.3,-1001.0,-3.5495
9,31.588,54226000.0,0.011173,-986.74,10.255,-997.0,-3.463
10,37.562,12141000.0,0.0033278,-959.11,37.889,-997.0,-3.6995
11,31.333,574510000.0,0.010638,-1002.3,4.6514,-1007.0,-3.906
12,31.333,19943000.0,0.0053191,-988.02,19.978,-1008.0,-3.812
13,0.0,0.0,0.0,744.23,749.23,-5.0,-2.94
14,30.85,74521000.0,0.0032415,-975.3,29.702,-1005.0,-3.6915
15,33.857,337660000.0,0.029536,-997.0,0.0,-997.0,-3.763
16,35.111,12952000.0,0.012658,-990.89,6.1131,-997.0,-3.684
17,33.214,115170000.0,0.012903,-995.38,6.6211,-1002.0,-3.7675
18,31.538,124130000.0,0.0073171,-999.37,4.6313,-1004.0,-3.59
19,33.429,22027000.0,0.021368,-983.02,18.977,-1002.0,-3.766
20,34.979,13508000.0,0.0011912,-966.96,29.036,-996.0,-3.1605
21,,,,,,,
22,30.4,91903000.0,0.0032895,-979.28,27.718,-1007.0,-3.696
23,35.75,38797000.0,0.009324,-860.82,139.18,-1000.0,-3.571
24,32.0,1118900000.0,0.03125,-1007.0,0.0,-1007.0,-3.904
25,30.658,140780000.0,0.0085837,-1001.7,2.8473,-1004.5,-3.4175
26,,,,,,,
27,35.091,292010000.0,0.0025907,-998.77,3.7286,-1002.5,-3.614
28,31.75,198810000.0,0.0052493,-561.01,440.99,-1002.0,-3.8095
29,33.0,479370000.0,0.0060606,-149.44,853.06,-1002.5,-3.835
30,33.333,447700000.0,0.005,0.29271,1003.3,-1003.0,-3.8
31,31.853,74430000.0,0.0018467,-970.08,32.921,-1003.0,-3.4585
32,31.462,36277000.0,0.002445,-1002.9,5.1394,-1008.0,-3.591
33,37.5,208720000.0,0.0078431,-988.92,8.0829,-997.0,-3.3625
34,34.667,289330000.0,0.0096154,-947.28,51.721,-999.0,-3.896
35,34.0,484610000.0,0.019608,-996.4,1.6029,-998.0,-3.796
36,32.4,187080000.0,0.0061728,-962.24,40.762,-1003.0,-3.838
37,30.833,49817000.0,0.0072072,-850.0,154.5,-1004.5,-3.7225
38,,,,,,,
39,30.963,176810000.0,0.0035885,-997.91,2.5921,-1000.5,-3.164
40,34.6,20134000.0,0.0028902,-985.88,13.621,-999.5,-3.654
41,33.75,103810000.0,0.0049383,-978.3,24.7,-1003.0,-3.7975
42,31.731,152440000.0,0.0012121,-992.22,3.78,-996.0,-3.175
43,34.4,8203900.0,0.002907,-988.44,9.5556,-998.0,-3.656
44,37.273,250530000.0,0.0097561,-996.43,0.57064,-997.0,-3.59
45,37.75,745960000.0,0.019868,-444.68,551.32,-996.0,-3.698
46,33.2,98739000.0,0.012048,-986.46,16.535,-1003.0,-3.834
47,30.0,903020000.0,0.011111,-999.99,5.0089,-1005.0,-3.91
48,,,,,,,
49,34.304,142670000.0,0.0012674,-995.86,1.1402,-997.0,-3.211
50,34.857,513190000.0,0.0040984,-988.72,8.2819,-997.0,-3.756
51,35.818,31511000.0,0.0088832,-791.46,208.04,-999.5,-3.212
52,36.643,114900000.0,0.00077973,758.93,1758.9,-1000.0,-2.7175
53,32.071,211080000.0,0.0022272,-994.56,9.9435,-1004.5,-3.551
54,32.05,87754000.0,0.018721,-992.66,8.8425,-1001.5,-3.6795
55,35.786,444780000.0,0.003992,-985.81,10.191,-996.0,-3.7495
56,32.0,530490000.0,0.01875,-997.77,4.2265,-1002.0,-3.84
57,36.5,144340000.0,0.010537,-991.21,5.7911,-997.0,-3.5255
58,35.333,37495000.0,0.004717,-915.96,84.045,-1000.0,-3.788
59,35.912,208250000.0,0.006552,179.58,1175.6,-996.0,-3.3895
60,31.875,680290000.0,0.015686,103.47,1104.5,-1001.0,-3.745
61,31.556,122900000.0,0.017606,-977.56,26.942,-1004.5,-3.716
62,31.292,85343000.0,0.0013316,-1003.2,4.8384,-1008.0,-3.249
63,34.5,10791000.0,0.013175,-982.02,17.977,-1000.0,-3.6205
64,,,,,,,
65,33.0,193030000.0,0.010101,-996.76,7.7383,-1004.5,-3.901
66,32.767,113570000.0,0.016277,-984.92,11.082,-996.0,-3.5085
67,32.0,399320000.0,0.003125,610.94,1614.4,-1003.5,-3.68
68,31.8,208400000.0,0.0062893,-992.56,12.94,-1005.5,-3.841
69,31.6,327110000.0,0.012658,-582.76,419.24,-1002.0,-3.842
70,33.214,470330000.0,0.0043011,-997.97,3.5291,-1001.5,-3.7675
71,32.062,5137800.0,0.011696,-1002.4,2.0652,-1004.5,-3.7435
72,32.188,60506000.0,0.0019417,-993.22,10.779,-1004.0,-3.485
73,36.0,121730000.0,0.0039683,-674.42,322.58,-997.0,-3.748
74,32.45,231940000.0,0.0030817,-989.24,11.757,-1001.0,-3.6755
75,33.667,999400000.0,0.0049505,1210.3,2210.8,-1000.5,-3.798
76,32.375,100820000.0,0.007722,-977.96,28.542,-1006.5,-3.8705
77,34.9,528760000.0,0.017192,-993.39,2.611,-996.0,-3.8255
78,,,,,,,
79,30.694,42769000.0,0.00181,-676.45,326.05,-1002.5,-3.4475
80,33.25,283830000.0,0.010025,-991.64,6.3584,-998.0,-3.8005
81,31.231,65288000.0,0.0024631,-971.81,34.691,-1006.5,-3.594
82,31.929,355910000.0,0.0044743,-993.14,7.8597,-1001.0,-3.7765
83,30.0,19237000.0,0.0012821,-985.52,20.477,-1006.0,-3.22
84,31.143,41154000.0,0.0045872,-996.57,10.431,-1007.0,-3.782
85,34.273,169450000.0,0.0066313,-996.25,5.2545,-1001.5,-3.246
86,34.2,92880000.0,0.005848,-934.12,67.882,-1002.0,-3.829
87,35.625,204140000.0,0.017544,-988.5,7.5033,-996.0,-3.715
88,30.808,256000000.0,0.0024969,-991.53,9.9724,-1001.5,-3.5995
89,30.625,97104000.0,0.0071429,69.197,1073.7,-1004.5,-3.02
90,33.944,260610000.0,0.0032733,-985.05,10.954,-996.0,-3.6945
91,34.286,164330000.0,0.0041667,-992.84,12.657,-1005.5,-3.76
92,31.524,109340000.0,0.0015106,-25.073,973.93,-999.0,-3.338
93,31.804,15844000.0,0.0054682,-973.67,21.329,-995.0,-3.2685
94,,,,,,,
95,0.0,0.0,0.0,6.1699,10.67,-4.5,-2.9475
96,32.917,863770000.0,0.0050633,917.87,1918.9,-1001.0,-3.8025
97,30.312,446440000.0,0.0041237,-1001.6,2.9427,-1004.5,-3.7575
98,35.821,128920000.0,0.003988,-975.67,22.831,-998.5,-3.4985
99,0.0,0.0,0.0,1473.0,1480.0,-7.0,-2.946
100,37.615,89292000.0,0.002045,-990.13,12.873,-1003.0,-3.511
101,31.333,195690000.0,0.021277,-979.73,27.272,-1007.0,-3.906
102,36.0,1785500000.0,0.0092593,-993.83,7.1749,-1001.0,-3.892
103,35.0,37107000.0,0.017143,-1001.0,1.0417,-1002.0,-3.825
104,38.4,131500000.0,0.0017361,-982.31,13.689,-996.0,-3.424
105,33.25,524210000.0,0.0075188,-302.69,698.81,-1001.5,-3.867
106,32.0,418230000.0,0.0078125,-440.39,564.61,-1005.0,-3.872
107,31.773,105790000.0,0.0028612,-983.23,14.772,-998.0,-3.6505
108,30.761,15103000.0,0.0014134,-990.99,17.012,-1008.0,-3.2925
109,36.413,7057500.0,0.0059701,-975.75,20.253,-996.0,-3.1625
110,30.357,336270000.0,0.014118,-998.92,6.579,-1005.5,-3.7875
111,33.0,661560000.0,0.0075758,-117.92,884.08,-1002.0,-3.868
112,32.2,70015000.0,0.0020704,-982.32,23.176,-1005.5,-3.517
113,33.643,692610000.0,0.0042463,-998.48,7.5207,-1006.0,-3.7645
114,36.778,319180000.0,0.0030211,-991.67,5.3275,-997.0,-3.669
115,32.917,177030000.0,0.0050633,-608.72,393.28,-1002.0,-3.8025
116,35.5,170110000.0,0.015649,-739.32,257.68,-997.0,-3.6805
117,32.864,42664000.0,0.0055325,-998.05,1.4531,-999.5,-3.6385
118,30.42,233310000.0,0.0092045,-998.67,1.8319,-1000.5,-3.2395
119,35.5,124030000.0,0.014085,-974.67,22.333,-997.0,-3.858
120,30.119,133230000.0,0.001581,-1001.9,3.0521,-1005.0,-3.3675
121,,,,,,,
122,32.643,404480000.0,0.0021882,1338.3,2336.3,-998.0,-3.543
123,33.667,85810000.0,0.0059406,-552.98,445.02,-998.0,-3.495
124,31.25,258320000.0,0.0053333,-426.93,576.57,-1003.5,-3.8125
125,32.5,332230000.0,0.0034188,182.51,1184.5,-1002.0,-3.7075
126,35.583,16682000.0,0.0046838,-975.08,21.919,-997.0,-3.7865
127,0.0,0.0,0.0,638.99,644.99,-6.0,-2.946
128,33.038,214440000.0,0.0023283,-1003.2,1.3263,-1004.5,-3.5705
129,33.0,509360000.0,0.010101,-1000.5,5.0111,-1005.5,-3.901
130,31.571,139440000.0,0.0045249,-997.65,9.354,-1007.0,-3.779
131,34.0,15465000.0,0.0098039,-1000.8,3.182,-1004.0,-3.898
132,32.667,1318200000.0,0.010204,-993.31,9.6879,-1003.0,-3.902
133,0.0,0.0,0.0,-2.3584,2.1416,-4.5,-2.9475
134,32.625,388710000.0,0.0076628,-993.2,8.2985,-1001.5,-3.8695
135,32.569,116360000.0,0.0074113,71.349,1068.3,-997.0,-3.0555
136,35.333,615320000.0,0.004717,-988.75,10.253,-999.0,-3.788
137,31.25,410020000.0,0.0032,-996.73,7.7698,-1004.5,-3.6875
138,34.4,14400000.0,0.017442,-977.15,21.851,-999.0,-3.656
139,33.0,651570000.0,0.0075758,-132.26,870.74,-1003.0,-3.868
140,36.286,28263000.0,0.0019685,-831.97,164.03,-996.0,-3.492
141,0.0,0.0,0.0,761.45,769.45,-8.0,-2.945
142,34.444,489270000.0,0.0032258,-983.55,12.452,-996.0,-3.69
143,35.2,191290000.0,0.0028409,-234.03,762.97,-997.0,-3.648
144,32.0,95194000.0,0.0052083,-971.08,31.923,-1003.0,-3.808
145,31.375,65848000.0,0.0015936,-442.56,561.94,-1004.5,-3.3725
146,34.0,383920000.0,0.019608,-1003.0,1.023,-1004.0,-3.898
147,34.55,101960000.0,0.0014472,-130.68,867.82,-998.5,-3.309
148,38.385,33590000.0,0.002004,-990.65,5.3493,-996.0,-3.501
149,35.154,72900000.0,0.0021882,-982.92,22.076,-1005.0,-3.543
150,34.0,16235000.0,0.0098039,-992.88,10.115,-1003.0,-3.898
151,30.444,51392000.0,0.0012165,-967.56,34.44,-1002.0,-3.178
152,35.647,121700000.0,0.0016502,-996.45,0.54723,-997.0,-3.394
153,31.297,125320000.0,0.0009985,-1006.1,0.86846,-1007.0,-2.9985
154,30.714,27827000.0,0.0093023,-1002.5,0.98925,-1003.5,-3.785
155,32.286,263900000.0,0.0044248,-992.65,10.345,-1003.0,-3.774
156,33.0,159120000.0,0.022727,-999.74,3.2645,-1003.0,-3.868
157,30.762,30811000.0,0.001548,-727.16,275.84,-1003.0,-3.354
158,33.357,442610000.0,0.0021413,1571.0,2570.5,-999.5,-3.533
159,0.0,0.0,0.0,0.58357,3.0836,-2.5,-2.9475
160,31.028,94709000.0,0.0017905,-984.24,16.263,-1000.5,-3.4415
161,34.875,649570000.0,0.0071685,-986.16,11.844,-998.0,-3.8605
162,31.45,226040000.0,0.009539,-1000.3,7.7469,-1008.0,-3.6855
163,31.528,47025000.0,0.0017621,-895.28,111.22,-1006.5,-3.4325
164,32.579,144630000.0,0.0016155,-995.76,6.2376,-1002.0,-3.381
165,32.212,25160000.0,0.00094073,-941.57,64.429,-1006.0,-2.937
166,36.062,10336000.0,0.0034662,-997.51,5.4893,-1003.0,-3.7115
167,32.438,179290000.0,0.0038536,-1000.1,3.9162,-1004.0,-3.7405
168,32.0,171190000.0,0.0078125,-775.7,226.3,-1002.0,-3.872
169,31.875,172130000.0,0.0078431,-773.65,230.85,-1004.5,-3.8725
170,32.667,338340000.0,0.0034014,-999.34,2.6638,-1002.0,-3.706
171,32.0,343030000.0,0.009375,-998.74,5.7566,-1004.5,-3.68
172,30.0,37949000.0,0.0047619,-998.46,6.5374,-1005.0,-3.79
173,31.205,230460000.0,0.01748,-1006.9,0.062222,-1007.0,-3.3135
174,35.833,108230000.0,0.005814,-99.977,897.02,-997.0,-3.14
175,38.8,131810000.0,0.0025773,-464.01,531.99,-996.0,-3.612
176,30.0,488490000.0,0.0037037,-998.13,6.8662,-1005.0,-3.73
177,34.4,100510000.0,0.005814,-821.34,178.16,-999.5,-3.828
178,35.714,13934000.0,0.008,-966.15,29.847,-996.0,-3.75
179,36.6,441620000.0,0.013661,-94.658,901.34,-996.0,-3.634
180,,,,,,,
181,31.0,449690000.0,0.0040323,411.52,1416.5,-1005.0,-3.752
182,35.357,284130000.0,0.020202,-1001.2,4.7934,-1006.0,-3.7525
183,30.952,18256000.0,0.0015385,-839.5,163.5,-1003.0,-3.35
184,33.125,538210000.0,0.0075472,-289.13,712.87,-1002.0,-3.8675
185,33.556,544160000.0,0.013245,-1001.8,0.21209,-1002.0,-3.698
186,35.6,528190000.0,0.005618,-997.53,0.47387,-998.0,-3.822
187,31.303,22619000.0,0.017425,-865.1,136.9,-1002.0,-2.967
188,30.429,54466000.0,0.021127,-990.73,15.266,-1006.0,-3.148
189,31.875,669690000.0,0.0078431,-105.33,898.17,-1003.5,-3.8725
190,33.5,543940000.0,0.029851,-1000.5,0.0,-1000.5,-3.8995
191,32.167,375430000.0,0.0051813,-1002.9,2.5857,-1005.5,-3.807
192,36.765,66352000.0,0.0064,-619.35,377.65,-997.0,-3.375
193,30.312,124190000.0,0.014433,-1001.4,6.5822,-1008.0,-3.515
194,34.81,54677000.0,0.005472,-979.97,17.03,-997.0,-3.269
195,34.729,52649000.0,0.015597,-782.13,213.87,-996.0,-3.1665
196,32.667,6147800.0,0.022959,-1005.6,0.41341,-1006.0,-3.608
197,30.414,10999000.0,0.0011338,-863.99,138.01,-1002.0,-3.118
198,30.891,160950000.0,0.0030349,1084.5,2089.0,-1004.5,-3.0115
199,34.583,150530000.0,0.0048193,-664.55,334.95,-999.5,-3.7925
200,37.0,107850000.0,0.016892,-994.49,1.5068,-996.0,-3.704
201,35.5,199360000.0,0.0031299,-995.55,1.4484,-997.0,-3.6805
202,36.75,223110000.0,0.005102,295.92,1294.9,-999.0,-3.412
203,34.15,45671000.0,0.0029283,-815.95,183.55,-999.5,-3.6585
204,35.0,5793700.0,0.011905,-963.22,32.776,-996.0,-3.16
205,32.875,118110000.0,0.0076046,-991.06,13.441,-1004.5,-3.8685
206,35.0,111310000.0,0.014286,-632.65,366.35,-999.0,-3.44
207,32.944,181640000.0,0.0016863,-994.64,2.8559,-997.5,-3.407
208,30.0,69556000.0,0.0019608,-997.77,7.2283,-1005.0,-3.49
209,35.0,20624000.0,0.0071429,-990.23,9.7673,-1000.0,-3.86
210,31.875,196100000.0,0.0013072,1017.3,2016.8,-999.5,-3.235
211,33.0,54683000.0,0.0075758,-999.63,1.371,-1001.0,-3.868
212,0.0,0.0,0.0,1318.7,1324.7,-6.0,-2.95
213,34.69,145100000.0,0.0068634,15.607,1013.6,-998.0,-3.2715
214,34.667,30801000.0,0.0048077,-930.03,67.97,-998.0,-3.792
215,37.636,246500000.0,0.0024155,105.3,1102.3,-997.0,-3.586
216,34.75,100330000.0,0.0047962,-777.03,223.47,-1000.5,-3.7915
217,38.033,235450000.0,0.0017528,485.3,1484.8,-999.5,-3.4295
218,32.333,412490000.0,0.010309,-999.5,6.4999,-1006.0,-3.903
219,0.0,0.0,0.0,613.48,615.98,-2.5,-2.934
220,35.0,13391000.0,0.0047619,-969.63,29.871,-999.5,-3.79
221,30.5,161010000.0,0.0065574,-715.68,289.82,-1005.5,-3.8475
222,0.0,0.0,0.0,357.29,359.29,-2.0,-2.938
223,34.438,46012000.0,0.0012099,-523.12,472.88,-996.0,-3.1735
224,30.625,140410000.0,0.0040816,-566.08,438.42,-1004.5,-3.755
225,31.8,795000000.0,0.0062893,-1001.4,3.1481,-1004.5,-3.841
226,31.3,16790000.0,0.031949,-1007.0,0.0,-1007.0,-3.8435
227,31.179,5392200.0,0.014891,-984.05,12.948,-997.0,-3.127
228,38.955,240270000.0,0.008168,-994.79,1.207,-996.0,-3.143
229,0.0,0.0,0.0,748.79,754.79,-6.0,-2.95
230,0.0,0.0,0.0,-2.3514,4.6486,-7.0,-2.938
231,31.2,57052000.0,0.0032051,-773.24,228.76,-1002.0,-3.688
232,32.909,344260000.0,0.013812,-98.172,903.83,-1002.0,-3.638
233,35.5,781260000.0,0.0070423,-994.21,2.7889,-997.0,-3.716
234,0.0,0.0,0.0,520.52,527.52,-7.0,-2.923
235,31.781,24805000.0,0.0039331,-845.8,151.2,-997.0,-3.4915
236,30.381,20575000.0,0.0015674,-818.93,184.07,-1003.0,-3.362
237,30.0,307390000.0,0.0020833,-999.92,7.0765,-1007.0,-3.52
238,0.0,0.0,0.0,1129.6,1134.6,-5.0,-2.95
239,0.0,0.0,0.0,1188.3,1195.3,-7.0,-2.942
240,0.0,0.0,0.0,-6.8135,0.18654,-7.0,-2.9395
241,35.6,733350000.0,0.005618,298.79,1297.8,-999.0,-3.822
242,33.5,655390000.0,0.0099502,-993.54,6.9598,-1000.5,-3.8995
243,34.571,74729000.0,0.0041322,-799.57,198.43,-998.0,-3.758
244,0.0,0.0,0.0,901.7,907.7,-6.0,-2.95
245,32.143,407470000.0,0.013333,-276.17,727.33,-1003.5,-3.775
246,34.75,514180000.0,0.0028777,1079.7,2080.7,-1001.0,-3.6525
247,31.875,193970000.0,0.0026144,-45.039,958.46,-1003.5,-3.6175
248,0.0,0.0,0.0,102.56,106.56,-4.0,-2.95
249,34.714,36894000.0,0.0020576,-783.22,213.78,-997.0,-3.514
250,0.0,0.0,0.0,0.13025,6.6302,-6.5,-2.911
251,34.429,119010000.0,0.0041494,-682.4,318.1,-1000.5,-3.759
252,30.591,93491000.0,0.0014859,-985.5,17.497,-1003.0,-3.327
253,38.423,11420000.0,0.006006,-989.41,7.5904,-997.0,-3.5005
254,0.0,0.0,0.0,1890.1,1895.1,-5.0,-2.95
255,31.0,22211000.0,0.012097,-862.78,141.22,-1004.0,-3.256
256,34.0,101120000.0,0.0058824,-822.33,176.67,-999.0,-3.83
257,0.0,0.0,0.0,1005.7,1009.7,-4.0,-2.9435
258,32.0,184200000.0,0.020833,-1003.3,1.219,-1004.5,-3.616
259,32.667,541050000.0,0.010204,-524.99,477.01,-1002.0,-3.902
260,0.0,0.0,0.0,853.13,860.13,-7.0,-2.935
261,31.091,76326000.0,0.004386,-359.05,642.95,-1002.0,-3.316
262,32.0,63754000.0,0.003125,-746.75,257.75,-1004.5,-3.68
263,,,,,,,
264,36.4,436720000.0,0.0054945,-229.35,766.65,-996.0,-3.818
265,31.4,52787000.0,0.017516,-809.85,192.15,-1002.0,-3.372
266,32.0,565740000.0,0.0078125,-1004.1,2.9249,-1007.0,-3.872
267,30.893,59705000.0,0.0011561,-976.05,28.454,-1004.5,-3.135
268,37.271,27631000.0,0.0011179,-912.03,84.965,-997.0,-3.1055
269,34.3,327280000.0,0.0029155,-986.51,12.492,-999.0,-3.657
270,0.0,0.0,0.0,1170.3,1170.3,0.0,-2.8125
271,0.0,0.0,0.0,51.17,55.17,-4.0,-2.9225
272,36.222,28673000.0,0.0092025,-981.98,22.015,-1004.0,-3.674
273,31.647,31689000.0,0.011152,-989.5,17.498,-1007.0,-3.462
274,32.096,262480000.0,0.0011983,-1000.7,0.75448,-1001.5,-3.1655
275,0.0,0.0,0.0,25.289,27.789,-2.5,-2.9335
276,31.309,103820000.0,0.0084547,98.749,1098.2,-999.5,-2.9355
277,30.444,85360000.0,0.0054745,-439.28,562.72,-1002.0,-3.452
278,34.375,313670000.0,0.0036364,-32.032,964.97,-997.0,-3.725
279,32.389,208950000.0,0.0034305,-991.89,12.607,-1004.5,-3.7085
280,31.667,542010000.0,0.010526,-522.11,481.39,-1003.5,-3.905
281,,,,,,,
282,31.0,27058000.0,0.0040323,-1006.7,1.3232,-1008.0,-3.752
283,34.786,44873000.0,0.01232,-1000.4,1.1204,-1001.5,-3.7565
284,34.143,47715000.0,0.0041841,-989.65,12.354,-1002.0,-3.761
285,34.826,61767000.0,0.0012484,-388.64,607.36,-996.0,-3.199
286,33.0,642180000.0,0.010101,-992.86,11.643,-1004.5,-3.901
287,32.069,39917000.0,0.0010753,-501.79,502.71,-1004.5,-3.07
288,32.31,181130000.0,0.0014738,619.11,1619.6,-1000.5,-3.3215
289,35.5,162970000.0,0.0023474,-991.37,5.632,-997.0,-3.574
290,33.9,5404100.0,0.0058997,-996.42,2.5826,-999.0,-3.8305
291,38.444,41057000.0,0.0086705,-978.08,17.924,-996.0,-3.308
292,0.0,0.0,0.0,840.9,844.9,-4.0,-2.95
293,32.118,385820000.0,0.012821,-998.99,6.0104,-1005.0,-3.454
294,33.469,107740000.0,0.0056022,-991.21,7.7874,-999.0,-3.4645
295,0.0,0.0,0.0,538.72,545.72,-7.0,-2.95
296,36.0,421290000.0,0.0039683,-992.55,4.4475,-997.0,-3.748
297,0.0,0.0,0.0,2154.9,2161.9,-7.0,-2.9155
298,0.0,0.0,0.0,677.5,683.5,-6.0,-2.95
299,32.519,9388000.0,0.001139,-887.13,108.87,-996.0,-3.122
300,,,,,,,
301,31.28,32436000.0,0.0012788,-650.83,347.17,-998.0,-3.218
302,32.294,21679000.0,0.00091075,-679.09,319.91,-999.0,-2.902
303,0.0,0.0,0.0,901.53,906.53,-5.0,-2.95
304,31.0,406030000.0,0.0026882,-1003.9,0.09718,-1004.0,-3.628
305,0.0,0.0,0.0,677.01,683.01,-6.0,-2.95
306,36.4,676520000.0,0.010989,-988.08,8.9248,-997.0,-3.818
307,,,,,,,
308,34.941,21031000.0,0.00084175,-685.42,311.08,-996.5,-2.812
309,0.0,0.0,0.0,567.05,574.05,-7.0,-2.906
310,0.0,0.0,0.0,480.25,487.25,-7.0,-2.925
311,36.0,184660000.0,0.01087,84.263,1080.3,-996.0,-3.172
312,34.833,86276000.0,0.0095694,-636.55,359.45,-996.0,-3.4775
313,34.526,294450000.0,0.0015244,1368.1,2364.1,-996.0,-3.344
314,37.357,113650000.0,0.0012747,24.122,1022.6,-998.5,-3.2155
315,37.273,26157000.0,0.002439,-879.16,116.84,-996.0,-3.59
316,32.857,316270000.0,0.0043478,-153.03,848.97,-1002.0,-3.77
317,31.206,16939000.0,0.00094251,-749.25,250.25,-999.5,-2.939
318,31.25,132540000.0,0.006,-1002.3,2.2245,-1004.5,-3.5
319,,,,,,,
320,34.083,10775000.0,0.0012225,-985.37,10.633,-996.0,-3.182
321,37.571,44192000.0,0.0012674,-600.56,396.44,-997.0,-3.211
322,0.0,0.0,0.0,353.18,358.18,-5.0,-2.95
323,33.176,44733000.0,0.012411,-805.2,197.8,-1003.0,-3.436
324,34.5,245730000.0,0.0036232,-1007.3,1.6756,-1009.0,-3.724
325,32.289,306160000.0,0.00163,-1005.1,4.3835,-1009.5,-3.3865
326,30.707,72317000.0,0.001123,-994.6,13.4,-1008.0,-3.1095
327,32.0,749420000.0,0.010417,-329.52,674.48,-1004.0,-3.904
328,0.0,0.0,0.0,151.74,155.74,-4.0,-2.95
329,35.611,67954000.0,0.0031201,-978.46,17.535,-996.0,-3.6795
330,30.727,80310000.0,0.0014793,-247.92,755.08,-1003.0,-3.324
331,37.846,9640900.0,0.0020325,-992.27,3.7258,-996.0,-3.508
332,0.0,0.0,0.0,361.98,365.48,-3.5,-2.93
333,32.441,12225000.0,0.0027199,-830.28,167.72,-998.0,-2.897
334,0.0,0.0,0.0,5.3869,13.387,-8.0,-2.881
335,36.4,795700000.0,0.0054945,-995.17,0.82967,-996.0,-3.818
336,34.875,350800000.0,0.010753,-271.0,726.5,-997.5,-3.721
337,0.0,0.0,0.0,782.54,787.54,-5.0,-2.945
338,36.571,26930000.0,0.0078125,-1000.5,5.5372,-1006.0,-3.744
339,33.14,82277000.0,0.001207,-115.37,887.63,-1003.0,-3.1715
340,36.8,132450000.0,0.013587,-709.71,288.29,-998.0,-3.632
341,32.0,110810000.0,0.0052083,-755.8,246.2,-1002.0,-3.808
342,0.0,0.0,0.0,1060.1,1064.1,-4.0,-2.95
343,32.45,48773000.0,0.0015408,-585.1,411.9,-997.0,-3.351
344,0.0,0.0,0.0,1578.3,1583.3,-5.0,-2.95
345,0.0,0.0,0.0,1267.6,1272.6,-5.0,-2.95
346,,,,,,,
347,30.381,166950000.0,0.0015674,491.59,1493.6,-1002.0,-3.362
348,31.25,246440000.0,0.004,-988.19,18.813,-1007.0,-3.75
349,0.0,0.0,0.0,747.91,754.91,-7.0,-2.95
350,37.429,601390000.0,0.0038168,-995.86,0.13918,-996.0,-3.738
351,30.615,26001000.0,0.0025126,-993.61,12.391,-1006.0,-3.204
352,32.211,213820000.0,0.001634,720.64,1722.1,-1001.5,-3.388
353,33.6,276450000.0,0.0029762,116.12,1118.1,-1002.0,-3.664
354,37.375,96799000.0,0.0033445,-967.71,28.288,-996.0,-3.701
355,32.667,698130000.0,0.010204,-387.51,615.49,-1003.0,-3.902
356,0.0,0.0,0.0,1799.8,1803.8,-4.0,-2.95
357,31.567,29564000.0,0.0021119,-818.64,185.86,-1004.5,-3.5265
358,0.0,0.0,0.0,2511.3,2517.3,-6.0,-2.95
359,30.0,35881000.0,0.0030303,-985.31,20.689,-1006.0,-3.67
360,36.0,152490000.0,0.0046296,-661.52,335.48,-997.0,-3.784
361,,,,,,,
362,0.0,0.0,0.0,53.281,60.281,-7.0,-2.95
363,,,,,,,
364,,,,,,,
365,37.75,39261000.0,0.013245,-946.16,49.843,-996.0,-3.7735
366,34.75,121740000.0,0.014388,-844.43,156.07,-1000.5,-3.7915
367,33.333,82215000.0,0.0033333,-707.98,293.02,-1001.0,-3.7
368,0.0,0.0,0.0,1477.3,1482.3,-5.0,-2.95
369,0.0,0.0,0.0,21.895,27.395,-5.5,-2.8975
370,34.588,38910000.0,0.0017007,-925.98,79.521,-1005.5,-3.412
371,32.485,99709000.0,0.013993,-993.31,3.6882,-997.0,-2.928
372,,,,,,,
373,36.659,94419000.0,0.0012399,-987.96,10.038,-998.0,-3.1935
374,0.0,0.0,0.0,590.72,594.72,-4.0,-2.95
375,34.889,46570000.0,0.0031847,-832.22,165.78,-998.0,-3.686
376,32.6,179150000.0,0.006135,-683.99,319.01,-1003.0,-3.837
377,36.893,90145000.0,0.0019361,-472.07,523.93,-996.0,-3.4835
378,33.0,26829000.0,0.001443,-757.1,238.9,-996.0,-3.307
379,32.158,69991000.0,0.0065466,-537.78,465.22,-1003.0,-3.389
380,38.324,103610000.0,0.0076746,-993.77,12.227,-1006.0,-3.3485
381,35.643,14902000.0,0.012024,-991.38,4.6192,-996.0,-3.7505
382,37.909,149530000.0,0.0047962,-396.28,601.72,-998.0,-3.583
383,33.643,86271000.0,0.0042463,-962.08,45.417,-1007.5,-3.7645
384,0.0,0.0,0.0,1185.2,1190.2,-5.0,-2.95
385,37.25,70862000.0,0.0026846,-712.36,284.64,-997.0,-3.6275
386,33.083,6345100.0,0.0025189,-990.68,6.3237,-997.0,-3.603
387,0.0,0.0,0.0,616.27,620.27,-4.0,-2.95
388,31.28,116350000.0,0.016624,-1008.0,0.030618,-1008.0,-3.218
389,0.0,0.0,0.0,278.79,283.79,-5.0,-2.95
390,32.5,413030000.0,0.015385,-648.43,354.57,-1003.0,-3.87
391,31.75,124680000.0,0.0031496,-499.86,503.64,-1003.5,-3.6825
392,33.0,1698800000.0,0.010101,-1003.2,1.2985,-1004.5,-3.901
393,33.0,645780000.0,0.0075758,-139.0,863.0,-1002.0,-3.868
394,0.0,0.0,0.0,414.98,419.98,-5.0,-2.95
395,37.577,198070000.0,0.0081883,-990.93,5.0721,-996.0,-3.5115
396,0.0,0.0,0.0,2369.9,2375.9,-6.0,-2.934
397,0.0,0.0,0.0,362.27,369.27,-7.0,-2.95
398,0.0,0.0,0.0,574.77,581.77,-7.0,-2.926
399,0.0,0.0,0.0,301.92,307.92,-6.0,-2.95
400,0.0,0.0,0.0,375.18,381.18,-6.0,-2.945
401,0.0,0.0,0.0,19.913,24.913,-5.0,-2.95
402,0.0,0.0,0.0,383.29,389.29,-6.0,-2.95
403,37.0,765020000.0,0.013514,-46.965,949.04,-996.0,-3.778
404,31.692,177990000.0,0.0024272,-989.2,6.7966,-996.0,-3.588
405,38.714,29321000.0,0.001845,-824.91,171.09,-996.0,-3.458
406,0.0,0.0,0.0,8.201,15.201,-7.0,-2.881
407,33.886,87593000.0,0.014755,-1001.4,4.0631,-1005.5,-3.2545
408,0.0,0.0,0.0,345.68,349.68,-4.0,-2.95
409,0.0,0.0,0.0,305.75,312.75,-7.0,-2.934
410,0.0,0.0,0.0,509.12,513.12,-4.0,-2.95
411,0.0,0.0,0.0,289.88,293.88,-4.0,-2.95
412,37.5,55269000.0,0.0015686,-601.9,398.6,-1000.5,-3.3625
413,0.0,0.0,0.0,253.25,258.25,-5.0,-2.95
414,0.0,0.0,0.0,628.48,634.48,-6.0,-2.944
415,0.0,0.0,0.0,93.343,99.343,-6.0,-2.926
416,33.81,14973000.0,0.0070423,-894.39,107.61,-1002.0,-3.29
417,0.0,0.0,0.0,546.06,553.06,-7.0,-2.9315
418,35.062,430400000.0,0.0035651,347.33,1347.8,-1000.5,-3.7195
419,33.3,133470000.0,0.009009,-999.07,3.933,-1003.0,-3.667
420,0.0,0.0,0.0,1054.7,1058.7,-4.0,-2.9365
421,33.115,83509000.0,0.0069686,-999.91,7.0855,-1007.0,-3.5695
422,32.25,69146000.0,0.0031008,-1000.2,1.8223,-1002.0,-3.6775
423,0.0,0.0,0.0,2.9343,7.4343,-4.5,-2.9475
424,31.182,312700000.0,0.0029155,-1002.6,1.8878,-1004.5,-3.657
425,,,,,,,
426,0.0,0.0,0.0,239.43,244.43,-5.0,-2.95
427,36.222,72987000.0,0.0030675,-881.91,122.09,-1004.0,-3.674
428,31.029,14649000.0,0.00092081,-778.5,223.5,-1002.0,-2.914
429,0.0,0.0,0.0,10.278,16.278,-6.0,-2.898
430,31.6,150750000.0,0.0063291,-989.24,17.761,-1007.0,-3.842
431,33.333,474900000.0,0.015,-373.71,628.29,-1002.0,-3.8
432,32.929,36606000.0,0.0021692,-990.02,14.481,-1004.5,-3.539
433,33.812,482390000.0,0.0036969,502.77,1502.3,-999.5,-3.7295
434,0.0,0.0,0.0,1380.1,1387.1,-7.0,-2.934
435,34.5,763830000.0,0.0096618,-996.69,2.8084,-999.5,-3.8965
436,0.0,0.0,0.0,747.27,751.27,-4.0,-2.95
437,32.045,92001000.0,0.0070922,-302.63,700.87,-1003.5,-3.295
438,35.667,153190000.0,0.0046729,-946.4,49.602,-996.0,-3.786
439,,,,,,,
440,32.794,83348000.0,0.0017937,-999.28,5.2161,-1004.5,-3.4425
441,30.968,100560000.0,0.0010417,351.83,1355.3,-1003.5,-3.04
442,33.0,79403000.0,0.0075758,-896.89,106.11,-1003.0,-3.868
443,31.893,47388000.0,0.0022396,-727.68,276.82,-1004.5,-3.5535
444,39.0,132580000.0,0.0021368,-342.28,654.72,-997.0,-3.532
445,0.0,0.0,0.0,1727.7,1734.7,-7.0,-2.95
446,37.429,7677700.0,0.009542,-970.72,26.278,-997.0,-3.476
447,0.0,0.0,0.0,216.88,223.88,-7.0,-2.95
448,0.0,0.0,0.0,710.94,714.94,-4.0,-2.95
449,38.714,358710000.0,0.001845,-990.84,5.1598,-996.0,-3.458
450,34.4,405130000.0,0.026163,-1002.0,0.0028092,-1002.0,-3.656
451,36.583,689790000.0,0.0045558,-997.76,1.743,-999.5,-3.7805
452,0.0,0.0,0.0,348.82,352.82,-4.0,-2.95
453,34.042,42864000.0,0.0073439,-990.48,6.5218,-997.0,-3.5915
454,0.0,0.0,0.0,236.0,240.0,-4.0,-2.95
455,0.0,0.0,0.0,541.36,546.36,-5.0,-2.95
456,32.571,388870000.0,0.002193,1265.2,2267.2,-1002.0,-3.544
457,0.0,0.0,0.0,939.35,943.35,-4.0,-2.95
458,0.0,0.0,0.0,180.15,185.15,-5.0,-2.95
459,35.583,240180000.0,0.0046838,-979.39,21.109,-1000.5,-3.7865
460,32.0,172920000.0,0.00625,-693.46,310.04,-1003.5,-3.84
461,30.943,48790000.0,0.0064635,-413.35,587.15,-1000.5,-2.917
462,0.0,0.0,0.0,514.95,521.95,-7.0,-2.95
463,39.478,153180000.0,0.0099119,-40.188,956.81,-997.0,-3.092
464,38.306,178420000.0,0.0014503,365.35,1361.3,-996.0,-3.3105
465,0.0,0.0,0.0,134.07,138.07,-4.0,-2.815
466,0.0,0.0,0.0,3.9005,9.9005,-6.0,-2.938
467,32.5,77623000.0,0.0023669,-995.01,7.9893,-1003.0,-3.5775
468,32.667,58529000.0,0.005102,-871.39,130.61,-1002.0,-3.804
469,30.577,17784000.0,0.0025157,-1001.9,3.5834,-1005.5,-3.6025
470,0.0,0.0,0.0,1103.8,1106.3,-2.5,-2.92
471,37.333,234510000.0,0.0029762,-159.31,836.69,-996.0,-3.664
472,31.0,74930000.0,0.0052029,-129.32,876.68,-1006.0,-3.039
473,0.0,0.0,0.0,260.65,265.65,-5.0,-2.95
474,34.4,32239000.0,0.005814,-996.13,0.8685,-997.0,-3.828
475,33.0,182840000.0,0.016835,-715.02,285.48,-1000.5,-3.703
476,0.0,0.0,0.0,109.3,116.3,-7.0,-2.943
477,0.0,0.0,0.0,222.58,229.58,-7.0,-2.95
478,30.667,206430000.0,0.0054348,-995.45,12.546,-1008.0,-3.816
479,0.0,0.0,0.0,391.87,396.87,-5.0,-2.95
480,30.0,31043000.0,0.0015873,-933.18,74.825,-1008.0,-3.37
481,36.579,72966000.0,0.017266,-987.98,19.017,-1007.0,-3.305
482,0.0,0.0,0.0,1037.7,1041.7,-4.0,-2.95
483,0.0,0.0,0.0,659.7,663.7,-4.0,-2.95
484,38.214,210390000.0,0.0018692,230.37,1226.4,-996.0,-3.465
485,0.0,0.0,0.0,317.44,323.44,-6.0,-2.933
486,0.0,0.0,0.0,1764.9,1770.9,-6.0,-2.95
487,31.192,23604000.0,0.0073983,-899.71,100.79,-1000.5,-3.5945
488,34.303,26165000.0,0.00088339,-621.19,374.81,-996.0,-2.868
489,0.0,0.0,0.0,1056.7,1060.7,-4.0,-2.948
490,31.795,26222000.0,0.0014296,-756.96,247.54,-1004.5,-3.3005
491,32.083,192180000.0,0.0025974,-53.336,950.16,-1003.5,-3.615
492,0.0,0.0,0.0,263.58,268.58,-5.0,-2.95
493,,,,,,,
494,33.55,12712000.0,0.014903,-973.41,26.086,-999.5,-3.6645
495,31.595,81665000.0,0.0045215,-347.66,654.84,-1002.5,-3.3365
496,31.0,833640000.0,0.0053763,868.69,1875.7,-1007.0,-3.814
497,0.0,0.0,0.0,791.5,797.5,-6.0,-2.95
498,33.6,149970000.0,0.0089286,-532.0,470.0,-1002.0,-3.664
499,0.0,0.0,0.0,994.77,1000.8,-6.0,-2.95
500,36.556,341590000.0,0.018237,-621.75,374.25,-996.0,-3.671
501,0.0,0.0,0.0,144.28,150.28,-6.0,-2.942
502,31.25,192200000.0,0.0086154,614.59,1619.1,-1004.5,-3.1875
503,0.0,0.0,0.0,1805.0,1809.0,-4.0,-2.95
504,31.857,69959000.0,0.011211,-984.14,18.865,-1003.0,-3.554
505,34.2,240710000.0,0.005848,-573.51,425.99,-999.5,-3.829
506,,,,,,,
507,38.346,359040000.0,0.016048,-244.91,752.09,-997.0,-3.5015
508,39.056,25748000.0,0.0014225,-800.3,196.7,-997.0,-3.297
509,0.0,0.0,0.0,710.96,717.96,-7.0,-2.95
510,0.0,0.0,0.0,331.5,338.5,-7.0,-2.95
511,35.0,44589000.0,0.014286,-892.81,103.19,-996.0,-3.58
512,33.826,129700000.0,0.0012853,277.87,1276.9,-999.0,-3.222
513,32.5,9560000.0,0.0038462,-941.43,59.566,-1001.0,-3.48
514,0.0,0.0,0.0,291.52,296.52,-5.0,-2.95
515,0.0,0.0,0.0,343.23,350.23,-7.0,-2.95
516,0.0,0.0,0.0,524.51,528.51,-4.0,-2.95
517,0.0,0.0,0.0,2540.3,2542.8,-2.5,-2.8945
518,0.0,0.0,0.0,91.145,86.145,5.0,-2.733
519,30.36,112860000.0,0.013175,-1001.6,2.8624,-1004.5,-3.241
520,36.0,221610000.0,0.0055556,-1003.5,3.4569,-1007.0,-3.46
521,0.0,0.0,0.0,34.032,38.032,-4.0,-2.95
522,0.0,0.0,0.0,1084.3,1088.3,-4.0,-2.95
523,0.0,0.0,0.0,2819.1,2826.1,-7.0,-2.9325
524,36.484,55487000.0,0.0097259,-986.77,20.226,-1007.0,-2.869
525,33.0,34583000.0,0.0075758,-998.71,3.2917,-1002.0,-3.868
526,34.4,286380000.0,0.002907,-992.93,2.0749,-995.0,-3.656
527,38.5,189050000.0,0.0012987,617.1,1613.1,-996.0,-3.23
528,36.214,4430400.0,0.0039448,-997.67,6.3281,-1004.0,-3.7465
529,34.083,94312000.0,0.01956,-926.66,72.844,-999.5,-3.7955
530,0.0,0.0,0.0,736.11,742.11,-6.0,-2.945
531,32.679,182670000.0,0.019672,-643.55,358.45,-1002.0,-3.5425
532,0.0,0.0,0.0,416.19,420.69,-4.5,-2.9325
533,0.0,0.0,0.0,876.14,881.14,-5.0,-2.95
534,0.0,0.0,0.0,172.32,178.32,-6.0,-2.95
535,33.0,372890000.0,0.0037879,-993.55,3.4484,-997.0,-3.736
536,0.0,0.0,0.0,697.47,704.47,-7.0,-2.93
537,30.5,36919000.0,0.0031729,-540.32,465.18,-1005.5,-3.0545
538,0.0,0.0,0.0,277.99,282.99,-5.0,-2.95
539,35.143,295570000.0,0.012195,88.007,1090.0,-1002.0,-3.508
540,,,,,,,
541,0.0,0.0,0.0,1195.7,1202.7,-7.0,-2.95
542,0.0,0.0,0.0,170.87,177.87,-7.0,-2.95
543,32.0,40558000.0,0.0020833,-748.27,255.23,-1003.5,-3.52
544,31.0,679090000.0,0.0080645,-88.234,916.77,-1005.0,-3.876
545,0.0,0.0,0.0,1080.6,1086.6,-6.0,-2.95
546,0.0,0.0,0.0,488.44,492.44,-4.0,-2.95
547,0.0,0.0,0.0,-5.8591,0.1409,-6.0,-2.6275
548,32.227,9492200.0,0.0028209,-995.64,12.365,-1008.0,-3.6455
549,0.0,0.0,0.0,1332.4,1338.4,-6.0,-2.95
550,0.0,0.0,0.0,32.265,37.265,-5.0,-2.949
551,36.4,89640000.0,0.0027473,-637.73,361.27,-999.0,-3.636
552,0.0,0.0,0.0,280.4,286.4,-6.0,-2.945
553,31.0,310310000.0,0.032258,-1006.0,0.0,-1006.0,-3.907
554,35.152,43024000.0,0.013793,-697.87,299.63,-997.5,-2.84
555,0.0,0.0,0.0,-5.3721,0.62792,-6.0,-2.9425
556,0.0,0.0,0.0,753.76,760.76,-7.0,-2.95
557,0.0,0.0,0.0,130.59,135.59,-5.0,-2.95
558,33.0,678900000.0,0.015152,-409.51,592.49,-1002.0,-3.868
559,32.688,47656000.0,0.022945,-1000.7,3.8035,-1004.5,-3.7385
560,0.0,0.0,0.0,855.9,859.9,-4.0,-2.95
561,37.8,4023900.0,0.018519,-995.88,1.1234,-997.0,-3.622
562,0.0,0.0,0.0,821.84,825.84,-4.0,-2.95
563,0.0,0.0,0.0,926.45,932.45,-6.0,-2.9465
564,0.0,0.0,0.0,856.81,860.81,-4.0,-2.95
565,0.0,0.0,0.0,908.0,913.0,-5.0,-2.95
566,34.568,31218000.0,0.0013149,-983.73,12.273,-996.0,-3.2395
567,0.0,0.0,0.0,193.72,198.72,-5.0,-2.95
568,34.5,594270000.0,0.0057971,58.056,1058.1,-1000.0,-3.8275
569,0.0,0.0,0.0,176.0,183.0,-7.0,-2.95
570,0.0,0.0,0.0,2582.5,2589.5,-7.0,-2.9475
571,0.0,0.0,0.0,148.37,153.37,-5.0,-2.95
572,0.0,0.0,0.0,422.93,427.93,-5.0,-2.95
573,0.0,0.0,0.0,409.98,414.98,-5.0,-2.95
574,33.692,331780000.0,0.0091324,336.24,1338.2,-1002.0,-3.562
575,0.0,0.0,0.0,113.95,120.95,-7.0,-2.95
576,,,,,,,
577,31.0,553540000.0,0.0064516,-8.625,996.37,-1005.0,-3.845
578,0.0,0.0,0.0,734.66,740.66,-6.0,-2.95
579,38.5,41736000.0,0.008658,-849.68,147.32,-997.0,-3.538
580,0.0,0.0,0.0,65.121,72.121,-7.0,-2.934
581,36.5,328390000.0,0.0034247,-988.77,7.2273,-996.0,-3.708
582,36.933,97693000.0,0.0018051,-988.47,9.5345,-998.0,-3.446
583,0.0,0.0,0.0,-0.57175,4.4283,-5.0,-2.95
584,34.0,85305000.0,0.0098039,-1000.8,3.2486,-1004.0,-3.898
585,35.5,141560000.0,0.0031299,-492.66,507.84,-1000.5,-3.6805
586,0.0,0.0,0.0,376.15,381.15,-5.0,-2.95
587,0.0,0.0,0.0,975.56,982.56,-7.0,-2.95
588,0.0,0.0,0.0,1205.7,1210.7,-5.0,-2.95
589,0.0,0.0,0.0,187.08,192.08,-5.0,-2.95
590,34.7,11241000.0,0.017291,-997.91,1.0889,-999.0,-3.8265
591,0.0,0.0,0.0,249.8,254.3,-4.5,-2.9325
592,31.6,31624000.0,0.0031646,-875.0,127.0,-1002.0,-3.684
593,34.471,194690000.0,0.0051195,-1005.4,2.6037,-1008.0,-3.414
594,31.948,30364000.0,0.009714,-753.72,242.28,-996.0,-3.0735
595,0.0,0.0,0.0,630.81,636.81,-6.0,-2.95
596,0.0,0.0,0.0,1573.4,1577.4,-4.0,-2.95
597,,,,,,,
598,32.929,220070000.0,0.0043384,-1003.3,2.2235,-1005.5,-3.7695
599,33.833,21704000.0,0.014778,-986.95,11.048,-998.0,-3.797
600,33.667,30715000.0,0.0049505,-983.81,15.185,-999.0,-3.798
601,34.708,6493800.0,0.002401,-995.36,1.6415,-997.0,-3.5835
602,35.8,25112000.0,0.0069832,-833.12,162.88,-996.0,-3.284
603,31.8,17059000.0,0.0031447,-1005.7,1.2687,-1007.0,-3.364
604,36.591,8667000.0,0.0024845,-987.57,8.4327,-996.0,-3.5975
605,0.0,0.0,0.0,95.876,100.88,-5.0,-2.95
606,33.885,95236000.0,0.0022701,-489.46,506.54,-996.0,-3.5595
607,31.3,9948000.0,0.0063898,-999.24,6.2578,-1005.5,-3.8435
608,31.2,5975700.0,0.022436,-1002.4,1.1361,-1003.5,-3.688
609,0.0,0.0,0.0,25.271,29.271,-4.0,-2.95
610,32.667,454340000.0,0.010204,-601.44,400.56,-1002.0,-3.902
611,0.0,0.0,0.0,47.395,53.395,-6.0,-2.95
612,34.75,144530000.0,0.0071942,-989.89,7.1073,-997.0,-3.861
613,0.0,0.0,0.0,4.4157,8.9157,-4.5,-2.9265
614,0.0,0.0,0.0,596.83,604.83,-8.0,-2.95
615,0.0,0.0,0.0,750.11,757.11,-7.0,-2.935
616,0.0,0.0,0.0,587.96,591.96,-4.0,-2.95
617,34.25,832560000.0,0.0072993,99.846,1099.3,-999.5,-3.863
618,0.0,0.0,0.0,529.73,536.73,-7.0,-2.93
619,30.37,1399500.0,0.0012195,-1001.0,4.5055,-1005.5,-3.18
620,33.25,22898000.0,0.016405,-905.83,94.672,-1000.5,-3.2685
621,33.886,69738000.0,0.0093897,-992.99,3.0137,-996.0,-3.2545
622,0.0,0.0,0.0,1373.1,1377.1,-4.0,-2.95
623,33.809,27857000.0,0.00086994,-983.96,12.045,-996.0,-2.8505
624,34.4,253850000.0,0.005814,-550.55,449.95,-1000.5,-3.828
625,0.0,0.0,0.0,250.69,257.69,-7.0,-2.95
626,32.667,347390000.0,0.010204,-996.79,5.2147,-1002.0,-3.902
627,32.625,42916000.0,0.0076628,-988.59,14.906,-1003.5,-3.8695
628,0.0,0.0,0.0,830.79,836.79,-6.0,-2.8725
629,32.4,300130000.0,0.012346,-610.16,391.84,-1002.0,-3.838
630,0.0,0.0,0.0,1040.9,1047.9,-7.0,-2.946
631,39.077,308370000.0,0.0019685,664.94,1661.9,-997.0,-3.492
632,35.853,22725000.0,0.00082034,-659.72,336.28,-996.0,-2.781
633,34.438,167710000.0,0.010889,-994.35,5.6496,-1000.0,-3.7245
634,35.833,762480000.0,0.0046512,-995.52,0.4781,-996.0,-3.785
635,0.0,0.0,0.0,1473.0,1479.0,-6.0,-2.95
636,33.429,30147000.0,0.0042735,-921.83,81.165,-1003.0,-3.766
637,0.0,0.0,0.0,577.49,582.49,-5.0,-2.95
638,31.0,64822000.0,0.0029326,-713.3,291.7,-1005.0,-3.659
639,34.857,224220000.0,0.0040984,-986.96,9.0352,-996.0,-3.756
640,33.429,361240000.0,0.0042735,-29.424,972.58,-1002.0,-3.766
641,33.5,277100000.0,0.0099502,-965.37,36.126,-1001.5,-3.8995
642,0.0,0.0,0.0,222.86,226.86,-4.0,-2.95
643,30.857,229960000.0,0.016204,-351.41,650.59,-1002.0,-3.568
644,0.0,0.0,0.0,20.498,24.498,-4.0,-2.95
645,32.875,11954000.0,0.0038023,-1002.8,2.2276,-1005.0,-3.737
646,30.542,90456000.0,0.0027285,-990.77,16.229,-1007.0,-3.6335
647,30.19,15735000.0,0.0015773,-965.98,41.015,-1007.0,-3.366
648,0.0,0.0,0.0,858.06,863.06,-5.0,-2.95
649,0.0,0.0,0.0,1038.0,1042.0,-4.0,-2.95
650,34.5,646290000.0,0.0036232,1022.2,2023.2,-1001.0,-3.724
651,0.0,0.0,0.0,273.59,279.59,-6.0,-2.95
652,0.0,0.0,0.0,117.24,121.24,-4.0,-2.95
653,0.0,0.0,0.0,587.02,593.02,-6.0,-2.95
654,0.0,0.0,0.0,228.59,228.59,0.0,-2.7625
655,31.727,117800000.0,0.0028653,-476.36,524.64,-1001.0,-3.651
656,31.346,2480500.0,0.01227,-1005.6,2.4299,-1008.0,-3.5925
657,33.5,101220000.0,0.0037313,-684.85,318.15,-1003.0,-3.732
658,0.0,0.0,0.0,39.138,45.138,-6.0,-2.95
659,33.2,146680000.0,0.0060241,-740.57,262.43,-1003.0,-3.834
660,0.0,0.0,0.0,558.02,564.02,-6.0,-2.95
661,0.0,0.0,0.0,986.53,992.53,-6.0,-2.95
662,0.0,0.0,0.0,136.56,143.56,-7.0,-2.95
663,30.727,32211000.0,0.0088757,-891.67,111.33,-1003.0,-3.662
664,0.0,0.0,0.0,1350.4,1357.4,-7.0,-2.9245
665,0.0,0.0,0.0,1920.2,1927.2,-7.0,-2.95
666,33.0,393470000.0,0.0075758,-477.18,525.82,-1003.0,-3.868
667,38.375,59337000.0,0.0016287,-597.82,402.18,-1000.0,-3.386
668,0.0,0.0,0.0,309.28,314.28,-5.0,-2.95
669,0.0,0.0,0.0,1122.7,1129.7,-7.0,-2.95
670,32.667,63693000.0,0.010204,-945.85,56.154,-1002.0,-3.902
671,0.0,0.0,0.0,184.53,190.53,-6.0,-2.95
672,30.0,57742000.0,0.0015873,-956.58,50.422,-1007.0,-3.37
673,35.45,82491000.0,0.00094029,-989.85,8.1532,-998.0,-2.9365
674,0.0,0.0,0.0,274.11,280.11,-6.0,-2.95
675,0.0,0.0,0.0,1309.6,1316.6,-7.0,-2.936
676,0.0,0.0,0.0,330.56,337.56,-7.0,-2.95
677,38.875,255620000.0,0.012862,-102.39,893.61,-996.0,-3.378
678,31.964,119280000.0,0.0067039,-416.79,587.71,-1004.5,-3.5525
679,36.214,62627000.0,0.00098619,-239.81,760.69,-1000.5,-2.986
680,32.083,83321000.0,0.025974,-933.38,70.119,-1003.5,-3.615
681,32.333,380080000.0,0.020619,-1004.1,2.8522,-1007.0,-3.903
682,0.0,0.0,0.0,877.79,882.79,-5.0,-2.95
683,33.98,116930000.0,0.0011772,259.44,1258.9,-999.5,-3.1505
684,0.0,0.0,0.0,657.66,662.66,-5.0,-2.95
685,38.333,399160000.0,0.0028986,433.18,1429.2,-996.0,-3.655
686,37.176,78495000.0,0.0015823,-433.54,562.96,-996.5,-3.368
687,36.562,34712000.0,0.017949,-815.16,185.84,-1001.0,-2.83
688,0.0,0.0,0.0,1339.3,1344.3,-5.0,-2.95
689,33.0,116510000.0,0.0050505,266.05,1263.1,-997.0,-3.01
690,0.0,0.0,0.0,209.85,215.85,-6.0,-2.949
691,0.0,0.0,0.0,1279.3,1286.3,-7.0,-2.95
692,0.0,0.0,0.0,376.11,382.11,-6.0,-2.95
693,0.0,0.0,0.0,1289.5,1293.5,-4.0,-2.95
694,0.0,0.0,0.0,1084.0,1091.0,-7.0,-2.949
695,0.0,0.0,0.0,616.11,621.11,-5.0,-2.95
696,34.5,156250000.0,0.0061022,13.877,1009.9,-996.0,-3.3445
697,0.0,0.0,0.0,238.34,242.34,-4.0,-2.9105
698,33.2,23787000.0,0.0060241,-973.46,28.537,-1002.0,-3.834
699,36.925,102080000.0,0.020311,-1000.4,1.6128,-1002.0,-3.2615
700,33.2,465940000.0,0.0060241,-168.36,833.64,-1002.0,-3.834
701,33.5,1359600000.0,0.0099502,-998.29,3.2103,-1001.5,-3.8995
702,0.0,0.0,0.0,6.7786,12.779,-6.0,-2.95
703,0.0,0.0,0.0,242.63,249.63,-7.0,-2.95
704,0.0,0.0,0.0,963.53,970.53,-7.0,-2.95
705,32.0,199490000.0,0.03125,-1005.0,0.0,-1005.0,-3.904
706,30.87,13204000.0,0.014085,-935.48,63.519,-999.0,-3.29
707,31.45,44059000.0,0.0015898,-993.51,11.991,-1005.5,-3.371
708,32.333,291120000.0,0.010309,-993.51,12.49,-1006.0,-3.903
709,,,,,,,
710,0.0,0.0,0.0,411.11,417.11,-6.0,-2.95
711,35.457,218320000.0,0.0012262,1159.0,2158.5,-999.5,-3.1845
712,,,,,,,
713,0.0,0.0,0.0,416.5,421.5,-5.0,-2.915
714,0.0,0.0,0.0,848.45,844.45,4.0,-2.7745
715,37.5,42951000.0,0.0044444,-900.65,95.35,-996.0,-3.775
716,31.583,302100000.0,0.0087951,743.05,1747.6,-1004.5,-3.4315
717,33.84,162070000.0,0.01182,88.503,1090.5,-1002.0,-3.154
718,,,,,,,
719,36.389,14984000.0,0.015267,-998.01,2.9913,-1001.0,-3.6725
720,0.0,0.0,0.0,669.92,674.92,-5.0,-2.95
721,0.0,0.0,0.0,606.99,613.99,-7.0,-2.95
722,0.0,0.0,0.0,526.7,532.7,-6.0,-2.95
723,0.0,0.0,0.0,294.61,299.61,-5.0,-2.95
724,0.0,0.0,0.0,1372.7,1378.7,-6.0,-2.95
725,0.0,0.0,0.0,992.9,996.9,-4.0,-2.918
726,32.667,178550000.0,0.010204,-844.59,157.41,-1002.0,-3.902
727,32.5,23744000.0,0.010256,-940.36,61.643,-1002.0,-3.7075
728,32.292,441610000.0,0.0025806,1180.2,2184.7,-1004.5,-3.6125
729,0.0,0.0,0.0,53.72,58.72,-5.0,-2.95
730,0.0,0.0,0.0,1291.3,1298.3,-7.0,-2.95
731,0.0,0.0,0.0,793.04,800.04,-7.0,-2.95
732,32.292,39809000.0,0.0025806,-807.56,196.94,-1004.5,-3.6125
733,36.727,116380000.0,0.0024752,-475.24,524.76,-1000.0,-3.596
734,0.0,0.0,0.0,917.14,921.14,-4.0,-2.95
735,0.0,0.0,0.0,434.46,439.46,-5.0,-2.95
736,34.278,387220000.0,0.0032415,388.34,1390.3,-1002.0,-3.6915
737,37.429,692580000.0,0.0038168,852.56,1848.6,-996.0,-3.738
738,32.593,19997000.0,0.0011364,-973.35,29.651,-1003.0,-3.12
739,0.0,0.0,0.0,321.71,325.71,-4.0,-2.95
740,38.656,4369200.0,0.014551,-993.82,3.1788,-997.0,-3.3815
741,33.926,19336000.0,0.0010917,-771.33,224.67,-996.0,-3.084
742,32.0,158760000.0,0.00625,-719.23,285.77,-1005.0,-3.84
743,0.0,0.0,0.0,351.8,358.8,-7.0,-2.95
744,33.286,108170000.0,0.0042918,-712.21,290.29,-1002.5,-3.767
745,33.474,258770000.0,0.0078616,520.71,1516.7,-996.0,-3.364
746,0.0,0.0,0.0,6.4592,12.459,-6.0,-2.9445
747,0.0,0.0,0.0,131.32,135.32,-4.0,-2.95
748,0.0,0.0,0.0,1507.8,1512.8,-5.0,-2.95
749,0.0,0.0,0.0,664.4,669.4,-5.0,-2.95
750,0.0,0.0,0.0,1253.2,1258.2,-5.0,-2.95
751,0.0,0.0,0.0,1578.7,1584.7,-6.0,-2.95
752,0.0,0.0,0.0,884.65,891.65,-7.0,-2.95
753,34.714,15633000.0,0.010288,-996.75,0.25301,-997.0,-3.514
754,35.786,517200000.0,0.003992,373.03,1369.0,-996.0,-3.7495
755,0.0,0.0,0.0,541.45,547.45,-6.0,-2.95
756,32.125,21228000.0,0.0077821,-990.28,14.223,-1004.5,-3.8715
757,35.5,1424700000.0,0.0070423,-992.13,3.8712,-996.0,-3.858
758,0.0,0.0,0.0,846.13,853.13,-7.0,-2.9295
759,33.833,258480000.0,0.0024631,270.82,1270.3,-999.5,-3.594
760,31.632,32534000.0,0.0016639,-995.22,6.7796,-1002.0,-3.399
761,0.0,0.0,0.0,225.11,232.11,-7.0,-2.95
762,32.857,15243000.0,0.013043,-995.93,0.074575,-996.0,-3.31
763,0.0,0.0,0.0,451.1,455.1,-4.0,-2.95
764,0.0,0.0,0.0,479.81,486.81,-7.0,-2.949
765,34.964,30910000.0,0.0010215,-967.24,29.758,-997.0,-3.021
766,0.0,0.0,0.0,2055.8,2059.3,-3.5,-2.9325
767,0.0,0.0,0.0,837.84,844.84,-7.0,-2.938
768,0.0,0.0,0.0,263.39,270.39,-7.0,-2.95
769,0.0,0.0,0.0,2333.8,2337.8,-4.0,-2.95
770,0.0,0.0,0.0,1593.0,1600.0,-7.0,-2.95
771,33.75,103890000.0,0.016461,-664.58,335.92,-1000.5,-3.3925
772,0.0,0.0,0.0,7.0853,13.085,-6.0,-2.95
773,32.444,26782000.0,0.017123,-911.36,90.637,-1002.0,-3.416
774,30.45,237310000.0,0.0032841,-1000.5,7.4569,-1008.0,-3.6955
775,0.0,0.0,0.0,1007.9,1013.9,-6.0,-2.95
776,0.0,0.0,0.0,56.138,63.138,-7.0,-2.95
777,32.333,189270000.0,0.014433,-369.79,632.21,-1002.0,-3.515
778,37.95,85781000.0,0.002635,-650.67,345.33,-996.0,-3.6205
779,0.0,0.0,0.0,145.06,149.06,-4.0,-2.95
780,31.0,106910000.0,0.0023041,-379.6,625.4,-1005.0,-3.566
781,0.0,0.0,0.0,773.81,780.81,-7.0,-2.95
782,0.0,0.0,0.0,2515.7,2521.7,-6.0,-2.9475
783,32.188,276500000.0,0.01165,-386.01,618.49,-1004.5,-3.7425
784,0.0,0.0,0.0,1652.7,1658.7,-6.0,-2.95
785,0.0,0.0,0.0,1294.8,1299.8,-5.0,-2.95
786,0.0,0.0,0.0,879.27,883.27,-4.0,-2.95
787,33.5,345620000.0,0.0042644,-79.424,921.58,-1001.0,-3.7655
788,31.833,77625000.0,0.0020942,-516.19,488.31,-1004.5,-3.5225
789,33.333,138530000.0,0.005,-691.56,310.44,-1002.0,-3.8
790,,,,,,,
791,0.0,0.0,0.0,86.238,92.238,-6.0,-2.95
792,35.6,33541000.0,0.011236,-955.75,43.245,-999.0,-3.822
793,0.0,0.0,0.0,2021.2,2026.2,-5.0,-2.95
794,0.0,0.0,0.0,2166.6,2173.6,-7.0,-2.9475
795,32.0,1224100000.0,0.0078125,615.08,1618.1,-1003.0,-3.872
796,33.45,59835000.0,0.014948,-996.72,12.776,-1009.5,-3.6655
797,0.0,0.0,0.0,1197.1,1204.1,-7.0,-2.95
798,0.0,0.0,0.0,453.02,460.02,-7.0,-2.926
799,0.0,0.0,0.0,90.542,96.542,-6.0,-2.95
800,33.194,109250000.0,0.012634,-223.86,773.14,-997.0,-2.971
801,36.0,121850000.0,0.013889,-846.21,150.79,-997.0,-3.784
802,0.0,0.0,0.0,657.6,664.6,-7.0,-2.95
803,33.556,11811000.0,0.0033113,-956.19,41.814,-998.0,-3.698
804,0.0,0.0,0.0,1331.9,1335.9,-4.0,-2.95
805,,,,,,,
806,0.0,0.0,0.0,1348.7,1355.7,-7.0,-2.95
807,32.143,181460000.0,0.0044444,-25.433,978.07,-1003.5,-3.55
808,,,,,,,
809,,,,,,,
810,0.0,0.0,0.0,1280.7,1284.7,-4.0,-2.95
811,36.711,22931000.0,0.0014337,-982.09,14.91,-997.0,-3.3025
812,35.417,175130000.0,0.0047059,-988.82,9.1839,-998.0,-3.7875
813,0.0,0.0,0.0,458.5,465.5,-7.0,-2.945
814,34.143,91265000.0,0.0020921,-469.13,532.87,-1002.0,-3.522
815,0.0,0.0,0.0,1123.7,1127.7,-4.0,-2.95
816,32.667,13867000.0,0.005102,-971.05,30.947,-1002.0,-3.804
817,38.054,12670000.0,0.00093853,-842.35,153.65,-996.0,-2.9345
818,,,,,,,
819,33.333,880280000.0,0.005,969.7,1972.7,-1003.0,-3.8
820,38.233,139990000.0,0.015693,-644.23,351.77,-996.0,-3.4265
821,0.0,0.0,0.0,447.13,450.63,-3.5,-2.865
822,0.0,0.0,0.0,2179.7,2186.7,-7.0,-2.95
823,35.125,17928000.0,0.0017794,-877.11,119.89,-997.0,-3.438
824,34.083,711820000.0,0.00489,578.39,1578.9,-1000.5,-3.7955
825,0.0,0.0,0.0,805.24,812.24,-7.0,-2.936
826,0.0,0.0,0.0,416.41,423.41,-7.0,-2.95
827,0.0,0.0,0.0,1354.5,1359.5,-5.0,-2.95
828,0.0,0.0,0.0,1102.3,1106.3,-4.0,-2.95
829,33.281,23824000.0,0.020657,-960.85,38.655,-999.5,-3.4675
830,0.0,0.0,0.0,1235.5,1241.5,-6.0,-2.92
831,0.0,0.0,0.0,1388.1,1395.1,-7.0,-2.95
832,0.0,0.0,0.0,921.71,928.71,-7.0,-2.95
833,0.0,0.0,0.0,1174.0,1178.0,-4.0,-2.95
834,34.929,55898000.0,0.00409,-851.13,150.87,-1002.0,-3.7555
835,34.071,298040000.0,0.012579,-992.46,4.5439,-997.0,-3.7615
836,36.357,78801000.0,0.0039293,-973.82,32.184,-1006.0,-3.7455
837,0.0,0.0,0.0,2590.7,2595.7,-5.0,-2.95
838,0.0,0.0,0.0,1778.0,1783.0,-5.0,-2.95
839,37.333,75969000.0,0.02381,-981.35,14.651,-996.0,-3.664
840,33.111,4249200.0,0.020134,-1001.0,2.0098,-1003.0,-3.702
841,0.0,0.0,0.0,1497.9,1501.9,-4.0,-2.929
842,35.267,63896000.0,0.0018904,-988.93,15.068,-1004.0,-3.471
843,34.865,173180000.0,0.0099283,-993.75,3.2511,-997.0,-3.0935
844,31.0,284370000.0,0.0035842,18.739,1023.7,-1005.0,-3.721
845,0.0,0.0,0.0,566.15,572.15,-6.0,-2.95
846,0.0,0.0,0.0,263.82,268.82,-5.0,-2.95
847,0.0,0.0,0.0,912.46,917.46,-5.0,-2.95
848,38.364,504380000.0,0.0023697,1264.0,2260.0,-996.0,-3.578
849,0.0,0.0,0.0,144.83,150.83,-6.0,-2.95
850,0.0,0.0,0.0,666.42,671.42,-5.0,-2.95
851,32.333,66033000.0,0.0034364,-996.98,6.0176,-1003.0,-3.709
852,31.944,21525000.0,0.0011594,-750.04,250.46,-1000.5,-3.1375
853,0.0,0.0,0.0,235.42,241.42,-6.0,-2.932
854,33.0,502620000.0,0.0050505,115.2,1117.2,-1002.0,-3.802
855,34.875,105020000.0,0.0071685,-988.26,10.739,-999.0,-3.8605
856,0.0,0.0,0.0,1107.4,1114.4,-7.0,-2.95
857,0.0,0.0,0.0,108.83,115.83,-7.0,-2.95
858,33.125,14606000.0,0.0075472,-981.65,19.346,-1001.0,-3.8675
859,37.158,20471000.0,0.0014164,-948.4,48.595,-997.0,-3.294
860,32.8,18179000.0,0.0020325,-886.9,113.6,-1000.5,-3.508
861,36.0,572100000.0,0.0034722,-990.03,5.968,-996.0,-3.712
862,,,,,,,
863,0.0,0.0,0.0,1890.3,1897.3,-7.0,-2.95
864,31.875,44504000.0,0.0039216,-864.7,139.8,-1004.5,-3.745
865,0.0,0.0,0.0,249.73,256.73,-7.0,-2.95
866,32.0,862830000.0,0.00625,548.09,1553.1,-1005.0,-3.84
867,,,,,,,
868,35.357,104040000.0,0.0040404,-720.92,276.08,-997.0,-3.7525
869,0.0,0.0,0.0,74.993,79.993,-5.0,-2.9425
870,33.167,121850000.0,0.0060302,-365.0,634.0,-999.0,-3.5025
871,0.0,0.0,0.0,259.81,263.81,-4.0,-2.95
872,0.0,0.0,0.0,179.4,184.4,-5.0,-2.95
873,0.0,0.0,0.0,685.39,691.39,-6.0,-2.95
874,0.0,0.0,0.0,2033.2,2038.2,-5.0,-2.95
875,0.0,0.0,0.0,243.49,247.49,-4.0,-2.95
876,0.0,0.0,0.0,2264.4,2267.4,-3.0,-2.915
877,34.571,156880000.0,0.0041322,-582.42,416.58,-999.0,-3.758
878,33.467,81450000.0,0.001992,-489.45,512.55,-1002.0,-3.498
879,31.475,38267000.0,0.0015886,-677.2,325.8,-1003.0,-3.3705
880,32.2,8862100.0,0.0062112,-991.26,11.735,-1003.0,-3.517
881,0.0,0.0,0.0,510.76,514.76,-4.0,-2.95
882,32.0,36876000.0,0.01875,-905.44,99.564,-1005.0,-3.52
883,39.0,66582000.0,0.0021368,-668.19,328.81,-997.0,-3.532
884,31.0,224190000.0,0.0053763,-501.58,504.42,-1006.0,-3.814
885,0.0,0.0,0.0,-0.47755,5.5225,-6.0,-2.95
886,31.812,410270000.0,0.0039293,277.67,1279.7,-1002.0,-3.7455
887,0.0,0.0,0.0,923.9,928.9,-5.0,-2.95
888,0.0,0.0,0.0,2167.0,2171.0,-4.0,-2.95
889,0.0,0.0,0.0,668.95,674.95,-6.0,-2.95
890,36.5,17485000.0,0.0045662,-990.02,6.9838,-997.0,-3.781
891,0.0,0.0,0.0,1885.0,1892.0,-7.0,-2.95
892,32.483,15452000.0,0.0010616,-807.63,194.37,-1002.0,-3.058
893,32.0,110770000.0,0.003125,-555.65,447.85,-1003.5,-3.68
894,32.688,54173000.0,0.01912,-988.05,17.445,-1005.5,-3.7385
895,35.5,416350000.0,0.0031299,484.52,1483.0,-998.5,-3.6805
896,0.0,0.0,0.0,362.83,368.83,-6.0,-2.95
897,0.0,0.0,0.0,1277.7,1282.7,-5.0,-2.95
898,33.2,375570000.0,0.0060241,-330.04,671.96,-1002.0,-3.834
899,0.0,0.0,0.0,-2.9565,4.0435,-7.0,-2.95
900,30.267,85369000.0,0.0022026,-985.75,22.249,-1008.0,-3.546
901,0.0,0.0,0.0,2804.5,2810.5,-6.0,-2.95
902,35.0,112740000.0,0.0025974,-495.35,505.15,-1000.5,-3.615
903,0.0,0.0,0.0,81.203,85.203,-4.0,-2.95
904,31.667,98992000.0,0.010526,-1003.7,0.8312,-1004.5,-3.905
905,0.0,0.0,0.0,162.26,169.26,-7.0,-2.95
906,32.286,13430000.0,0.0088496,-999.86,7.1352,-1007.0,-3.774
907,38.105,277740000.0,0.0013812,-997.1,4.9032,-1002.0,-3.276
908,31.667,1151700000.0,0.010526,19.428,1022.9,-1003.5,-3.905
909,0.0,0.0,0.0,258.57,264.57,-6.0,-2.95
910,0.0,0.0,0.0,93.317,97.317,-4.0,-2.9315
911,0.0,0.0,0.0,-5.3925,0.60752,-6.0,-2.95
912,31.25,22390000.0,0.012,-984.35,18.653,-1003.0,-3.25
913,0.0,0.0,0.0,286.01,290.01,-4.0,-2.95
914,38.0,265070000.0,0.004386,-966.36,29.645,-996.0,-3.772
915,0.0,0.0,0.0,126.42,132.42,-6.0,-2.95
916,0.0,0.0,0.0,223.95,228.45,-4.5,-2.9325
917,32.0,63200000.0,0.009375,-805.92,199.08,-1005.0,-3.68
918,,,,,,,
919,0.0,0.0,0.0,229.26,235.26,-6.0,-2.9205
920,0.0,0.0,0.0,489.83,494.83,-5.0,-2.95
921,0.0,0.0,0.0,160.83,164.33,-3.5,-2.9325
922,0.0,0.0,0.0,1192.3,1198.3,-6.0,-2.95
923,31.25,77211000.0,0.02,-998.92,5.5836,-1004.5,-3.75
924,33.0,414150000.0,0.0075758,-449.55,553.45,-1003.0,-3.868
925,0.0,0.0,0.0,183.89,188.89,-5.0,-2.95
926,0.0,0.0,0.0,210.5,215.5,-5.0,-2.95
927,0.0,0.0,0.0,531.45,536.45,-5.0,-2.95
928,38.0,119930000.0,0.002193,-405.2,590.8,-996.0,-3.544
929,0.0,0.0,0.0,147.44,153.44,-6.0,-2.95
930,0.0,0.0,0.0,156.47,162.47,-6.0,-2.95
931,38.143,19049000.0,0.014981,-945.71,55.285,-1001.0,-3.466
932,,,,,,,
933,36.1,172510000.0,0.01662,-857.72,139.78,-997.5,-3.8195
934,33.286,133970000.0,0.0042918,-643.38,358.62,-1002.0,-3.767
935,0.0,0.0,0.0,1227.3,1233.3,-6.0,-2.928
936,32.327,19044000.0,0.0083284,-844.56,156.94,-1001.5,-3.1595
937,0.0,0.0,0.0,152.9,159.9,-7.0,-2.95
938,32.333,268140000.0,0.0034364,-46.656,955.34,-1002.0,-3.709
939,38.857,217130000.0,0.0018382,271.34,1267.3,-996.0,-3.456
940,33.75,72811000.0,0.014815,-906.35,94.654,-1001.0,-3.7975
941,32.133,41347000.0,0.014523,-860.72,141.28,-1002.0,-3.518
942,33.125,34084000.0,0.0075472,-955.85,45.145,-1001.0,-3.8675
943,33.0,880330000.0,0.0075758,174.44,1176.4,-1002.0,-3.868
944,0.0,0.0,0.0,285.67,289.67,-4.0,-2.95
945,0.0,0.0,0.0,299.93,306.93,-7.0,-2.95
946,37.2,17508000.0,0.016129,-968.04,27.956,-996.0,-3.628
947,0.0,0.0,0.0,2069.1,2074.1,-5.0,-2.95
948,0.0,0.0,0.0,226.81,230.81,-4.0,-2.95
949,32.4,18987000.0,0.0012346,-794.68,203.32,-998.0,-3.19
950,0.0,0.0,0.0,1052.8,1057.8,-5.0,-2.95
951,0.0,0.0,0.0,1400.8,1401.8,-1.0,-2.89
952,0.0,0.0,0.0,528.97,532.97,-4.0,-2.912
953,31.621,47289000.0,0.019629,-796.74,205.26,-1002.0,-3.083
954,31.667,314250000.0,0.010526,-724.39,279.11,-1003.5,-3.905
955,0.0,0.0,0.0,300.54,307.54,-7.0,-2.95
956,0.0,0.0,0.0,887.72,892.72,-5.0,-2.95
957,31.0,64859000.0,0.0011947,-246.15,758.85,-1005.0,-3.163
958,38.125,75942000.0,0.0016393,-965.57,31.426,-997.0,-3.39
959,0.0,0.0,0.0,512.39,519.39,-7.0,-2.9475
960,,,,,,,
961,0.0,0.0,0.0,272.78,276.78,-4.0,-2.95
962,34.0,228480000.0,0.0073529,-696.58,305.42,-1002.0,-3.864
963,0.0,0.0,0.0,426.64,432.64,-6.0,-2.95
964,0.0,0.0,0.0,-5.2172,0.78281,-6.0,-2.9445
965,0.0,0.0,0.0,181.21,185.21,-4.0,-2.95
966,38.75,14666000.0,0.00075901,-779.43,217.57,-997.0,-2.6825
967,0.0,0.0,0.0,1127.8,1131.8,-4.0,-2.95
968,33.972,116310000.0,0.0016353,-994.77,2.231,-997.0,-3.3885
969,35.286,132910000.0,0.0020243,-226.47,769.53,-996.0,-3.506
970,0.0,0.0,0.0,1189.4,1195.4,-6.0,-2.908
971,35.214,164480000.0,0.0040568,-559.12,441.38,-1000.5,-3.7535
972,38.462,393260000.0,0.002,1119.5,2116.5,-997.0,-3.5
973,32.625,74624000.0,0.022989,-1000.5,0.022408,-1000.5,-3.8695
974,0.0,0.0,0.0,2508.7,2512.7,-4.0,-2.95
975,34.333,398370000.0,0.0048544,-998.59,3.4069,-1002.0,-3.794
976,0.0,0.0,0.0,1381.0,1387.0,-6.0,-2.95
977,31.944,53279000.0,0.0011594,-381.55,622.95,-1004.5,-3.1375
978,0.0,0.0,0.0,351.49,358.49,-7.0,-2.926
979,36.455,84815000.0,0.014963,-823.16,174.84,-998.0,-3.599
980,37.034,95299000.0,0.0027933,122.54,1125.5,-1003.0,-2.926
981,35.7,245780000.0,0.0056022,-984.84,12.156,-997.0,-3.8215
982,,,,,,,
983,0.0,0.0,0.0,498.18,502.18,-4.0,-2.95
984,0.0,0.0,0.0,8.3598,14.36,-6.0,-2.95
985,,,,,,,
986,33.429,226270000.0,0.021368,-807.06,194.94,-1002.0,-3.766
987,32.0,364400000.0,0.011719,-184.1,819.9,-1004.0,-3.744
988,,,,,,,
989,32.273,154600000.0,0.0084507,-448.41,555.09,-1003.5,-3.645
990,,,,,,,
991,,,,,,,
992,33.2,531500000.0,0.012048,-296.0,706.0,-1002.0,-3.834
993,34.364,36174000.0,0.0026455,-837.2,161.3,-998.5,-3.622
994,33.0,1098500000.0,0.018182,-103.21,898.79,-1002.0,-3.835
995,0.0,0.0,0.0,281.44,286.44,-5.0,-2.95
996,0.0,0.0,0.0,108.73,113.73,-5.0,-2.95
997,0.0,0.0,0.0,386.97,391.97,-5.0,-2.95
998,0.0,0.0,0.0,4.5523,10.552,-6.0,-2.95
999,0.0,0.0,0.0,236.84,243.84,-7.0,-2.858
1000,0.0,0.0,0.0,1634.0,1639.0,-5.0,-2.95
1001,0.0,0.0,0.0,1225.1,1230.1,-5.0,-2.95
1002,36.167,15534000.0,0.0092166,-944.04,52.96,-997.0,-3.566
1003,0.0,0.0,0.0,513.84,517.84,-4.0,-2.95
1004,0.0,0.0,0.0,22.155,28.155,-6.0,-2.95
1005,30.603,32488000.0,0.00096108,-979.17,26.328,-1005.5,-2.9595
1006,35.357,283030000.0,0.0020202,646.92,1644.4,-997.5,-3.505
1007,38.905,89497000.0,0.001224,-192.66,804.34,-997.0,-3.183
1008,,,,,,,
1009,0.0,0.0,0.0,2646.7,2652.7,-6.0,-2.95
1010,0.0,0.0,0.0,534.13,541.13,-7.0,-2.882
1011,0.0,0.0,0.0,213.4,218.4,-5.0,-2.95
1012,0.0,0.0,0.0,186.92,191.92,-5.0,-2.944
1013,0.0,0.0,0.0,1449.7,1454.7,-5.0,-2.95
1014,0.0,0.0,0.0,398.54,403.54,-5.0,-2.915
1015,33.667,119500000.0,0.019802,-901.96,99.035,-1001.0,-3.798
1016,34.8,158330000.0,0.018678,-635.65,360.35,-996.0,-3.304
1017,0.0,0.0,0.0,1822.4,1826.4,-4.0,-2.95
1018,36.0,170840000.0,0.0039683,-954.72,51.28,-1006.0,-3.748
1019,0.0,0.0,0.0,-4.8567,1.1433,-6.0,-2.935
1020,33.25,721700000.0,0.0075188,-1003.7,5.8328,-1009.5,-3.867
1021,0.0,0.0,0.0,49.27,56.27,-7.0,-2.95
1022,,,,,,,
1023,0.0,0.0,0.0,-4.2375,2.7625,-7.0,-2.93
1024,33.5,289610000.0,0.01791,-758.85,243.15,-1002.0,-3.8325
1025,34.25,990190000.0,0.0072993,306.98,1307.5,-1000.5,-3.863
1026,0.0,0.0,0.0,1408.2,1413.2,-5.0,-2.95
1027,37.5,118820000.0,0.012,-991.07,5.9277,-997.0,-3.25
1028,0.0,0.0,0.0,1159.7,1163.7,-4.0,-2.95
1029,0.0,0.0,0.0,-0.7272,6.2728,-7.0,-2.854
1030,0.0,0.0,0.0,1501.3,1506.3,-5.0,-2.95
1031,33.429,547570000.0,0.012821,-29.002,973.0,-1002.0,-3.766
1032,0.0,0.0,0.0,218.54,222.54,-4.0,-2.95
1033,0.0,0.0,0.0,213.9,218.9,-5.0,-2.95
1034,0.0,0.0,0.0,1195.8,1201.8,-6.0,-2.914
1035,0.0,0.0,0.0,199.57,205.57,-6.0,-2.95
1036,0.0,0.0,0.0,124.62,131.62,-7.0,-2.95
1037,31.0,17915000.0,0.018433,-1005.9,0.072064,-1006.0,-3.566
1038,31.0,206160000.0,0.0014663,943.19,1948.2,-1005.0,-3.318
1039,34.786,74706000.0,0.0041068,-947.35,48.648,-996.0,-3.7565
1040,31.148,61994000.0,0.015458,-995.99,10.012,-1006.0,-3.159
1041,38.0,245850000.0,0.004386,-449.66,547.34,-997.0,-3.772
1042,0.0,0.0,0.0,1887.9,1894.9,-7.0,-2.95
1043,0.0,0.0,0.0,-5.9634,1.0366,-7.0,-2.9285
1044,34.75,114030000.0,0.0017986,-233.58,763.42,-997.0,-3.444
1045,33.4,772640000.0,0.005988,-997.12,4.8806,-1002.0,-3.833
1046,36.688,51946000.0,0.0034072,-834.48,161.52,-996.0,-3.7065
1047,33.75,323190000.0,0.0074074,-994.32,5.1751,-999.5,-3.865
1048,33.786,242430000.0,0.0042283,-996.07,5.435,-1001.5,-3.7635
1049,32.118,17006000.0,0.00091575,-986.19,10.808,-997.0,-2.908
1050,0.0,0.0,0.0,286.61,290.61,-4.0,-2.9265
1051,0.0,0.0,0.0,593.72,598.72,-5.0,-2.95
1052,0.0,0.0,0.0,70.86,76.86,-6.0,-2.95
1053,0.0,0.0,0.0,336.15,341.15,-5.0,-2.95
1054,37.0,8875100.0,0.013514,-985.99,11.01,-997.0,-3.778
1055,0.0,0.0,0.0,1595.5,1601.5,-6.0,-2.95
1056,0.0,0.0,0.0,888.51,895.51,-7.0,-2.9005
1057,33.556,466640000.0,0.0099338,248.6,1251.6,-1003.0,-3.698
1058,33.062,124300000.0,0.0037807,157.72,1157.2,-999.5,-3.2065
1059,33.812,100550000.0,0.0018484,-980.2,27.798,-1008.0,-3.459
1060,35.237,92729000.0,0.0014937,-992.27,11.727,-1004.0,-3.3305
1061,0.0,0.0,0.0,472.39,479.39,-7.0,-2.7835
1062,0.0,0.0,0.0,1944.6,1950.6,-6.0,-2.8645
1063,37.25,144120000.0,0.009396,-187.4,809.6,-997.0,-3.255
1064,0.0,0.0,0.0,923.28,928.28,-5.0,-2.95
1065,36.5,285150000.0,0.0045662,-366.71,629.29,-996.0,-3.781
1066,0.0,0.0,0.0,898.89,903.89,-5.0,-2.95
1067,32.0,815200000.0,0.00625,463.36,1467.4,-1004.0,-3.84
1068,32.375,220550000.0,0.002574,-988.8,11.196,-1000.0,-3.6115
1069,31.2,9330200.0,0.0010684,-878.16,120.84,-999.0,-3.064
1070,36.5,288020000.0,0.013699,-990.43,5.5744,-996.0,-3.781
1071,0.0,0.0,0.0,999.37,1004.4,-5.0,-2.95
1072,36.4,41512000.0,0.0054945,-923.13,72.873,-996.0,-3.818
1073,0.0,0.0,0.0,1844.4,1849.4,-5.0,-2.95
1074,0.0,0.0,0.0,633.27,637.27,-4.0,-2.95
1075,0.0,0.0,0.0,337.83,342.83,-5.0,-2.95
1076,32.417,109900000.0,0.01371,-533.36,469.14,-1002.5,-3.4165
1077,0.0,0.0,0.0,623.5,628.5,-5.0,-2.95
1078,30.932,49227000.0,0.0044085,-946.41,59.09,-1005.5,-3.3195
1079,31.444,42908000.0,0.0011779,-502.15,499.85,-1002.0,-3.151
1080,31.229,15783000.0,0.0027447,-776.3,224.7,-1001.0,-2.907
1081,0.0,0.0,0.0,1020.9,1024.9,-4.0,-2.95
1082,0.0,0.0,0.0,575.72,582.72,-7.0,-2.95
1083,0.0,0.0,0.0,1996.8,2003.8,-7.0,-2.9325
1084,,,,,,,
1085,0.0,0.0,0.0,-4.6658,2.3342,-7.0,-2.95
1086,33.882,43666000.0,0.0086806,-974.65,28.349,-1003.0,-3.424
1087,0.0,0.0,0.0,376.55,382.55,-6.0,-2.95
1088,0.0,0.0,0.0,1134.7,1129.7,5.0,-2.7505
1089,34.0,118410000.0,0.022059,-937.44,59.555,-997.0,-3.728
1090,31.786,132120000.0,0.013483,-769.7,233.8,-1003.5,-3.7775
1091,0.0,0.0,0.0,104.66,111.66,-7.0,-2.942
1092,0.0,0.0,0.0,752.35,759.35,-7.0,-2.938
1093,37.75,386500000.0,0.0066225,26.826,1022.8,-996.0,-3.698
1094,0.0,0.0,0.0,1424.7,1429.7,-5.0,-2.915
1095,,,,,,,
1096,31.917,181430000.0,0.0052219,-991.2,15.796,-1007.0,-3.8085
1097,31.184,181570000.0,0.01519,-1001.8,1.2155,-1003.0,-3.4075
1098,35.0,297720000.0,0.0031746,-996.49,7.013,-1003.5,-3.685
1099,0.0,0.0,0.0,670.96,674.96,-4.0,-2.95
1100,,,,,,,
1101,30.533,242300000.0,0.0021834,511.11,1514.1,-1003.0,-3.542
1102,0.0,0.0,0.0,743.92,750.92,-7.0,-2.9325
1103,33.0,29400000.0,0.0075758,-962.71,39.29,-1002.0,-3.868
1104,0.0,0.0,0.0,467.47,474.47,-7.0,-2.95
1105,0.0,0.0,0.0,348.11,352.11,-4.0,-2.95
1106,0.0,0.0,0.0,127.72,132.72,-5.0,-2.95
1107,0.0,0.0,0.0,4.0798,8.0798,-4.0,-2.95
1108,33.556,10375000.0,0.0033113,-983.4,24.603,-1008.0,-3.698
1109,0.0,0.0,0.0,875.09,880.09,-5.0,-2.95
1110,,,,,,,
1111,0.0,0.0,0.0,663.63,670.63,-7.0,-2.95
1112,33.533,24976000.0,0.0039761,-854.22,141.78,-996.0,-3.497
1113,0.0,0.0,0.0,660.14,666.14,-6.0,-2.95
1114,33.2,960430000.0,0.0060241,716.35,1718.4,-1002.0,-3.834
1115,31.0,97173000.0,0.0021505,-392.81,612.19,-1005.0,-3.535
1116,0.0,0.0,0.0,673.97,678.97,-5.0,-2.95
1117,0.0,0.0,0.0,982.95,988.95,-6.0,-2.95
1118,0.0,0.0,0.0,499.77,505.77,-6.0,-2.95
1119,0.0,0.0,0.0,686.08,692.08,-6.0,-2.926
1120,0.0,0.0,0.0,1350.1,1356.1,-6.0,-2.95
1121,0.0,0.0,0.0,61.224,68.224,-7.0,-2.8995
1122,31.875,9211000.0,0.0019608,-940.23,61.768,-1002.0,-3.49
1123,,,,,,,
1124,33.733,45250000.0,0.0019763,-717.09,284.91,-1002.0,-3.494
1125,0.0,0.0,0.0,212.12,219.12,-7.0,-2.9225
1126,0.0,0.0,0.0,825.6,831.6,-6.0,-2.95
1127,0.0,0.0,0.0,1029.9,1035.9,-6.0,-2.95
1128,0.0,0.0,0.0,2797.3,2804.3,-7.0,-2.935
1129,37.594,92183000.0,0.0016625,-995.42,4.0793,-999.5,-3.3985
1130,,,,,,,
1131,35.429,93252000.0,0.0040323,-965.43,30.571,-996.0,-3.752
1132,0.0,0.0,0.0,308.62,314.62,-6.0,-2.95
1133,0.0,0.0,0.0,691.21,697.21,-6.0,-2.95
1134,0.0,0.0,0.0,923.59,930.59,-7.0,-2.95
1135,32.222,99826000.0,0.024138,-917.37,87.133,-1004.5,-3.71
1136,36.211,193700000.0,0.0043605,370.31,1367.3,-997.0,-3.312
1137,0.0,0.0,0.0,32.399,32.399,0.0,-2.912
1138,0.0,0.0,0.0,476.62,483.62,-7.0,-2.95
1139,0.0,0.0,0.0,332.86,328.86,4.0,-2.8935
1140,33.636,216960000.0,0.010811,-322.8,679.2,-1002.0,-3.63
1141,0.0,0.0,0.0,511.37,516.37,-5.0,-2.95
1142,0.0,0.0,0.0,256.97,260.97,-4.0,-2.945
1143,36.229,116190000.0,0.0011501,201.13,1197.1,-996.0,-3.1305
1144,35.722,497430000.0,0.0031104,-996.58,0.41551,-997.0,-3.6785
1145,37.3,127640000.0,0.0013405,-999.11,6.8901,-1006.0,-3.254
1146,34.75,51429000.0,0.0047962,-884.95,114.55,-999.5,-3.7915
1147,0.0,0.0,0.0,1719.7,1725.7,-6.0,-2.95
1148,32.25,199540000.0,0.0093023,-994.62,7.8762,-1002.5,-3.6775
1149,0.0,0.0,0.0,972.68,978.68,-6.0,-2.95
1150,0.0,0.0,0.0,593.14,597.14,-4.0,-2.9285
1151,36.222,78270000.0,0.0015337,-400.91,595.09,-996.0,-3.348
1152,32.667,1022000000.0,0.020408,-580.64,422.36,-1003.0,-3.902
1153,,,,,,,
1154,0.0,0.0,0.0,1932.2,1938.2,-6.0,-2.934
1155,33.0,689150000.0,0.015152,-401.56,601.44,-1003.0,-3.868
1156,0.0,0.0,0.0,207.76,211.76,-4.0,-2.95
1157,32.222,445020000.0,0.013793,-9.1095,994.39,-1003.5,-3.71
1158,33.179,21243000.0,0.0064586,-989.62,12.38,-1002.0,-3.5355
1159,0.0,0.0,0.0,1068.6,1072.6,-4.0,-2.95
1160,0.0,0.0,0.0,285.67,289.67,-4.0,-2.95
1161,0.0,0.0,0.0,770.14,776.14,-6.0,-2.95
1162,0.0,0.0,0.0,775.56,781.56,-6.0,-2.95
1163,0.0,0.0,0.0,1194.7,1199.7,-5.0,-2.95
1164,0.0,0.0,0.0,1379.0,1386.0,-7.0,-2.95
1165,36.5,457140000.0,0.0045662,11.842,1008.8,-997.0,-3.781
1166,37.472,207340000.0,0.0014826,586.54,1586.0,-999.5,-3.3255
1167,0.0,0.0,0.0,1839.2,1845.2,-6.0,-2.942
1168,0.0,0.0,0.0,105.42,112.42,-7.0,-2.8725
1169,0.0,0.0,0.0,1357.0,1362.0,-5.0,-2.95
1170,0.0,0.0,0.0,61.84,66.84,-5.0,-2.95
1171,33.125,23952000.0,0.0075472,-906.83,95.173,-1002.0,-3.6025
1172,0.0,0.0,0.0,1.0785,8.0785,-7.0,-2.87
1173,0.0,0.0,0.0,546.74,552.74,-6.0,-2.948
1174,0.0,0.0,0.0,242.17,249.17,-7.0,-2.95
1175,36.286,7056000.0,0.003937,-978.19,18.814,-997.0,-3.746
1176,0.0,0.0,0.0,107.09,113.09,-6.0,-2.95
1177,,,,,,,
1178,0.0,0.0,0.0,433.44,439.44,-6.0,-2.95
1179,0.0,0.0,0.0,45.13,51.13,-6.0,-2.95
1180,0.0,0.0,0.0,1034.4,1041.4,-7.0,-2.95
1181,33.0,470290000.0,0.010101,-994.67,9.8324,-1004.5,-3.901
1182,34.818,100710000.0,0.0013055,-50.285,948.21,-998.5,-3.234
1183,0.0,0.0,0.0,179.74,185.74,-6.0,-2.9315
1184,36.316,123440000.0,0.0014493,-0.73148,997.27,-998.0,-3.31
1185,0.0,0.0,0.0,37.419,44.419,-7.0,-2.942
1186,0.0,0.0,0.0,1200.6,1206.6,-6.0,-2.92
1187,,,,,,,
1188,36.0,393820000.0,0.0055556,-988.09,7.9122,-996.0,-3.82
1189,37.6,37204000.0,0.0083587,-606.95,390.05,-997.0,-2.684
1190,0.0,0.0,0.0,487.04,493.04,-6.0,-2.942
1191,33.333,63812000.0,0.005,-860.0,143.0,-1003.0,-3.8
1192,31.731,16940000.0,0.0072727,-928.82,75.676,-1004.5,-3.5875
1193,31.333,6852800.0,0.0035461,-990.52,12.478,-1003.0,-3.718
1194,32.333,1100300000.0,0.010309,-1005.5,0.45023,-1006.0,-3.903
1195,0.0,0.0,0.0,358.32,363.32,-5.0,-2.95
1196,0.0,0.0,0.0,207.26,214.26,-7.0,-2.944
1197,0.0,0.0,0.0,487.26,494.26,-7.0,-2.945
1198,0.0,0.0,0.0,646.27,652.27,-6.0,-2.95
1199,0.0,0.0,0.0,1847.7,1853.7,-6.0,-2.934
1200,0.0,0.0,0.0,1671.1,1676.1,-5.0,-2.95
1201,32.688,204740000.0,0.0038241,-982.71,24.285,-1007.0,-3.7385
1202,36.562,45933000.0,0.0034188,-853.25,142.75,-996.0,-3.7075
1203,36.571,663460000.0,0.0078125,-986.09,9.9093,-996.0,-3.744
1204,36.583,935210000.0,0.013667,148.62,1144.6,-996.0,-3.7805
1205,35.643,6175000.0,0.016032,-968.09,27.91,-996.0,-3.002
1206,0.0,0.0,0.0,72.269,77.269,-5.0,-2.95
1207,0.0,0.0,0.0,152.67,159.67,-7.0,-2.95
1208,0.0,0.0,0.0,117.27,124.27,-7.0,-2.95
1209,0.0,0.0,0.0,561.74,568.74,-7.0,-2.95
1210,38.615,21061000.0,0.00099602,-760.4,236.6,-997.0,-2.996
1211,0.0,0.0,0.0,573.23,580.23,-7.0,-2.95
1212,0.0,0.0,0.0,2106.7,2111.7,-5.0,-2.95
1213,0.0,0.0,0.0,1223.9,1227.4,-3.5,-2.9325
1214,33.241,149270000.0,0.0010373,872.22,1869.2,-997.0,-3.036
1215,32.85,85335000.0,0.0030441,-658.74,344.26,-1003.0,-3.6715
1216,34.0,94559000.0,0.0058824,-996.66,6.3352,-1003.0,-3.83
1217,0.0,0.0,0.0,88.316,92.316,-4.0,-2.95
1218,0.0,0.0,0.0,542.22,548.22,-6.0,-2.95
1219,0.0,0.0,0.0,1150.5,1156.5,-6.0,-2.949
1220,32.568,103920000.0,0.015352,-598.99,397.01,-996.0,-3.2835
1221,34.609,14406000.0,0.00090293,-803.14,201.36,-1004.5,-2.8925
1222,0.0,0.0,0.0,51.565,58.565,-7.0,-2.9185
1223,0.0,0.0,0.0,341.97,345.97,-4.0,-2.95
1224,0.0,0.0,0.0,409.75,414.75,-5.0,-2.95
1225,0.0,0.0,0.0,206.16,213.16,-7.0,-2.95
1226,0.0,0.0,0.0,31.501,36.501,-5.0,-2.95
1227,0.0,0.0,0.0,263.85,268.85,-5.0,-2.95
1228,31.25,163470000.0,0.024,-938.77,64.734,-1003.5,-3.875
1229,,,,,,,
1230,0.0,0.0,0.0,1815.7,1819.7,-4.0,-2.95
1231,0.0,0.0,0.0,326.79,333.79,-7.0,-2.948
1232,33.857,253430000.0,0.010549,5.1459,1007.1,-1002.0,-3.526
1233,38.714,12792000.0,0.0092251,-945.15,50.854,-996.0,-3.458
1234,34.429,253760000.0,0.0041494,-322.37,676.63,-999.0,-3.759
1235,33.241,3623900.0,0.0010373,-988.9,11.6,-1000.5,-3.036
1236,31.477,205740000.0,0.0043321,-998.57,0.92742,-999.5,-3.3075
1237,0.0,0.0,0.0,621.6,627.6,-6.0,-2.93
1238,35.588,7033800.0,0.0049587,-983.22,13.784,-997.0,-3.395
1239,0.0,0.0,0.0,730.66,735.66,-5.0,-2.95
1240,38.722,216040000.0,0.0071736,279.66,1279.2,-999.5,-3.303
1241,0.0,0.0,0.0,1549.3,1553.3,-4.0,-2.95
1242,0.0,0.0,0.0,512.09,516.09,-4.0,-2.95
1243,31.077,9050000.0,0.0012376,-900.57,101.43,-1002.0,-3.192
1244,30.533,84696000.0,0.017467,-770.83,232.17,-1003.0,-3.542
1245,0.0,0.0,0.0,637.59,642.59,-5.0,-2.95
1246,34.0,12521000.0,0.0073529,-968.53,33.972,-1002.5,-3.728
1247,34.4,151690000.0,0.013566,-989.7,6.2985,-996.0,-3.484
1248,0.0,0.0,0.0,1066.3,1071.3,-5.0,-2.95
1249,32.0,136480000.0,0.0022321,-990.74,16.256,-1007.0,-3.552
1250,0.0,0.0,0.0,585.76,592.76,-7.0,-2.95
1251,32.426,112640000.0,0.0063492,364.29,1367.8,-1003.5,-2.8975
1252,36.3,80636000.0,0.011019,-994.44,5.0642,-999.5,-3.637
1253,33.125,26331000.0,0.022642,-1000.1,0.92497,-1001.0,-3.8675
1254,0.0,0.0,0.0,1014.0,1021.0,-7.0,-2.922
1255,0.0,0.0,0.0,1710.2,1714.2,-4.0,-2.9155
1256,31.0,78569000.0,0.0053763,-474.66,530.34,-1005.0,-3.442
1257,0.0,0.0,0.0,979.87,985.87,-6.0,-2.95
1258,0.0,0.0,0.0,1191.7,1198.7,-7.0,-2.946
1259,0.0,0.0,0.0,941.71,947.21,-5.5,-2.9325
1260,0.0,0.0,0.0,11.111,15.111,-4.0,-2.95
1261,34.4,97622000.0,0.011628,-874.07,126.43,-1000.5,-3.828
1262,0.0,0.0,0.0,1367.8,1374.8,-7.0,-2.9475
1263,0.0,0.0,0.0,706.47,702.97,3.5,-2.797
1264,31.333,79384000.0,0.0035461,-977.94,25.061,-1003.0,-3.718
1265,0.0,0.0,0.0,384.6,391.6,-7.0,-2.95
1266,0.0,0.0,0.0,894.71,899.71,-5.0,-2.95
1267,0.0,0.0,0.0,41.545,38.545,3.0,-2.843
1268,0.0,0.0,0.0,337.45,342.45,-5.0,-2.95
1269,0.0,0.0,0.0,762.31,768.31,-6.0,-2.95
1270,31.786,893930000.0,0.013483,578.45,1581.9,-1003.5,-3.7775
1271,0.0,0.0,0.0,283.6,290.6,-7.0,-2.95
1272,32.286,262140000.0,0.0044248,-985.6,18.398,-1004.0,-3.774
1273,0.0,0.0,0.0,1858.2,1865.2,-7.0,-2.8385
1274,36.4,162310000.0,0.0054945,-959.26,37.736,-997.0,-3.818
1275,0.0,0.0,0.0,1310.2,1312.2,-2.0,-2.942
1276,34.7,174460000.0,0.0057637,-690.55,309.95,-1000.5,-3.8265
1277,34.0,36570000.0,0.0027574,-981.03,15.972,-997.0,-2.912
1278,32.5,284630000.0,0.010256,-985.95,16.05,-1002.0,-3.805
1279,33.143,410280000.0,0.0043103,91.84,1091.8,-1000.0,-3.768
1280,0.0,0.0,0.0,751.94,756.94,-5.0,-2.95
1281,34.688,97300000.0,0.010811,-790.22,208.28,-998.5,-3.7225
1282,35.2,233700000.0,0.0028409,-60.89,938.11,-999.0,-3.648
1283,0.0,0.0,0.0,636.6,639.1,-2.5,-2.925
1284,0.0,0.0,0.0,197.04,201.04,-4.0,-2.95
1285,32.111,22578000.0,0.0051903,-986.02,14.981,-1001.0,-3.422
1286,0.0,0.0,0.0,-4.5721,1.4279,-6.0,-2.95
1287,33.125,27925000.0,0.0090566,-830.34,171.66,-1002.0,-3.3375
1288,0.0,0.0,0.0,1493.7,1499.7,-6.0,-2.95
1289,30.0,483400000.0,0.011111,-997.82,9.1775,-1007.0,-3.91
1290,33.6,309020000.0,0.0029762,246.87,1249.9,-1003.0,-3.664
1291,38.591,161410000.0,0.0011779,526.72,1522.7,-996.0,-3.151
1292,32.818,19474000.0,0.019391,-972.33,28.171,-1000.5,-3.639
1293,30.5,89895000.0,0.002893,248.53,1254.0,-1005.5,-2.963
1294,34.5,373130000.0,0.021739,-996.97,2.0319,-999.0,-3.862
1295,37.0,224970000.0,0.0050676,-992.73,4.2677,-997.0,-3.408
1296,0.0,0.0,0.0,-0.99793,6.0021,-7.0,-2.946
1297,0.0,0.0,0.0,2459.2,2463.2,-4.0,-2.95
1298,32.222,154380000.0,0.0034483,-448.34,555.16,-1003.5,-3.71
1299,32.143,447490000.0,0.0044444,202.48,1206.0,-1003.5,-3.775
1300,0.0,0.0,0.0,363.75,368.75,-5.0,-2.95
1301,0.0,0.0,0.0,690.6,696.6,-6.0,-2.95
1302,35.646,49166000.0,0.011689,-987.71,8.2899,-996.0,-3.1445
1303,32.321,83286000.0,0.0066298,-591.85,411.65,-1003.5,-3.5475
1304,0.0,0.0,0.0,1356.5,1360.5,-4.0,-2.95
1305,32.65,359170000.0,0.012251,-1002.8,1.6522,-1004.5,-3.6735
1306,34.833,4467800.0,0.017225,-1002.2,0.8082,-1003.0,-3.4775
1307,31.0,76194000.0,0.0040323,-764.99,240.01,-1005.0,-3.752
1308,33.286,15065000.0,0.011803,-992.58,4.4197,-997.0,-3.068
1309,0.0,0.0,0.0,300.53,307.53,-7.0,-2.95
1310,0.0,0.0,0.0,900.52,906.52,-6.0,-2.95
1311,32.188,195970000.0,0.007767,-476.1,527.4,-1003.5,-3.7425
1312,0.0,0.0,0.0,873.14,878.14,-5.0,-2.95
1313,33.333,49937000.0,0.005,-890.09,111.91,-1002.0,-3.8
1314,35.0,149520000.0,0.0040816,-599.69,400.81,-1000.5,-3.755
1315,33.529,13042000.0,0.0052632,-993.83,10.17,-1004.0,-3.43
1316,0.0,0.0,0.0,472.68,479.68,-7.0,-2.95
1317,0.0,0.0,0.0,1379.3,1386.3,-7.0,-2.948
1318,0.0,0.0,0.0,1380.7,1387.7,-7.0,-2.941
1319,34.464,111780000.0,0.0020725,-350.17,645.83,-996.0,-3.5175
1320,0.0,0.0,0.0,336.14,343.14,-7.0,-2.95
1321,0.0,0.0,0.0,226.26,233.26,-7.0,-2.95
1322,38.0,19829000.0,0.007177,-998.08,7.9183,-1006.0,-3.582
1323,0.0,0.0,0.0,730.77,737.77,-7.0,-2.95
1324,36.4,751550000.0,0.0054945,323.34,1319.3,-996.0,-3.818
1325,0.0,0.0,0.0,38.147,43.147,-5.0,-2.95
1326,0.0,0.0,0.0,1723.3,1728.3,-5.0,-2.95
1327,0.0,0.0,0.0,286.04,291.04,-5.0,-2.95
1328,33.333,129090000.0,0.01,-772.96,230.04,-1003.0,-3.8
1329,0.0,0.0,0.0,677.07,684.07,-7.0,-2.95
1330,0.0,0.0,0.0,237.72,242.72,-5.0,-2.95
1331,35.289,157730000.0,0.0059657,43.876,1042.9,-999.0,-3.3295
1332,31.25,685740000.0,0.008,-90.089,913.41,-1003.5,-3.875
1333,34.0,191960000.0,0.0058824,-998.03,2.9722,-1001.0,-3.83
1334,0.0,0.0,0.0,7.0403,2.0403,5.0,-2.8165
1335,33.5,382260000.0,0.0074627,23.955,1027.0,-1003.0,-3.732
1336,36.969,27300000.0,0.0016906,-812.73,183.27,-996.0,-3.4085
1337,32.0,42599000.0,0.0074405,-697.29,306.71,-1004.0,-3.328
1338,0.0,0.0,0.0,326.22,332.22,-6.0,-2.95
1339,36.16,91776000.0,0.0011062,-9.7053,990.79,-1000.5,-3.096
1340,0.0,0.0,0.0,221.87,227.87,-6.0,-2.95
1341,0.0,0.0,0.0,-4.709,1.291,-6.0,-2.95
1342,34.0,110160000.0,0.016807,-853.28,148.72,-1002.0,-3.762
1343,32.0,89019000.0,0.019531,-883.82,120.18,-1004.0,-3.744
1344,0.0,0.0,0.0,628.76,633.76,-5.0,-2.95
1345,31.479,195590000.0,0.0013236,1017.0,2021.5,-1004.5,-3.2445
1346,0.0,0.0,0.0,554.56,561.56,-7.0,-2.95
1347,,,,,,,
1348,0.0,0.0,0.0,1121.1,1125.1,-4.0,-2.95
1349,35.8,119360000.0,0.011173,-990.4,5.6039,-996.0,-3.821
1350,33.433,154810000.0,0.001994,-29.478,971.02,-1000.5,-3.4985
1351,33.333,191620000.0,0.015,-748.49,253.51,-1002.0,-3.8
1352,0.0,0.0,0.0,1739.5,1744.5,-5.0,-2.95
1353,0.0,0.0,0.0,1005.7,1010.7,-5.0,-2.95
1354,0.0,0.0,0.0,130.73,137.73,-7.0,-2.95
1355,30.5,97660000.0,0.021215,-741.82,263.68,-1005.5,-3.4815
1356,0.0,0.0,0.0,1451.0,1457.0,-6.0,-2.9245
1357,38.1,85719000.0,0.0017498,-458.87,540.63,-999.5,-3.4285
1358,0.0,0.0,0.0,963.41,970.41,-7.0,-2.95
1359,34.0,478830000.0,0.0098039,245.82,1245.3,-999.5,-3.694
1360,0.0,0.0,0.0,324.8,331.8,-7.0,-2.9445
1361,37.708,131570000.0,0.01105,-583.42,416.08,-999.5,-3.5475
1362,33.094,81719000.0,0.0018886,-451.41,550.59,-1002.0,-3.4705
1363,36.4,38027000.0,0.0054945,-930.24,66.757,-997.0,-3.818
1364,0.0,0.0,0.0,681.36,685.36,-4.0,-2.95
1365,32.667,1422000000.0,0.030612,-1003.0,0.0,-1003.0,-3.902
1366,33.733,196340000.0,0.0019763,234.23,1236.2,-1002.0,-3.494
1367,0.0,0.0,0.0,569.54,575.54,-6.0,-2.95
1368,33.6,426390000.0,0.0029762,712.19,1713.2,-1001.0,-3.664
1369,30.5,93298000.0,0.0019286,-333.76,671.74,-1005.5,-3.4815
1370,31.294,52748000.0,0.0056391,-675.85,326.15,-1002.0,-3.468
1371,32.444,47147000.0,0.0017123,-641.65,358.35,-1000.0,-3.416
1372,0.0,0.0,0.0,783.11,787.11,-4.0,-2.95
1373,0.0,0.0,0.0,386.22,391.22,-5.0,-2.95
1374,0.0,0.0,0.0,14.691,11.691,3.0,-2.6835
1375,38.75,356240000.0,0.0021505,761.19,1758.2,-997.0,-3.535
1376,0.0,0.0,0.0,2203.8,2207.8,-4.0,-2.95
1377,0.0,0.0,0.0,711.9,715.9,-4.0,-2.95
1378,38.875,5017800.0,0.012862,-991.56,4.4366,-996.0,-3.378
1379,33.0,516530000.0,0.0075758,-994.6,10.404,-1005.0,-3.868
1380,0.0,0.0,0.0,1540.7,1545.7,-5.0,-2.95
1381,0.0,0.0,0.0,1092.3,1098.3,-6.0,-2.95
1382,33.0,59129000.0,0.003367,-978.77,24.234,-1003.0,-3.703
1383,36.6,7696200.0,0.0091075,-1000.3,7.6533,-1008.0,-3.451
1384,0.0,0.0,0.0,1057.0,1064.0,-7.0,-2.95
1385,,,,,,,
1386,0.0,0.0,0.0,696.82,702.82,-6.0,-2.95
1387,32.75,37297000.0,0.012405,-726.41,270.59,-997.0,-2.952
1388,0.0,0.0,0.0,2194.0,2199.0,-5.0,-2.95
1389,0.0,0.0,0.0,1116.0,1121.5,-5.5,-2.9325
1390,0.0,0.0,0.0,24.717,30.717,-6.0,-2.942
1391,32.5,833070000.0,0.0038462,-997.82,9.1755,-1007.0,-3.74
1392,35.308,41530000.0,0.017429,-919.19,77.808,-997.0,-3.541
1393,0.0,0.0,0.0,113.36,114.86,-1.5,-2.722
1394,0.0,0.0,0.0,777.12,784.12,-7.0,-2.94
1395,0.0,0.0,0.0,680.85,685.85,-5.0,-2.95
1396,0.0,0.0,0.0,904.25,910.25,-6.0,-2.915
1397,34.083,83661000.0,0.00489,-813.93,185.57,-999.5,-3.7955
1398,0.0,0.0,0.0,1059.4,1066.4,-7.0,-2.923
1399,33.5,1460100000.0,0.0099502,-1000.5,1.0005,-1001.5,-3.8995
1400,0.0,0.0,0.0,554.1,559.1,-5.0,-2.95
1401,0.0,0.0,0.0,531.01,537.01,-6.0,-2.95
1402,0.0,0.0,0.0,1009.8,1013.8,-4.0,-2.95
1403,0.0,0.0,0.0,98.115,102.11,-4.0,-2.95
1404,31.667,61186000.0,0.010526,-949.16,54.343,-1003.5,-3.905
1405,33.0,128570000.0,0.0075758,-830.18,171.82,-1002.0,-3.868
1406,0.0,0.0,0.0,255.78,258.78,-3.0,-2.926
1407,32.0,675990000.0,0.0052083,515.97,1521.0,-1005.0,-3.808
1408,0.0,0.0,0.0,359.37,363.37,-4.0,-2.95
1409,37.429,85026000.0,0.01145,-850.84,145.16,-996.0,-3.738
1410,32.062,7700000.0,0.0038986,-1002.9,2.6351,-1005.5,-3.7435
1411,33.864,196210000.0,0.0026846,-986.84,14.66,-1001.5,-3.6275
1412,0.0,0.0,0.0,1309.9,1316.9,-7.0,-2.95
1413,0.0,0.0,0.0,28.853,33.853,-5.0,-2.95
1414,0.0,0.0,0.0,1836.9,1840.9,-4.0,-2.94
1415,0.0,0.0,0.0,262.24,269.24,-7.0,-2.95
1416,0.0,0.0,0.0,212.38,218.38,-6.0,-2.95
1417,0.0,0.0,0.0,-2.7855,3.2145,-6.0,-2.946
1418,0.0,0.0,0.0,591.24,597.24,-6.0,-2.95
1419,31.357,81007000.0,0.014806,-488.09,514.41,-1002.5,-3.122
1420,0.0,0.0,0.0,968.73,975.73,-7.0,-2.95
1421,0.0,0.0,0.0,529.52,533.52,-4.0,-2.95
1422,0.0,0.0,0.0,397.88,402.88,-5.0,-2.95
1423,0.0,0.0,0.0,740.24,746.24,-6.0,-2.95
1424,0.0,0.0,0.0,-4.7325,2.2675,-7.0,-2.95
1425,34.333,209010000.0,0.012136,-415.23,580.77,-996.0,-3.588
1426,0.0,0.0,0.0,446.06,453.06,-7.0,-2.9325
1427,0.0,0.0,0.0,214.99,221.99,-7.0,-2.95
1428,0.0,0.0,0.0,409.93,415.93,-6.0,-2.95
1429,35.921,146530000.0,0.0014652,-999.17,3.8278,-1003.0,-3.3175
1430,,,,,,,
1431,0.0,0.0,0.0,1007.0,1014.0,-7.0,-2.95
1432,38.05,383870000.0,0.0026281,548.81,1545.8,-997.0,-3.6195
1433,0.0,0.0,0.0,494.89,499.89,-5.0,-2.946
1434,33.0,43348000.0,0.030303,-1004.0,0.0,-1004.0,-3.868
1435,0.0,0.0,0.0,1343.4,1350.4,-7.0,-2.95
1436,0.0,0.0,0.0,1962.2,1966.2,-4.0,-2.95
1437,0.0,0.0,0.0,262.7,262.2,0.5,-2.6745
1438,0.0,0.0,0.0,1075.6,1080.6,-5.0,-2.95
1439,32.0,65382000.0,0.003125,-739.2,264.8,-1004.0,-3.68
1440,35.719,116350000.0,0.0017498,-216.92,779.08,-996.0,-3.4285
1441,0.0,0.0,0.0,641.44,648.44,-7.0,-2.95
1442,0.0,0.0,0.0,853.79,859.79,-6.0,-2.9475
1443,36.118,11343000.0,0.0016287,-986.39,17.614,-1004.0,-3.386
1444,0.0,0.0,0.0,90.458,94.458,-4.0,-2.95
1445,0.0,0.0,0.0,1877.2,1882.2,-5.0,-2.95
1446,0.0,0.0,0.0,998.66,1005.7,-7.0,-2.7905
1447,32.143,566850000.0,0.0044444,523.16,1527.7,-1004.5,-3.775
1448,0.0,0.0,0.0,662.34,667.34,-5.0,-2.95
1449,0.0,0.0,0.0,3219.2,3225.2,-6.0,-2.95
1450,0.0,0.0,0.0,107.93,114.93,-7.0,-2.95
1451,0.0,0.0,0.0,19.37,25.37,-6.0,-2.95
1452,32.0,295410000.0,0.010417,-206.39,797.61,-1004.0,-3.712
1453,0.0,0.0,0.0,416.87,420.87,-4.0,-2.95
1454,0.0,0.0,0.0,302.96,309.96,-7.0,-2.918
1455,0.0,0.0,0.0,304.99,311.99,-7.0,-2.934
1456,0.0,0.0,0.0,-0.87845,5.1215,-6.0,-2.95
1457,32.667,281410000.0,0.010204,-505.79,496.21,-1002.0,-3.804
1458,0.0,0.0,0.0,5.0551,11.055,-6.0,-2.95
1459,34.7,249040000.0,0.0057637,-557.04,442.46,-999.5,-3.8265
1460,0.0,0.0,0.0,238.86,244.86,-6.0,-2.95
1461,,,,,,,
1462,38.765,87204000.0,0.0015175,-369.38,626.62,-996.0,-3.341
1463,0.0,0.0,0.0,886.2,891.2,-5.0,-2.95
1464,0.0,0.0,0.0,1059.3,1063.3,-4.0,-2.95
1465,0.0,0.0,0.0,808.38,814.38,-6.0,-2.95
1466,0.0,0.0,0.0,36.108,40.108,-4.0,-2.95
1467,0.0,0.0,0.0,179.41,184.41,-5.0,-2.95
1468,31.0,83208000.0,0.0046083,-781.34,224.66,-1006.0,-3.783
1469,0.0,0.0,0.0,106.01,110.01,-4.0,-2.95
1470,31.333,336930000.0,0.010638,-970.55,36.451,-1007.0,-3.906
1471,0.0,0.0,0.0,4.0435,8.0435,-4.0,-2.95
1472,37.25,102230000.0,0.0033557,-950.61,54.389,-1005.0,-3.702
1473,32.083,138210000.0,0.0051948,-972.77,30.727,-1003.5,-3.8075
1474,37.75,453360000.0,0.013245,-420.44,575.56,-996.0,-3.7735
1475,0.0,0.0,0.0,865.77,871.77,-6.0,-2.95
1476,34.444,309610000.0,0.0096774,-200.64,798.86,-999.5,-3.69
1477,0.0,0.0,0.0,820.94,824.94,-4.0,-2.95
1478,0.0,0.0,0.0,556.59,562.59,-6.0,-2.95
1479,0.0,0.0,0.0,404.94,410.94,-6.0,-2.95
1480,33.667,121720000.0,0.0049505,-729.3,271.7,-1001.0,-3.798
1481,31.0,495110000.0,0.024194,-783.2,222.8,-1006.0,-3.876
1482,0.0,0.0,0.0,161.31,165.31,-4.0,-2.95
1483,0.0,0.0,0.0,428.22,435.22,-7.0,-2.95
1484,0.0,0.0,0.0,1551.7,1555.7,-4.0,-2.915
1485,33.667,174720000.0,0.0024752,-137.9,864.1,-1002.0,-3.596
1486,30.526,8236700.0,0.0017241,-937.02,66.478,-1003.5,-3.42
1487,,,,,,,
1488,31.143,17797000.0,0.027523,-999.4,3.6001,-1003.0,-3.782
1489,0.0,0.0,0.0,399.65,404.65,-5.0,-2.95
1490,0.0,0.0,0.0,654.04,660.04,-6.0,-2.942
1491,34.062,356520000.0,0.0036697,124.06,1128.1,-1004.0,-3.7275
1492,32.4,33929000.0,0.0082305,-997.59,6.4106,-1004.0,-3.514
1493,0.0,0.0,0.0,378.95,383.95,-5.0,-2.915
1494,32.273,49289000.0,0.0028169,-781.86,221.64,-1003.5,-3.645
1495,0.0,0.0,0.0,575.66,580.66,-5.0,-2.95
1496,0.0,0.0,0.0,378.4,383.4,-5.0,-2.95
1497,0.0,0.0,0.0,88.082,89.082,-1.0,-2.918
1498,0.0,0.0,0.0,620.95,625.95,-5.0,-2.95
