,averag,DR_56v,ho_den,Reward,R_tele,R_tran
0,32.8,28644000.0,0.02439,-1005.5,0.0,-1005.5
1,33.2,39555.0,0.03012,-1003.0,0.0,-1003.0
2,34.694,24429.0,0.02562,-1000.2,0.28438,-1000.5
3,30.9,650740.0,0.032362,-1007.0,0.0,-1007.0
4,31.538,115380.0,0.026829,-999.0,0.0,-999.0
5,0.0,0.0,0.0,-1008.0,0.0,-1008.0
6,32.85,1488600.0,0.024353,-991.06,7.443,-998.5
7,31.4,670670.0,0.031847,-1003.5,0.0,-1003.5
8,30.727,28828.0,0.032544,-1001.0,0.0,-1001.0
9,34.364,684430.0,0.029101,-1003.0,0.0,-1003.0
10,33.079,7876.3,0.025457,-997.98,0.021965,-998.0
11,33.25,13388000.0,0.022556,-1009.5,0.0,-1009.5
12,33.5,183340.0,0.029851,-999.5,0.0,-999.5
13,32.4,552090.0,0.030864,-1003.0,0.0,-1003.0
14,35.417,1533200.0,0.023529,-1002.1,0.37085,-1002.5
15,36.25,53947.0,0.027586,-997.0,0.0,-997.0
16,30.444,150090.0,0.029197,-1006.8,0.16898,-1007.0
17,31.714,17436.0,0.031532,-1003.0,0.0,-1003.0
18,0.0,0.0,0.0,-1006.0,0.0,-1006.0
19,36.0,47427.0,0.027778,-996.0,0.0,-996.0
20,0.0,0.0,0.0,5.1767,0.17666,5.0
21,31.5,468590.0,0.027513,-1004.0,0.0,-1004.0
22,32.389,9729.2,0.02916,-999.5,0.0,-999.5
23,34.0,170800.0,0.029412,-1003.0,0.0,-1003.0
24,35.321,305950.0,0.026289,-1000.2,2.2997,-1002.5
25,33.3,6147900.0,0.03003,-1002.0,0.0,-1002.0
26,32.625,144480.0,0.030651,-1000.5,0.0,-1000.5
27,31.667,105050.0,0.031579,-1004.5,0.0,-1004.5
28,35.385,584730.0,0.021739,-995.85,0.14784,-996.0
29,31.8,122300.0,0.025157,-1004.5,0.013784,-1004.5
30,30.818,3368600.0,0.032448,-1004.5,0.0,-1004.5
31,0.0,0.0,0.0,-1005.0,0.0,-1005.0
32,30.583,7267700.0,0.029973,-1005.5,0.0,-1005.5
33,33.2,2517200.0,0.03012,-1003.0,0.0,-1003.0
34,32.731,284020.0,0.024677,-995.94,0.060107,-996.0
35,0.0,0.0,0.0,-1006.0,0.0,-1006.0
36,36.667,502960.0,0.027273,-997.0,0.0,-997.0
37,32.536,331410.0,0.02854,-1003.0,0.0,-1003.0
38,30.333,10015000.0,0.032967,-1007.0,0.0,-1007.0
39,34.167,190580.0,0.029268,-999.0,0.0,-999.0
40,32.75,50856.0,0.030534,-996.0,0.0,-996.0
41,34.75,3046100.0,0.02518,-998.83,0.17098,-999.0
42,33.9,90308.0,0.023599,-988.42,14.584,-1003.0
43,0.0,0.0,0.0,-1006.0,0.0,-1006.0
44,32.6,6995400.0,0.018405,-1004.2,0.2982,-1004.5
45,34.6,20928000.0,0.023121,-996.0,0.0,-996.0
46,30.0,7713700.0,0.033333,-1005.0,0.0,-1005.0
47,30.818,266180.0,0.023599,-1003.2,4.7572,-1008.0
48,32.5,922680.0,0.023077,-1006.4,1.6405,-1008.0
49,32.86,5235400.0,0.025563,-1005.8,3.6895,-1009.5
50,35.5,122280.0,0.028169,-997.0,0.0,-997.0
51,38.184,1813200.0,0.02481,-1000.2,0.77291,-1001.0
52,32.5,13386.0,0.027149,-1000.0,0.0,-1000.0
53,0.0,0.0,0.0,-1007.0,0.0,-1007.0
54,0.0,0.0,0.0,-1006.0,0.0,-1006.0
55,32.4,1544800.0,0.027778,-1001.8,1.1683,-1003.0
56,38.136,1335000.0,0.026222,-996.0,0.0,-996.0
57,33.1,305050.0,0.030211,-1000.5,0.0,-1000.5
58,31.929,58071.0,0.026846,-1001.4,1.5656,-1003.0
59,30.9,8623.4,0.032362,-1004.4,3.6189,-1008.0
60,33.707,556.25,0.027621,-997.0,0.0,-997.0
61,33.056,406110.0,0.030252,-1009.5,0.020724,-1009.5
62,31.556,181170.0,0.03169,-1002.0,0.0,-1002.0
63,31.778,254370.0,0.027972,-1003.0,0.0,-1003.0
64,30.786,806440.0,0.025522,-996.28,6.7191,-1003.0
65,32.667,70604.0,0.030612,-1002.0,0.0,-1002.0
66,36.846,250180.0,0.025052,-996.74,1.2573,-998.0
67,34.083,521650.0,0.02934,-1000.5,0.0,-1000.5
68,35.167,656810.0,0.023697,-996.52,0.47876,-997.0
69,31.667,1872000.0,0.031579,-1003.5,0.0,-1003.5
70,38.429,426630.0,0.024164,-994.3,3.6971,-998.0
71,31.875,185920.0,0.031373,-1000.0,0.0,-1000.0
72,31.154,62296.0,0.02963,-1006.5,0.0,-1006.5
73,36.417,24620.0,0.02746,-997.0,0.0,-997.0
74,31.25,739520.0,0.028,-1008.0,0.0,-1008.0
75,33.083,159390.0,0.030227,-1000.5,0.0,-1000.5
76,36.417,293950.0,0.02746,-997.0,0.0,-997.0
77,31.667,8558500.0,0.031579,-1003.5,0.0,-1003.5
78,36.583,12619.0,0.018223,-997.0,0.0,-997.0
79,30.955,1440400.0,0.032305,-1001.0,0.0,-1001.0
80,0.0,0.0,0.0,-1008.0,0.0,-1008.0
81,30.312,751490.0,0.03299,-1004.5,0.0,-1004.5
82,30.0,51346.0,0.033333,-1005.0,0.0,-1005.0
83,33.267,25112.0,0.026052,-997.0,0.0,-997.0
84,34.658,1269000.0,0.025816,-999.21,0.29364,-999.5
85,0.0,0.0,0.0,-1005.0,0.0,-1005.0
86,34.786,386590.0,0.024641,-1000.2,0.25714,-1000.5
87,0.0,0.0,0.0,-1008.0,0.0,-1008.0
88,31.667,695820.0,0.026316,-998.43,5.0719,-1003.5
89,32.786,30112.0,0.030501,-998.0,0.0,-998.0
90,37.679,295920.0,0.024645,-995.79,0.21028,-996.0
91,30.833,3339.3,0.024324,-999.89,3.1118,-1003.0
92,34.667,58137.0,0.025641,-995.0,0.0,-995.0
93,31.486,17321.0,0.029038,-1007.2,0.80155,-1008.0
94,31.438,231590.0,0.031809,-1004.5,0.0,-1004.5
95,30.85,25119.0,0.032415,-1004.9,0.1313,-1005.0
96,31.667,2797600.0,0.031579,-1005.5,0.0,-1005.5
97,37.0,83052.0,0.022523,-996.78,0.22222,-997.0
98,31.833,11833000.0,0.027923,-1004.5,0.0,-1004.5
99,30.0,63417.0,0.033333,-1007.0,0.0,-1007.0
100,31.538,553310.0,0.029268,-1003.0,0.0,-1003.0
101,33.0,154460.0,0.030303,-1006.0,0.0,-1006.0
102,30.357,50060.0,0.023529,-1007.0,0.0,-1007.0
103,35.0,387.2,0.014286,-983.05,13.951,-997.0
104,32.05,1980000.0,0.024961,-1008.0,0.0,-1008.0
105,34.643,1240900.0,0.024742,-996.95,0.04762,-997.0
106,32.667,20315.0,0.030612,-1002.0,0.0,-1002.0
107,33.917,6208900.0,0.029484,-999.5,0.0,-999.5
108,30.867,621910.0,0.025918,-1003.1,0.89366,-1004.0
109,30.42,795660.0,0.027613,-1004.2,0.33322,-1004.5
110,0.0,0.0,0.0,-1007.0,0.0,-1007.0
111,33.571,3513400.0,0.025532,-995.46,6.5352,-1002.0
112,34.0,82234.0,0.029412,-1004.0,0.0,-1004.0
113,30.867,1140800.0,0.025918,-1001.8,5.2258,-1007.0
114,32.327,130450.0,0.029744,-1007.0,0.0,-1007.0
115,35.429,68490.0,0.028226,-997.0,0.0,-997.0
116,30.0,72532.0,0.03,-1007.5,0.53346,-1008.0
117,32.458,333510.0,0.030809,-1003.0,0.0,-1003.0
118,33.056,28176.0,0.030252,-999.5,0.0,-999.5
119,33.7,91934.0,0.026706,-999.4,0.10435,-999.5
120,0.0,0.0,0.0,-1007.0,0.0,-1007.0
121,32.438,562610.0,0.030829,-1002.0,0.0,-1002.0
122,30.625,431490.0,0.02449,-1005.2,0.34266,-1005.5
123,32.433,826250.0,0.028777,-998.0,0.0,-998.0
124,31.286,319570.0,0.02968,-1000.5,0.0,-1000.5
125,35.067,138290.0,0.026616,-997.0,0.0,-997.0
126,34.667,1140000.0,0.028846,-1001.0,0.0,-1001.0
127,36.214,13080000.0,0.023669,-953.18,46.322,-999.5
128,0.0,0.0,0.0,-1005.5,0.0,-1005.5
129,37.938,589170.0,0.025261,-997.0,0.0,-997.0
130,33.263,79270.0,0.030063,-999.0,0.0,-999.0
131,31.55,507830.0,0.031696,-1004.5,0.0,-1004.5
132,0.0,0.0,0.0,-1006.0,0.0,-1006.0
133,30.833,171600.0,0.03027,-1001.2,2.2797,-1003.5
134,36.833,467150.0,0.024133,-996.44,0.5563,-997.0
135,31.75,567.84,0.028633,-1002.0,0.0076218,-1002.0
136,30.667,37524.0,0.032609,-1007.0,0.0,-1007.0
137,32.237,54775.0,0.029388,-1004.5,0.018683,-1004.5
138,30.812,6979.9,0.02975,-1006.8,0.18479,-1007.0
139,31.294,506950.0,0.028195,-999.0,0.0,-999.0
140,34.167,14574.0,0.029268,-997.0,0.0,-997.0
141,35.0,1232700.0,0.021429,-990.78,8.7167,-999.5
142,32.217,4165.5,0.031039,-1001.5,0.0,-1001.5
143,35.182,11878000.0,0.02584,-997.0,0.0,-997.0
144,37.9,2369.4,0.026385,-1005.4,0.57519,-1006.0
145,32.214,113740.0,0.031042,-1000.5,0.0,-1000.5
146,31.12,301400.0,0.025707,-1006.3,0.69838,-1007.0
147,31.714,319210.0,0.027027,-1002.2,0.81528,-1003.0
148,31.833,8732.7,0.031414,-1000.5,0.0,-1000.5
149,33.306,167500.0,0.023353,-995.5,0.49777,-996.0
150,31.0,240820.0,0.02957,-1004.0,0.0,-1004.0
151,31.667,2224900.0,0.031579,-1002.0,0.0,-1002.0
152,37.4,1693300.0,0.026738,-996.0,0.0,-996.0
153,38.0,4635700.0,0.024436,-975.07,24.429,-999.5
154,34.75,10293.0,0.021583,-993.37,3.6291,-997.0
155,0.0,0.0,0.0,3.0,0.0,3.0
156,31.6,84147.0,0.031646,-1003.0,0.0,-1003.0
157,31.769,287810.0,0.029056,-1005.5,0.0,-1005.5
158,31.694,945510.0,0.029798,-1002.0,0.0,-1002.0
159,33.6,115180.0,0.029762,-1004.4,0.059771,-1004.5
160,35.7,7982.0,0.028011,-998.0,0.0,-998.0
161,35.062,5930.1,0.024955,-1001.0,0.0030939,-1001.0
162,30.361,91198.0,0.032937,-1006.6,0.43369,-1007.0
163,31.25,12243.0,0.028,-1002.9,0.067688,-1003.0
164,30.5,284620.0,0.032787,-1008.0,0.0,-1008.0
165,30.357,74469.0,0.032941,-1004.5,0.0,-1004.5
166,31.458,42884.0,0.031788,-1007.0,0.0,-1007.0
167,32.472,224660.0,0.023952,-1005.6,1.375,-1007.0
168,30.639,315330.0,0.032638,-1008.0,0.0,-1008.0
169,33.974,20798.0,0.024787,-997.9,0.10331,-998.0
170,30.0,328770.0,0.033333,-1007.0,0.0,-1007.0
171,38.182,274290.0,0.02381,-993.63,2.3739,-996.0
172,31.333,2775000.0,0.031915,-1007.0,0.0,-1007.0
173,30.932,64307.0,0.03086,-1000.4,7.6388,-1008.0
174,0.0,0.0,0.0,-1007.0,0.0,-1007.0
175,37.346,2845100.0,0.022657,-990.38,6.6198,-997.0
176,37.955,2254.6,0.026347,-997.0,0.0,-997.0
177,32.952,20722.0,0.025453,-970.51,36.489,-1007.0
178,30.458,2.3253,0.030096,-1007.0,0.0,-1007.0
179,30.597,1668.6,0.028466,-1005.7,1.3282,-1007.0
180,0.0,0.0,0.0,-5.9877,0.012257,-6.0
181,30.0,8124000.0,0.027778,-1004.9,0.13385,-1005.0
182,33.604,164810.0,0.024799,-1005.6,1.4433,-1007.0
183,0.0,0.0,0.0,0.13733,7.1373,-7.0
184,30.5,427100.0,0.032787,-1002.5,0.0,-1002.5
185,33.526,261430.0,0.028257,-996.0,0.0,-996.0
186,30.312,9868.3,0.03299,-1006.0,0.049548,-1006.0
187,30.413,1027200.0,0.030021,-1007.0,0.0,-1007.0
188,30.227,166360.0,0.033083,-1005.5,0.0,-1005.5
189,30.0,952360.0,0.033333,-1007.0,0.0,-1007.0
190,33.857,150750.0,0.021097,-1000.5,0.0,-1000.5
191,32.3,29073.0,0.029412,-997.0,0.0,-997.0
192,33.75,4136600.0,0.024691,-991.23,8.2731,-999.5
193,30.0,890840.0,0.033333,-1005.0,0.0,-1005.0
194,31.462,237750.0,0.028117,-1007.6,0.39414,-1008.0
195,30.833,24728.0,0.032432,-1003.5,0.0,-1003.5
196,30.0,1803800.0,0.033333,-1006.0,0.0,-1006.0
197,0.0,0.0,0.0,0.26542,6.2654,-6.0
198,31.727,899370.0,0.022923,-992.18,9.8222,-1002.0
199,0.0,0.0,0.0,-1006.0,0.0,-1006.0
200,33.812,188120.0,0.025878,-1002.6,0.90131,-1003.5
201,0.0,0.0,0.0,7.1777,2.1777,5.0
202,31.64,100580.0,0.027813,-1005.5,0.014127,-1005.5
203,32.308,190440.0,0.028571,-1005.9,1.112,-1007.0
204,31.348,318600.0,0.030513,-1006.0,0.0,-1006.0
205,0.0,0.0,0.0,-5.8609,1.1391,-7.0
206,38.5,4567700.0,0.025974,-996.0,0.0,-996.0
207,33.115,795410.0,0.027875,-1003.6,4.4207,-1008.0
208,30.036,1673600.0,0.033294,-1008.0,0.0,-1008.0
209,38.346,860650.0,0.022066,-962.81,33.186,-996.0
210,30.139,270680.0,0.02765,-1004.1,0.39187,-1004.5
211,0.0,0.0,0.0,-5.8502,0.14977,-6.0
212,31.632,97106.0,0.028286,-1000.5,0.0,-1000.5
213,0.0,0.0,0.0,-6.7901,0.20988,-7.0
214,0.0,0.0,0.0,-5.9165,0.083533,-6.0
215,32.273,3386400.0,0.030986,-1001.0,0.0,-1001.0
216,0.0,0.0,0.0,-5.4453,1.5547,-7.0
217,30.281,588710.0,0.03096,-1007.0,0.0,-1007.0
218,0.0,0.0,0.0,-5.5,0.0,-5.5
219,37.324,19615.0,0.023641,-995.4,0.6002,-996.0
220,0.0,0.0,0.0,9.0253,16.025,-7.0
221,30.0,720430.0,0.022222,-1007.0,0.0,-1007.0
222,38.333,186550.0,0.026087,-996.0,0.0,-996.0
223,30.0,107600.0,0.030952,-1007.0,0.027327,-1007.0
224,31.15,1525400.0,0.028892,-1006.9,0.099607,-1007.0
225,32.875,235330.0,0.025349,-1002.7,0.83818,-1003.5
226,33.111,169620.0,0.028523,-1003.0,0.0,-1003.0
227,30.0,24128000.0,0.022222,-1006.3,0.73918,-1007.0
228,35.857,288820.0,0.025896,-1001.2,0.78786,-1002.0
229,33.75,1695700.0,0.02963,-1004.5,0.0,-1004.5
230,0.0,0.0,0.0,-4.9306,1.0694,-6.0
231,36.658,4778100.0,0.025844,-997.0,0.0,-997.0
232,30.909,173090.0,0.032353,-1002.5,0.0,-1002.5
233,30.375,180390.0,0.027435,-1001.8,1.6864,-1003.5
234,32.294,65521.0,0.029144,-1004.2,2.7864,-1007.0
235,37.339,3983.8,0.023912,-995.09,0.90858,-996.0
236,33.0,1602400.0,0.020202,-1004.5,0.0,-1004.5
237,0.0,0.0,0.0,5.2563,12.256,-7.0
238,0.0,0.0,0.0,5.0,0.0,5.0
239,0.0,0.0,0.0,4.0,0.0,4.0
240,30.688,254920.0,0.032587,-1004.5,0.0,-1004.5
241,30.923,138270.0,0.027363,-1003.0,0.0,-1003.0
242,30.208,4698.9,0.027586,-1003.6,4.3873,-1008.0
243,0.0,0.0,0.0,-4.5463,1.4537,-6.0
244,31.021,278880.0,0.028207,-1006.3,0.17306,-1006.5
245,30.435,60189.0,0.028571,-1006.7,0.29919,-1007.0
246,30.444,203740.0,0.029197,-1006.7,1.2584,-1008.0
247,30.667,87599.0,0.032609,-1008.0,0.0,-1008.0
248,36.5,597350.0,0.025571,-1002.5,0.47276,-1003.0
249,32.933,86533.0,0.02834,-1001.8,0.21283,-1002.0
250,30.192,377310.0,0.033121,-1005.5,0.0,-1005.5
251,0.0,0.0,0.0,-10.094,0.9059,-11.0
252,0.0,0.0,0.0,-5.8327,0.16727,-6.0
253,31.978,10307.0,0.025833,-1003.0,2.5026,-1005.5
254,36.778,149830.0,0.024169,-1004.0,0.99667,-1005.0
255,36.4,128060.0,0.021978,-996.65,0.34831,-997.0
256,0.0,0.0,0.0,-4.97,1.03,-6.0
257,0.0,0.0,0.0,1.0,0.0,1.0
258,31.0,504990.0,0.032258,-1007.0,0.0,-1007.0
259,0.0,0.0,0.0,2.5,0.0,2.5
260,30.286,160090.0,0.028302,-1007.0,0.016684,-1007.0
261,0.0,0.0,0.0,-2.8981,3.1019,-6.0
262,35.792,326560.0,0.027939,-996.0,0.0,-996.0
263,30.32,23555.0,0.030343,-1008.0,0.0,-1008.0
264,0.0,0.0,0.0,4.0,0.0,4.0
265,0.0,0.0,0.0,-5.9363,1.0637,-7.0
266,31.643,198050.0,0.031603,-1007.0,0.0,-1007.0
267,0.0,0.0,0.0,3.5781,10.578,-7.0
268,33.453,14479.0,0.026156,-1001.9,5.1186,-1007.0
269,36.605,275050.0,0.023005,-1005.0,0.030113,-1005.0
270,0.0,0.0,0.0,-0.78907,5.2109,-6.0
271,37.0,293360.0,0.023649,-1000.5,0.0,-1000.5
272,0.0,0.0,0.0,-4.56,0.43998,-5.0
273,0.0,0.0,0.0,-3.3235,2.6765,-6.0
274,33.043,333600.0,0.026316,-926.67,78.832,-1005.5
275,0.0,0.0,0.0,5.5144,1.5144,4.0
276,38.364,48395.0,0.023697,-989.9,6.0967,-996.0
277,31.467,545530.0,0.03178,-1005.8,2.1851,-1008.0
278,0.0,0.0,0.0,-5.9045,0.095465,-6.0
279,30.0,75385.0,0.030392,-1007.7,0.32249,-1008.0
280,30.333,3192900.0,0.032967,-1005.5,0.0,-1005.5
281,0.0,0.0,0.0,-6.7259,0.27407,-7.0
282,0.0,0.0,0.0,-6.8477,0.15231,-7.0
283,30.221,88277.0,0.027251,-1002.8,5.2462,-1008.0
284,30.667,211330.0,0.032609,-1008.0,0.0,-1008.0
285,0.0,0.0,0.0,4.0,0.0,4.0
286,0.0,0.0,0.0,-5.8499,0.1501,-6.0
287,31.667,1083700.0,0.026316,-999.57,7.4303,-1007.0
288,0.0,0.0,0.0,-5.6257,0.37432,-6.0
289,31.875,380040.0,0.031373,-1003.5,0.0,-1003.5
290,0.0,0.0,0.0,-6.6447,0.35533,-7.0
291,36.826,365400.0,0.020071,-986.85,13.646,-1000.5
292,36.35,33178.0,0.02751,-1005.0,0.0036266,-1005.0
293,35.094,189970.0,0.026714,-997.0,0.0,-997.0
294,38.176,6004.0,0.01849,-987.21,11.294,-998.5
295,,,,,,
296,0.0,0.0,0.0,-0.15379,5.8462,-6.0
297,30.933,1036100.0,0.028017,-1007.8,0.22342,-1008.0
298,34.472,732870.0,0.029009,-1007.0,0.0,-1007.0
299,0.0,0.0,0.0,0.99355,7.9935,-7.0
300,35.7,399900.0,0.028011,-997.0,0.0,-997.0
301,38.036,728420.0,0.022535,-993.94,6.5576,-1000.5
302,34.2,2762.6,0.02924,-1006.9,0.13651,-1007.0
303,0.0,0.0,0.0,-6.9444,0.05561,-7.0
304,31.175,1361300.0,0.025662,-1006.0,1.0173,-1007.0
305,0.0,0.0,0.0,-1.9556,4.0444,-6.0
306,32.029,1581700.0,0.030303,-1008.0,0.0,-1008.0
307,0.0,0.0,0.0,-3.4143,0.085673,-3.5
308,30.0,29663.0,0.033333,-1006.0,0.0,-1006.0
309,35.605,172230.0,0.025129,-1004.2,0.33665,-1004.5
310,0.0,0.0,0.0,-4.8628,2.1372,-7.0
311,0.0,0.0,0.0,-3.5703,2.4297,-6.0
312,30.4,594810.0,0.028509,-995.11,11.887,-1007.0
313,0.0,0.0,0.0,-5.1563,1.8437,-7.0
314,30.227,749290.0,0.030075,-1007.1,0.93734,-1008.0
315,32.375,310780.0,0.028314,-998.0,0.0,-998.0
316,0.0,0.0,0.0,6.0,0.0,6.0
317,0.0,0.0,0.0,3.0894,0.089415,3.0
318,0.0,0.0,0.0,-6.0,0.0,-6.0
319,30.0,69455.0,0.024242,-1006.9,0.064194,-1007.0
320,0.0,0.0,0.0,8.2394,14.239,-6.0
321,30.5,86047.0,0.02623,-1005.1,0.4179,-1005.5
322,32.894,193100.0,0.028558,-1007.8,0.17517,-1008.0
323,30.4,5130800.0,0.028509,-1003.0,0.0,-1003.0
324,31.762,29421.0,0.031484,-1003.0,0.0,-1003.0
325,0.0,0.0,0.0,-6.7354,0.26458,-7.0
326,0.0,0.0,0.0,-6.8413,0.15866,-7.0
327,0.0,0.0,0.0,-5.5431,0.45689,-6.0
328,0.0,0.0,0.0,-5.2534,1.7466,-7.0
329,0.0,0.0,0.0,-4.096,1.904,-6.0
330,30.273,105920.0,0.03003,-1006.2,0.82555,-1007.0
331,35.357,212990.0,0.026263,-997.0,0.0,-997.0
332,34.438,6267.5,0.029038,-997.0,0.0,-997.0
333,0.0,0.0,0.0,-6.9348,0.06524,-7.0
334,0.0,0.0,0.0,-3.5591,2.4409,-6.0
335,0.0,0.0,0.0,0.5,0.0,0.5
336,31.324,2045.6,0.030047,-985.98,21.02,-1007.0
337,0.0,0.0,0.0,-6.9619,0.038062,-7.0
338,0.0,0.0,0.0,-6.0209,0.97911,-7.0
339,0.0,0.0,0.0,-7.0,0.0,-7.0
340,32.412,69361.0,0.029946,-1004.0,0.0,-1004.0
341,0.0,0.0,0.0,-6.9777,0.022292,-7.0
342,0.0,0.0,0.0,18.523,25.523,-7.0
343,0.0,0.0,0.0,-4.3643,0.13571,-4.5
344,34.591,2040400.0,0.023653,-989.17,7.8303,-997.0
345,0.0,0.0,0.0,-4.4012,1.5988,-6.0
346,32.0,74363.0,0.029167,-1002.2,3.842,-1006.0
347,0.0,0.0,0.0,-6.7926,0.20744,-7.0
348,0.0,0.0,0.0,-6.6591,0.34087,-7.0
349,0.0,0.0,0.0,4.0,0.0,4.0
350,31.111,1356400.0,0.032143,-1003.5,0.0,-1003.5
351,0.0,0.0,0.0,-5.9411,0.058913,-6.0
352,0.0,0.0,0.0,1.5,0.0,1.5
353,31.147,22915.0,0.031161,-1007.9,0.074301,-1008.0
354,35.885,521870.0,0.025723,-996.0,0.0,-996.0
355,33.948,705740.0,0.024378,-1006.7,1.2695,-1008.0
356,32.833,3190400.0,0.020305,-1005.5,0.0,-1005.5
357,0.0,0.0,0.0,-6.5119,0.48808,-7.0
358,0.0,0.0,0.0,5.0,0.0,5.0
359,30.8,2252400.0,0.032468,-1002.0,0.0,-1002.0
360,0.0,0.0,0.0,6.3196,3.3196,3.0
361,0.0,0.0,0.0,-2.1053,3.8947,-6.0
362,0.0,0.0,0.0,-5.8664,0.13358,-6.0
363,0.0,0.0,0.0,0.090775,6.0908,-6.0
364,31.154,198520.0,0.032099,-1007.8,0.24564,-1008.0
365,30.8,53030.0,0.029221,-1002.0,0.0,-1002.0
366,33.393,253210.0,0.025668,-997.9,0.59715,-998.5
367,0.0,0.0,0.0,-6.9601,0.039902,-7.0
368,0.0,0.0,0.0,-5.9836,0.016392,-6.0
369,0.0,0.0,0.0,-3.3542,0.64576,-4.0
370,,,,,,
371,34.029,64133.0,0.024201,-965.29,39.211,-1004.5
372,0.0,0.0,0.0,-1.7505,5.2495,-7.0
373,0.0,0.0,0.0,1.5,0.0,1.5
374,0.0,0.0,0.0,-6.1322,0.8678,-7.0
375,31.841,56714.0,0.028551,-1007.2,0.84758,-1008.0
376,0.0,0.0,0.0,21.217,27.217,-6.0
377,36.132,428410.0,0.02622,-997.0,0.0,-997.0
378,35.615,91037.0,0.028078,-1008.0,0.0,-1008.0
379,31.935,338610.0,0.024242,-992.27,8.2281,-1000.5
380,35.938,77972.0,0.027826,-998.5,0.0,-998.5
381,0.0,0.0,0.0,-6.8707,0.12926,-7.0
382,0.0,0.0,0.0,-2.6912,3.3088,-6.0
383,30.781,40915.0,0.028426,-1006.6,0.39708,-1007.0
384,0.0,0.0,0.0,-1006.0,0.0,-1006.0
385,0.0,0.0,0.0,1.5,0.0,1.5
386,0.0,0.0,0.0,-1005.0,0.0,-1005.0
387,0.0,0.0,0.0,-5.5721,0.42793,-6.0
388,32.778,3811800.0,0.030508,-1005.5,0.0,-1005.5
389,35.643,5069.1,0.024048,-986.19,22.315,-1008.5
390,0.0,0.0,0.0,-1005.0,0.0,-1005.0
391,31.067,151070.0,0.027897,-1002.5,0.52519,-1003.0
392,0.0,0.0,0.0,-1.0,0.0,-1.0
393,31.848,31790.0,0.030447,-999.0,0.0,-999.0
394,30.0,145740.0,0.029885,-1004.6,1.3611,-1006.0
395,31.333,2777200.0,0.029787,-999.0,0.0,-999.0
396,0.0,0.0,0.0,-7.0,0.0,-7.0
397,0.0,0.0,0.0,-5.9942,0.0058167,-6.0
398,0.0,0.0,0.0,3.6858,10.686,-7.0
399,0.0,0.0,0.0,-6.9551,0.0449,-7.0
400,30.0,9373.3,0.033333,-1006.0,0.0,-1006.0
401,0.0,0.0,0.0,5.0,0.0,5.0
402,35.0,183050.0,0.025,-998.5,0.0,-998.5
403,36.429,2419.4,0.027451,-995.0,0.0,-995.0
404,0.0,0.0,0.0,-3.3125,1.6875,-5.0
405,0.0,0.0,0.0,7.7478,12.748,-5.0
406,30.0,19132.0,0.029412,-1003.0,5.0452,-1008.0
407,0.0,0.0,0.0,-5.5035,0.49647,-6.0
408,0.0,0.0,0.0,-5.4656,1.5344,-7.0
409,0.0,0.0,0.0,-4.5856,1.4144,-6.0
410,0.0,0.0,0.0,-1008.0,0.0,-1008.0
411,39.036,586390.0,0.025618,-997.0,0.0,-997.0
412,36.0,239370.0,0.025641,-999.0,0.0,-999.0
413,37.125,61928.0,0.026936,-997.0,0.0,-997.0
414,0.0,0.0,0.0,4.3978,11.398,-7.0
415,0.0,0.0,0.0,-6.4496,0.55044,-7.0
416,,,,,,
417,0.0,0.0,0.0,-3.7616,0.23843,-4.0
418,30.129,57440.0,0.028908,-1006.6,0.37086,-1007.0
419,0.0,0.0,0.0,-4.9439,0.056079,-5.0
420,0.0,0.0,0.0,1.2393,7.2393,-6.0
421,30.672,4149.7,0.032603,-1007.9,0.1148,-1008.0
422,30.0,523.16,0.033333,-1007.0,0.0,-1007.0
423,0.0,0.0,0.0,-5.0369,0.96312,-6.0
424,0.0,0.0,0.0,-5.7736,0.22639,-6.0
425,0.0,0.0,0.0,50.314,56.314,-6.0
426,0.0,0.0,0.0,-5.9946,0.0053526,-6.0
427,0.0,0.0,0.0,-5.983,0.017014,-6.0
428,0.0,0.0,0.0,5.0684,11.068,-6.0
429,35.5,524930.0,0.022133,-1006.0,1.0175,-1007.0
430,0.0,0.0,0.0,-1.733,4.267,-6.0
431,30.0,748770.0,0.033333,-1006.0,0.0,-1006.0
432,0.0,0.0,0.0,-5.5245,1.4755,-7.0
433,32.661,18775.0,0.023704,-1002.8,0.23852,-1003.0
434,0.0,0.0,0.0,1.5,0.0,1.5
435,0.0,0.0,0.0,4.0,0.0,4.0
436,32.31,98831.0,0.028003,-1000.0,7.0016,-1007.0
437,0.0,0.0,0.0,-3.9143,0.085652,-4.0
438,30.471,15369.0,0.032819,-1007.0,0.0,-1007.0
439,0.0,0.0,0.0,1.177,5.177,-4.0
440,31.971,14527.0,0.028597,-1004.0,0.0,-1004.0
441,0.0,0.0,0.0,-1006.0,0.0,-1006.0
442,0.0,0.0,0.0,-4.7768,1.2232,-6.0
443,0.0,0.0,0.0,-6.0,0.0,-6.0
444,0.0,0.0,0.0,-4.841,1.159,-6.0
445,0.0,0.0,0.0,-5.6138,1.3862,-7.0
446,0.0,0.0,0.0,3.0,0.0,3.0
447,0.0,0.0,0.0,-4.9714,0.028646,-5.0
448,0.0,0.0,0.0,1.7199,7.7199,-6.0
449,31.967,578540.0,0.027112,-1007.1,0.87748,-1008.0
450,0.0,0.0,0.0,-4.4397,1.5603,-6.0
451,30.545,73202.0,0.028274,-1004.2,0.25593,-1004.5
452,0.0,0.0,0.0,6.0831,0.083069,6.0
453,35.833,101140.0,0.027907,-1002.0,0.042541,-1002.0
454,38.091,494210.0,0.02148,-992.56,3.4447,-996.0
455,0.0,0.0,0.0,-5.9258,0.074225,-6.0
456,0.0,0.0,0.0,-7.0,0.0,-7.0
457,0.0,0.0,0.0,-4.9937,1.0063,-6.0
458,0.0,0.0,0.0,-4.7516,1.2484,-6.0
459,0.0,0.0,0.0,-2.7277,3.2723,-6.0
460,0.0,0.0,0.0,-7.0,0.0,-7.0
461,0.0,0.0,0.0,-1006.0,0.0,-1006.0
462,0.0,0.0,0.0,-6.3012,0.69882,-7.0
463,0.0,0.0,0.0,-5.2802,0.71976,-6.0
464,0.0,0.0,0.0,-2.3195,2.6805,-5.0
465,0.0,0.0,0.0,-5.7966,1.2034,-7.0
466,30.576,34434.0,0.031715,-1005.8,1.231,-1007.0
467,30.364,7794.8,0.031936,-1007.9,0.06736,-1008.0
468,0.0,0.0,0.0,-0.51293,0.48707,-1.0
469,37.375,6253700.0,0.026756,-996.0,0.0,-996.0
470,34.273,40825.0,0.029178,-996.0,0.0,-996.0
471,0.0,0.0,0.0,-5.0384,0.96165,-6.0
472,36.375,2398.9,0.027491,-999.5,0.0,-999.5
473,35.455,6029.7,0.025641,-999.43,0.069434,-999.5
474,30.326,6830.2,0.028674,-1001.2,6.8017,-1008.0
475,0.0,0.0,0.0,-5.2975,0.70254,-6.0
476,36.429,84560.0,0.019608,-996.0,0.0,-996.0
477,0.0,0.0,0.0,-1007.0,0.0,-1007.0
478,30.0,10479.0,0.033333,-1005.0,0.0,-1005.0
479,0.0,0.0,0.0,-5.8166,0.18339,-6.0
480,0.0,0.0,0.0,-5.5827,1.4173,-7.0
481,30.896,22131.0,0.031018,-1002.0,0.0,-1002.0
482,0.0,0.0,0.0,8.3298,13.33,-5.0
483,0.0,0.0,0.0,-5.9975,0.0025233,-6.0
484,0.0,0.0,0.0,-1006.0,0.0,-1006.0
485,0.0,0.0,0.0,-5.5329,0.46707,-6.0
486,0.0,0.0,0.0,6.0,0.0,6.0
487,0.0,0.0,0.0,-5.3398,0.66022,-6.0
488,32.672,89465.0,0.030607,-1006.7,1.3496,-1008.0
489,0.0,0.0,0.0,-5.9945,0.0054567,-6.0
490,0.0,0.0,0.0,-2.4942,2.5058,-5.0
491,33.722,369250.0,0.026359,-1008.0,0.0,-1008.0
492,0.0,0.0,0.0,-6.7641,0.23595,-7.0
493,0.0,0.0,0.0,-3.5928,1.4072,-5.0
494,0.0,0.0,0.0,-6.9068,0.093228,-7.0
495,0.0,0.0,0.0,4.0,0.0,4.0
496,37.258,5605.3,0.021645,-994.94,1.065,-996.0
497,0.0,0.0,0.0,9.0142,15.014,-6.0
498,0.0,0.0,0.0,-5.3971,0.60293,-6.0
499,0.0,0.0,0.0,-6.9932,0.006781,-7.0
500,0.0,0.0,0.0,-6.9546,0.045381,-7.0
501,0.0,0.0,0.0,-7.0,0.0,-7.0
502,0.0,0.0,0.0,-5.0474,0.95259,-6.0
503,0.0,0.0,0.0,-1.4793,4.5207,-6.0
504,0.0,0.0,0.0,6.0649,0.0649,6.0
505,0.0,0.0,0.0,-3.7597,2.2403,-6.0
506,30.0,266820.0,0.033333,-1007.0,0.0,-1007.0
507,0.0,0.0,0.0,-0.77133,5.2287,-6.0
508,32.083,1667200.0,0.031169,-1003.0,0.0,-1003.0
509,0.0,0.0,0.0,6.0,0.0,6.0
510,0.0,0.0,0.0,-5.3675,0.63255,-6.0
511,30.0,840560.0,0.033333,-1006.0,0.0,-1006.0
512,35.833,839160.0,0.024806,-990.21,9.2878,-999.5
513,34.925,1418800.0,0.027201,-998.0,0.0,-998.0
514,34.05,455570.0,0.029369,-1005.0,0.0,-1005.0
515,0.0,0.0,0.0,-4.4977,0.0023326,-4.5
516,32.0,894310.0,0.03125,-1003.0,0.0,-1003.0
517,0.0,0.0,0.0,6.0,0.0,6.0
518,0.0,0.0,0.0,-6.199,0.80098,-7.0
519,0.0,0.0,0.0,0.60444,2.1044,-1.5
520,0.0,0.0,0.0,-5.8077,1.1923,-7.0
521,0.0,0.0,0.0,-5.5692,0.43076,-6.0
522,0.0,0.0,0.0,53.276,59.276,-6.0
523,0.0,0.0,0.0,-5.9558,0.044183,-6.0
524,33.034,52360.0,0.022965,-1000.1,0.44516,-1000.5
525,0.0,0.0,0.0,5.0,0.0,5.0
526,0.0,0.0,0.0,-6.8554,0.14464,-7.0
527,0.0,0.0,0.0,5.0,0.0,5.0
528,32.293,174900.0,0.028831,-997.97,5.5277,-1003.5
529,36.25,126600.0,0.026525,-996.0,0.0,-996.0
530,0.0,0.0,0.0,-6.0876,0.91239,-7.0
531,0.0,0.0,0.0,1.2871,7.2871,-6.0
532,0.0,0.0,0.0,1.5,0.0,1.5
533,0.0,0.0,0.0,-6.3979,0.60205,-7.0
534,0.0,0.0,0.0,-4.0543,2.9457,-7.0
535,38.84,255390.0,0.023687,-995.11,0.88742,-996.0
536,0.0,0.0,0.0,21.176,27.176,-6.0
537,0.0,0.0,0.0,-3.4309,0.069057,-3.5
538,0.0,0.0,0.0,-1007.0,0.0,-1007.0
539,34.757,521300.0,0.027127,-996.0,0.0,-996.0
540,0.0,0.0,0.0,-5.7254,1.2746,-7.0
541,0.0,0.0,0.0,8.4951,12.495,-4.0
542,0.0,0.0,0.0,-2.7783,2.2217,-5.0
543,37.206,235260.0,0.025296,-999.46,0.037884,-999.5
544,0.0,0.0,0.0,-5.876,0.124,-6.0
545,0.0,0.0,0.0,-3.4348,2.5652,-6.0
546,0.0,0.0,0.0,4.3648,10.365,-6.0
547,0.0,0.0,0.0,7.9265,14.927,-7.0
548,0.0,0.0,0.0,-3.929,3.071,-7.0
549,0.0,0.0,0.0,-3.8104,3.1896,-7.0
550,0.0,0.0,0.0,48.803,55.803,-7.0
551,0.0,0.0,0.0,-6.6359,0.36408,-7.0
552,0.0,0.0,0.0,-0.8322,5.1678,-6.0
553,33.48,181670.0,0.026284,-1004.6,2.3717,-1007.0
554,0.0,0.0,0.0,-3.4711,3.5289,-7.0
555,0.0,0.0,0.0,-3.6683,3.3317,-7.0
556,0.0,0.0,0.0,2.2849,9.2849,-7.0
557,0.0,0.0,0.0,-2.3094,3.6906,-6.0
558,0.0,0.0,0.0,-5.8783,0.12171,-6.0
559,0.0,0.0,0.0,4.0,0.0,4.0
560,0.0,0.0,0.0,-4.9453,1.0547,-6.0
561,0.0,0.0,0.0,4.6661,10.666,-6.0
562,0.0,0.0,0.0,6.0,0.0,6.0
563,0.0,0.0,0.0,4.3529,0.35286,4.0
564,30.833,1158500.0,0.021622,-1004.5,0.0,-1004.5
565,32.773,876.28,0.028664,-1003.2,1.821,-1005.0
566,0.0,0.0,0.0,-6.8048,0.19522,-7.0
567,0.0,0.0,0.0,23.164,30.164,-7.0
568,0.0,0.0,0.0,-3.9934,2.0066,-6.0
569,0.0,0.0,0.0,-4.27,1.73,-6.0
570,0.0,0.0,0.0,14.411,20.411,-6.0
571,0.0,0.0,0.0,4.1805,9.1805,-5.0
572,0.0,0.0,0.0,-1.7365,4.2635,-6.0
573,0.0,0.0,0.0,-5.9913,1.0087,-7.0
574,0.0,0.0,0.0,6.1206,0.1206,6.0
575,35.5,542920.0,0.023474,-996.42,1.5829,-998.0
576,0.0,0.0,0.0,-6.3065,0.69355,-7.0
577,0.0,0.0,0.0,5.0,0.0,5.0
578,0.0,0.0,0.0,-6.9703,0.029675,-7.0
579,0.0,0.0,0.0,-7.0,0.0,-7.0
580,0.0,0.0,0.0,13.181,19.181,-6.0
581,0.0,0.0,0.0,-6.9991,0.00093265,-7.0
582,30.0,1933600.0,0.033333,-1007.0,0.0,-1007.0
583,0.0,0.0,0.0,-1005.0,0.0,-1005.0
584,0.0,0.0,0.0,-1005.0,0.0,-1005.0
585,0.0,0.0,0.0,6.0,0.0,6.0
586,0.0,0.0,0.0,39.697,45.697,-6.0
587,0.0,0.0,0.0,5.0827,0.082721,5.0
588,0.0,0.0,0.0,-5.7532,0.2468,-6.0
589,0.0,0.0,0.0,-5.9967,0.0032592,-6.0
590,0.0,0.0,0.0,-1007.0,0.0,-1007.0
591,0.0,0.0,0.0,-4.8688,1.1312,-6.0
592,0.0,0.0,0.0,-1007.0,0.0,-1007.0
593,30.357,345440.0,0.032941,-1005.5,0.0,-1005.5
594,0.0,0.0,0.0,5.4892,10.489,-5.0
595,33.667,722680.0,0.029703,-1001.5,0.0,-1001.5
596,0.0,0.0,0.0,-5.8421,0.15791,-6.0
597,0.0,0.0,0.0,-5.9721,0.027886,-6.0
598,0.0,0.0,0.0,-6.0762,0.92384,-7.0
599,0.0,0.0,0.0,-2.1609,3.8391,-6.0
600,37.556,9313400.0,0.026627,-1005.7,0.3413,-1006.0
601,0.0,0.0,0.0,-4.4675,0.032459,-4.5
602,33.771,150510.0,0.028378,-1005.4,0.057758,-1005.5
603,36.786,2910700.0,0.023301,-990.77,6.2312,-997.0
604,33.061,606390.0,0.027498,-996.0,0.0,-996.0
605,0.0,0.0,0.0,-5.425,0.57499,-6.0
606,0.0,0.0,0.0,-5.9991,0.00086737,-6.0
607,0.0,0.0,0.0,-2.2278,3.7722,-6.0
608,0.0,0.0,0.0,-1.4259,5.5741,-7.0
609,0.0,0.0,0.0,6.4018,12.402,-6.0
610,32.288,40365.0,0.028156,-999.5,0.0,-999.5
611,0.0,0.0,0.0,-3.1939,2.8061,-6.0
612,0.0,0.0,0.0,3.9622,9.9622,-6.0
613,0.0,0.0,0.0,-0.47489,1.0251,-1.5
614,0.0,0.0,0.0,-6.8398,0.16022,-7.0
615,30.0,130050.0,0.033333,-1006.0,0.0,-1006.0
616,34.417,104950.0,0.025424,-967.84,39.156,-1007.0
617,0.0,0.0,0.0,-1.0,0.0,-1.0
618,0.0,0.0,0.0,-3.0527,1.9473,-5.0
619,0.0,0.0,0.0,-5.2275,0.77247,-6.0
620,0.0,0.0,0.0,-5.4516,0.5484,-6.0
621,0.0,0.0,0.0,-3.8982,0.10176,-4.0
622,0.0,0.0,0.0,-0.80246,5.1975,-6.0
623,0.0,0.0,0.0,-4.8114,1.1886,-6.0
624,0.0,0.0,0.0,-4.8254,1.1746,-6.0
625,0.0,0.0,0.0,-0.26506,6.7349,-7.0
626,31.731,1868700.0,0.031515,-1004.5,0.0,-1004.5
627,0.0,0.0,0.0,13.168,19.168,-6.0
628,,,,,,
629,0.0,0.0,0.0,5.0,0.0,5.0
630,0.0,0.0,0.0,-8.0,0.0,-8.0
631,0.0,0.0,0.0,-4.8273,1.1727,-6.0
632,0.0,0.0,0.0,-5.8368,0.16324,-6.0
633,0.0,0.0,0.0,-1.5754,5.4246,-7.0
634,0.0,0.0,0.0,-6.7293,0.27065,-7.0
635,0.0,0.0,0.0,-0.46346,5.5365,-6.0
636,0.0,0.0,0.0,5.0,0.0,5.0
637,0.0,0.0,0.0,-1.8999,5.1001,-7.0
638,0.0,0.0,0.0,-5.2784,0.72157,-6.0
639,0.0,0.0,0.0,0.19105,1.6911,-1.5
640,0.0,0.0,0.0,4.0,0.0,4.0
641,0.0,0.0,0.0,44.182,50.182,-6.0
642,0.0,0.0,0.0,-4.007,1.993,-6.0
643,0.0,0.0,0.0,3.5,0.0,3.5
644,0.0,0.0,0.0,5.0193,0.019292,5.0
645,0.0,0.0,0.0,47.681,53.681,-6.0
646,0.0,0.0,0.0,-5.325,1.675,-7.0
647,0.0,0.0,0.0,-7.0,0.0,-7.0
648,0.0,0.0,0.0,0.80261,6.8026,-6.0
649,0.0,0.0,0.0,-4.0521,1.9479,-6.0
650,0.0,0.0,0.0,4.0,0.0,4.0
651,0.0,0.0,0.0,-7.0,0.0,-7.0
652,0.0,0.0,0.0,-0.41811,2.0819,-2.5
653,0.0,0.0,0.0,-3.9208,0.079184,-4.0
654,0.0,0.0,0.0,-5.6949,0.30511,-6.0
655,0.0,0.0,0.0,-4.8982,2.1018,-7.0
656,30.727,166320.0,0.032544,-1005.2,1.7956,-1007.0
657,0.0,0.0,0.0,-4.2288,2.7712,-7.0
658,0.0,0.0,0.0,-2.4143,3.5857,-6.0
659,0.0,0.0,0.0,-7.0,0.0,-7.0
660,0.0,0.0,0.0,-6.0,0.0,-6.0
661,33.909,7780.8,0.021448,-977.16,25.34,-1002.5
662,36.222,856330.0,0.027607,-1000.5,0.0,-1000.5
663,0.0,0.0,0.0,-5.1009,0.89911,-6.0
664,0.0,0.0,0.0,-1005.0,0.0,-1005.0
665,0.0,0.0,0.0,-4.3441,2.6559,-7.0
666,0.0,0.0,0.0,1.1142,6.6142,-5.5
667,0.0,0.0,0.0,-6.0,0.0,-6.0
668,0.0,0.0,0.0,-5.5707,0.42926,-6.0
669,0.0,0.0,0.0,-5.9613,0.038684,-6.0
670,0.0,0.0,0.0,-5.9211,0.078864,-6.0
671,0.0,0.0,0.0,-6.687,0.31301,-7.0
672,0.0,0.0,0.0,1.2782,5.2782,-4.0
673,34.269,200630.0,0.026936,-1002.0,0.0,-1002.0
674,34.211,45920.0,0.024615,-1000.6,0.38523,-1001.0
675,35.13,479380.0,0.027228,-1005.6,0.38625,-1006.0
676,30.652,13067.0,0.029787,-1004.9,0.57335,-1005.5
677,0.0,0.0,0.0,6.0,0.0,6.0
678,0.0,0.0,0.0,8.9186,14.919,-6.0
679,31.581,579050.0,0.027579,-1005.9,2.1472,-1008.0
680,0.0,0.0,0.0,-3.259,3.741,-7.0
681,0.0,0.0,0.0,-5.9269,1.0731,-7.0
682,0.0,0.0,0.0,0.70831,6.7083,-6.0
683,0.0,0.0,0.0,-2.6242,2.3758,-5.0
684,34.536,9476.1,0.026887,-1005.3,1.6651,-1007.0
685,0.0,0.0,0.0,-4.92,1.08,-6.0
686,0.0,0.0,0.0,-5.7871,1.2129,-7.0
687,0.0,0.0,0.0,-5.9969,0.0031303,-6.0
688,32.263,67301.0,0.027732,-1007.9,0.057496,-1008.0
689,0.0,0.0,0.0,-5.4225,1.5775,-7.0
690,0.0,0.0,0.0,14.567,9.5672,5.0
691,0.0,0.0,0.0,-2.2769,3.7231,-6.0
692,0.0,0.0,0.0,-5.9914,0.0086263,-6.0
693,0.0,0.0,0.0,-5.7469,0.25308,-6.0
694,0.0,0.0,0.0,31.087,35.087,-4.0
695,0.0,0.0,0.0,6.0331,10.033,-4.0
696,0.0,0.0,0.0,-5.9293,0.070684,-6.0
697,0.0,0.0,0.0,-5.7143,0.28565,-6.0
698,0.0,0.0,0.0,-5.2745,1.7255,-7.0
699,0.0,0.0,0.0,-3.246,2.754,-6.0
700,0.0,0.0,0.0,4.9891,10.989,-6.0
701,37.062,100570.0,0.026981,-999.5,0.0,-999.5
702,0.0,0.0,0.0,6.0,0.0,6.0
703,0.0,0.0,0.0,28.179,34.179,-6.0
704,33.242,93824.0,0.02917,-996.0,0.0,-996.0
705,30.625,3061600.0,0.032653,-1004.5,0.0,-1004.5
706,0.0,0.0,0.0,6.9254,0.92537,6.0
707,0.0,0.0,0.0,-5.9278,0.072186,-6.0
708,0.0,0.0,0.0,2.2659,8.2659,-6.0
709,0.0,0.0,0.0,-3.4568,0.54324,-4.0
710,0.0,0.0,0.0,-1.1726,2.8274,-4.0
711,0.0,0.0,0.0,-4.5421,1.4579,-6.0
712,35.152,234780.0,0.026724,-1000.5,0.010057,-1000.5
713,0.0,0.0,0.0,-6.7771,0.22291,-7.0
714,0.0,0.0,0.0,58.447,64.447,-6.0
715,0.0,0.0,0.0,-4.9696,1.0304,-6.0
716,0.0,0.0,0.0,-4.1226,2.8774,-7.0
717,0.0,0.0,0.0,-4.573,1.427,-6.0
718,0.0,0.0,0.0,6.4166,12.417,-6.0
719,0.0,0.0,0.0,1.3602,7.3602,-6.0
720,0.0,0.0,0.0,9.9339,14.934,-5.0
721,0.0,0.0,0.0,-1.263,2.737,-4.0
722,0.0,0.0,0.0,4.7192,10.719,-6.0
723,0.0,0.0,0.0,5.0,0.0,5.0
724,0.0,0.0,0.0,-5.9903,0.0097296,-6.0
725,0.0,0.0,0.0,-1.6846,4.3154,-6.0
726,0.0,0.0,0.0,-5.905,1.095,-7.0
727,0.0,0.0,0.0,-5.7589,1.2411,-7.0
728,0.0,0.0,0.0,-4.5695,2.4305,-7.0
729,0.0,0.0,0.0,4.0,0.0,4.0
730,32.857,503030.0,0.030435,-1000.5,0.0,-1000.5
731,0.0,0.0,0.0,-6.9544,0.04558,-7.0
732,0.0,0.0,0.0,-4.845,1.155,-6.0
733,0.0,0.0,0.0,-5.4862,0.5138,-6.0
734,0.0,0.0,0.0,31.377,38.377,-7.0
735,0.0,0.0,0.0,-6.9626,0.037443,-7.0
736,0.0,0.0,0.0,-5.802,0.19804,-6.0
737,0.0,0.0,0.0,5.0,0.0,5.0
738,0.0,0.0,0.0,7.6495,14.65,-7.0
739,0.0,0.0,0.0,-1007.0,0.0,-1007.0
740,32.821,700520.0,0.027203,-1007.0,0.044507,-1007.0
741,0.0,0.0,0.0,-5.9719,0.028054,-6.0
742,0.0,0.0,0.0,2.0049,9.0049,-7.0
743,0.0,0.0,0.0,7.2732,2.2732,5.0
744,0.0,0.0,0.0,-0.65046,5.3495,-6.0
745,0.0,0.0,0.0,2.5,0.0,2.5
746,0.0,0.0,0.0,-0.49488,2.5051,-3.0
747,0.0,0.0,0.0,21.945,28.945,-7.0
748,0.0,0.0,0.0,-0.75391,3.2461,-4.0
749,0.0,0.0,0.0,-4.2881,0.71192,-5.0
750,0.0,0.0,0.0,-3.3269,0.67313,-4.0
751,0.0,0.0,0.0,3.0,0.0,3.0
752,0.0,0.0,0.0,-5.352,0.64799,-6.0
753,0.0,0.0,0.0,9.9269,14.927,-5.0
754,35.133,7808500.0,0.028463,-1005.5,0.0,-1005.5
755,0.0,0.0,0.0,-4.9868,0.013185,-5.0
756,0.0,0.0,0.0,1.9011,7.9011,-6.0
757,0.0,0.0,0.0,1.0326,7.0326,-6.0
758,0.0,0.0,0.0,6.0,0.0,6.0
759,0.0,0.0,0.0,-5.6961,1.3039,-7.0
760,0.0,0.0,0.0,-1.5,0.0,-1.5
761,0.0,0.0,0.0,-0.67222,6.3278,-7.0
762,0.0,0.0,0.0,10.386,16.386,-6.0
763,0.0,0.0,0.0,-5.4618,0.53821,-6.0
764,0.0,0.0,0.0,-3.5,0.0,-3.5
765,0.0,0.0,0.0,-6.9328,0.067177,-7.0
766,0.0,0.0,0.0,-4.1053,1.8947,-6.0
767,33.1,3343600.0,0.030211,-1005.0,0.0,-1005.0
768,0.0,0.0,0.0,-5.1915,0.80851,-6.0
769,0.0,0.0,0.0,-5.0463,0.95371,-6.0
770,0.0,0.0,0.0,-5.8001,0.19993,-6.0
771,30.0,118620.0,0.027083,-1003.7,3.3011,-1007.0
772,0.0,0.0,0.0,-6.5409,0.45906,-7.0
773,0.0,0.0,0.0,-1.0081,3.9919,-5.0
774,0.0,0.0,0.0,-3.5017,0.49832,-4.0
775,30.147,211350.0,0.03122,-1004.5,0.0,-1004.5
776,0.0,0.0,0.0,-5.7207,1.2793,-7.0
777,0.0,0.0,0.0,-7.0,0.0,-7.0
778,0.0,0.0,0.0,1.3732,7.3732,-6.0
779,0.0,0.0,0.0,22.195,28.195,-6.0
780,0.0,0.0,0.0,-3.2726,3.7274,-7.0
781,36.273,3155.0,0.025063,-1003.4,0.057929,-1003.5
782,30.533,189960.0,0.028384,-1005.0,2.0026,-1007.0
783,0.0,0.0,0.0,5.0,0.0,5.0
784,32.071,99102.0,0.03118,-1008.0,0.0,-1008.0
785,0.0,0.0,0.0,-6.9769,0.023135,-7.0
786,0.0,0.0,0.0,-5.7871,0.21289,-6.0
787,31.479,200170.0,0.030443,-1004.5,0.0,-1004.5
788,0.0,0.0,0.0,-6.6878,0.31223,-7.0
789,32.685,171210.0,0.027195,-1002.2,0.8017,-1003.0
790,0.0,0.0,0.0,-3.3265,0.67346,-4.0
791,0.0,0.0,0.0,-2.2319,3.7681,-6.0
792,0.0,0.0,0.0,-3.7479,2.2521,-6.0
793,0.0,0.0,0.0,-6.9974,0.0025821,-7.0
794,0.0,0.0,0.0,-5.0,0.0,-5.0
795,0.0,0.0,0.0,-4.1993,0.80067,-5.0
796,0.0,0.0,0.0,-3.7726,3.2274,-7.0
797,0.0,0.0,0.0,1.7904,5.7904,-4.0
798,0.0,0.0,0.0,-1.5239,1.9761,-3.5
799,30.0,725250.0,0.033333,-1006.0,0.0,-1006.0
800,0.0,0.0,0.0,19.859,25.859,-6.0
801,0.0,0.0,0.0,-4.4717,1.5283,-6.0
802,0.0,0.0,0.0,-0.62241,5.3776,-6.0
803,0.0,0.0,0.0,-2.4744,1.5256,-4.0
804,0.0,0.0,0.0,-5.9958,0.0041777,-6.0
805,0.0,0.0,0.0,2.2774,0.27744,2.0
806,0.0,0.0,0.0,-5.9099,0.090128,-6.0
807,0.0,0.0,0.0,-5.6704,0.32959,-6.0
808,0.0,0.0,0.0,1.5231,8.5231,-7.0
809,38.611,5348500.0,0.023022,-962.72,34.284,-997.0
810,0.0,0.0,0.0,-4.9354,1.0646,-6.0
811,0.0,0.0,0.0,-6.8767,0.12333,-7.0
812,33.421,61233.0,0.023622,-1007.9,0.060614,-1008.0
813,0.0,0.0,0.0,-6.9968,0.0031683,-7.0
814,30.0,55327.0,0.026667,-1005.5,0.52536,-1006.0
815,37.5,14984.0,0.024,-995.97,0.02697,-996.0
816,0.0,0.0,0.0,0.8218,7.8218,-7.0
817,0.0,0.0,0.0,5.1394,0.13935,5.0
818,0.0,0.0,0.0,-2.3512,4.6488,-7.0
819,30.5,243880.0,0.028689,-1006.9,0.11581,-1007.0
820,0.0,0.0,0.0,111.1,117.1,-6.0
821,0.0,0.0,0.0,6.1151,0.11511,6.0
822,0.0,0.0,0.0,-1.1774,0.82257,-2.0
823,0.0,0.0,0.0,-6.2836,0.71636,-7.0
824,0.0,0.0,0.0,-5.9298,0.070155,-6.0
825,0.0,0.0,0.0,5.7696,12.77,-7.0
826,0.0,0.0,0.0,-0.13081,5.8692,-6.0
827,0.0,0.0,0.0,32.561,39.561,-7.0
828,0.0,0.0,0.0,-5.8053,0.19466,-6.0
829,0.0,0.0,0.0,-5.6413,1.3587,-7.0
830,0.0,0.0,0.0,-6.6805,0.31948,-7.0
831,0.0,0.0,0.0,-7.0,0.0,-7.0
832,0.0,0.0,0.0,56.758,62.758,-6.0
833,0.0,0.0,0.0,-6.9666,0.033359,-7.0
834,0.0,0.0,0.0,9.6137,15.614,-6.0
835,0.0,0.0,0.0,-6.4885,0.51146,-7.0
836,0.0,0.0,0.0,5.0,0.0,5.0
837,0.0,0.0,0.0,-5.3577,0.64231,-6.0
838,0.0,0.0,0.0,-5.6462,0.35384,-6.0
839,0.0,0.0,0.0,-4.7277,2.2723,-7.0
840,0.0,0.0,0.0,-0.35937,5.6406,-6.0
841,0.0,0.0,0.0,10.303,15.303,-5.0
842,30.0,16627.0,0.033333,-1006.0,0.0,-1006.0
843,0.0,0.0,0.0,-6.3018,0.69825,-7.0
844,0.0,0.0,0.0,-5.9983,0.0017313,-6.0
845,30.0,4318200.0,0.033333,-1005.0,0.0,-1005.0
846,0.0,0.0,0.0,-3.0753,2.9247,-6.0
847,0.0,0.0,0.0,-6.9761,0.023925,-7.0
848,31.914,412610.0,0.029173,-1004.0,0.0,-1004.0
849,0.0,0.0,0.0,-6.9212,0.078763,-7.0
850,0.0,0.0,0.0,-5.772,1.228,-7.0
851,0.0,0.0,0.0,6.6023,11.602,-5.0
852,0.0,0.0,0.0,6.0,0.0,6.0
853,0.0,0.0,0.0,-6.3173,0.68269,-7.0
854,0.0,0.0,0.0,-6.4802,0.51978,-7.0
855,0.0,0.0,0.0,-5.786,1.214,-7.0
856,34.458,8974.7,0.025393,-996.0,0.0,-996.0
857,0.0,0.0,0.0,-5.8387,0.16128,-6.0
858,0.0,0.0,0.0,-6.6639,0.33608,-7.0
859,0.0,0.0,0.0,-6.6582,0.34176,-7.0
860,0.0,0.0,0.0,-6.8067,0.1933,-7.0
861,0.0,0.0,0.0,9.8281,14.828,-5.0
862,0.0,0.0,0.0,5.4815,9.4815,-4.0
863,0.0,0.0,0.0,5.0,0.0,5.0
864,0.0,0.0,0.0,-2.9284,4.0716,-7.0
865,35.327,56510.0,0.02613,-1004.9,0.1498,-1005.0
866,0.0,0.0,0.0,-3.8538,0.14617,-4.0
867,0.0,0.0,0.0,20.844,27.844,-7.0
868,0.0,0.0,0.0,63.241,70.241,-7.0
869,0.0,0.0,0.0,-5.9969,1.0031,-7.0
870,36.286,5002.6,0.027559,-995.5,0.0,-995.5
871,0.0,0.0,0.0,-5.8831,0.11688,-6.0
872,0.0,0.0,0.0,-6.9596,0.040424,-7.0
873,0.0,0.0,0.0,-6.3144,0.68564,-7.0
874,0.0,0.0,0.0,0.086361,7.0864,-7.0
875,0.0,0.0,0.0,-5.7442,0.25579,-6.0
876,0.0,0.0,0.0,60.54,66.54,-6.0
877,0.0,0.0,0.0,-2.0354,1.9646,-4.0
878,0.0,0.0,0.0,-4.878,2.122,-7.0
879,31.897,394680.0,0.03027,-1006.9,0.10576,-1007.0
880,0.0,0.0,0.0,-5.7571,1.2429,-7.0
881,0.0,0.0,0.0,-0.61278,6.3872,-7.0
882,0.0,0.0,0.0,-7.0,0.0,-7.0
883,0.0,0.0,0.0,-4.6016,0.39836,-5.0
884,0.0,0.0,0.0,4.0,0.0,4.0
885,0.0,0.0,0.0,-6.809,0.19105,-7.0
886,0.0,0.0,0.0,-5.6151,0.38492,-6.0
887,31.618,522250.0,0.029767,-1003.0,3.0045,-1006.0
888,0.0,0.0,0.0,39.891,45.891,-6.0
889,0.0,0.0,0.0,4.0,0.0,4.0
890,0.0,0.0,0.0,-6.643,0.35701,-7.0
891,0.0,0.0,0.0,-5.9757,0.024323,-6.0
892,0.0,0.0,0.0,2.5,0.0,2.5
893,0.0,0.0,0.0,-1005.0,0.0,-1005.0
894,0.0,0.0,0.0,-6.1343,0.86567,-7.0
895,0.0,0.0,0.0,6.0,0.0,6.0
896,0.0,0.0,0.0,-4.3629,0.63706,-5.0
897,0.0,0.0,0.0,-0.47817,0.52183,-1.0
898,0.0,0.0,0.0,-3.6517,3.3483,-7.0
899,0.0,0.0,0.0,-6.9472,0.052797,-7.0
900,0.0,0.0,0.0,-4.8294,2.1706,-7.0
901,0.0,0.0,0.0,-6.0937,0.9063,-7.0
902,38.143,20154.0,0.024345,-995.93,0.066576,-996.0
903,0.0,0.0,0.0,3.0,0.0,3.0
904,0.0,0.0,0.0,-3.3761,2.6239,-6.0
905,0.0,0.0,0.0,-5.9564,0.043582,-6.0
906,0.0,0.0,0.0,8.7722,14.772,-6.0
907,0.0,0.0,0.0,-6.587,0.413,-7.0
908,0.0,0.0,0.0,2.325,8.325,-6.0
909,0.0,0.0,0.0,-4.243,1.757,-6.0
910,0.0,0.0,0.0,-4.004,0.99599,-5.0
911,0.0,0.0,0.0,-5.5766,0.42341,-6.0
912,0.0,0.0,0.0,-6.6752,0.32477,-7.0
913,0.0,0.0,0.0,-6.8386,0.16144,-7.0
914,0.0,0.0,0.0,-6.4878,0.51224,-7.0
915,0.0,0.0,0.0,-4.0671,1.9329,-6.0
916,0.0,0.0,0.0,-2.7617,4.2383,-7.0
917,0.0,0.0,0.0,-5.2264,0.77364,-6.0
918,0.0,0.0,0.0,-6.9609,0.039055,-7.0
919,0.0,0.0,0.0,77.104,84.104,-7.0
920,0.0,0.0,0.0,-2.0,0.0,-2.0
921,32.426,2364.8,0.029025,-1002.0,0.0,-1002.0
922,0.0,0.0,0.0,-3.8565,2.1435,-6.0
923,0.0,0.0,0.0,-5.7795,1.2205,-7.0
924,0.0,0.0,0.0,-6.87,0.13003,-7.0
925,30.0,2467700.0,0.033333,-1005.0,0.0,-1005.0
926,0.0,0.0,0.0,-5.066,0.93397,-6.0
927,0.0,0.0,0.0,-3.4055,1.5945,-5.0
928,0.0,0.0,0.0,-3.8288,0.17123,-4.0
929,0.0,0.0,0.0,-6.9804,0.019553,-7.0
930,0.0,0.0,0.0,-4.9439,0.056058,-5.0
931,0.0,0.0,0.0,-4.4198,1.5802,-6.0
932,0.0,0.0,0.0,1.8097,6.8097,-5.0
933,0.0,0.0,0.0,-6.5248,0.4752,-7.0
934,0.0,0.0,0.0,14.858,20.858,-6.0
935,0.0,0.0,0.0,-5.0296,1.9704,-7.0
936,0.0,0.0,0.0,5.0,0.0,5.0
937,0.0,0.0,0.0,-1.4228,0.077186,-1.5
938,0.0,0.0,0.0,-5.1926,1.8074,-7.0
939,0.0,0.0,0.0,4.0,0.0,4.0
940,0.0,0.0,0.0,-5.9939,0.0061414,-6.0
941,31.897,92545.0,0.024865,-987.48,19.525,-1007.0
942,0.0,0.0,0.0,-4.6132,1.3868,-6.0
943,0.0,0.0,0.0,37.934,44.934,-7.0
944,0.0,0.0,0.0,-6.7593,0.24066,-7.0
945,0.0,0.0,0.0,-5.7937,0.20626,-6.0
946,0.0,0.0,0.0,-6.9042,0.095816,-7.0
947,35.857,424110.0,0.027888,-997.0,0.0,-997.0
948,0.0,0.0,0.0,-1.1813,3.3187,-4.5
949,0.0,0.0,0.0,2.5,0.0,2.5
950,0.0,0.0,0.0,3.3676,10.368,-7.0
951,0.0,0.0,0.0,-4.0,0.0,-4.0
952,0.0,0.0,0.0,-5.1269,0.87307,-6.0
953,0.0,0.0,0.0,-4.9575,1.0425,-6.0
954,0.0,0.0,0.0,-3.7016,0.29837,-4.0
955,0.0,0.0,0.0,-5.4063,0.59367,-6.0
956,0.0,0.0,0.0,-5.9853,0.014722,-6.0
957,0.0,0.0,0.0,3.3022,9.3022,-6.0
958,0.0,0.0,0.0,-1005.0,0.0,-1005.0
959,0.0,0.0,0.0,5.0,0.0,5.0
960,0.0,0.0,0.0,-5.5554,0.44463,-6.0
961,0.0,0.0,0.0,-3.0367,2.9633,-6.0
962,0.0,0.0,0.0,23.227,29.227,-6.0
963,0.0,0.0,0.0,4.0,0.0,4.0
964,0.0,0.0,0.0,6.0,0.0,6.0
965,0.0,0.0,0.0,6.9078,11.908,-5.0
966,34.536,828400.0,0.027921,-1004.5,0.0,-1004.5
967,0.0,0.0,0.0,-5.9587,0.041304,-6.0
968,0.0,0.0,0.0,-3.7412,0.75884,-4.5
969,0.0,0.0,0.0,-6.8555,0.14447,-7.0
970,0.0,0.0,0.0,-3.7484,1.2516,-5.0
971,0.0,0.0,0.0,-5.8131,0.18686,-6.0
972,0.0,0.0,0.0,3.4866,9.4866,-6.0
973,0.0,0.0,0.0,-5.7195,1.2805,-7.0
974,0.0,0.0,0.0,-2.0944,2.9056,-5.0
975,0.0,0.0,0.0,-3.4322,0.5678,-4.0
976,0.0,0.0,0.0,-4.9742,0.025828,-5.0
977,0.0,0.0,0.0,1.5981,0.098082,1.5
978,0.0,0.0,0.0,-7.0,0.0,-7.0
979,0.0,0.0,0.0,-6.9916,0.008446,-7.0
980,31.411,31456.0,0.028425,-1000.8,6.2287,-1007.0
981,0.0,0.0,0.0,-1.1873,4.8127,-6.0
982,0.0,0.0,0.0,-5.7594,0.24056,-6.0
983,0.0,0.0,0.0,-6.9873,0.012719,-7.0
984,0.0,0.0,0.0,-4.1186,1.8814,-6.0
985,34.643,144080.0,0.026117,-1000.8,6.2239,-1007.0
986,0.0,0.0,0.0,5.0,0.0,5.0
987,0.0,0.0,0.0,-6.5208,0.47915,-7.0
988,0.0,0.0,0.0,-2.5289,4.4711,-7.0
989,0.0,0.0,0.0,-6.9407,0.059311,-7.0
990,0.0,0.0,0.0,-4.7916,0.20842,-5.0
991,0.0,0.0,0.0,-1.0,0.0,-1.0
992,0.0,0.0,0.0,-2.8156,1.6844,-4.5
993,0.0,0.0,0.0,0.20285,6.2028,-6.0
994,0.0,0.0,0.0,-4.6824,0.31764,-5.0
995,0.0,0.0,0.0,-1.3323,5.6677,-7.0
996,30.312,5872.6,0.024742,-1001.0,3.4829,-1004.5
997,0.0,0.0,0.0,-1.2642,4.7358,-6.0
998,0.0,0.0,0.0,-7.0,0.0,-7.0
999,0.0,0.0,0.0,-6.6593,0.3407,-7.0
1000,0.0,0.0,0.0,6.0,0.0,6.0
1001,0.0,0.0,0.0,-3.3647,0.63529,-4.0
1002,0.0,0.0,0.0,-5.0916,1.9084,-7.0
1003,0.0,0.0,0.0,-5.522,0.47803,-6.0
1004,0.0,0.0,0.0,-2.5989,3.4011,-6.0
1005,0.0,0.0,0.0,-0.38455,6.6154,-7.0
1006,0.0,0.0,0.0,-4.1095,1.8905,-6.0
1007,0.0,0.0,0.0,-1.6619,0.33806,-2.0
1008,0.0,0.0,0.0,-6.0,0.0,-6.0
1009,38.633,10191.0,0.024159,-996.95,0.046357,-997.0
1010,32.143,486.79,0.026667,-1001.4,0.59379,-1002.0
1011,0.0,0.0,0.0,-5.6621,1.3379,-7.0
1012,33.423,678370.0,0.029919,-1003.0,0.0,-1003.0
1013,0.0,0.0,0.0,-5.2273,0.77273,-6.0
1014,0.0,0.0,0.0,-4.371,0.62901,-5.0
1015,0.0,0.0,0.0,-5.7623,0.23773,-6.0
1016,0.0,0.0,0.0,-1.193,3.807,-5.0
1017,0.0,0.0,0.0,-1.4101,0.089906,-1.5
1018,34.167,76674.0,0.027875,-1006.5,0.48441,-1007.0
1019,0.0,0.0,0.0,-6.9926,0.0073915,-7.0
1020,0.0,0.0,0.0,4.0,0.0,4.0
1021,0.0,0.0,0.0,-6.5493,1.4507,-8.0
1022,0.0,0.0,0.0,-3.3344,2.6656,-6.0
1023,0.0,0.0,0.0,-5.9812,1.0188,-7.0
1024,0.0,0.0,0.0,-4.5423,1.4577,-6.0
1025,0.0,0.0,0.0,-3.4091,2.5909,-6.0
1026,0.0,0.0,0.0,-1.0158,4.9842,-6.0
1027,0.0,0.0,0.0,-1.069,4.931,-6.0
1028,0.0,0.0,0.0,-1007.0,0.0,-1007.0
1029,0.0,0.0,0.0,1.1318,7.1318,-6.0
1030,0.0,0.0,0.0,-3.5878,2.4122,-6.0
1031,0.0,0.0,0.0,-4.9978,0.0021559,-5.0
1032,0.0,0.0,0.0,39.642,43.642,-4.0
1033,0.0,0.0,0.0,-3.5419,2.4581,-6.0
1034,0.0,0.0,0.0,32.749,38.749,-6.0
1035,0.0,0.0,0.0,22.233,27.233,-5.0
1036,0.0,0.0,0.0,-5.7538,0.2462,-6.0
1037,38.891,343270.0,0.024595,-996.02,1.9812,-998.0
1038,0.0,0.0,0.0,-5.695,1.305,-7.0
1039,0.0,0.0,0.0,0.7079,6.7079,-6.0
1040,0.0,0.0,0.0,-5.9977,0.002274,-6.0
1041,0.0,0.0,0.0,9.5342,14.534,-5.0
1042,0.0,0.0,0.0,-5.288,0.71196,-6.0
1043,0.0,0.0,0.0,1.3482,8.3482,-7.0
1044,0.0,0.0,0.0,-5.3758,0.62423,-6.0
1045,0.0,0.0,0.0,-8.0,0.0,-8.0
1046,0.0,0.0,0.0,4.0458,10.046,-6.0
1047,0.0,0.0,0.0,-3.3932,0.60683,-4.0
1048,0.0,0.0,0.0,10.873,15.873,-5.0
1049,0.0,0.0,0.0,-4.761,0.23899,-5.0
1050,0.0,0.0,0.0,-6.992,0.007969,-7.0
1051,0.0,0.0,0.0,14.535,16.035,-1.5
1052,0.0,0.0,0.0,-7.0,0.0,-7.0
1053,0.0,0.0,0.0,-5.865,0.13496,-6.0
1054,0.0,0.0,0.0,-4.7963,1.2037,-6.0
1055,0.0,0.0,0.0,-5.413,0.587,-6.0
1056,0.0,0.0,0.0,-7.0,0.0,-7.0
1057,0.0,0.0,0.0,-3.3911,0.10894,-3.5
1058,0.0,0.0,0.0,-3.0332,3.9668,-7.0
1059,0.0,0.0,0.0,-5.9101,0.089885,-6.0
1060,0.0,0.0,0.0,-7.0,0.0,-7.0
1061,0.0,0.0,0.0,-2.4392,3.5608,-6.0
1062,0.0,0.0,0.0,-5.9931,0.0068666,-6.0
1063,0.0,0.0,0.0,-5.9798,0.020159,-6.0
1064,0.0,0.0,0.0,-6.3391,0.66094,-7.0
1065,0.0,0.0,0.0,11.69,18.69,-7.0
1066,0.0,0.0,0.0,-4.2981,0.7019,-5.0
1067,0.0,0.0,0.0,4.0,0.0,4.0
1068,0.0,0.0,0.0,-7.0,0.0,-7.0
1069,0.0,0.0,0.0,-2.3541,3.6459,-6.0
1070,32.455,3980.0,0.029412,-1000.5,0.0,-1000.5
1071,0.0,0.0,0.0,-3.0704,2.9296,-6.0
1072,33.177,295530.0,0.029169,-1000.8,2.158,-1003.0
1073,0.0,0.0,0.0,-2.5012,2.4988,-5.0
1074,0.0,0.0,0.0,-6.8813,0.11866,-7.0
1075,0.0,0.0,0.0,-5.0858,0.91419,-6.0
1076,34.015,98693.0,0.027617,-1000.6,1.4082,-1002.0
1077,0.0,0.0,0.0,-5.7784,0.22161,-6.0
1078,0.0,0.0,0.0,-0.53841,0.96159,-1.5
1079,0.0,0.0,0.0,-4.2109,0.78908,-5.0
1080,0.0,0.0,0.0,-6.9426,0.057375,-7.0
1081,0.0,0.0,0.0,0.43876,7.4388,-7.0
1082,0.0,0.0,0.0,50.431,57.431,-7.0
1083,0.0,0.0,0.0,-5.2668,0.73321,-6.0
1084,0.0,0.0,0.0,-4.2997,1.7003,-6.0
1085,0.0,0.0,0.0,-1.8179,4.1821,-6.0
1086,0.0,0.0,0.0,-2.426,3.574,-6.0
1087,0.0,0.0,0.0,-5.2104,0.78959,-6.0
1088,0.0,0.0,0.0,-5.6679,0.3321,-6.0
1089,0.0,0.0,0.0,-6.5526,0.44743,-7.0
1090,0.0,0.0,0.0,-5.9792,0.020825,-6.0
1091,0.0,0.0,0.0,0.30151,8.3015,-8.0
1092,0.0,0.0,0.0,9.8301,15.83,-6.0
1093,0.0,0.0,0.0,0.0065146,4.0065,-4.0
1094,0.0,0.0,0.0,-5.9627,0.037293,-6.0
1095,0.0,0.0,0.0,-5.9841,0.015869,-6.0
1096,0.0,0.0,0.0,-5.9996,0.00035929,-6.0
1097,0.0,0.0,0.0,-3.1457,1.8543,-5.0
1098,0.0,0.0,0.0,134.97,141.97,-7.0
1099,30.0,96845.0,0.033333,-1006.0,0.0,-1006.0
1100,36.062,365800.0,0.02773,-999.0,0.0,-999.0
1101,0.0,0.0,0.0,-5.9424,0.05763,-6.0
1102,0.0,0.0,0.0,-2.1694,3.8306,-6.0
1103,0.0,0.0,0.0,-5.944,0.056048,-6.0
1104,0.0,0.0,0.0,7.6568,13.657,-6.0
1105,0.0,0.0,0.0,-3.8879,2.1121,-6.0
1106,0.0,0.0,0.0,-6.2281,0.77185,-7.0
1107,0.0,0.0,0.0,0.38993,7.3899,-7.0
1108,0.0,0.0,0.0,-5.3573,1.6427,-7.0
1109,0.0,0.0,0.0,-3.7343,2.2657,-6.0
1110,34.386,65385.0,0.026438,-1001.0,0.009539,-1001.0
1111,0.0,0.0,0.0,-0.32295,5.677,-6.0
1112,0.0,0.0,0.0,-4.9238,3.0762,-8.0
1113,0.0,0.0,0.0,-5.0,0.0,-5.0
1114,0.0,0.0,0.0,-8.0,0.0,-8.0
1115,37.46,18352.0,0.022424,-987.93,8.0694,-996.0
1117,0.0,0.0,0.0,-7.0,0.0,-7.0
1118,34.806,164560.0,0.025539,-1003.0,0.049408,-1003.0
1119,0.0,0.0,0.0,-4.0,0.0,-4.0
1120,0.0,0.0,0.0,-7.0,0.0,-7.0
1121,0.0,0.0,0.0,-4.2841,1.7159,-6.0
1122,0.0,0.0,0.0,-5.9621,0.037891,-6.0
1123,0.0,0.0,0.0,-7.0,0.0,-7.0
1124,0.0,0.0,0.0,-5.91,0.089963,-6.0
1125,33.058,1651600.0,0.027923,-1005.8,0.23601,-1006.0
1126,0.0,0.0,0.0,4.6551,9.6551,-5.0
1127,0.0,0.0,0.0,-4.0594,1.9406,-6.0
1128,0.0,0.0,0.0,-2.8111,3.1889,-6.0
1129,0.0,0.0,0.0,-5.9605,0.039451,-6.0
1130,31.091,339820.0,0.02924,-1006.7,1.2944,-1008.0
1131,0.0,0.0,0.0,-4.5,0.0,-4.5
1132,0.0,0.0,0.0,-7.0,0.0,-7.0
1133,0.0,0.0,0.0,-5.55,0.44997,-6.0
1134,0.0,0.0,0.0,-5.0,0.0,-5.0
1135,0.0,0.0,0.0,-4.8409,2.1591,-7.0
1136,0.0,0.0,0.0,-5.9511,0.04889,-6.0
1137,0.0,0.0,0.0,-1.0,0.0,-1.0
1138,30.0,25411.0,0.033333,-1005.0,0.0,-1005.0
1139,0.0,0.0,0.0,-5.4581,0.54192,-6.0
1140,31.222,361380.0,0.026097,-1004.9,0.59857,-1005.5
1141,0.0,0.0,0.0,-5.2955,1.7045,-7.0
1142,0.0,0.0,0.0,-5.7208,0.27915,-6.0
1143,0.0,0.0,0.0,-3.5007,2.4993,-6.0
1144,0.0,0.0,0.0,23.815,30.815,-7.0
1145,0.0,0.0,0.0,-4.6736,1.3264,-6.0
1146,0.0,0.0,0.0,3.128,8.128,-5.0
1147,0.0,0.0,0.0,-5.6567,1.3433,-7.0
1148,0.0,0.0,0.0,-6.9322,0.067763,-7.0
1149,0.0,0.0,0.0,4.0,0.0,4.0
1150,0.0,0.0,0.0,-1008.0,0.0,-1008.0
1151,0.0,0.0,0.0,-5.5862,0.41375,-6.0
1152,0.0,0.0,0.0,-5.9512,1.0488,-7.0
1153,38.5,467150.0,0.025974,-995.0,0.0,-995.0
1154,0.0,0.0,0.0,-5.8458,0.15417,-6.0
1155,0.0,0.0,0.0,-6.9132,0.086837,-7.0
1156,0.0,0.0,0.0,-4.4675,1.5325,-6.0
1157,0.0,0.0,0.0,-5.3454,0.65458,-6.0
1158,30.778,616.96,0.032491,-1004.5,0.0,-1004.5
1159,0.0,0.0,0.0,-3.7985,0.20148,-4.0
1160,0.0,0.0,0.0,-2.3268,3.6732,-6.0
1161,0.0,0.0,0.0,-5.3447,0.65532,-6.0
1162,0.0,0.0,0.0,-5.9018,0.098183,-6.0
1163,0.0,0.0,0.0,-5.9479,0.05208,-6.0
1164,0.0,0.0,0.0,2.8168,8.8168,-6.0
1165,0.0,0.0,0.0,-1008.0,0.0,-1008.0
1166,0.0,0.0,0.0,-6.7393,0.26065,-7.0
1167,0.0,0.0,0.0,-6.2361,0.76387,-7.0
1168,0.0,0.0,0.0,-6.9994,0.00065,-7.0
1169,0.0,0.0,0.0,-4.8054,2.1946,-7.0
1170,0.0,0.0,0.0,-4.6662,1.3338,-6.0
1171,0.0,0.0,0.0,-4.6845,0.31554,-5.0
1172,0.0,0.0,0.0,-6.6477,0.35232,-7.0
1173,0.0,0.0,0.0,-5.9824,0.017608,-6.0
1174,0.0,0.0,0.0,-5.6414,0.35863,-6.0
1175,0.0,0.0,0.0,-5.6557,0.34434,-6.0
1176,0.0,0.0,0.0,-5.3736,1.6264,-7.0
1177,0.0,0.0,0.0,9.8086,15.809,-6.0
1178,0.0,0.0,0.0,-5.9427,0.057286,-6.0
1179,0.0,0.0,0.0,-4.942,0.057974,-5.0
1180,0.0,0.0,0.0,-5.114,0.88597,-6.0
1181,0.0,0.0,0.0,6.3535,13.354,-7.0
1182,0.0,0.0,0.0,-5.6996,0.30044,-6.0
1183,0.0,0.0,0.0,-3.9357,0.064325,-4.0
1184,0.0,0.0,0.0,-2.2536,2.7464,-5.0
1185,0.0,0.0,0.0,-5.4884,0.51165,-6.0
1186,0.0,0.0,0.0,1.5278,7.5278,-6.0
1187,0.0,0.0,0.0,-5.9661,0.033943,-6.0
1188,0.0,0.0,0.0,-5.3833,0.61672,-6.0
1189,0.0,0.0,0.0,-6.7271,0.27293,-7.0
1190,0.0,0.0,0.0,2.1477,6.1477,-4.0
1191,0.0,0.0,0.0,12.279,18.279,-6.0
1192,0.0,0.0,0.0,-5.0,0.0,-5.0
1193,32.353,266650.0,0.027273,-1002.3,0.6514,-1003.0
1194,0.0,0.0,0.0,6.2982,10.298,-4.0
1195,0.0,0.0,0.0,-4.7434,2.2566,-7.0
1196,0.0,0.0,0.0,-6.6563,0.34368,-7.0
1197,0.0,0.0,0.0,-0.26263,5.7374,-6.0
1198,0.0,0.0,0.0,-5.6514,0.34863,-6.0
1199,0.0,0.0,0.0,-4.9677,0.032251,-5.0
1200,0.0,0.0,0.0,-5.8307,1.1693,-7.0
1201,0.0,0.0,0.0,-5.9967,0.0032836,-6.0
1202,0.0,0.0,0.0,-4.7351,2.2649,-7.0
1203,0.0,0.0,0.0,-0.58645,0.91355,-1.5
1204,0.0,0.0,0.0,-4.8212,2.1788,-7.0
1205,0.0,0.0,0.0,-6.8688,0.1312,-7.0
1206,0.0,0.0,0.0,-6.695,0.30504,-7.0
1207,0.0,0.0,0.0,-3.7214,1.2786,-5.0
1208,0.0,0.0,0.0,-3.2406,2.7594,-6.0
1209,0.0,0.0,0.0,-5.1113,0.88873,-6.0
1210,0.0,0.0,0.0,-5.1427,0.85728,-6.0
1211,0.0,0.0,0.0,2.3939,8.3939,-6.0
1212,0.0,0.0,0.0,-4.2547,1.7453,-6.0
1213,0.0,0.0,0.0,-6.9164,0.083566,-7.0
1214,0.0,0.0,0.0,26.148,27.648,-1.5
1215,0.0,0.0,0.0,20.841,26.841,-6.0
1216,0.0,0.0,0.0,-5.5373,0.46272,-6.0
1217,0.0,0.0,0.0,-6.6219,0.3781,-7.0
1218,0.0,0.0,0.0,-0.025683,6.9743,-7.0
1219,0.0,0.0,0.0,-4.9908,0.009231,-5.0
1220,0.0,0.0,0.0,-6.0515,0.94852,-7.0
1221,0.0,0.0,0.0,-6.9818,0.018178,-7.0
1222,0.0,0.0,0.0,-3.5,0.0,-3.5
1223,0.0,0.0,0.0,-1.0003,5.9997,-7.0
1224,0.0,0.0,0.0,-6.9336,0.066418,-7.0
1225,0.0,0.0,0.0,3.2958,10.296,-7.0
1226,0.0,0.0,0.0,7.4794,12.479,-5.0
1227,0.0,0.0,0.0,-7.0,0.0,-7.0
1228,0.0,0.0,0.0,-6.0,0.0,-6.0
1229,0.0,0.0,0.0,-4.6751,0.32493,-5.0
1230,0.0,0.0,0.0,-3.9817,0.018265,-4.0
1231,0.0,0.0,0.0,-2.5313,0.4687,-3.0
1232,0.0,0.0,0.0,-3.2419,0.75811,-4.0
1233,0.0,0.0,0.0,-5.996,0.0039689,-6.0
1234,0.0,0.0,0.0,-6.0968,0.90318,-7.0
1235,0.0,0.0,0.0,-2.807,0.69297,-3.5
1236,0.0,0.0,0.0,2.6357,0.13575,2.5
1237,31.25,25264.0,0.032,-1004.5,0.0,-1004.5
1238,0.0,0.0,0.0,-4.1635,2.8365,-7.0
1239,0.0,0.0,0.0,2.5443,9.5443,-7.0
1240,30.8,2129100.0,0.025974,-999.54,8.4646,-1008.0
1241,0.0,0.0,0.0,-5.7209,0.2791,-6.0
1242,34.706,3573200.0,0.027119,-971.07,32.432,-1003.5
1243,0.0,0.0,0.0,2.5,0.0,2.5
1244,0.0,0.0,0.0,-6.0,0.0,-6.0
1245,0.0,0.0,0.0,-5.3806,0.61938,-6.0
1246,0.0,0.0,0.0,-4.9938,0.0061855,-5.0
1247,0.0,0.0,0.0,-6.9604,0.039557,-7.0
1248,0.0,0.0,0.0,-1008.0,0.0,-1008.0
1249,0.0,0.0,0.0,-6.9415,0.058503,-7.0
1250,0.0,0.0,0.0,-5.678,0.32197,-6.0
1251,0.0,0.0,0.0,-7.0,0.0,-7.0
1252,0.0,0.0,0.0,-5.9249,1.0751,-7.0
1253,0.0,0.0,0.0,25.439,32.439,-7.0
1254,0.0,0.0,0.0,-2.0865,4.9135,-7.0
1255,0.0,0.0,0.0,-6.9663,0.033748,-7.0
1256,0.0,0.0,0.0,-5.9825,0.017533,-6.0
1257,0.0,0.0,0.0,6.0,0.0,6.0
1258,0.0,0.0,0.0,-6.5219,0.47814,-7.0
1259,0.0,0.0,0.0,-0.96252,5.0375,-6.0
1260,0.0,0.0,0.0,-0.5,0.0,-0.5
1261,0.0,0.0,0.0,-1006.0,0.0,-1006.0
1262,0.0,0.0,0.0,-5.4776,1.5224,-7.0
1263,0.0,0.0,0.0,1.8241,7.8241,-6.0
1264,0.0,0.0,0.0,-5.9822,0.017821,-6.0
1265,0.0,0.0,0.0,-7.0,0.0,-7.0
1266,0.0,0.0,0.0,-0.77067,4.2293,-5.0
1267,0.0,0.0,0.0,-5.6703,0.32966,-6.0
1268,0.0,0.0,0.0,-6.9928,0.0071566,-7.0
1269,0.0,0.0,0.0,-4.9619,0.038141,-5.0
1270,0.0,0.0,0.0,-5.9839,0.016141,-6.0
1271,0.0,0.0,0.0,-6.971,0.028964,-7.0
1272,32.921,195540.0,0.028777,-1006.0,0.0,-1006.0
1273,33.16,63142.0,0.027744,-1003.0,0.0,-1003.0
1274,0.0,0.0,0.0,-5.4056,0.59437,-6.0
1275,0.0,0.0,0.0,-3.525,2.475,-6.0
1276,0.0,0.0,0.0,-5.9511,0.048942,-6.0
1277,0.0,0.0,0.0,5.0,0.0,5.0
1278,0.0,0.0,0.0,-4.7983,0.20169,-5.0
1279,0.0,0.0,0.0,-4.5563,2.4437,-7.0
1280,0.0,0.0,0.0,14.268,20.268,-6.0
1281,0.0,0.0,0.0,-4.8271,1.1729,-6.0
1282,0.0,0.0,0.0,-1.8843,4.1157,-6.0
1283,0.0,0.0,0.0,-5.2361,0.76391,-6.0
1284,0.0,0.0,0.0,-6.8337,0.16633,-7.0
1285,0.0,0.0,0.0,-2.201,4.799,-7.0
1286,0.0,0.0,0.0,-4.2946,1.7054,-6.0
1287,0.0,0.0,0.0,-5.5734,1.4266,-7.0
1288,0.0,0.0,0.0,-7.0,0.0,-7.0
1289,0.0,0.0,0.0,1.1264,6.1264,-5.0
1290,0.0,0.0,0.0,-3.9434,0.056611,-4.0
1291,0.0,0.0,0.0,-4.0703,2.9297,-7.0
1292,0.0,0.0,0.0,-5.7499,0.2501,-6.0
1293,0.0,0.0,0.0,-5.2684,0.73163,-6.0
1294,0.0,0.0,0.0,4.0,0.0,4.0
1295,0.0,0.0,0.0,48.281,54.281,-6.0
1296,0.0,0.0,0.0,-5.7541,0.24587,-6.0
1297,0.0,0.0,0.0,-2.1699,3.8301,-6.0
1298,0.0,0.0,0.0,-3.8729,2.1271,-6.0
1299,0.0,0.0,0.0,-3.9152,0.084847,-4.0
1300,0.0,0.0,0.0,12.941,17.941,-5.0
1301,0.0,0.0,0.0,-4.8399,1.1601,-6.0
1302,33.56,11831.0,0.026222,-1006.9,0.071853,-1007.0
1303,0.0,0.0,0.0,-0.37043,0.62957,-1.0
1304,0.0,0.0,0.0,-5.9947,0.0052713,-6.0
1305,0.0,0.0,0.0,-4.9058,0.094205,-5.0
1306,34.094,47147.0,0.027498,-1003.5,0.03274,-1003.5
1307,0.0,0.0,0.0,-7.0,0.0,-7.0
1308,0.0,0.0,0.0,3.5,0.0,3.5
1309,0.0,0.0,0.0,-5.35,0.65001,-6.0
1310,0.0,0.0,0.0,0.27818,6.2782,-6.0
1311,0.0,0.0,0.0,-6.7085,0.29149,-7.0
1312,0.0,0.0,0.0,-6.4858,0.51423,-7.0
1313,0.0,0.0,0.0,4.0,0.0,4.0
1314,0.0,0.0,0.0,5.1541,12.154,-7.0
1315,0.0,0.0,0.0,-4.6515,0.34855,-5.0
1316,0.0,0.0,0.0,6.0,0.0,6.0
1317,0.0,0.0,0.0,-4.6533,1.3467,-6.0
1318,0.0,0.0,0.0,0.83327,6.8333,-6.0
1319,0.0,0.0,0.0,11.167,18.167,-7.0
1320,0.0,0.0,0.0,-4.7884,1.2116,-6.0
1321,0.0,0.0,0.0,0.38813,6.3881,-6.0
1322,0.0,0.0,0.0,-4.9401,1.0599,-6.0
1323,0.0,0.0,0.0,-4.2469,2.7531,-7.0
1324,0.0,0.0,0.0,-2.5401,4.4599,-7.0
1325,0.0,0.0,0.0,-6.9946,0.005408,-7.0
1326,0.0,0.0,0.0,-5.9721,0.027883,-6.0
1327,0.0,0.0,0.0,11.566,17.566,-6.0
1328,0.0,0.0,0.0,-3.5001,1.4999,-5.0
1329,0.0,0.0,0.0,-4.3307,0.6693,-5.0
1330,0.0,0.0,0.0,-6.1474,0.85261,-7.0
1331,0.0,0.0,0.0,-6.9999,0.0001272,-7.0
1332,31.75,20748.0,0.025012,-955.66,51.337,-1007.0
1333,0.0,0.0,0.0,-4.4233,1.5767,-6.0
1334,0.0,0.0,0.0,-1.5761,4.4239,-6.0
1335,0.0,0.0,0.0,-6.077,0.92303,-7.0
1336,0.0,0.0,0.0,-1008.0,0.0,-1008.0
1337,0.0,0.0,0.0,-4.0489,0.45114,-4.5
1338,0.0,0.0,0.0,-5.0767,1.9233,-7.0
1339,0.0,0.0,0.0,1.4208,7.4208,-6.0
1340,0.0,0.0,0.0,-2.7401,1.2599,-4.0
1341,0.0,0.0,0.0,-4.4522,0.54776,-5.0
1342,35.353,610540.0,0.028286,-938.48,69.516,-1008.0
1343,0.0,0.0,0.0,-4.1131,1.8869,-6.0
1344,0.0,0.0,0.0,4.7219,10.722,-6.0
1345,0.0,0.0,0.0,-3.1015,3.8985,-7.0
1346,0.0,0.0,0.0,-5.9692,0.030821,-6.0
1347,34.217,16866.0,0.027277,-998.0,0.0,-998.0
1348,34.391,2982.3,0.025284,-1007.8,0.15186,-1008.0
1349,0.0,0.0,0.0,-1.7535,5.2465,-7.0
1350,0.0,0.0,0.0,-3.5469,2.4531,-6.0
1351,0.0,0.0,0.0,12.76,18.76,-6.0
1352,0.0,0.0,0.0,-5.3406,0.65939,-6.0
1353,0.0,0.0,0.0,-4.8876,2.1124,-7.0
1354,0.0,0.0,0.0,-5.5595,1.4405,-7.0
1356,0.0,0.0,0.0,136.76,143.76,-7.0
1357,32.212,423.37,0.023881,-1003.0,1.4528,-1004.5
1358,32.719,9157.8,0.029608,-1002.0,0.0,-1002.0
1359,0.0,0.0,0.0,2.5917,0.091708,2.5
1360,0.0,0.0,0.0,-6.9823,0.017687,-7.0
1361,0.0,0.0,0.0,-7.0,0.0,-7.0
1362,0.0,0.0,0.0,13.626,20.626,-7.0
1363,0.0,0.0,0.0,3.0,0.0,3.0
1364,0.0,0.0,0.0,44.952,51.952,-7.0
1365,0.0,0.0,0.0,-7.0,0.0,-7.0
1366,30.317,372050.0,0.031886,-1007.0,0.0,-1007.0
1367,0.0,0.0,0.0,-5.6014,0.39856,-6.0
1368,30.79,21366.0,0.025144,-885.91,121.09,-1007.0
1369,0.0,0.0,0.0,47.671,53.671,-6.0
1370,0.0,0.0,0.0,3.4929,10.493,-7.0
1371,0.0,0.0,0.0,-6.6926,0.30745,-7.0
1372,0.0,0.0,0.0,-6.3536,0.64642,-7.0
1373,0.0,0.0,0.0,-3.1051,1.8949,-5.0
1374,0.0,0.0,0.0,-6.9375,0.062489,-7.0
1375,0.0,0.0,0.0,-4.8907,0.10926,-5.0
1376,0.0,0.0,0.0,-6.361,0.63901,-7.0
1377,0.0,0.0,0.0,-3.6401,2.3599,-6.0
1378,0.0,0.0,0.0,-3.0771,2.9229,-6.0
1379,0.0,0.0,0.0,-7.0,0.0,-7.0
1380,0.0,0.0,0.0,-6.9181,0.081905,-7.0
1381,0.0,0.0,0.0,-5.3598,0.6402,-6.0
1382,0.0,0.0,0.0,-6.0,0.0,-6.0
1383,0.0,0.0,0.0,-6.3125,0.68751,-7.0
1384,0.0,0.0,0.0,-5.5071,1.4929,-7.0
1385,0.0,0.0,0.0,5.0,0.0,5.0
1386,0.0,0.0,0.0,3.0,0.0,3.0
1387,0.0,0.0,0.0,-6.7303,0.26975,-7.0
1388,0.0,0.0,0.0,-0.69596,5.304,-6.0
1389,0.0,0.0,0.0,-0.7391,5.2609,-6.0
1390,0.0,0.0,0.0,-0.047468,5.9525,-6.0
1391,0.0,0.0,0.0,3.9424,7.9424,-4.0
1392,0.0,0.0,0.0,-4.1442,0.85577,-5.0
1393,0.0,0.0,0.0,6.0,0.0,6.0
1394,0.0,0.0,0.0,-6.0,0.0,-6.0
1395,0.0,0.0,0.0,-6.0,0.0,-6.0
1396,0.0,0.0,0.0,-1008.0,0.0,-1008.0
1397,0.0,0.0,0.0,32.068,28.068,4.0
1398,0.0,0.0,0.0,-1.3829,3.6171,-5.0
1399,0.0,0.0,0.0,-5.9983,0.0016928,-6.0
1400,35.111,283470.0,0.026899,-1000.5,0.0,-1000.5
1401,31.5,2255300.0,0.013605,-1002.2,3.2557,-1005.5
1402,0.0,0.0,0.0,-6.9524,0.047618,-7.0
1403,0.0,0.0,0.0,-2.911,3.089,-6.0
1404,0.0,0.0,0.0,3.1363,8.1363,-5.0
1405,0.0,0.0,0.0,14.955,20.955,-6.0
1406,0.0,0.0,0.0,-1.7906,4.2094,-6.0
1407,0.0,0.0,0.0,-0.088352,6.9116,-7.0
1408,0.0,0.0,0.0,-4.5961,1.4039,-6.0
1409,0.0,0.0,0.0,-6.5329,0.46709,-7.0
1410,0.0,0.0,0.0,-1008.0,0.0,-1008.0
1411,0.0,0.0,0.0,-4.9745,1.0255,-6.0
1412,0.0,0.0,0.0,-6.0659,0.93409,-7.0
1413,0.0,0.0,0.0,4.4795,5.9795,-1.5
1414,0.0,0.0,0.0,-5.9225,0.077535,-6.0
1415,0.0,0.0,0.0,-6.4996,1.5004,-8.0
1416,0.0,0.0,0.0,-2.7842,3.2158,-6.0
1417,0.0,0.0,0.0,-6.9758,0.024182,-7.0
1418,0.0,0.0,0.0,-6.0,0.0,-6.0
1419,34.882,454.18,0.020236,-1007.9,1.1368,-1009.0
1420,0.0,0.0,0.0,3.2524,9.2524,-6.0
1421,0.0,0.0,0.0,-5.8528,0.14725,-6.0
1422,0.0,0.0,0.0,-5.7678,0.23221,-6.0
1423,0.0,0.0,0.0,-6.3668,0.63324,-7.0
1424,,,,,,
1425,0.0,0.0,0.0,6.591,13.591,-7.0
1426,0.0,0.0,0.0,-5.6672,0.33279,-6.0
1427,0.0,0.0,0.0,1.5828,8.5828,-7.0
1428,0.0,0.0,0.0,-5.9611,0.038941,-6.0
1429,0.0,0.0,0.0,-3.4493,0.55068,-4.0
1430,0.0,0.0,0.0,-6.6574,0.34262,-7.0
1431,0.0,0.0,0.0,-3.7491,0.2509,-4.0
1432,0.0,0.0,0.0,33.516,39.516,-6.0
1433,0.0,0.0,0.0,-0.16597,1.334,-1.5
1434,0.0,0.0,0.0,-5.7737,0.22632,-6.0
1435,0.0,0.0,0.0,-5.3855,0.61448,-6.0
1436,0.0,0.0,0.0,-1008.0,0.0,-1008.0
1437,0.0,0.0,0.0,-6.0,0.0,-6.0
1438,0.0,0.0,0.0,-5.116,0.88402,-6.0
1439,0.0,0.0,0.0,-5.595,0.40503,-6.0
1440,0.0,0.0,0.0,-5.7837,0.21633,-6.0
1441,0.0,0.0,0.0,-4.6103,2.3897,-7.0
1442,0.0,0.0,0.0,-4.0641,0.93588,-5.0
1443,0.0,0.0,0.0,20.731,26.731,-6.0
1444,0.0,0.0,0.0,-6.7603,0.23967,-7.0
1445,0.0,0.0,0.0,-5.3761,0.62385,-6.0
1446,0.0,0.0,0.0,-3.5461,2.4539,-6.0
1447,0.0,0.0,0.0,59.788,66.788,-7.0
1448,0.0,0.0,0.0,-4.5079,2.4921,-7.0
1449,0.0,0.0,0.0,-1.5,0.0,-1.5
1450,0.0,0.0,0.0,1.0273,5.0273,-4.0
1451,0.0,0.0,0.0,-5.6235,1.3765,-7.0
1452,0.0,0.0,0.0,-4.8814,0.1186,-5.0
1453,0.0,0.0,0.0,-5.0017,1.9983,-7.0
1454,0.0,0.0,0.0,3.8013,9.8013,-6.0
1455,0.0,0.0,0.0,-1006.0,0.0,-1006.0
1456,0.0,0.0,0.0,-5.9568,0.043205,-6.0
1457,0.0,0.0,0.0,-4.1824,1.8176,-6.0
1458,0.0,0.0,0.0,-2.3849,2.6151,-5.0
1459,0.0,0.0,0.0,-5.0,0.0,-5.0
1460,0.0,0.0,0.0,-1007.0,0.0,-1007.0
1461,0.0,0.0,0.0,-3.8796,1.1204,-5.0
1462,0.0,0.0,0.0,5.0,0.0,5.0
1463,0.0,0.0,0.0,0.49596,7.496,-7.0
1464,0.0,0.0,0.0,-5.473,0.52698,-6.0
1465,0.0,0.0,0.0,-1007.0,0.0,-1007.0
1466,0.0,0.0,0.0,-4.6781,2.3219,-7.0
1467,0.0,0.0,0.0,-5.5743,0.42573,-6.0
1468,0.0,0.0,0.0,-5.1425,1.8575,-7.0
1469,0.0,0.0,0.0,-3.5,0.0,-3.5
1470,0.0,0.0,0.0,-6.4286,0.57137,-7.0
1471,33.241,61311.0,0.027855,-1001.9,0.10462,-1002.0
1472,0.0,0.0,0.0,-5.1728,1.8272,-7.0
1473,31.25,20496.0,0.032,-1004.5,0.0,-1004.5
1474,0.0,0.0,0.0,-6.619,0.381,-7.0
1475,0.0,0.0,0.0,-2.4222,4.5778,-7.0
1476,33.886,14836.0,0.025486,-1001.2,0.83392,-1002.0
1477,0.0,0.0,0.0,-2.8856,3.1144,-6.0
1478,0.0,0.0,0.0,-6.7719,0.22808,-7.0
1479,33.279,17377.0,0.026513,-1002.6,0.44392,-1003.0
1480,0.0,0.0,0.0,0.94637,7.9464,-7.0
1481,0.0,0.0,0.0,-1.125,3.875,-5.0
1482,0.0,0.0,0.0,-6.0,0.0,-6.0
1483,0.0,0.0,0.0,-5.4848,1.5152,-7.0
1484,0.0,0.0,0.0,11.459,17.459,-6.0
1485,0.0,0.0,0.0,-1007.0,0.0,-1007.0
1486,0.0,0.0,0.0,-0.31379,3.6862,-4.0
1487,0.0,0.0,0.0,70.812,76.812,-6.0
1488,0.0,0.0,0.0,-5.3736,0.62643,-6.0
1489,0.0,0.0,0.0,6.0,0.0,6.0
1490,0.0,0.0,0.0,-6.5502,0.44979,-7.0
1491,0.0,0.0,0.0,-2.7535,1.2465,-4.0
1492,0.0,0.0,0.0,-6.9906,0.009432,-7.0
1493,0.0,0.0,0.0,-6.7704,0.22962,-7.0
1494,0.0,0.0,0.0,-6.9341,0.065936,-7.0
1495,0.0,0.0,0.0,-6.0,0.0,-6.0
1496,0.0,0.0,0.0,-2.5829,3.4171,-6.0
1497,31.441,60091.0,0.026193,-1005.7,0.28065,-1006.0
1498,0.0,0.0,0.0,-5.0344,1.9656,-7.0
1499,0.0,0.0,0.0,5.6728,11.673,-6.0
1500,0.0,0.0,0.0,-6.0,0.0,-6.0
1501,0.0,0.0,0.0,-0.59962,4.4004,-5.0
1502,0.0,0.0,0.0,-6.8832,0.11684,-7.0
1503,0.0,0.0,0.0,-6.9698,0.03022,-7.0
1504,0.0,0.0,0.0,-6.0,0.0,-6.0
1505,0.0,0.0,0.0,3.3064,10.306,-7.0
1506,0.0,0.0,0.0,-5.981,0.018973,-6.0
1507,0.0,0.0,0.0,-1005.0,0.0,-1005.0
1508,0.0,0.0,0.0,-1.989,0.51102,-2.5
1509,0.0,0.0,0.0,-5.8404,0.15957,-6.0
1510,0.0,0.0,0.0,-5.3621,0.63792,-6.0
1511,0.0,0.0,0.0,-4.8022,1.1978,-6.0
1512,0.0,0.0,0.0,0.62589,4.6259,-4.0
1513,0.0,0.0,0.0,-5.8458,1.1542,-7.0
1514,0.0,0.0,0.0,-4.1806,2.8194,-7.0
1516,0.0,0.0,0.0,-6.0,0.0,-6.0
1517,0.0,0.0,0.0,19.145,25.145,-6.0
1518,0.0,0.0,0.0,-5.9366,0.063429,-6.0
1519,0.0,0.0,0.0,-3.8063,2.1937,-6.0
1520,0.0,0.0,0.0,-5.9106,0.089356,-6.0
1521,0.0,0.0,0.0,-4.7571,0.24288,-5.0
1522,0.0,0.0,0.0,-4.8532,1.1468,-6.0
1523,0.0,0.0,0.0,-3.9214,1.0786,-5.0
1524,0.0,0.0,0.0,-6.0,0.0,-6.0
1525,0.0,0.0,0.0,0.64604,7.646,-7.0
1526,0.0,0.0,0.0,-5.8278,0.17219,-6.0
1527,0.0,0.0,0.0,-6.0,0.0,-6.0
1528,0.0,0.0,0.0,13.413,19.413,-6.0
1529,0.0,0.0,0.0,-6.2859,0.71414,-7.0
1530,30.5,1352100.0,0.028689,-1006.5,0.48167,-1007.0
1531,0.0,0.0,0.0,-4.8463,1.1537,-6.0
1532,0.0,0.0,0.0,-5.9219,0.078067,-6.0
1533,0.0,0.0,0.0,-5.893,0.10703,-6.0
1534,0.0,0.0,0.0,0.26955,5.2696,-5.0
1535,0.0,0.0,0.0,-4.2982,0.70176,-5.0
1536,0.0,0.0,0.0,-6.0,0.0,-6.0
1537,0.0,0.0,0.0,3.1498,9.1498,-6.0
1538,0.0,0.0,0.0,-5.232,0.76798,-6.0
1539,0.0,0.0,0.0,-6.7816,0.21845,-7.0
1540,0.0,0.0,0.0,-5.8922,0.10782,-6.0
1541,0.0,0.0,0.0,-6.0,0.0,-6.0
1542,31.0,188090.0,0.032258,-1008.0,0.0,-1008.0
1543,0.0,0.0,0.0,-4.8744,0.1256,-5.0
1544,0.0,0.0,0.0,-5.4865,0.51353,-6.0
1545,37.5,578800.0,0.021333,-991.18,3.8201,-995.0
1546,0.0,0.0,0.0,-6.6305,0.3695,-7.0
1547,0.0,0.0,0.0,-2.0,0.0,-2.0
1548,0.0,0.0,0.0,-3.6991,3.3009,-7.0
1549,0.0,0.0,0.0,-2.4782,4.5218,-7.0
1550,0.0,0.0,0.0,-6.216,0.78404,-7.0
1551,0.0,0.0,0.0,-6.0276,0.97237,-7.0
1552,0.0,0.0,0.0,-5.3329,0.66711,-6.0
1553,0.0,0.0,0.0,6.275,12.275,-6.0
1554,0.0,0.0,0.0,-2.4345,3.5655,-6.0
1555,0.0,0.0,0.0,-0.97308,5.0269,-6.0
1556,0.0,0.0,0.0,-6.7122,0.28784,-7.0
1557,0.0,0.0,0.0,37.578,42.578,-5.0
1558,0.0,0.0,0.0,-5.8034,0.19655,-6.0
1559,35.143,68960.0,0.025407,-942.04,63.456,-1005.5
1560,0.0,0.0,0.0,-0.66712,0.83288,-1.5
1561,0.0,0.0,0.0,-6.0,0.0,-6.0
1562,0.0,0.0,0.0,-6.5123,0.48766,-7.0
1563,0.0,0.0,0.0,-4.7988,2.2012,-7.0
1564,0.0,0.0,0.0,16.092,22.092,-6.0
1565,0.0,0.0,0.0,1.3674,8.3674,-7.0
1566,0.0,0.0,0.0,51.182,46.182,5.0
1567,35.278,33436.0,0.027297,-987.89,15.609,-1003.5
1568,0.0,0.0,0.0,2.0062,8.0062,-6.0
1569,0.0,0.0,0.0,77.012,83.012,-6.0
1570,0.0,0.0,0.0,4.0,0.0,4.0
1571,0.0,0.0,0.0,5.2133,11.213,-6.0
1572,0.0,0.0,0.0,-5.9633,0.036687,-6.0
1573,0.0,0.0,0.0,6.0,0.0,6.0
1574,0.0,0.0,0.0,-3.2533,2.7467,-6.0
1575,30.0,3336.9,0.033333,-1005.0,0.0,-1005.0
1576,0.0,0.0,0.0,-1006.0,0.0,-1006.0
1577,0.0,0.0,0.0,25.075,32.075,-7.0
1578,37.472,202290.0,0.025204,-995.0,0.0,-995.0
1579,0.0,0.0,0.0,-2.4611,4.5389,-7.0
1580,0.0,0.0,0.0,-3.8426,0.15741,-4.0
1581,0.0,0.0,0.0,-6.8591,0.14091,-7.0
1582,0.0,0.0,0.0,5.0,0.0,5.0
1583,0.0,0.0,0.0,-4.0646,1.9354,-6.0
1584,0.0,0.0,0.0,-2.4171,3.5829,-6.0
1585,30.288,55001.0,0.030476,-1004.3,1.7353,-1006.0
1586,0.0,0.0,0.0,-4.5654,2.4346,-7.0
1587,0.0,0.0,0.0,-6.0,0.0,-6.0
1588,0.0,0.0,0.0,-6.9788,0.021162,-7.0
1589,0.0,0.0,0.0,-4.1887,1.8113,-6.0
1590,0.0,0.0,0.0,11.464,18.464,-7.0
1591,0.0,0.0,0.0,-6.9844,0.015615,-7.0
1592,0.0,0.0,0.0,-1007.0,0.0,-1007.0
1593,0.0,0.0,0.0,-2.6446,4.3554,-7.0
1594,0.0,0.0,0.0,2.7391,8.7391,-6.0
1595,0.0,0.0,0.0,-5.213,0.787,-6.0
1596,0.0,0.0,0.0,5.0,0.0,5.0
1597,0.0,0.0,0.0,22.9,28.9,-6.0
1598,35.528,310520.0,0.026583,-993.04,11.455,-1004.5
1599,34.25,67662.0,0.029197,-1005.0,0.0,-1005.0
1600,34.96,565250.0,0.026316,-998.98,5.5218,-1004.5
1601,0.0,0.0,0.0,-4.8332,1.1668,-6.0
1602,0.0,0.0,0.0,-0.036076,5.9639,-6.0
1603,34.375,6576700.0,0.029091,-997.0,0.0,-997.0
1604,0.0,0.0,0.0,-1.6579,5.3421,-7.0
1605,0.0,0.0,0.0,1.4062,5.4062,-4.0
1606,0.0,0.0,0.0,-0.054168,6.9458,-7.0
1607,0.0,0.0,0.0,-5.0607,0.93929,-6.0
1608,0.0,0.0,0.0,-6.0406,0.95939,-7.0
1609,0.0,0.0,0.0,-1007.0,0.0,-1007.0
1610,32.5,35612.0,0.026667,-1004.8,0.18442,-1005.0
1611,0.0,0.0,0.0,-4.7335,1.2665,-6.0
1612,0.0,0.0,0.0,10.288,16.288,-6.0
1613,0.0,0.0,0.0,-3.5137,2.4863,-6.0
1614,0.0,0.0,0.0,0.51819,7.5182,-7.0
1615,0.0,0.0,0.0,-6.7823,0.21774,-7.0
1616,0.0,0.0,0.0,41.45,43.95,-2.5
1617,0.0,0.0,0.0,-6.6744,0.32561,-7.0
1618,0.0,0.0,0.0,-6.4801,0.51989,-7.0
1619,0.0,0.0,0.0,4.7138,8.7138,-4.0
1620,0.0,0.0,0.0,-5.8829,0.11707,-6.0
1621,0.0,0.0,0.0,4.3258,5.8258,-1.5
1622,0.0,0.0,0.0,-1006.0,0.0,-1006.0
1623,33.289,394.72,0.028458,-1004.5,1.4803,-1006.0
1624,0.0,0.0,0.0,5.3875,0.38755,5.0
1625,0.0,0.0,0.0,-4.2799,1.7201,-6.0
1626,0.0,0.0,0.0,-0.37264,6.6274,-7.0
1627,0.0,0.0,0.0,-4.5979,1.4021,-6.0
1628,36.143,281760.0,0.027668,-996.0,0.0,-996.0
1629,0.0,0.0,0.0,4.0,0.0,4.0
1630,0.0,0.0,0.0,1.5,0.0,1.5
1631,0.0,0.0,0.0,6.8562,12.856,-6.0
1632,0.0,0.0,0.0,-5.7722,0.22775,-6.0
1633,0.0,0.0,0.0,-6.9998,0.00021877,-7.0
1634,0.0,0.0,0.0,-6.967,0.033012,-7.0
1635,0.0,0.0,0.0,-5.9959,0.0040706,-6.0
1636,0.0,0.0,0.0,-5.1682,0.83181,-6.0
1637,0.0,0.0,0.0,-5.6433,0.3567,-6.0
1638,0.0,0.0,0.0,-1006.0,0.0,-1006.0
1639,0.0,0.0,0.0,-4.4196,1.5804,-6.0
1640,0.0,0.0,0.0,-6.0,0.0,-6.0
1642,0.0,0.0,0.0,1.6196,8.6196,-7.0
1643,0.0,0.0,0.0,-4.3804,1.6196,-6.0
1644,0.0,0.0,0.0,-6.3935,0.60647,-7.0
1645,0.0,0.0,0.0,-5.3678,0.63218,-6.0
1646,0.0,0.0,0.0,-1006.0,0.0,-1006.0
1647,0.0,0.0,0.0,-4.9575,0.042509,-5.0
1648,0.0,0.0,0.0,-5.7797,0.22033,-6.0
1649,0.0,0.0,0.0,-1.234,0.26601,-1.5
1650,33.045,5655.8,0.02751,-1005.9,0.12551,-1006.0
1651,0.0,0.0,0.0,11.909,17.409,-5.5
1652,0.0,0.0,0.0,42.416,48.416,-6.0
1653,0.0,0.0,0.0,-6.9766,0.023384,-7.0
1654,0.0,0.0,0.0,-5.8932,1.1068,-7.0
1655,35.45,324.78,0.025388,-996.02,3.4759,-999.5
1656,0.0,0.0,0.0,-1006.0,0.0,-1006.0
1657,0.0,0.0,0.0,117.53,122.53,-5.0
1658,0.0,0.0,0.0,-6.2348,0.76515,-7.0
1659,0.0,0.0,0.0,3.1761,9.1761,-6.0
1660,0.0,0.0,0.0,-6.6826,0.31744,-7.0
1661,0.0,0.0,0.0,-6.0,0.0,-6.0
1662,0.0,0.0,0.0,-4.1071,1.8929,-6.0
1663,0.0,0.0,0.0,0.18237,3.6824,-3.5
1664,0.0,0.0,0.0,-6.9838,0.016236,-7.0
1665,0.0,0.0,0.0,-2.7509,3.2491,-6.0
1666,0.0,0.0,0.0,-5.9727,0.027264,-6.0
1667,0.0,0.0,0.0,-5.6266,1.3734,-7.0
1668,0.0,0.0,0.0,-6.675,0.32498,-7.0
1669,0.0,0.0,0.0,-3.4988,1.5012,-5.0
1670,33.417,1618.1,0.028928,-1002.8,0.65338,-1003.5
1671,0.0,0.0,0.0,-6.0,0.0,-6.0
1672,0.0,0.0,0.0,-4.7964,0.20359,-5.0
1673,0.0,0.0,0.0,11.975,17.975,-6.0
1674,0.0,0.0,0.0,-5.6617,0.33826,-6.0
1675,0.0,0.0,0.0,-5.9117,0.088285,-6.0
1676,37.9,286000.0,0.021108,-995.0,2.0035,-997.0
1677,0.0,0.0,0.0,-6.7012,0.29876,-7.0
1678,0.0,0.0,0.0,-6.8066,0.19338,-7.0
1679,0.0,0.0,0.0,-5.8803,0.11967,-6.0
1680,0.0,0.0,0.0,-2.6115,3.3885,-6.0
1681,0.0,0.0,0.0,-1.985,5.015,-7.0
1682,0.0,0.0,0.0,-6.0,0.0,-6.0
1683,0.0,0.0,0.0,-5.1167,1.8833,-7.0
1684,0.0,0.0,0.0,17.688,23.688,-6.0
1685,0.0,0.0,0.0,-1.1307,4.8693,-6.0
1686,0.0,0.0,0.0,1.5,0.0,1.5
1687,0.0,0.0,0.0,5.0,0.0,5.0
1688,0.0,0.0,0.0,-3.9265,3.0735,-7.0
1689,0.0,0.0,0.0,0.17952,4.1795,-4.0
1690,,,,,,
1691,0.0,0.0,0.0,-4.9673,2.0327,-7.0
1692,0.0,0.0,0.0,-3.6569,2.3431,-6.0
1693,0.0,0.0,0.0,-5.0,0.0,-5.0
1694,0.0,0.0,0.0,-3.4815,2.5185,-6.0
1695,0.0,0.0,0.0,-5.1488,1.8512,-7.0
1696,0.0,0.0,0.0,-1007.0,0.0,-1007.0
1697,0.0,0.0,0.0,1.5,0.0,1.5
1698,0.0,0.0,0.0,-5.7947,1.2053,-7.0
1699,0.0,0.0,0.0,9.856,15.856,-6.0
1700,0.0,0.0,0.0,-3.5991,2.4009,-6.0
1701,0.0,0.0,0.0,-4.0963,2.9037,-7.0
1702,0.0,0.0,0.0,21.423,27.423,-6.0
1703,0.0,0.0,0.0,-3.2441,2.7559,-6.0
1704,0.0,0.0,0.0,-1.3849,4.6151,-6.0
1705,0.0,0.0,0.0,-4.7493,1.2507,-6.0
1706,0.0,0.0,0.0,-1005.0,0.0,-1005.0
1707,0.0,0.0,0.0,-5.6203,0.37975,-6.0
1708,0.0,0.0,0.0,-5.7157,1.2843,-7.0
1709,0.0,0.0,0.0,6.5477,13.548,-7.0
1710,0.0,0.0,0.0,-5.7323,1.2677,-7.0
1711,0.0,0.0,0.0,-6.0,0.0,-6.0
1712,0.0,0.0,0.0,-6.0,0.0,-6.0
1713,0.0,0.0,0.0,-5.6172,0.3828,-6.0
1714,0.0,0.0,0.0,28.71,33.71,-5.0
1715,0.0,0.0,0.0,2.882,9.882,-7.0
1716,0.0,0.0,0.0,-5.443,0.55698,-6.0
1717,0.0,0.0,0.0,-6.1897,0.81035,-7.0
1718,0.0,0.0,0.0,-5.7573,0.24272,-6.0
1719,0.0,0.0,0.0,3.0411,10.041,-7.0
1720,0.0,0.0,0.0,14.889,20.889,-6.0
1721,30.312,86396.0,0.030928,-1005.5,0.0,-1005.5
1722,0.0,0.0,0.0,-2.6366,2.3634,-5.0
1723,0.0,0.0,0.0,-5.4162,1.5838,-7.0
1724,0.0,0.0,0.0,-1.6253,5.3747,-7.0
1725,0.0,0.0,0.0,-0.40493,3.5951,-4.0
1726,0.0,0.0,0.0,-5.856,0.14399,-6.0
1727,0.0,0.0,0.0,-3.5,0.0,-3.5
1728,0.0,0.0,0.0,-5.9837,0.016273,-6.0
1729,0.0,0.0,0.0,15.859,21.859,-6.0
1730,0.0,0.0,0.0,3.3539,7.3539,-4.0
1731,0.0,0.0,0.0,-5.0,0.0,-5.0
1732,0.0,0.0,0.0,-6.6117,0.3883,-7.0
1733,0.0,0.0,0.0,-5.8432,0.15679,-6.0
1734,0.0,0.0,0.0,-2.9681,3.0319,-6.0
1735,0.0,0.0,0.0,-6.6918,0.30815,-7.0
1736,0.0,0.0,0.0,-1005.0,0.0,-1005.0
1737,0.0,0.0,0.0,7.0197,13.02,-6.0
1738,0.0,0.0,0.0,-4.1659,0.83409,-5.0
1739,0.0,0.0,0.0,-1.5694,4.4306,-6.0
1740,0.0,0.0,0.0,-5.9172,0.082777,-6.0
1741,0.0,0.0,0.0,-6.8384,0.16164,-7.0
1742,0.0,0.0,0.0,-5.8643,0.13566,-6.0
1743,0.0,0.0,0.0,-6.1096,0.89042,-7.0
1744,0.0,0.0,0.0,-5.5,0.0,-5.5
1745,0.0,0.0,0.0,-4.2143,1.7857,-6.0
1746,0.0,0.0,0.0,-2.8872,4.1128,-7.0
1747,0.0,0.0,0.0,2.9852,9.9852,-7.0
1748,0.0,0.0,0.0,-6.9935,0.0064516,-7.0
1749,0.0,0.0,0.0,-2.6418,1.3582,-4.0
1750,0.0,0.0,0.0,-7.7831,0.21688,-8.0
1751,0.0,0.0,0.0,-6.6742,0.3258,-7.0
1752,0.0,0.0,0.0,-6.0,0.0,-6.0
1753,0.0,0.0,0.0,-5.9567,0.043313,-6.0
1754,0.0,0.0,0.0,19.867,25.867,-6.0
1755,0.0,0.0,0.0,-0.78547,3.2145,-4.0
1756,0.0,0.0,0.0,-5.5019,0.4981,-6.0
1757,0.0,0.0,0.0,4.9828,9.9828,-5.0
1758,0.0,0.0,0.0,-5.7269,0.2731,-6.0
1759,0.0,0.0,0.0,-5.4533,0.54672,-6.0
1760,0.0,0.0,0.0,49.244,55.244,-6.0
1761,0.0,0.0,0.0,5.0,0.0,5.0
1762,0.0,0.0,0.0,-5.9643,0.03571,-6.0
1763,0.0,0.0,0.0,-5.4981,0.50194,-6.0
1764,0.0,0.0,0.0,-5.7451,0.25485,-6.0
1765,0.0,0.0,0.0,-3.5,0.0,-3.5
1766,0.0,0.0,0.0,46.293,53.293,-7.0
1767,32.571,87906.0,0.028509,-1002.8,0.17003,-1003.0
1768,0.0,0.0,0.0,-2.8814,2.1186,-5.0
1769,0.0,0.0,0.0,-1.0,0.0,-1.0
1770,0.0,0.0,0.0,3.9363,10.936,-7.0
1771,0.0,0.0,0.0,-5.1466,0.85342,-6.0
1772,0.0,0.0,0.0,-4.9744,1.0256,-6.0
1773,0.0,0.0,0.0,-4.0669,1.9331,-6.0
1774,0.0,0.0,0.0,5.2478,12.248,-7.0
1775,0.0,0.0,0.0,-0.96994,0.53006,-1.5
1776,0.0,0.0,0.0,-3.1026,2.8974,-6.0
1777,0.0,0.0,0.0,-0.48505,4.515,-5.0
1778,0.0,0.0,0.0,-0.029777,5.9702,-6.0
1779,0.0,0.0,0.0,-5.9629,0.037104,-6.0
1780,0.0,0.0,0.0,-6.9623,0.037749,-7.0
1781,0.0,0.0,0.0,-5.9624,0.037626,-6.0
1782,36.071,3491.5,0.027723,-999.5,0.0,-999.5
1783,0.0,0.0,0.0,-5.8347,1.1653,-7.0
1784,0.0,0.0,0.0,5.0,0.0,5.0
1785,0.0,0.0,0.0,0.22187,5.2219,-5.0
1786,0.0,0.0,0.0,3.0,0.0,3.0
1787,31.295,6348.1,0.029049,-1004.5,0.024544,-1004.5
1788,0.0,0.0,0.0,-3.5,0.0,-3.5
1789,0.0,0.0,0.0,-6.9871,0.01287,-7.0
1790,30.938,77763.0,0.032323,-1005.5,0.0,-1005.5
1791,0.0,0.0,0.0,-6.9525,0.047515,-7.0
1792,0.0,0.0,0.0,0.89006,6.8901,-6.0
1793,0.0,0.0,0.0,-5.9993,0.00067409,-6.0
1794,0.0,0.0,0.0,-6.9182,0.081847,-7.0
1795,0.0,0.0,0.0,-7.0,0.0,-7.0
1796,31.221,23146.0,0.028262,-1002.3,3.1567,-1005.5
1797,0.0,0.0,0.0,0.63335,6.6334,-6.0
1798,0.0,0.0,0.0,-5.4234,0.57664,-6.0
1799,31.214,568300.0,0.032037,-1005.5,0.0,-1005.5
1800,0.0,0.0,0.0,-6.9915,0.0085077,-7.0
1801,0.0,0.0,0.0,-2.5184,4.4816,-7.0
1802,0.0,0.0,0.0,-4.3514,1.6486,-6.0
1803,0.0,0.0,0.0,-4.6517,2.3483,-7.0
1804,0.0,0.0,0.0,-5.8161,0.18389,-6.0
1805,0.0,0.0,0.0,-3.6726,2.3274,-6.0
1806,0.0,0.0,0.0,5.0,0.0,5.0
1807,0.0,0.0,0.0,-2.4056,1.0944,-3.5
1808,0.0,0.0,0.0,-4.2769,1.7231,-6.0
1809,0.0,0.0,0.0,-5.5425,0.45755,-6.0
1810,0.0,0.0,0.0,-2.0,0.0,-2.0
1811,0.0,0.0,0.0,-6.3925,0.60751,-7.0
1812,0.0,0.0,0.0,-1005.0,0.0,-1005.0
1813,0.0,0.0,0.0,-2.6658,2.3342,-5.0
1814,0.0,0.0,0.0,-6.0,0.0,-6.0
1815,0.0,0.0,0.0,-6.4347,0.56527,-7.0
1816,36.406,1284.1,0.025751,-994.78,5.7198,-1000.5
1817,0.0,0.0,0.0,-5.6544,0.34565,-6.0
1818,0.0,0.0,0.0,-6.2338,0.76621,-7.0
1819,0.0,0.0,0.0,2.6479,6.6479,-4.0
1820,0.0,0.0,0.0,-2.6423,3.3577,-6.0
1821,0.0,0.0,0.0,0.33092,4.3309,-4.0
1822,0.0,0.0,0.0,-5.7969,1.2031,-7.0
1823,0.0,0.0,0.0,-4.3748,2.6252,-7.0
1824,0.0,0.0,0.0,-3.9281,2.0719,-6.0
1825,0.0,0.0,0.0,-4.4389,2.5611,-7.0
1826,32.136,43864.0,0.022631,-999.12,0.37774,-999.5
1827,0.0,0.0,0.0,-5.439,1.561,-7.0
1828,0.0,0.0,0.0,2.0693,4.5693,-2.5
1829,0.0,0.0,0.0,-6.9476,0.052372,-7.0
1830,0.0,0.0,0.0,-6.492,0.50799,-7.0
1831,0.0,0.0,0.0,5.0,0.0,5.0
1832,0.0,0.0,0.0,-5.4425,0.55754,-6.0
1833,0.0,0.0,0.0,-5.7713,0.22873,-6.0
1834,0.0,0.0,0.0,2.2431,7.2431,-5.0
1835,0.0,0.0,0.0,-6.9917,0.008262,-7.0
1836,0.0,0.0,0.0,1.5825,7.5825,-6.0
1837,0.0,0.0,0.0,-6.2935,0.70654,-7.0
1838,0.0,0.0,0.0,148.29,154.29,-6.0
1839,0.0,0.0,0.0,-5.2036,1.7964,-7.0
1840,0.0,0.0,0.0,-6.7378,0.26218,-7.0
1841,0.0,0.0,0.0,1.5,0.0,1.5
1842,0.0,0.0,0.0,-5.5591,0.4409,-6.0
1843,0.0,0.0,0.0,-4.6799,1.3201,-6.0
1844,0.0,0.0,0.0,-3.4732,0.52683,-4.0
1845,0.0,0.0,0.0,5.6255,11.626,-6.0
1846,0.0,0.0,0.0,-1007.0,0.0,-1007.0
1847,0.0,0.0,0.0,-1.9055,5.0945,-7.0
1848,0.0,0.0,0.0,-1006.0,0.0,-1006.0
1849,0.0,0.0,0.0,-5.5847,0.41526,-6.0
1850,0.0,0.0,0.0,6.0,0.0,6.0
1851,0.0,0.0,0.0,-4.99,1.01,-6.0
1852,0.0,0.0,0.0,-5.9596,1.0404,-7.0
1853,0.0,0.0,0.0,-3.9456,0.054356,-4.0
1854,0.0,0.0,0.0,-1.6168,4.3832,-6.0
1855,0.0,0.0,0.0,-2.2618,1.2382,-3.5
1856,0.0,0.0,0.0,-6.8728,0.12719,-7.0
1857,0.0,0.0,0.0,-3.7025,2.2975,-6.0
1858,0.0,0.0,0.0,-1006.0,0.0,-1006.0
1859,0.0,0.0,0.0,-0.64117,6.3588,-7.0
1860,0.0,0.0,0.0,-6.7513,0.24866,-7.0
1861,0.0,0.0,0.0,-2.1541,2.8459,-5.0
1862,0.0,0.0,0.0,-3.2414,3.7586,-7.0
1863,0.0,0.0,0.0,1.5445,5.5445,-4.0
1864,0.0,0.0,0.0,-6.4975,0.50249,-7.0
1865,0.0,0.0,0.0,-5.9858,1.0142,-7.0
1866,0.0,0.0,0.0,41.398,48.398,-7.0
1867,0.0,0.0,0.0,-4.3516,0.64838,-5.0
1868,0.0,0.0,0.0,-6.9291,0.070859,-7.0
1869,0.0,0.0,0.0,2.4269,1.4269,1.0
1870,0.0,0.0,0.0,-0.060263,5.9397,-6.0
1871,0.0,0.0,0.0,-5.8722,0.12779,-6.0
1872,0.0,0.0,0.0,-0.51799,6.482,-7.0
1873,0.0,0.0,0.0,-5.1556,1.8444,-7.0
1874,0.0,0.0,0.0,-6.2323,0.76767,-7.0
1875,0.0,0.0,0.0,4.0,0.0,4.0
1876,0.0,0.0,0.0,-2.0449,4.9551,-7.0
1877,33.875,73922.0,0.028044,-1007.9,0.065475,-1008.0
1878,0.0,0.0,0.0,-6.9765,0.023503,-7.0
1879,0.0,0.0,0.0,-5.9218,0.078193,-6.0
1880,0.0,0.0,0.0,5.0,0.0,5.0
1881,30.556,189150.0,0.032727,-1008.0,0.0,-1008.0
1882,0.0,0.0,0.0,-5.9922,0.0077545,-6.0
1883,0.0,0.0,0.0,-6.7614,0.2386,-7.0
1884,0.0,0.0,0.0,-3.0204,2.9796,-6.0
1885,0.0,0.0,0.0,-3.8749,0.12507,-4.0
1886,0.0,0.0,0.0,-5.9362,0.063766,-6.0
1887,30.0,109850.0,0.033333,-1007.0,0.0,-1007.0
1888,0.0,0.0,0.0,4.1267,10.127,-6.0
1889,0.0,0.0,0.0,-6.9999,9.5858e-05,-7.0
1890,0.0,0.0,0.0,-5.828,0.172,-6.0
1891,0.0,0.0,0.0,-6.9641,0.035915,-7.0
1892,0.0,0.0,0.0,-3.0948,2.9052,-6.0
1893,31.552,132630.0,0.029508,-1003.3,0.21115,-1003.5
1894,0.0,0.0,0.0,-4.1146,1.8854,-6.0
1895,0.0,0.0,0.0,-6.1781,0.8219,-7.0
1896,0.0,0.0,0.0,-5.1642,0.8358,-6.0
1897,0.0,0.0,0.0,-6.9749,0.025121,-7.0
1898,0.0,0.0,0.0,6.7424,11.742,-5.0
1899,0.0,0.0,0.0,5.0,0.0,5.0
1900,0.0,0.0,0.0,2.1433,9.1433,-7.0
1901,0.0,0.0,0.0,6.1929,0.19287,6.0
1902,0.0,0.0,0.0,-5.4789,0.021053,-5.5
1903,0.0,0.0,0.0,-4.7069,1.2931,-6.0
1904,0.0,0.0,0.0,-6.993,0.0070234,-7.0
1905,0.0,0.0,0.0,-4.2987,1.7013,-6.0
1906,37.429,3302.9,0.024427,-996.89,0.10609,-997.0
1907,0.0,0.0,0.0,-5.8913,0.10869,-6.0
1908,0.0,0.0,0.0,-5.9731,0.026928,-6.0
1909,0.0,0.0,0.0,-5.0219,0.97806,-6.0
1910,0.0,0.0,0.0,-5.9558,0.044174,-6.0
1911,0.0,0.0,0.0,0.47096,4.471,-4.0
1912,0.0,0.0,0.0,-4.9342,0.065765,-5.0
1913,0.0,0.0,0.0,-5.0849,0.91506,-6.0
1914,0.0,0.0,0.0,-4.9974,1.0026,-6.0
1915,0.0,0.0,0.0,-6.9289,0.071131,-7.0
1916,0.0,0.0,0.0,-0.71175,6.2882,-7.0
1917,0.0,0.0,0.0,0.28768,1.7877,-1.5
1918,0.0,0.0,0.0,-6.4444,0.55556,-7.0
1919,0.0,0.0,0.0,6.8052,13.805,-7.0
1920,0.0,0.0,0.0,5.0,0.0,5.0
1921,32.981,14740.0,0.026822,-1004.4,0.078288,-1004.5
1922,0.0,0.0,0.0,-3.0761,2.9239,-6.0
1923,0.0,0.0,0.0,-6.5109,0.48909,-7.0
1924,0.0,0.0,0.0,-3.7628,2.2372,-6.0
1925,0.0,0.0,0.0,6.0,0.0,6.0
1926,0.0,0.0,0.0,-5.3583,0.64165,-6.0
1927,0.0,0.0,0.0,-5.8442,0.15579,-6.0
1928,0.0,0.0,0.0,-4.8677,1.1323,-6.0
1929,0.0,0.0,0.0,-1.4326,0.067358,-1.5
1930,0.0,0.0,0.0,9.0041,15.004,-6.0
1931,0.0,0.0,0.0,5.0,0.0,5.0
1932,33.875,37934.0,0.02214,-1000.4,0.13102,-1000.5
1933,30.5,73076.0,0.029508,-1006.6,0.38971,-1007.0
1934,0.0,0.0,0.0,-1.9953,2.0047,-4.0
1935,0.0,0.0,0.0,-4.4946,1.5054,-6.0
1936,0.0,0.0,0.0,-1006.0,0.0,-1006.0
1937,0.0,0.0,0.0,-3.6427,2.3573,-6.0
1938,0.0,0.0,0.0,-5.5868,0.41325,-6.0
1939,0.0,0.0,0.0,3.9082,7.9082,-4.0
1940,0.0,0.0,0.0,-3.9862,2.0138,-6.0
1941,0.0,0.0,0.0,-1.3807,5.6193,-7.0
1942,0.0,0.0,0.0,0.093724,6.0937,-6.0
1943,0.0,0.0,0.0,-5.1526,1.8474,-7.0
1944,34.038,26954.0,0.023729,-1002.8,0.72159,-1003.5
1945,0.0,0.0,0.0,-5.8482,1.1518,-7.0
1946,0.0,0.0,0.0,-4.6218,1.3782,-6.0
1947,0.0,0.0,0.0,-6.0,0.0,-6.0
1948,0.0,0.0,0.0,-1006.0,0.0,-1006.0
1949,0.0,0.0,0.0,-4.9044,0.095565,-5.0
1950,36.7,38441.0,0.027248,-997.0,0.0,-997.0
1951,0.0,0.0,0.0,-5.9737,0.026333,-6.0
1952,0.0,0.0,0.0,-1.0186,4.9814,-6.0
1953,0.0,0.0,0.0,-4.5331,1.4669,-6.0
1954,0.0,0.0,0.0,-5.0,0.0,-5.0
1955,0.0,0.0,0.0,-5.8878,0.11218,-6.0
1956,0.0,0.0,0.0,-5.7854,0.21462,-6.0
1957,0.0,0.0,0.0,-5.0,0.0,-5.0
1958,0.0,0.0,0.0,6.7487,0.74869,6.0
1959,0.0,0.0,0.0,0.15487,7.1549,-7.0
1960,0.0,0.0,0.0,-5.8443,0.15575,-6.0
1961,0.0,0.0,0.0,-1.0,0.0,-1.0
1962,0.0,0.0,0.0,-1.7054,5.2946,-7.0
1963,0.0,0.0,0.0,-5.213,1.787,-7.0
1964,0.0,0.0,0.0,-4.6378,2.3622,-7.0
1965,0.0,0.0,0.0,5.34,10.34,-5.0
1966,37.375,1944500.0,0.015608,-1006.0,0.0,-1006.0
1967,0.0,0.0,0.0,-5.7862,1.2138,-7.0
1968,0.0,0.0,0.0,-2.0,0.0,-2.0
1969,0.0,0.0,0.0,-6.8497,0.15028,-7.0
1970,0.0,0.0,0.0,-3.5334,2.4666,-6.0
1971,0.0,0.0,0.0,-3.0046,2.9954,-6.0
1972,0.0,0.0,0.0,-1005.0,0.0,-1005.0
1973,0.0,0.0,0.0,-3.7365,2.2635,-6.0
1974,0.0,0.0,0.0,-2.0,0.0,-2.0
1975,0.0,0.0,0.0,29.026,35.026,-6.0
1976,0.0,0.0,0.0,0.022004,6.022,-6.0
1977,0.0,0.0,0.0,2.1336,6.1336,-4.0
1978,0.0,0.0,0.0,-2.4344,0.065569,-2.5
1979,0.0,0.0,0.0,-6.8973,0.10266,-7.0
1980,0.0,0.0,0.0,4.8408,10.841,-6.0
1981,0.0,0.0,0.0,-6.9105,0.089458,-7.0
1982,0.0,0.0,0.0,6.0,0.0,6.0
1983,0.0,0.0,0.0,-0.11983,5.8802,-6.0
1984,0.0,0.0,0.0,-5.992,0.0080034,-6.0
1985,0.0,0.0,0.0,29.901,31.401,-1.5
1986,0.0,0.0,0.0,-7.3179,1.6821,-9.0
1987,0.0,0.0,0.0,-6.2032,0.79683,-7.0
1988,0.0,0.0,0.0,4.1759,6.6759,-2.5
1989,31.0,48440.0,0.032258,-1007.0,0.0,-1007.0
1990,0.0,0.0,0.0,-1.8233,5.1767,-7.0
1991,35.556,108640.0,0.022917,-1000.1,3.3687,-1003.5
1992,0.0,0.0,0.0,-5.8675,0.13255,-6.0
1993,0.0,0.0,0.0,-5.9027,1.0973,-7.0
1994,0.0,0.0,0.0,36.109,43.109,-7.0
1995,0.0,0.0,0.0,4.0,0.0,4.0
1996,0.0,0.0,0.0,-2.8459,3.1541,-6.0
1997,0.0,0.0,0.0,14.552,20.552,-6.0
1998,0.0,0.0,0.0,-5.0609,0.93907,-6.0
1999,0.0,0.0,0.0,-3.3453,3.6547,-7.0
2000,0.0,0.0,0.0,-4.1748,2.8252,-7.0
2001,0.0,0.0,0.0,-6.8603,0.13974,-7.0
2002,0.0,0.0,0.0,-4.7044,1.2956,-6.0
2003,0.0,0.0,0.0,-2.5898,3.4102,-6.0
2004,0.0,0.0,0.0,-4.7784,2.2216,-7.0
2005,0.0,0.0,0.0,2.626,8.626,-6.0
2006,0.0,0.0,0.0,-6.466,0.53405,-7.0
2007,0.0,0.0,0.0,-6.9719,0.028144,-7.0
2008,0.0,0.0,0.0,3.0,0.0,3.0
2009,0.0,0.0,0.0,-5.7383,0.26175,-6.0
2010,0.0,0.0,0.0,2.0172,4.5172,-2.5
2011,0.0,0.0,0.0,-6.9754,0.02458,-7.0
2012,0.0,0.0,0.0,3.6479,7.6479,-4.0
2013,0.0,0.0,0.0,-6.9895,0.010467,-7.0
2014,0.0,0.0,0.0,-4.9184,2.0816,-7.0
2015,0.0,0.0,0.0,-6.8749,0.12512,-7.0
2016,0.0,0.0,0.0,-2.7111,3.2889,-6.0
2017,32.197,454540.0,0.026353,-999.85,3.6509,-1003.5
2018,0.0,0.0,0.0,-4.326,1.674,-6.0
2019,0.0,0.0,0.0,-5.102,0.89799,-6.0
2020,0.0,0.0,0.0,-4.0,0.0,-4.0
2021,0.0,0.0,0.0,-6.9415,0.058455,-7.0
2022,33.685,4561300.0,0.027488,-965.74,36.256,-1002.0
2023,0.0,0.0,0.0,-3.6019,0.39808,-4.0
2024,0.0,0.0,0.0,-3.343,2.657,-6.0
2025,0.0,0.0,0.0,-5.9946,1.0054,-7.0
2026,0.0,0.0,0.0,-6.6179,0.38214,-7.0
2027,0.0,0.0,0.0,-5.7642,0.23584,-6.0
2028,0.0,0.0,0.0,-6.8331,0.1669,-7.0
2029,0.0,0.0,0.0,-5.5854,0.41456,-6.0
2030,0.0,0.0,0.0,6.0,0.0,6.0
2031,0.0,0.0,0.0,-1.2475,4.7525,-6.0
2032,0.0,0.0,0.0,3.8431,5.3431,-1.5
2033,0.0,0.0,0.0,-6.2474,0.75264,-7.0
2034,31.625,3475500.0,0.031621,-1004.5,0.0,-1004.5
2035,0.0,0.0,0.0,11.728,17.728,-6.0
2036,0.0,0.0,0.0,-2.2394,2.7606,-5.0
2037,36.63,418.44,0.025278,-996.0,0.0,-996.0
2038,0.0,0.0,0.0,-3.9808,2.0192,-6.0
2039,0.0,0.0,0.0,56.209,61.209,-5.0
2040,0.0,0.0,0.0,18.33,24.33,-6.0
2041,31.727,11625.0,0.029608,-1000.5,0.0,-1000.5
2042,0.0,0.0,0.0,-4.4777,1.5223,-6.0
2043,0.0,0.0,0.0,-4.3598,1.6402,-6.0
2044,0.0,0.0,0.0,49.498,56.498,-7.0
2045,0.0,0.0,0.0,-4.9925,1.0075,-6.0
2047,0.0,0.0,0.0,-5.9306,1.0694,-7.0
2048,0.0,0.0,0.0,26.901,32.901,-6.0
2049,0.0,0.0,0.0,-5.1697,1.8303,-7.0
2050,0.0,0.0,0.0,-5.9425,0.057547,-6.0
2051,0.0,0.0,0.0,-2.9875,3.0125,-6.0
2052,0.0,0.0,0.0,-4.8003,0.19974,-5.0
2053,0.0,0.0,0.0,-4.425,2.575,-7.0
2054,0.0,0.0,0.0,-4.2329,1.7671,-6.0
2055,0.0,0.0,0.0,-1.3891,0.11091,-1.5
2056,0.0,0.0,0.0,-4.262,1.738,-6.0
2057,0.0,0.0,0.0,-3.3746,2.6254,-6.0
2058,0.0,0.0,0.0,-1006.0,0.0,-1006.0
2059,31.667,6536700.0,0.031579,-1003.5,0.0,-1003.5
2060,0.0,0.0,0.0,-4.0,0.0,-4.0
2061,0.0,0.0,0.0,-5.8091,0.1909,-6.0
2062,0.0,0.0,0.0,-4.6732,1.3268,-6.0
2063,30.667,237030.0,0.032609,-1006.0,0.0,-1006.0
2064,0.0,0.0,0.0,2.032,8.032,-6.0
2065,0.0,0.0,0.0,-1007.0,0.0,-1007.0
2066,33.763,860520.0,0.0265,-1002.2,2.3248,-1004.5
2067,0.0,0.0,0.0,3.0,0.0,3.0
2068,0.0,0.0,0.0,-3.7019,0.7981,-4.5
2069,0.0,0.0,0.0,-5.8488,0.1512,-6.0
2070,0.0,0.0,0.0,-5.1177,0.8823,-6.0
2071,0.0,0.0,0.0,-4.8089,1.1911,-6.0
2072,0.0,0.0,0.0,-5.9965,0.0035008,-6.0
2073,0.0,0.0,0.0,-4.3403,1.6597,-6.0
2074,30.904,328290.0,0.029869,-1007.6,0.35769,-1008.0
2075,0.0,0.0,0.0,2.1367,8.1367,-6.0
2076,0.0,0.0,0.0,-1006.0,0.0,-1006.0
2077,0.0,0.0,0.0,-0.7133,5.2867,-6.0
2078,0.0,0.0,0.0,-5.5797,0.42029,-6.0
2079,0.0,0.0,0.0,-7.0,0.0,-7.0
2080,0.0,0.0,0.0,69.313,76.313,-7.0
2081,32.586,78063.0,0.028571,-1007.8,0.19313,-1008.0
2082,0.0,0.0,0.0,-6.3191,0.68095,-7.0
2083,0.0,0.0,0.0,-6.5008,0.49915,-7.0
2084,0.0,0.0,0.0,-3.8373,3.1627,-7.0
2085,0.0,0.0,0.0,47.737,54.737,-7.0
2086,0.0,0.0,0.0,4.1838,8.1838,-4.0
2087,0.0,0.0,0.0,-5.0,0.0,-5.0
2088,0.0,0.0,0.0,-5.1548,0.34518,-5.5
2089,0.0,0.0,0.0,5.4753,11.475,-6.0
2090,0.0,0.0,0.0,-5.0463,0.95372,-6.0
2091,31.0,97482.0,0.032258,-1005.5,0.0,-1005.5
2092,30.2,1008500.0,0.033113,-1006.0,0.0014778,-1006.0
2093,0.0,0.0,0.0,-5.2217,1.7783,-7.0
2094,0.0,0.0,0.0,4.0,0.0,4.0
2095,0.0,0.0,0.0,-5.7239,1.2761,-7.0
2096,35.938,384180.0,0.027826,-1003.0,0.0,-1003.0
2097,0.0,0.0,0.0,-5.7793,0.22066,-6.0
2098,0.0,0.0,0.0,-5.0,0.0,-5.0
2099,0.0,0.0,0.0,-5.8089,0.19113,-6.0
2100,0.0,0.0,0.0,-5.206,0.79402,-6.0
2101,0.0,0.0,0.0,-5.3552,0.64476,-6.0
2102,0.0,0.0,0.0,-3.5706,2.4294,-6.0
2103,0.0,0.0,0.0,5.1286,0.12859,5.0
2104,0.0,0.0,0.0,-5.0,0.0,-5.0
2105,0.0,0.0,0.0,-5.0,0.0,-5.0
2106,0.0,0.0,0.0,5.8899,11.89,-6.0
2107,0.0,0.0,0.0,-5.72,0.27999,-6.0
2108,0.0,0.0,0.0,-2.4093,4.5907,-7.0
2109,0.0,0.0,0.0,-5.5252,0.47483,-6.0
2110,35.083,363570.0,0.021378,-1001.7,3.3423,-1005.0
2111,0.0,0.0,0.0,0.48371,5.4837,-5.0
2112,0.0,0.0,0.0,-5.824,0.176,-6.0
2113,0.0,0.0,0.0,-6.0,0.0,-6.0
2114,0.0,0.0,0.0,1.0382,6.0382,-5.0
2115,0.0,0.0,0.0,-6.4399,0.56014,-7.0
2116,0.0,0.0,0.0,-0.97362,4.0264,-5.0
2117,0.0,0.0,0.0,2.1503,8.1503,-6.0
2118,0.0,0.0,0.0,6.569,12.569,-6.0
2119,0.0,0.0,0.0,21.214,24.214,-3.0
2120,0.0,0.0,0.0,7.9459,2.9459,5.0
2121,0.0,0.0,0.0,-5.0,0.0,-5.0
2122,0.0,0.0,0.0,5.6741,12.674,-7.0
2123,0.0,0.0,0.0,-4.8504,1.1496,-6.0
2124,0.0,0.0,0.0,-6.9369,0.063076,-7.0
2125,0.0,0.0,0.0,-4.7475,2.2525,-7.0
2126,0.0,0.0,0.0,-6.0,0.0,-6.0
2127,0.0,0.0,0.0,-2.4401,2.0599,-4.5
2128,0.0,0.0,0.0,-6.739,0.26104,-7.0
2129,0.0,0.0,0.0,-5.7402,0.25976,-6.0
2130,0.0,0.0,0.0,14.579,20.579,-6.0
2131,0.0,0.0,0.0,23.373,29.373,-6.0
2132,0.0,0.0,0.0,-5.2562,1.7438,-7.0
2133,0.0,0.0,0.0,-5.0,0.0,-5.0
2134,0.0,0.0,0.0,-3.067,1.933,-5.0
2135,0.0,0.0,0.0,-4.7897,1.2103,-6.0
2136,0.0,0.0,0.0,60.771,66.771,-6.0
2137,0.0,0.0,0.0,-3.9994,0.00055199,-4.0
2138,0.0,0.0,0.0,9.2813,3.2813,6.0
2139,0.0,0.0,0.0,-1.4352,4.5648,-6.0
2140,0.0,0.0,0.0,-1.141,4.859,-6.0
2141,0.0,0.0,0.0,18.795,23.795,-5.0
2142,0.0,0.0,0.0,-0.92096,5.079,-6.0
2143,0.0,0.0,0.0,-10.971,0.028791,-11.0
2144,0.0,0.0,0.0,-5.7277,1.2723,-7.0
2145,0.0,0.0,0.0,-4.8505,0.14953,-5.0
2146,0.0,0.0,0.0,-6.5514,0.44864,-7.0
2147,0.0,0.0,0.0,-6.1374,0.86261,-7.0
2148,0.0,0.0,0.0,4.8354,11.835,-7.0
2149,0.0,0.0,0.0,-2.2085,4.7915,-7.0
2150,0.0,0.0,0.0,-3.3807,0.11926,-3.5
2151,0.0,0.0,0.0,-5.4201,1.5799,-7.0
2152,0.0,0.0,0.0,-5.9996,0.00044753,-6.0
2153,0.0,0.0,0.0,0.55069,7.5507,-7.0
2154,0.0,0.0,0.0,-5.0,0.0,-5.0
2155,0.0,0.0,0.0,-4.8465,1.1535,-6.0
2156,0.0,0.0,0.0,-0.9983,3.0017,-4.0
2157,0.0,0.0,0.0,-3.9815,0.018506,-4.0
2158,0.0,0.0,0.0,-2.8663,3.1337,-6.0
2159,0.0,0.0,0.0,-5.6338,0.3662,-6.0
2160,0.0,0.0,0.0,-6.5879,0.41207,-7.0
2161,0.0,0.0,0.0,-5.4226,0.57742,-6.0
2162,0.0,0.0,0.0,-3.7026,0.29743,-4.0
2163,0.0,0.0,0.0,-3.458,1.542,-5.0
2164,0.0,0.0,0.0,-6.9624,0.037555,-7.0
2165,0.0,0.0,0.0,-5.9491,0.050917,-6.0
2166,,,,,,
2167,0.0,0.0,0.0,-2.8319,1.1681,-4.0
2168,0.0,0.0,0.0,-4.1266,2.8734,-7.0
2169,0.0,0.0,0.0,-5.7277,1.2723,-7.0
2170,0.0,0.0,0.0,-4.1366,0.86342,-5.0
2171,0.0,0.0,0.0,-3.0342,3.9658,-7.0
2172,0.0,0.0,0.0,4.0,0.0,4.0
2173,0.0,0.0,0.0,-1007.0,0.0,-1007.0
2174,0.0,0.0,0.0,-6.8321,0.16791,-7.0
2175,0.0,0.0,0.0,-4.6592,1.3408,-6.0
2176,31.7,2406100.0,0.031546,-1005.0,0.035321,-1005.0
2177,0.0,0.0,0.0,5.0,0.0,5.0
2178,0.0,0.0,0.0,-0.72539,5.2746,-6.0
2179,0.0,0.0,0.0,-2.8065,1.1935,-4.0
2180,0.0,0.0,0.0,-5.6438,1.3562,-7.0
2181,0.0,0.0,0.0,-0.58222,0.91778,-1.5
2182,0.0,0.0,0.0,-4.5965,1.4035,-6.0
2183,0.0,0.0,0.0,-5.9169,0.083106,-6.0
2184,0.0,0.0,0.0,6.0,0.0,6.0
2185,0.0,0.0,0.0,-4.091,2.909,-7.0
2186,0.0,0.0,0.0,1.5,0.0,1.5
2187,0.0,0.0,0.0,-0.8453,5.1547,-6.0
2188,0.0,0.0,0.0,-5.3371,0.66295,-6.0
2189,0.0,0.0,0.0,-6.2496,0.75037,-7.0
2190,0.0,0.0,0.0,-6.839,0.16105,-7.0
2191,0.0,0.0,0.0,-6.9958,0.0041958,-7.0
2192,0.0,0.0,0.0,6.9883,10.488,-3.5
2193,0.0,0.0,0.0,-3.589,2.411,-6.0
2194,0.0,0.0,0.0,10.503,16.503,-6.0
2195,0.0,0.0,0.0,-5.7219,1.2781,-7.0
2196,0.0,0.0,0.0,-3.7421,3.2579,-7.0
2197,0.0,0.0,0.0,-6.6302,0.36976,-7.0
2198,0.0,0.0,0.0,-2.1232,1.8768,-4.0
2199,0.0,0.0,0.0,-2.1945,1.8055,-4.0
2200,0.0,0.0,0.0,-3.5066,3.4934,-7.0
2201,0.0,0.0,0.0,-5.4839,1.5161,-7.0
2202,0.0,0.0,0.0,-1006.0,0.0,-1006.0
2203,0.0,0.0,0.0,-2.3691,3.6309,-6.0
2204,0.0,0.0,0.0,17.673,23.673,-6.0
2205,0.0,0.0,0.0,-5.7213,0.27874,-6.0
2206,0.0,0.0,0.0,6.9062,12.906,-6.0
2207,0.0,0.0,0.0,-5.2997,1.7003,-7.0
2208,30.53,45292.0,0.030769,-1005.2,0.7946,-1006.0
2209,0.0,0.0,0.0,-5.7951,0.20492,-6.0
2210,0.0,0.0,0.0,-6.9658,0.034233,-7.0
2211,0.0,0.0,0.0,-5.7651,0.23489,-6.0
2212,30.431,14066.0,0.029462,-1006.0,0.025698,-1006.0
2213,0.0,0.0,0.0,5.0,0.0,5.0
2214,0.0,0.0,0.0,-1.3768,4.6232,-6.0
2215,0.0,0.0,0.0,-7.8523,0.14775,-8.0
2216,30.583,121210.0,0.031608,-1004.9,2.1362,-1007.0
2217,0.0,0.0,0.0,5.0,0.0,5.0
2218,36.778,13060.0,0.02719,-1006.0,0.0,-1006.0
2219,0.0,0.0,0.0,-5.3393,1.6607,-7.0
2220,0.0,0.0,0.0,5.0,0.0,5.0
2221,0.0,0.0,0.0,-5.0,0.0,-5.0
2222,0.0,0.0,0.0,-2.5865,1.4135,-4.0
2223,0.0,0.0,0.0,-3.8066,3.1934,-7.0
2224,0.0,0.0,0.0,-5.5697,0.43029,-6.0
2225,0.0,0.0,0.0,-5.5503,0.4497,-6.0
2226,0.0,0.0,0.0,-5.0686,0.93137,-6.0
2227,0.0,0.0,0.0,-2.1969,4.8031,-7.0
2228,0.0,0.0,0.0,-6.6213,0.37867,-7.0
2229,0.0,0.0,0.0,-5.0034,0.99659,-6.0
2230,31.597,52704.0,0.029607,-1007.0,0.0,-1007.0
2231,0.0,0.0,0.0,-1.3572,5.6428,-7.0
2232,0.0,0.0,0.0,-5.0,0.0,-5.0
2233,0.0,0.0,0.0,-5.9397,1.0603,-7.0
2234,0.0,0.0,0.0,-1.4367,0.063329,-1.5
2235,0.0,0.0,0.0,-0.90945,4.0906,-5.0
2236,0.0,0.0,0.0,-6.9553,0.044701,-7.0
2237,0.0,0.0,0.0,-1006.0,0.0,-1006.0
2238,0.0,0.0,0.0,-2.5508,3.4492,-6.0
2239,0.0,0.0,0.0,5.0,0.0,5.0
2240,0.0,0.0,0.0,-1.0646,4.9354,-6.0
2241,0.0,0.0,0.0,-3.5002,0.49983,-4.0
2242,0.0,0.0,0.0,-3.6852,2.3148,-6.0
2243,0.0,0.0,0.0,-6.4153,0.58467,-7.0
2244,0.0,0.0,0.0,-5.5206,0.47935,-6.0
2245,0.0,0.0,0.0,-0.5551,5.4449,-6.0
2246,0.0,0.0,0.0,-3.1518,2.8482,-6.0
2247,0.0,0.0,0.0,-6.9604,0.039627,-7.0
2248,0.0,0.0,0.0,-4.8578,1.1422,-6.0
2249,0.0,0.0,0.0,-6.7294,0.27056,-7.0
2250,0.0,0.0,0.0,5.0,0.0,5.0
2251,32.171,33874.0,0.027531,-1001.0,0.030177,-1001.0
2252,0.0,0.0,0.0,-1006.0,0.0,-1006.0
2253,0.0,0.0,0.0,-1006.0,0.0,-1006.0
2254,0.0,0.0,0.0,2.2524,6.2524,-4.0
2255,0.0,0.0,0.0,5.3762,0.37622,5.0
2256,,,,,,
2257,0.0,0.0,0.0,-5.8068,0.19321,-6.0
2258,0.0,0.0,0.0,6.8801,13.88,-7.0
2259,0.0,0.0,0.0,-1.0551,3.9449,-5.0
2260,0.0,0.0,0.0,-5.5993,0.4007,-6.0
2261,0.0,0.0,0.0,1.4432,8.4432,-7.0
2262,0.0,0.0,0.0,4.0,0.0,4.0
2263,0.0,0.0,0.0,-5.4042,0.59582,-6.0
2264,0.0,0.0,0.0,2.9942,8.9942,-6.0
2265,31.912,1758300.0,0.031336,-1003.5,0.0,-1003.5
2266,0.0,0.0,0.0,10.338,16.338,-6.0
2267,0.0,0.0,0.0,-5.599,0.40098,-6.0
2268,0.0,0.0,0.0,-5.7806,0.21945,-6.0
2270,0.0,0.0,0.0,-0.5,0.0,-0.5
2271,0.0,0.0,0.0,-2.2016,4.7984,-7.0
2272,0.0,0.0,0.0,-3.7697,2.2303,-6.0
2273,0.0,0.0,0.0,2.5275,9.5275,-7.0
2274,0.0,0.0,0.0,-1.8075,4.1925,-6.0
2275,0.0,0.0,0.0,-5.9823,1.0177,-7.0
2276,0.0,0.0,0.0,-4.5,0.0,-4.5
2277,0.0,0.0,0.0,7.648,14.648,-7.0
2278,32.957,117.33,0.026875,-998.8,1.7032,-1000.5
2279,0.0,0.0,0.0,-6.4198,0.58022,-7.0
2280,0.0,0.0,0.0,-4.682,1.318,-6.0
2281,0.0,0.0,0.0,2.5,0.0,2.5
2282,32.5,86739.0,0.028959,-1006.3,1.7415,-1008.0
2283,,,,,,
2284,0.0,0.0,0.0,-2.8533,3.1467,-6.0
2285,0.0,0.0,0.0,-5.7308,0.26915,-6.0
2286,0.0,0.0,0.0,-6.8989,0.10108,-7.0
2287,0.0,0.0,0.0,-3.6829,1.3171,-5.0
2288,0.0,0.0,0.0,-5.9319,0.068051,-6.0
2289,0.0,0.0,0.0,5.0,0.0,5.0
2290,0.0,0.0,0.0,0.32842,7.3284,-7.0
2291,0.0,0.0,0.0,-4.9867,0.01334,-5.0
2292,0.0,0.0,0.0,6.6506,12.651,-6.0
2293,0.0,0.0,0.0,-5.0,0.0,-5.0
2294,0.0,0.0,0.0,-3.4642,2.5358,-6.0
2295,0.0,0.0,0.0,-5.3223,1.6777,-7.0
2296,33.243,3077.7,0.027503,-996.0,0.0,-996.0
2297,0.0,0.0,0.0,-5.2479,0.75213,-6.0
2298,0.0,0.0,0.0,0.044042,7.044,-7.0
2299,0.0,0.0,0.0,-1007.0,0.0,-1007.0
2300,0.0,0.0,0.0,-5.6049,0.39512,-6.0
2301,0.0,0.0,0.0,6.4064,13.406,-7.0
2302,0.0,0.0,0.0,22.281,29.281,-7.0
2303,0.0,0.0,0.0,-5.2351,0.76495,-6.0
2304,0.0,0.0,0.0,-5.7986,0.2014,-6.0
2305,0.0,0.0,0.0,-5.6231,0.37693,-6.0
2306,0.0,0.0,0.0,-5.0,0.0,-5.0
2307,0.0,0.0,0.0,54.658,60.658,-6.0
2308,0.0,0.0,0.0,-5.0,0.0,-5.0
2309,0.0,0.0,0.0,-5.6845,0.31554,-6.0
2310,0.0,0.0,0.0,-5.801,1.199,-7.0
2311,0.0,0.0,0.0,-4.3219,1.6781,-6.0
2312,0.0,0.0,0.0,-7.0,0.0,-7.0
2313,0.0,0.0,0.0,-5.2239,0.7761,-6.0
2314,0.0,0.0,0.0,-5.5399,0.46014,-6.0
2315,0.0,0.0,0.0,-2.6255,4.3745,-7.0
2316,0.0,0.0,0.0,-4.8703,1.1297,-6.0
2317,0.0,0.0,0.0,-4.6254,2.3746,-7.0
2318,0.0,0.0,0.0,25.104,32.104,-7.0
2319,0.0,0.0,0.0,-5.233,0.76697,-6.0
2320,0.0,0.0,0.0,-4.7333,1.2667,-6.0
2321,0.0,0.0,0.0,-5.6348,0.36518,-6.0
2322,38.114,198830.0,0.021467,-994.48,7.5191,-1002.0
2323,34.474,440990.0,0.024427,-1006.7,0.26219,-1007.0
2324,0.0,0.0,0.0,5.0,0.0,5.0
2325,0.0,0.0,0.0,-4.9884,1.0116,-6.0
2326,,,,,,
2327,30.5,1755.1,0.020492,-1008.0,0.0086356,-1008.0
2328,30.0,150610.0,0.030769,-1006.4,0.56439,-1007.0
2329,0.0,0.0,0.0,-5.0,0.0,-5.0
2330,0.0,0.0,0.0,1.8564,5.8564,-4.0
2331,0.0,0.0,0.0,-5.9949,0.0050964,-6.0
2332,0.0,0.0,0.0,-6.9752,0.024836,-7.0
2333,0.0,0.0,0.0,-5.6791,0.32092,-6.0
2334,0.0,0.0,0.0,-5.4263,0.57366,-6.0
2335,0.0,0.0,0.0,2.096,0.596,1.5
2336,0.0,0.0,0.0,-6.5744,0.42562,-7.0
2337,0.0,0.0,0.0,-2.4944,3.5056,-6.0
2338,30.093,318120.0,0.029538,-1005.4,0.075552,-1005.5
2339,0.0,0.0,0.0,-4.3727,1.6273,-6.0
2340,0.0,0.0,0.0,-5.1966,0.80338,-6.0
2341,0.0,0.0,0.0,2.5016,8.5016,-6.0
2342,0.0,0.0,0.0,-3.9919,0.008051,-4.0
2343,0.0,0.0,0.0,-3.5169,2.4831,-6.0
2344,0.0,0.0,0.0,-3.0578,2.9422,-6.0
2345,0.0,0.0,0.0,-5.3607,0.63934,-6.0
2346,0.0,0.0,0.0,5.0,0.0,5.0
2347,0.0,0.0,0.0,-5.0,0.0,-5.0
2348,0.0,0.0,0.0,5.0,0.0,5.0
2349,0.0,0.0,0.0,-4.3589,1.6411,-6.0
2350,0.0,0.0,0.0,-5.9893,0.01072,-6.0
2351,0.0,0.0,0.0,-4.3964,2.6036,-7.0
2352,0.0,0.0,0.0,-5.8314,0.16859,-6.0
2353,0.0,0.0,0.0,-4.9285,0.071533,-5.0
2354,0.0,0.0,0.0,-3.9868,0.013197,-4.0
2355,0.0,0.0,0.0,5.0,0.0,5.0
2356,0.0,0.0,0.0,17.968,21.968,-4.0
2357,0.0,0.0,0.0,-6.7043,0.29566,-7.0
2358,0.0,0.0,0.0,2.0092,8.0092,-6.0
2359,0.0,0.0,0.0,-7.2643,0.73566,-8.0
2360,0.0,0.0,0.0,12.056,18.056,-6.0
2361,0.0,0.0,0.0,-0.47768,5.5223,-6.0
2362,0.0,0.0,0.0,-6.5206,0.47944,-7.0
2363,0.0,0.0,0.0,-3.5311,0.96887,-4.5
2364,0.0,0.0,0.0,-6.9347,0.065333,-7.0
2365,0.0,0.0,0.0,-5.8954,0.10456,-6.0
2366,0.0,0.0,0.0,-4.8021,1.1979,-6.0
2367,0.0,0.0,0.0,-4.1188,1.8812,-6.0
2368,0.0,0.0,0.0,4.3035,10.303,-6.0
2369,0.0,0.0,0.0,-4.2905,1.7095,-6.0
2370,0.0,0.0,0.0,-2.4892,0.010762,-2.5
2371,0.0,0.0,0.0,-5.7391,0.26092,-6.0
2372,0.0,0.0,0.0,-3.7888,2.2112,-6.0
2373,0.0,0.0,0.0,-4.5832,1.4168,-6.0
2374,0.0,0.0,0.0,-3.3545,2.6455,-6.0
2375,0.0,0.0,0.0,12.341,19.341,-7.0
2376,0.0,0.0,0.0,7.223,3.223,4.0
2377,0.0,0.0,0.0,55.115,62.115,-7.0
2378,0.0,0.0,0.0,-6.9464,0.053569,-7.0
2379,0.0,0.0,0.0,-6.0047,0.99528,-7.0
2380,0.0,0.0,0.0,-6.4949,0.50505,-7.0
2381,0.0,0.0,0.0,5.0473,11.047,-6.0
2382,0.0,0.0,0.0,6.0,0.0,6.0
2383,0.0,0.0,0.0,-6.5968,0.40324,-7.0
2384,0.0,0.0,0.0,-6.5492,0.4508,-7.0
2385,0.0,0.0,0.0,-6.9481,0.051947,-7.0
2386,0.0,0.0,0.0,-5.1338,1.8662,-7.0
2387,0.0,0.0,0.0,-6.5657,0.43428,-7.0
2388,0.0,0.0,0.0,-5.8018,0.1982,-6.0
2389,0.0,0.0,0.0,-4.6161,0.38391,-5.0
2390,0.0,0.0,0.0,8.658,15.658,-7.0
2391,0.0,0.0,0.0,-1.462,0.038039,-1.5
2392,0.0,0.0,0.0,-0.0060956,4.9939,-5.0
2393,0.0,0.0,0.0,6.1839,10.184,-4.0
2394,0.0,0.0,0.0,-7.0,0.0,-7.0
2395,0.0,0.0,0.0,6.0,0.0,6.0
2396,0.0,0.0,0.0,-5.0404,1.9596,-7.0
2397,0.0,0.0,0.0,-1.9441,2.0559,-4.0
2398,0.0,0.0,0.0,5.0,0.0,5.0
2399,0.0,0.0,0.0,-7.0,0.0,-7.0
2400,,,,,,
2401,0.0,0.0,0.0,-6.0,0.0,-6.0
2402,0.0,0.0,0.0,-2.7204,3.2796,-6.0
2403,0.0,0.0,0.0,-6.9766,0.023432,-7.0
2404,0.0,0.0,0.0,-3.988,0.012006,-4.0
2405,0.0,0.0,0.0,-3.4199,2.5801,-6.0
2406,0.0,0.0,0.0,-5.6065,1.3935,-7.0
2407,0.0,0.0,0.0,-3.4866,2.5134,-6.0
2408,0.0,0.0,0.0,-5.89,0.11004,-6.0
2409,0.0,0.0,0.0,-4.8838,0.11624,-5.0
2410,0.0,0.0,0.0,-5.8129,1.1871,-7.0
2411,0.0,0.0,0.0,-1.1606,5.8394,-7.0
2412,0.0,0.0,0.0,2.6857,8.6857,-6.0
2413,0.0,0.0,0.0,-3.1414,0.85858,-4.0
2414,0.0,0.0,0.0,-1005.0,0.0,-1005.0
2415,0.0,0.0,0.0,-4.9161,2.0839,-7.0
2416,0.0,0.0,0.0,6.0,0.0,6.0
2417,0.0,0.0,0.0,6.0,0.0,6.0
2418,0.0,0.0,0.0,-5.2898,0.71021,-6.0
2419,0.0,0.0,0.0,15.621,20.621,-5.0
2420,0.0,0.0,0.0,150.06,157.06,-7.0
2421,0.0,0.0,0.0,-3.244,2.756,-6.0
2422,0.0,0.0,0.0,1.3039,7.3039,-6.0
2423,0.0,0.0,0.0,-2.523,4.477,-7.0
2424,0.0,0.0,0.0,5.0,0.0,5.0
2425,0.0,0.0,0.0,-0.57078,0.42922,-1.0
2426,0.0,0.0,0.0,-6.2629,0.7371,-7.0
2427,0.0,0.0,0.0,-6.9788,0.021235,-7.0
2428,0.0,0.0,0.0,-6.5879,0.41213,-7.0
2429,0.0,0.0,0.0,-5.9243,0.075719,-6.0
2430,0.0,0.0,0.0,5.0,0.0,5.0
2431,0.0,0.0,0.0,-4.5369,2.4631,-7.0
2432,0.0,0.0,0.0,-5.4338,0.56623,-6.0
2433,0.0,0.0,0.0,4.6044,8.6044,-4.0
2434,0.0,0.0,0.0,-6.898,0.10202,-7.0
2435,0.0,0.0,0.0,35.648,41.648,-6.0
2436,0.0,0.0,0.0,-0.9149,5.0851,-6.0
2437,0.0,0.0,0.0,5.0,0.0,5.0
2438,0.0,0.0,0.0,2.3525,8.3525,-6.0
2439,0.0,0.0,0.0,-5.935,0.065029,-6.0
2440,0.0,0.0,0.0,5.0,0.0,5.0
2441,0.0,0.0,0.0,-5.8125,0.18746,-6.0
2442,0.0,0.0,0.0,0.82114,7.8211,-7.0
2443,0.0,0.0,0.0,-3.7651,2.2349,-6.0
2444,0.0,0.0,0.0,-5.0022,1.9978,-7.0
2445,0.0,0.0,0.0,-4.4967,2.5033,-7.0
2446,0.0,0.0,0.0,-4.5219,2.4781,-7.0
2447,0.0,0.0,0.0,-4.5222,0.47777,-5.0
2448,0.0,0.0,0.0,2.7454,8.7454,-6.0
2449,0.0,0.0,0.0,7.8375,1.8375,6.0
2450,0.0,0.0,0.0,5.6268,12.627,-7.0
2451,0.0,0.0,0.0,-4.0161,1.9839,-6.0
2452,0.0,0.0,0.0,-5.8711,1.1289,-7.0
2453,0.0,0.0,0.0,-0.99889,0.001115,-1.0
2454,0.0,0.0,0.0,-2.2168,3.7832,-6.0
2455,0.0,0.0,0.0,-1.5,0.0,-1.5
2456,0.0,0.0,0.0,-5.0,0.0,-5.0
2457,0.0,0.0,0.0,-4.828,0.17198,-5.0
2458,0.0,0.0,0.0,-1.654,4.346,-6.0
2459,0.0,0.0,0.0,3.9152,9.9152,-6.0
2460,0.0,0.0,0.0,-1.3128,5.6872,-7.0
2461,0.0,0.0,0.0,1.6354,5.6354,-4.0
2462,0.0,0.0,0.0,-5.4681,0.53191,-6.0
2463,0.0,0.0,0.0,-4.5167,1.4833,-6.0
2464,0.0,0.0,0.0,-5.1947,0.80531,-6.0
2465,0.0,0.0,0.0,10.849,17.849,-7.0
2466,0.0,0.0,0.0,5.0,0.0,5.0
2467,0.0,0.0,0.0,-4.9455,0.054487,-5.0
2468,0.0,0.0,0.0,2.5068,8.5068,-6.0
2469,0.0,0.0,0.0,-5.2395,0.76046,-6.0
2470,0.0,0.0,0.0,1.6787,7.6787,-6.0
2471,0.0,0.0,0.0,-6.3979,0.6021,-7.0
2472,0.0,0.0,0.0,20.459,26.459,-6.0
2473,0.0,0.0,0.0,-6.0379,0.96211,-7.0
2474,0.0,0.0,0.0,-1.9747,3.0253,-5.0
2475,0.0,0.0,0.0,-4.6209,2.3791,-7.0
2476,0.0,0.0,0.0,11.329,18.329,-7.0
2477,0.0,0.0,0.0,-4.035,1.965,-6.0
2478,0.0,0.0,0.0,-5.5857,1.4143,-7.0
2479,0.0,0.0,0.0,-2.0853,2.9147,-5.0
2480,0.0,0.0,0.0,-1.6964,4.3036,-6.0
2481,0.0,0.0,0.0,-2.1276,3.8724,-6.0
2482,0.0,0.0,0.0,-5.0,0.0,-5.0
2483,0.0,0.0,0.0,-3.914,0.086007,-4.0
2484,0.0,0.0,0.0,5.0625,0.062456,5.0
2485,33.643,35129.0,0.025478,-988.54,12.464,-1001.0
2486,0.0,0.0,0.0,-5.0745,1.9255,-7.0
2487,0.0,0.0,0.0,15.307,21.307,-6.0
2488,0.0,0.0,0.0,2.766,9.766,-7.0
2489,0.0,0.0,0.0,4.0059,0.0058627,4.0
2490,0.0,0.0,0.0,-1005.0,0.0,-1005.0
2491,0.0,0.0,0.0,8.0394,15.039,-7.0
2492,0.0,0.0,0.0,-5.3021,1.6979,-7.0
2493,0.0,0.0,0.0,-5.7811,1.2189,-7.0
2494,0.0,0.0,0.0,-6.3994,0.60062,-7.0
2495,0.0,0.0,0.0,-6.9942,0.0058315,-7.0
2496,33.545,23805.0,0.02981,-1007.7,0.34255,-1008.0
2497,0.0,0.0,0.0,-5.7418,0.25815,-6.0
2498,0.0,0.0,0.0,-3.165,2.835,-6.0
